data9	OTHER	{{{mm,px]],|}}}|,|{{{c,|}}},|{{{y,|}}}),{{{hs,|{{{o,_mph|,|{{{r,_ft|{,| {{{,px]]},	-1.0	-1.0	[data8]	262	
header85	NUMBER	|{{{y,|{{{n,|{{{m,|}}}|,|}}}{,|{{{r,|{{{c,	-1.0	-1.0	[header75, header74, header64, header8, header12, header18, header19, header16, header40, header49, header50, header58, header22, header23, header26, header31, header32, header38]	24	
datastyleb	OTHER	|{{{r,|}}}{,|{{{c,	-1.0	-1.0	[]	6	
datastylec	STRING	-1	-1.0	-1.0	[datastylea]	19	
label99	NUMBER	|}}},|{{{n,|{{{m,|}}}|,|{{{r,|{{{c,	-1.0	-1.0	[label94, label97, label98, label95, label96]	275	
name	OTHER	}}|[|,px|al,px}}],	-1.0	-1.0	[image]	13	
bodystyle	OTHER	c,px #d,.,em; l,	-1.0	-1.0	[abovestyle]	11	
header9	OTHER	|{{{y,|}}}|,	-1.0	-1.0	[header71]	31	
header3	STRING	-1	-1.0	-1.0	[header11]	3	
below	OTHER	natio,;info,|}}}|,|{{{r,|{{{c,	-1.0	-1.0	[]	7	
titlestyle	NUMBER	.,	-1.0	-1.0	[]	4	
titleclass	STRING	-1	-1.0	-1.0	[]	7	
bodyclass	STRING	-1	-1.0	-1.0	[]	7	
label9	STRING	|}}},|}}}|,	-1.0	-1.0	[label5]	43	
label8	OTHER	|}}},|{{{y,|}}}|,|{{{r,|{{{c,	-1.0	-1.0	[label73]	239	
class9	STRING	-1	-1.0	-1.0	[class3, class8]	10	
above	OTHER	-1	-1.0	-1.0	[]	6	
data99	NUMBER	|{{{g,|{{{n,px]],|{{{m,|}}}|,|}}}{,px|li,|{{{c,|}}},|sing,pictu,|}}}),|{{{r,|,_ft|{,| {{{,px}},	-1.0	-1.0	[data98]	765	
labelstyle	OTHER	fdb,	-1.0	-1.0	[]	8	
title	OTHER	-1	-1.0	-1.0	[]	7	
belowstyle	NUMBER	%,px #d,	-1.0	-1.0	[]	7	
multidatastyle	STRING	-1	-1.0	-1.0	[]	6	
caption2	OTHER	-1	-1.0	-1.0	[caption]	10	
headerstyle	NUMBER	}};,c,.,%; te,	-1.0	-1.0	[]	11	
image2	NUMBER	px}}],	-1.0	-1.0	[]	2	
subheader	OTHER	-1	-1.0	-1.0	[]	2	

