term_end2	NUMBER	march,janua,febru,novem,	-1.0	-1.0	[term_end]	4	
image	OTHER	.,	-1.0	-1.0	[]	3	
party	OTHER	-1	-1.0	-1.0	[]	3	
president2	OTHER	-1	-1.0	-1.0	[president]	4	
predecessor2	OTHER	-1	-1.0	-1.0	[predecessor]	5	
religion	OTHER	-1	-1.0	-1.0	[]	4	
death_place	OTHER	|,	-1.0	-1.0	[death_date, birth_place]	8	
nationality	OTHER	-1	-1.0	-1.0	[]	3	
term_start2	NUMBER	may,decem,july,	-1.0	-1.0	[term_start]	5	
spouse	OTHER	-1	-1.0	-1.0	[]	1	
name	STRING	-1	-1.0	-1.0	[]	4	
successor2	OTHER	-1	-1.0	-1.0	[successor]	4	
order2	NUMBER	rd [[,st [[,th [[,	-1.0	-1.0	[order]	5	

