position	OTHER	-1	-1.0	-1.0	[]	11	
chairman	OTHER	-1	-1.0	-1.0	[]	40	
party_logo	NUMBER	px|so,px|ch,px|]],px]],px| ],	-1.0	-1.0	[]	35	
seats6_title	OTHER	-1	-1.0	-1.0	[seats2_title, seats3_title, seats4_title, seats5_title]	6	
student_wing	STRING	-1	-1.0	-1.0	[]	1	
youth_wing	STRING	-1	-1.0	-1.0	[]	1	
leader	OTHER	-1	-1.0	-1.0	[]	2	
senateleader	OTHER	-1	-1.0	-1.0	[]	20	
ideology	OTHER	-1	-1.0	-1.0	[]	42	
foundation	OTHER	s,}},,,	-1.0	-1.0	[]	15	
socialpolicy	OTHER	-1	-1.0	-1.0	[]	2	
assemblyleader	OTHER	-1	-1.0	-1.0	[]	4	
houseleader	OTHER	-1	-1.0	-1.0	[]	17	
leader4_title	OTHER	-1	-1.0	-1.0	[leader2_title, leader3_title]	4	
website	OTHER	-1	-1.0	-1.0	[]	42	
leader5_title	STRING	-1	-1.0	-1.0	[]	1	
national	OTHER	-1	-1.0	-1.0	[]	41	
colors	OTHER	-1	-1.0	-1.0	[]	40	
international	STRING	-1	-1.0	-1.0	[]	8	
fiscalpolicy	OTHER	-1	-1.0	-1.0	[]	2	
party_name	STRING	-1	-1.0	-1.0	[]	42	
headquarters	OTHER	water,post,piñer,+n.+s,bosto,s. ha,west,	-1.0	-1.0	[]	40	
footnotes	OTHER	. mr.,	-1.0	-1.0	[]	13	
chair	STRING	-1	-1.0	-1.0	[]	1	
leader4_name	STRING	-1	-1.0	-1.0	[leader3_name]	4	
party_articletitle	STRING	-1	-1.0	-1.0	[]	42	
seats6	NUMBER	|,	-1.0	-1.0	[UHseats, seats5, seats4, seats3, seats2, seats1]	20	
leader5_name	OTHER	-1	-1.0	-1.0	[]	1	

