record_attendance	NUMBER	,,	-1.0	-1.0	[]	3	
surface	OTHER	– ),to pr,,,–pres,	-1.0	-1.0	[]	55	
seating_capacity	NUMBER	,,	500.0	500.0	[]	65	
for	OTHER	-1	-1.0	-1.0	[]	1	
broke_ground	OTHER	,,	-1.0	-1.0	[]	38	
location	OTHER	,carli,centr,voigt,neece,count,broad,texas,john,ontar,campa,north,unive,stadi,stott,cole,willa,th st,aiken,reed,evans,fort,saint,freed,west,energ,	-1.0	-1.0	[]	68	
scoreboard	STRING	-1	-1.0	-1.0	[]	1	
project_manager	OTHER	-1	-1.0	-1.0	[]	6	
tenant	NUMBER	to,	-1.0	-1.0	[]	1	
dimensions	NUMBER	,|ft|m,&nbsp,'   c,ft  c,feet,,,ft le,yards,ft.,cente,ft '',ft cf,ft. c,ft,ft ce,-  ri,, lcf,ft (,	-1.0	-1.0	[]	59	
closed	STRING	-1	-1.0	-1.0	[]	4	
built	NUMBER	-1	1874.0	1874.0	[]	1	
coordinates	NUMBER	|,.,	-1.0	-1.0	[]	14	
general_contractor	OTHER	-1	-1.0	-1.0	[]	11	
construction_cost	NUMBER	]] mi,milli,.,,,	-1.0	-1.0	[]	41	
general_contactor	STRING	-1	-1.0	-1.0	[]	1	
nickname	OTHER	-1	-1.0	-1.0	[]	18	
tenants	OTHER	–,s|ame,- pre,-futu,-pres,– pre,–pres,-,	-1.0	-1.0	[]	67	
renovated	OTHER	,,	-1.0	-1.0	[]	3	
engineer	STRING	-1	-1.0	-1.0	[]	6	
caption	DATE	-1	-1.0	-1.0	[]	2	
stadium_name	STRING	-1	-1.0	-1.0	[]	68	
logo_image	NUMBER	px]],	-1.0	-1.0	[]	1	
operator	OTHER	-1	-1.0	-1.0	[]	53	
former_names	OTHER	),-,	-1.0	-1.0	[]	24	
architect	OTHER	-1	-1.0	-1.0	[]	33	
names	NUMBER	px|jo,px|mu,px|le,.jpg|,stadi,px|]],px|ro,px|fi,px]],px|th,px|ce,-,	-1.0	-1.0	[name]	44	
demolished	STRING	-1	-1.0	-1.0	[]	5	
owner	OTHER	in ba,% [[u,|,,,	-1.0	-1.0	[opened]	120	

