long_minutes	OTHER	-1	-1.0	-1.0	[lat_minutes]	0	
status	OTHER	-1	-1.0	-1.0	[]	1	
location	NUMBER	w. ba,	-1.0	-1.0	[]	1	
locmapin	OTHER	-1	-1.0	-1.0	[]	0	
image	NUMBER	; pos,-,	-1.0	-1.0	[date]	2	
caption	STRING	-1	-1.0	-1.0	[]	1	
architecture	OTHER	-1	-1.0	-1.0	[architect]	0	
governing_body	OTHER	-1	-1.0	-1.0	[]	4	
archdiocese	OTHER	-1	-1.0	-1.0	[]	1	
long_direction	OTHER	-1	-1.0	-1.0	[lat_direction]	0	
country	OTHER	-1	-1.0	-1.0	[]	1	
founded	OTHER	-1	-1.0	-1.0	[]	0	
area	OTHER	-1	-1.0	-1.0	[]	0	
groundbreaking	NUMBER	-1	1881.0	1881.0	[]	1	
long_degrees	OTHER	-1	-1.0	-1.0	[lat_degrees]	0	
name	STRING	-1	-1.0	-1.0	[]	5	
long_seconds	OTHER	-1	-1.0	-1.0	[lat_seconds]	0	
denomination	OTHER	-1	-1.0	-1.0	[]	1	

