alliance	STRING	-1	-1.0	-1.0	[]	1	
president	STRING	-1	-1.0	-1.0	[President]	2	
company_logosize	NUMBER	px,	-1.0	-1.0	[]	1	
officies	NUMBER	-1	28.0	28.0	[]	1	
production	NUMBER	,,	-1.0	-1.0	[]	1	
brand_name	STRING	-1	-1.0	-1.0	[]	2	
colour	NUMBER	b,	-1.0	-1.0	[]	1	
passengers	OTHER	-1	-1.0	-1.0	[]	0	
current_ceo	STRING	-1	-1.0	-1.0	[]	1	
interest	OTHER	-1	-1.0	-1.0	[]	1	
year	OTHER	-1	-1.0	-1.0	[genre]	6	
owned_by	STRING	-1	-1.0	-1.0	[]	1	
net_profit	NUMBER	.,	-1.0	-1.0	[]	2	
Owned_by	OTHER	-1	-1.0	-1.0	[]	0	
parent	OTHER	–,) [[v,) [[t,%) [[,%) el,],-pres,:,% own,),%),[[,-,	-1.0	-1.0	[Parent, pages]	347	
image	NUMBER	}},px]],group,,,	-1.0	-1.0	[date, Image]	5	
homepage	OTHER	feet.,chef.,.html,bike.,.am/,.veri,websi,ststa,e.co.,stcho,golf.,/http,?ref=,www.z,.stan,blue.,homep,red.c,net.r,.com,at&t,.org/,games,&item,dream,onlin,sport,.com/,petro,.jsp],.,/,wire.,.grm.,.aspx,/www.,shoot,.hilt,.co.i,group,servi,www.b,d&bes,	-1.0	-1.0	[]	3042	
vector_logo	OTHER	-1	-1.0	-1.0	[]	0	
system	OTHER	-1	-1.0	-1.0	[]	1	
profit_before_tax	NUMBER	milli,	-1.0	-1.0	[]	1	
origins	STRING	-1	-1.0	-1.0	[]	2	
opening	STRING	-1	-1.0	-1.0	[]	1	
owners	STRING	-1	-1.0	-1.0	[founders]	9	
underlying_operating_income	NUMBER	milli,	-1.0	-1.0	[]	1	
accessdate	OTHER	-1	-1.0	-1.0	[]	0	
total_equity	NUMBER	milli,	-1.0	-1.0	[]	1	
operating_income	NUMBER	[[,(numb,&nbsp,milli,|,),.,,,m  (',	-1.0	-1.0	[]	112	
founding	NUMBER	-1	2005.0	2005.0	[]	1	
company_motto	OTHER	,px|sa,px|au,px|av,px|sc,px|se,px|sg,px|ap,px|sh,px|am,px|si,px|as,px|at,px|sl,px|ar,px|sp,px|bi,px|so,.svg|,px|st,px|ss,px|su,px|ba,logo.,px|sz,px|sy,px|be,px-lo,px|bc,_outl,px|ta,px|td,px|te,px|th,.,px|to,-,px|tm,px|ts,digit,px|af,px|tr,px|ag,px|al,px|tu,px|tt,px|ty,px|ab,px|ad,px|ac,.gif|,px|cv,px|cr,px|co,px|do,px|dn,px|'',px|di,-pres,px|de,px|dc,px|qu,px|db,px|da,px|re,px|rb,b,px|br,.gif],px|bu,px|rh,px|bo,px|ri,px|cl,px|ch,px|ro,px|cc,px|ce,px|ry,px|ca,x,px|oc,px|of,pix]],px|oa,d.png,)]],px.pn,px|ol,px|on,px bl,px|pe,s.png,px|pa,px|]],px''e,px|po,px|pl,px|pr,px|me,px|ma,px]],px|mc,.jpg,px|mu,px|a,px|mp,×,px|mi,.png],px|ni,px|ne,px|p&,px|nc,px|na,_gas_,px|ns,px|no,-logo,.png|,.jpg],eng.p,px|ji,newlo,px|jm,px|jl,blue-,px|ja,px|jc,(jpg),}}),games,.jpg|,px|io,px|in,px|il,px|ik,).jpg,px|id,shoot,px|hu,px|,px|lu,px|lp,px|ze,px|lo,gdpi.,px|li,j_sna,px|le,px|la,px|kr,px|kp,px|kn,px|m/,px|kl,px-,px|ki,px|kh,px|ke,px-al,px|ka,px|fe,a.jpg,px|fi,px|fl,px|fo,px|et,|amer,px|eu,px|we,px|wi,wire,c.png,dream,px|ef,-new.,px|en,px|du,px|va,px|hi,px|he,chef.,px|hs,px|j.,px|us,px|ho,px|un,px|ul,px|ha,px|hb,px| m,px|gi,px|wa,px|ge,px|gr,sport,px|go,px|gp,px|fu,px|fr,px|vi,group,px|ve,river,	-1.0	-1.0	[company_logo]	1843	
digital	STRING	-1	-1.0	-1.0	[]	1	
messages	STRING	-1	-1.0	-1.0	[]	1	
predecessor	OTHER	to,-,	-1.0	-1.0	[Predecessor]	47	
emea_HO	OTHER	-1	-1.0	-1.0	[]	1	
locations	OTHER	[[zur,,store,/a ol,).png,th fl,culfo,[[par,unive,px|so,, [[z,newma,[[ham,, [[d,f, no,&,st ge,bosce,leins,feder,[[san,+,(,wampe,shiel,),.,,,-,missi,helen,nima,gympi,scott,centr,boule,justi,queen,sprin,}},(as o,john,c hon,ocean,parag,–,(july,pilki,f,,innov,adeol,(nove,lexin,bathu,shang,park,porte,canad,sasa,,samor,côte,excel,avenu,mount,offic,branc,south,[[eas,|,(june,old p,+ (as,domes,[[thi,world,tvers,], [[,, yon,hadri,count,ne sa,overl,pra a,vibha,eight,fourt,grand,terna,a, bu,hunti,sewar,, sas,full-,f., n,lake,[[roc,maple,[[wat,bradf,[[bro,[[sev,[[uni,indep,[[bra,(at p,[[,marin,elysi,px]],state,[[van,north,px|us,(augu,coffe,outle,east,kaira,e ñ,woodw,with,/a el,armit,main,tower,, rue,a, [[,&sear,(may,hotel,cambi,rd. r,	-1.0	-1.0	[location, Location]	2798	
isbn	OTHER	-1	-1.0	-1.0	[]	0	
foundation	OTHER	,- [[w,- pur,([[al,(merg,(ssv&,, [[t,, [[u,[[tri,, [[y,, off,, [[f,(form,, [[h,as ha,by m.,under,, [[m,, [[o,(,, [[n,),) (as,/,, [[p,as a,, [[s,,,[[lah,-,, aus,[[wil,in mo,([[sp,- [[c,(in,, cha,([[st,[[tam,?,, [[b,, [[c,([[co,by [[,, ben,[[tac,(as ",([[po,([[ch,(spun,- to,in [[,([[ph,([[ce,may,([[ra,[[bom,([[br,as wo,) new,([[bo,(tele,(as ',([[bi,s,octob,([[qu,|,st ma,([[oa,by hi,after,as co,march,(in p,([[nu,july,,st,) as,([[pa,as da,[[rol,(prev,[[min,[[roc,([[or,(pred,, as,indep,, inc,th ju,[[bre,[[eme,incor,by w.,as th,, bag,]]),px]],decem,by fl,b-,([[lo,, pub,(defu,april,s),as so,[[oak,{{cit,augus,([[mo,as su,as te,as fm,([[mi,(asso,(inco,), as,by th,]],in th,s (te,by st,, cor,(guan,''',}}),by da,'s by,;   m,by ch,usa,,), ro,febru,by to,(firs,by br,(as r,(as s,(as t,}},(as p,merge,by ra,(as l,(as g,(as i,}}, [,st,,(as w,]] [[,[[ric,, ipo,by ar,janua,by sh,as pa,[http,(desc,(as e,(adol,(as a,([[ja,(as [,turke,th ce,(los,as nu,([[wu,- a s,; [[h,as na,[[tor,, in,) (sp,as [[,[[bir,july,(foun,[[mad,eagle,(rena,th,,; [[c,as ma,by pi,(part,[[hon,as '',, flo,june,texim,?  {{,[[cha,, [to,in vi,as li,([[tu,in fi,; sol,([[to,([[ue,)   f,(re-b,(spin,'''br,(rela,	-1.0	-1.0	[]	3000	
license	STRING	-1	-1.0	-1.0	[]	1	
group_name	STRING	-1	-1.0	-1.0	[]	1	
company_nickname	STRING	-1	-1.0	-1.0	[]	1	
markets	STRING	-1	-1.0	-1.0	[Markets]	2	
succesoer	STRING	-1	-1.0	-1.0	[]	1	
company_image	OTHER	-1	-1.0	-1.0	[]	0	
down	NUMBER	,,	-1.0	-1.0	[]	1	
successor	OTHER	o ret,|csg},-pres,-,	-1.0	-1.0	[]	40	
remit	STRING	-1	-1.0	-1.0	[]	1	
total_capital	NUMBER	milli,	-1.0	-1.0	[]	1	
years_active	OTHER	-1	-1.0	-1.0	[]	0	
capital	NUMBER	milli,.,,,	-1.0	-1.0	[]	3	
contacts	OTHER	-1	-1.0	-1.0	[]	1	
market_information	OTHER	-1	-1.0	-1.0	[]	0	
dissolved	OTHER	),	-1.0	-1.0	[]	7	
Quote	OTHER	-1	-1.0	-1.0	[]	1	
turnover	NUMBER	mio.,m (,.,	-1.0	-1.0	[Turnover]	3	
num_stores	NUMBER	-1	308.0	600.0	[]	2	
industry_sector	OTHER	-1	-1.0	-1.0	[]	1	
footnotes	OTHER	[[inc,	-1.0	-1.0	[foot_notes]	53	
url	STRING	-1	-1.0	-1.0	[syb, mail, intl]	74	
country	OTHER	-1	-1.0	-1.0	[]	14	
size	NUMBER	milli,.,venta,-,	9023.0	9023.0	[page, sales, Size]	5	
assets	NUMBER	+ bil,&nbsp,px]],m [[u,milli,.,b [[u,mbill,,,m  (',billi,/tsg-,mm+,) or,+ mil,	-1.0	-1.0	[Assets]	298	
email	OTHER	-1	-1.0	-1.0	[]	3	
awards	OTHER	-1	-1.0	-1.0	[]	1	
legal_status	STRING	-1	-1.0	-1.0	[]	1	
Founded	NUMBER	march,|,]],	-1.0	-1.0	[]	3	
Founder	STRING	-1	-1.0	-1.0	[]	1	
Corporate_stores	STRING	-1	-1.0	-1.0	[]	1	
result	OTHER	-1	-1.0	-1.0	[]	0	
membership	NUMBER	,,	-1.0	-1.0	[]	2	
number_employees	NUMBER	-1	50.0	50.0	[]	1	
coauthors	OTHER	-1	-1.0	-1.0	[]	0	
gross_profit	NUMBER	.,	-1.0	-1.0	[]	1	
name	STRING	with,) ''f,, rei,by [[,% in,, mer,),st ch,. com,-,	-1.0	-1.0	[fate]	145	
discipline	OTHER	-1	-1.0	-1.0	[]	2	
members	OTHER	-1	-1.0	-1.0	[]	0	
facilities	NUMBER	manuf,	-1.0	-1.0	[]	1	
Profession	OTHER	-1	-1.0	-1.0	[]	1	
shareholder	OTHER	-1	-1.0	-1.0	[]	0	
location_country	OTHER	-1	-1.0	-1.0	[]	378	
important_people	OTHER	-1	-1.0	-1.0	[]	1	
Defunct	NUMBER	-1	2011.0	2011.0	[]	1	
units	OTHER	-1	-1.0	-1.0	[]	0	
general	STRING	-1	-1.0	-1.0	[]	1	
headquarters	OTHER	-1	-1.0	-1.0	[headquarter]	12	
affiliated_companies	NUMBER	), ov,	-1.0	-1.0	[]	1	
mission	STRING	-1	-1.0	-1.0	[]	1	
color	STRING	-1	-1.0	-1.0	[Logo]	2	
service	STRING	-1	-1.0	-1.0	[served, Services]	5	
People	OTHER	-1	-1.0	-1.0	[]	1	
employees	OTHER	+,(,,,-,	-1.0	-1.0	[Employees]	26	
authorlink	OTHER	-1	-1.0	-1.0	[]	0	
divisions	OTHER	-1	-1.0	-1.0	[]	12	
defunct	OTHER	(repl,the c,septe,}},),|,(stor,,,	-1.0	-1.0	[]	88	
Company_type	STRING	-1	-1.0	-1.0	[Company_name]	5	
num_members	STRING	-1	-1.0	-1.0	[]	1	
people	STRING	-1	-1.0	-1.0	[]	3	
parent_company	STRING	-1	-1.0	-1.0	[]	2	
slogan	OTHER	px|au,, we,px]],px|lo,-,)]],px|]],}}; {,).gif,px| p,logo.,cropp,st ch,px}}},px) .,x,	-1.0	-1.0	[logo, Slogan]	235	
image_size	NUMBER	px,	-1.0	-1.0	[]	1	
netincome	NUMBER	[[,(numb,px]],]]),milli,(,),|,m,.,,,m  (',	0.0	-1.0	[income, net_income]	276	
Profits	NUMBER	.,	-1.0	-1.0	[]	1	
focus	OTHER	-1	-1.0	-1.0	[]	1	
vehicles	OTHER	-1	-1.0	-1.0	[]	0	
industry	OTHER	c]],	-1.0	-1.0	[Industry, industries]	2957	
worth	NUMBER	.,	-1.0	-1.0	[]	1	
branches	OTHER	(,	-1.0	-1.0	[]	4	
former_type	OTHER	-1	-1.0	-1.0	[]	1	
services	OTHER	'cent,	-1.0	-1.0	[]	56	
kiosks	OTHER	-1	-1.0	-1.0	[]	0	
director	OTHER	-1	-1.0	-1.0	[]	2	
Subsidiaries	OTHER	-1	-1.0	-1.0	[]	0	
operating	NUMBER	count,	-1.0	-1.0	[]	1	
abbreviated_name	STRING	-1	-1.0	-1.0	[]	1	
branch	NUMBER	-1	44.0	44.0	[]	1	
subscribers	NUMBER	,,	-1.0	-1.0	[]	1	
motto	OTHER	-1	-1.0	-1.0	[]	0	
mascot	OTHER	-1	-1.0	-1.0	[asset, last]	1	
company_type	OTHER	% & p,|ced},}},(c)(,telec,%; sh,lusur,|tis},&p_in,mirl,|s&p,}}),%a,|sobi,}}) [,&sele,&ba=,.ss s,}} {{,|tme},, otc,-en-b,}} (p,(c),[http,|nvn},%), t,),-,(c)]],}}, {,u,, ass,s,(c)|,|cle},=csa&,&dion,&isin,|ambu,|iw}},	-1.0	-1.0	[]	2836	
area_servered	OTHER	count,),	-1.0	-1.0	[area_served]	163	
publisher	OTHER	-1	-1.0	-1.0	[]	0	
company_founders	STRING	-1	-1.0	-1.0	[company_founder]	2	
title	STRING	-1	-1.0	-1.0	[]	1	
company_name_zh	OTHER	-1	-1.0	-1.0	[company_name_en]	3	
Spin_off_of	OTHER	-1	-1.0	-1.0	[]	1	
capacity	NUMBER	,,	-1.0	-1.0	[]	1	
closed	NUMBER	–,(sold,(merg,]],	-1.0	-1.0	[ceased]	4	
_of_locations	NUMBER	}},	-1.0	-1.0	[]	1	
products	OTHER	ar]],gpp l,dna a,]],]], [,a val,d-,]]s [,o ro,(k),,]] di,d-col,.com,aircr,- ent,nd un,g]],platf,g]],,hour,rdrai,up]],.,d dis,skinc,, zas,g.vir,+]],,g]] d,, axi,r-,	-1.0	-1.0	[product, Products]	2207	
trading	NUMBER	]],	-1.0	-1.0	[]	1	
company_awards	NUMBER	overa,	-1.0	-1.0	[]	1	
marketing	OTHER	-1	-1.0	-1.0	[]	0	
established	NUMBER	-1	1948.0	1948.0	[]	1	
caption	OTHER	-,	-1.0	-1.0	[]	14	
net_sales	NUMBER	.,	-1.0	-1.0	[]	1	
Head_Office	OTHER	-1	-1.0	-1.0	[]	1	
website_type	OTHER	-1	-1.0	-1.0	[]	1	
subsid	OTHER	cus,,% sta,vest.,.,	-1.0	-1.0	[]	53	
Address	OTHER	-1	-1.0	-1.0	[]	2	
brand	STRING	-1	-1.0	-1.0	[Board]	2	
Successor	NUMBER	-,	-1.0	-1.0	[]	1	
chairperson	OTHER	-1	-1.0	-1.0	[]	2	
directors	NUMBER	-1	31.0	31.0	[]	1	
stores	NUMBER	-1	61.0	61.0	[]	1	
telephone	NUMBER	-,	-1.0	-1.0	[]	1	
Person	STRING	-1	-1.0	-1.0	[]	1	
related_companies	OTHER	-1	-1.0	-1.0	[]	1	
based	OTHER	-1	-1.0	-1.0	[Name]	2	
shop	OTHER	-pres,	-1.0	-1.0	[doi]	5	
phone	NUMBER	,(,-,	-1.0	-1.0	[Phone]	5	
equity	NUMBER	) or,milli,.,,,m  (',	-1.0	-1.0	[ebit]	33	
locationcity	OTHER	olney,,park,[[bro,px]],west,	-1.0	-1.0	[location_city]	421	
investors	OTHER	-1	-1.0	-1.0	[]	1	
jurisdiction	OTHER	-1	-1.0	-1.0	[]	1	
type	OTHER	(c),	-1.0	-1.0	[]	98	
market_value	OTHER	-1	-1.0	-1.0	[]	0	
company_name	STRING	wire,,games,(e,), ne,chef.,annua,softw,bc (,feet,ontar,enter,digit,degre,real,red,shoot,blue,-bit,ltd.,, inc,inc.,.com,group,commu,	-1.0	-1.0	[]	3160	
region_served	STRING	-1	-1.0	-1.0	[]	1	
facebook	OTHER	-1	-1.0	-1.0	[]	1	
value	OTHER	-1	-1.0	-1.0	[]	0	
Capabilities	STRING	-1	-1.0	-1.0	[]	1	
work	OTHER	-1	-1.0	-1.0	[]	0	
key_groups	NUMBER	]] an,	-1.0	-1.0	[]	1	
num_volunteers	NUMBER	regul,	-1.0	-1.0	[]	2	
status	STRING	-1	-1.0	-1.0	[]	1	
formerly_called	STRING	-1	-1.0	-1.0	[]	1	
assets_under_management	OTHER	-1	-1.0	-1.0	[]	0	
company	OTHER	-1	-1.0	-1.0	[]	2	
Market	NUMBER	billi,	-1.0	-1.0	[]	1	
owner	OTHER	&ref=,other,%),enter,),.,]],, [[s,,,%, ge,-,–,%), [,%) [[,:,s, [[,	-1.0	-1.0	[founder]	374	
um_employees	NUMBER	(,emplo,,,	-1.0	-1.0	[num_employess]	3	
management	STRING	-1	-1.0	-1.0	[]	2	
other_offices	OTHER	-1	-1.0	-1.0	[]	2	
Company_Product_Labels	STRING	-1	-1.0	-1.0	[]	1	
total_assets	NUMBER	milli,	-1.0	-1.0	[]	1	
company_slogans	STRING	-1	-1.0	-1.0	[]	1	
partners	STRING	-1	-1.0	-1.0	[]	1	
offices	OTHER	-1	-1.0	-1.0	[]	1	
company_slogan	OTHER	",minut,.,/,d dis,-,strok,st.,life,)" (a,-pres,years,secon,st ce,	-1.0	-1.0	[]	548	
revenue	NUMBER	,[[,(numb,m (,-$,+ bil,}},&nbsp,]]),px]],m [[u,milli,px]]+,m  (',[[cro,bn '',mil (,% (,mln (,m (as,[[mil,(,m,),.,,,-,finan,mm (',billi,cr,mm '',m [[g,|c}},px]]€,thous,mio.,m [[f,+ mil,''' [,px]]$,% out,·,	0.0	-1.0	[Revenue]	804	
profit	OTHER	milli,.,	-1.0	-1.0	[]	7	
website	OTHER	-1	-1.0	-1.0	[Website]	12	
traded_as	OTHER	&id|x,}},mkbt,hshm,alua],bmlt,|aln,|s&p,compa,}} {{,|jobn,bsaz],|azm},}} [[,|brfs,c,%,]] co,|brml,|xl.b,axtel,&idio,ica*,&dion,|,|sol},&p_p_,	-1.0	-1.0	[]	157	
customers	NUMBER	,,	-1.0	-1.0	[]	1	
key_people	OTHER	}},), fo,, ceo,arthu,),/,st ba,,,-,}}, [,:seth,), vi,-pres,),,]] [[,; [[s,& cur,	-1.0	-1.0	[]	1946	
us_HO	OTHER	-1	-1.0	-1.0	[]	1	
market_cap	NUMBER	,,	-1.0	-1.0	[]	1	
address	NUMBER	, ist,	-1.0	-1.0	[]	1	
num_emplpyees	OTHER	,to,est.,(appr,('',(end,emplo,{{fac,+ (q,(q,(sept,full-,',+,(est),(,),.,in ul,,,-,(dece,+ ful,(excl,(dec,+ [ht,{{cn|,(janu,(marc,farme,(as o,lawye,(knip,perso,(augu,(july,(worl,+ in,(oct,(nove,(acco,at pe,+ (,[http,(aug,(aver,+}},offic,(full,(corp,as of,+/-,(june,+ (as,+ sta,world,attor,	-1.0	-1.0	[num_employees]	1246	
past_names	STRING	-1	-1.0	-1.0	[]	1	
first	OTHER	-1	-1.0	-1.0	[]	0	
fka	NUMBER	,[[mil,milli,(,.,,,-,	231.0	2004.0	[fax]	37	

