alliance	OTHER	-,	-1.0	-1.0	[]	4	
rajyasabha_leader	OTHER	-1	-1.0	-1.0	[]	1	
Chairman	STRING	-1	-1.0	-1.0	[]	1	
party_logo	NUMBER	px]],	-1.0	-1.0	[]	3	
Opposition	STRING	-1	-1.0	-1.0	[]	1	
rajyasabha_seats	NUMBER	-1	1.0	1.0	[]	1	
loksabha_leader	OTHER	-1	-1.0	-1.0	[]	1	
date	OTHER	-1	-1.0	-1.0	[]	0	
ideology	OTHER	-1	-1.0	-1.0	[]	8	
seats	NUMBER	-1	77.0	77.0	[]	1	
foundation	OTHER	,,	-1.0	-1.0	[]	11	
year	OTHER	-1	-1.0	-1.0	[leader]	12	
socialpolicy	OTHER	-1	-1.0	-1.0	[]	1	
symbol	NUMBER	px]],	-1.0	-1.0	[]	1	
eci	STRING	-1	-1.0	-1.0	[]	1	
website	OTHER	-1	-1.0	-1.0	[]	14	
loksabha_seats	NUMBER	-1	1.0	13.0	[]	4	
ppchairman	OTHER	-1	-1.0	-1.0	[chairman]	3	
fiscalpolicy	OTHER	-1	-1.0	-1.0	[]	1	
party_name	STRING	-1	-1.0	-1.0	[]	19	
headquarters	OTHER	, met,, sha,, jay,, sou,-,	-1.0	-1.0	[]	13	
footnotes	OTHER	-1	-1.0	-1.0	[]	0	
publication	OTHER	-1	-1.0	-1.0	[]	2	
secretary	STRING	-1	-1.0	-1.0	[Secretary]	2	
flag	NUMBER	px]],	-1.0	-1.0	[]	1	
source	OTHER	-1	-1.0	-1.0	[]	3	
President	OTHER	-1	-1.0	-1.0	[]	1	

