location	OTHER	-1	-1.0	-1.0	[]	7	
nine_dart	OTHER	-1	-1.0	-1.0	[]	1	
organisation	OTHER	-1	-1.0	-1.0	[]	7	
image	OTHER	-1	-1.0	-1.0	[]	0	
winner	OTHER	-1	-1.0	-1.0	[]	7	
format	OTHER	-1	-1.0	-1.0	[]	7	
venue	OTHER	-1	-1.0	-1.0	[]	7	
country	OTHER	-1	-1.0	-1.0	[]	7	
tournament_name	STRING	-1	-1.0	-1.0	[]	7	
dates	NUMBER	–,-,	-1.0	-1.0	[]	7	
high_checkout	NUMBER	{{fla,, rou,	-1.0	-1.0	[]	3	
winners_share	NUMBER	,,	-1.0	-1.0	[]	5	
prize_fund	NUMBER	,,	-1.0	-1.0	[]	7	

