students	NUMBER	-1	723.0	723.0	[]	1	
website	STRING	-1	-1.0	-1.0	[]	1	
image	NUMBER	px|]],	-1.0	-1.0	[]	1	
established	NUMBER	-1	1867.0	1867.0	[]	1	
type	OTHER	-1	-1.0	-1.0	[state]	2	
city	OTHER	-1	-1.0	-1.0	[]	1	
country	OTHER	-1	-1.0	-1.0	[]	1	
endowment	NUMBER	[[mil,	-1.0	-1.0	[]	1	
name	STRING	-1	-1.0	-1.0	[]	1	
tuition	NUMBER	,,	-1.0	-1.0	[]	1	
head	OTHER	-1	-1.0	-1.0	[]	1	
ranking	NUMBER	-1	18.0	18.0	[]	1	
faculty	NUMBER	(fall,	-1.0	-1.0	[]	1	
campus	OTHER	-1	-1.0	-1.0	[]	1	

