rank	NUMBER	(dec.,	-1.0	-1.0	[]	32	
Logo	OTHER	-1	-1.0	-1.0	[]	0	
Association	STRING	-1	-1.0	-1.0	[]	32	
membership	NUMBER	as bk,	1946.0	2007.0	[]	31	
website	OTHER	-,	-1.0	-1.0	[]	33	
name	OTHER	-1	-1.0	-1.0	[]	23	
apps	NUMBER	-1	1.0	8.0	[]	31	
code	STRING	-1	-1.0	-1.0	[Name]	64	
first	NUMBER	nd (e,n pla,th (w,th (e,th pl,times,rd pl,nd pl,rd (e,rd (w,,,nd (w,	1990.0	2010.0	[best]	62	

