successor	OTHER	-1	-1.0	-1.0	[]	1	
for	STRING	-1	-1.0	-1.0	[alt]	3	
birth_name	STRING	-1	-1.0	-1.0	[]	11	
profession	STRING	-1	-1.0	-1.0	[]	6	
party	OTHER	; sin,-,	-1.0	-1.0	[partner, parents]	14	
religion	OTHER	-1	-1.0	-1.0	[]	7	
known_for	OTHER	-1	-1.0	-1.0	[]	15	
death_place	OTHER	–,	-1.0	-1.0	[birth_place]	76	
family	OTHER	-1	-1.0	-1.0	[]	1	
spouse	OTHER	–,) mar,oct,) ele,) eli,),; d.,-,	-1.0	-1.0	[]	28	
image_width	OTHER	-1	-1.0	-1.0	[]	0	
salary	NUMBER	,,	-1.0	-1.0	[]	1	
other_names	OTHER	-1	-1.0	-1.0	[]	4	
signature	STRING	-1	-1.0	-1.0	[]	2	
death_date	NUMBER	april,}},|,,,	1160.0	1984.0	[birth_date]	80	
occupation	OTHER	-1	-1.0	-1.0	[]	41	
networth	OTHER	-1	-1.0	-1.0	[]	0	
job	OTHER	salea,	-1.0	-1.0	[]	2	
image	OTHER	(crop,.jpg,_tn.j,	-1.0	-1.0	[]	17	
footnotes	OTHER	/kt,asa d,	-1.0	-1.0	[]	8	
alma_mater	OTHER	[[bro,ph.d.,	-1.0	-1.0	[]	6	
box_width	NUMBER	em,	-1.0	-1.0	[]	10	
resting_place	OTHER	-1	-1.0	-1.0	[]	5	
restingplace	STRING	-1	-1.0	-1.0	[]	1	
death_cause	OTHER	-1	-1.0	-1.0	[]	5	
mother	OTHER	-1	-1.0	-1.0	[father]	2	
known	OTHER	salea,	-1.0	-1.0	[]	4	
relatives	NUMBER	),-,	-1.0	-1.0	[]	2	
weight	NUMBER	|lb|k,|in=,|cm|f,-,	-1.0	-1.0	[height]	11	
employer	OTHER	-1	-1.0	-1.0	[]	7	
children	OTHER	–,) dai,)  ri,) tho,(,-,	-1.0	-1.0	[]	28	
citizenship	OTHER	-1	-1.0	-1.0	[]	1	
education	OTHER	-1	-1.0	-1.0	[]	6	
othername	STRING	-1	-1.0	-1.0	[]	2	
burial	OTHER	-1	-1.0	-1.0	[]	0	
predecessor	OTHER	-1	-1.0	-1.0	[]	1	
title	OTHER	times,	-1.0	-1.0	[]	3	
restingplacecoordinates	OTHER	-1	-1.0	-1.0	[resting_place_coordinates]	0	
name	STRING	-1	-1.0	-1.0	[]	56	
website	OTHER	& aca,salea,	-1.0	-1.0	[]	10	
imagesize	NUMBER	px,	-1.0	-1.0	[image_size]	4	
caption	STRING	),	-1.0	-1.0	[]	6	
siblings	STRING	-1	-1.0	-1.0	[]	1	
boards	OTHER	) [[v,),new y,	-1.0	-1.0	[awards]	11	
nationality	OTHER	-1	-1.0	-1.0	[]	17	
residence	OTHER	[[par,	-1.0	-1.0	[]	22	
relations	STRING	-1	-1.0	-1.0	[]	2	
term	NUMBER	-,	-1.0	-1.0	[]	1	
yearsactive	NUMBER	s-,-,	-1.0	-1.0	[]	2	

