region	OTHER	-1	-1.0	-1.0	[]	1	
death_date	OTHER	-1	-1.0	-1.0	[]	0	
image_name	OTHER	-1	-1.0	-1.0	[]	0	
birth_date	NUMBER	[[hij,	-1.0	-1.0	[]	1	
Era	STRING	-1	-1.0	-1.0	[]	1	
color	NUMBER	c,	-1.0	-1.0	[]	1	
main_interests	STRING	-1	-1.0	-1.0	[]	1	
name	STRING	-1	-1.0	-1.0	[]	1	
school_tradition	OTHER	-1	-1.0	-1.0	[]	1	
image_caption	OTHER	-1	-1.0	-1.0	[]	0	

