ancestry	OTHER	-1	-1.0	-1.0	[]	5	
office6	OTHER	to,rd pr,th ch,th ge,st pr,th al,rd ge,),) del,/,th [[,nd pr,–,th &,nd [[,rd [[,th pr,st [[,st di,|firs,rd ma,rd di,	-1.0	-1.0	[office5]	341	
profession	OTHER	-1	-1.0	-1.0	[]	24	
party	OTHER	–,) [[p,),)|pro,.,)]],,–),,-,	-1.0	-1.0	[partner]	248	
preceded1	OTHER	-1	-1.0	-1.0	[preceded]	3	
succeeded1	OTHER	-1	-1.0	-1.0	[]	2	
religion	OTHER	-1	-1.0	-1.0	[]	81	
colour	STRING	-1	-1.0	-1.0	[]	1	
rank	OTHER	-1	-1.0	-1.0	[branch]	1	
spouse	OTHER	–,child,) div,magda,),,,-,	-1.0	-1.0	[]	110	
monarch1	OTHER	-1	-1.0	-1.0	[monarch]	14	
salary	OTHER	-1	-1.0	-1.0	[]	0	
signature	OTHER	-1	-1.0	-1.0	[]	12	
parliament1	OTHER	-1	-1.0	-1.0	[]	0	
parliament3	STRING	-1	-1.0	-1.0	[parliament2]	53	
restingplace	OTHER	-1	-1.0	-1.0	[resting_place]	2	
small	OTHER	,.png,-july,elect,c,.jpg,juli,tishc,-,bromw,).jpg,cipfg,david,gold,	-1.0	-1.0	[image]	103	
assembly	STRING	-1	-1.0	-1.0	[]	1	
allegiance	STRING	-1	-1.0	-1.0	[]	1	
term2	NUMBER	to,&ndas,decem,	-1.0	-1.0	[term]	3	
title	OTHER	-1	-1.0	-1.0	[]	1	
district	NUMBER	th,	-1.0	-1.0	[]	3	
state_senate	STRING	-1	-1.0	-1.0	[]	2	
constituency4	STRING	-1	-1.0	-1.0	[]	1	
smallimage	OTHER	-1	-1.0	-1.0	[]	0	
majority1	OTHER	,,	-1.0	-1.0	[majority]	8	
term_end7	NUMBER	april,septe,	1923.0	2007.0	[term_end6]	15	
majority3	NUMBER	,,	-1.0	-1.0	[majority2]	3	
term_end5	OTHER	to,janua,may,april,june,(subs,decem,,,-,march,oktob,augus,septe,octob,(excl,july,?,febru,novem,	-1.0	-1.0	[term_end3]	299	
caption	OTHER	portr,may,news,offic,|,),[[coa,.,,,	-1.0	-1.0	[]	45	
otherparty	OTHER	-1	-1.0	-1.0	[]	1	
alongside2	OTHER	-1	-1.0	-1.0	[alongside]	3	
term_start5	OTHER	may,janua,april,décem,june,terms,decem,]],,,-,march,augus,septe,octob,july,?,febru,novem,	-1.0	-1.0	[term_start3, term_start1, term_start2, term_start]	412	
residence	OTHER	, jal,-,	-1.0	-1.0	[president3]	100	
primeminister2	OTHER	-1	-1.0	-1.0	[primeminister1]	18	
term_start7	NUMBER	march,septe,octob,	1921.0	2004.0	[term_start6]	16	
1blankname4	STRING	-1	-1.0	-1.0	[]	1	
serviceyears	OTHER	-1	-1.0	-1.0	[]	0	
birth_name	STRING	-1	-1.0	-1.0	[]	3	
vicepresident	OTHER	-1	-1.0	-1.0	[]	1	
lieutenant_governor	OTHER	-1	-1.0	-1.0	[]	0	
death_place	OTHER	, ont,	-1.0	-1.0	[Birth_place, birth_place]	270	
height	NUMBER	ft,	-1.0	-1.0	[]	1	
grandchildren	NUMBER	grand,	-1.0	-1.0	[]	1	
death_date	NUMBER	th ma,may,april,june,}},decem,),,,|marc,march,augus,septe,octob,july,|,febru,th fe,novem,	1233.0	1997.0	[birth_date]	308	
governor4	OTHER	-1	-1.0	-1.0	[governor, governor3, governor2]	16	
occupation	OTHER	-1	-1.0	-1.0	[]	166	
firstminister	NUMBER	-,	-1.0	-1.0	[]	1	
state_delegate	STRING	-1	-1.0	-1.0	[]	1	
width	NUMBER	px,,,	-1.0	-1.0	[Death]	6	
1namedata4	OTHER	-1	-1.0	-1.0	[]	1	
alma_mater	OTHER	)  [[,	-1.0	-1.0	[alma_mate]	30	
footnotes	OTHER	-1	-1.0	-1.0	[]	141	
size	NUMBER	px,	-1.0	-1.0	[]	1	
predecessor6	OTHER	–,st vi,-,	-1.0	-1.0	[predecessor4, predecessor5]	284	
awards	OTHER	-1	-1.0	-1.0	[]	1	
constituency_AM2	STRING	-1	-1.0	-1.0	[]	1	
deputy3	OTHER	-1	-1.0	-1.0	[deputy]	1	
imagew	OTHER	-1	-1.0	-1.0	[]	0	
battles	STRING	-1	-1.0	-1.0	[]	1	
succeeded	STRING	-1	-1.0	-1.0	[]	1	
resting_place_coordinates	OTHER	-1	-1.0	-1.0	[]	0	
commands	OTHER	-1	-1.0	-1.0	[]	0	
children	OTHER	child,son,,''(se,daugh,	-1.0	-1.0	[]	69	
child	STRING	-1	-1.0	-1.0	[]	1	
name	STRING	nd ea,	-1.0	-1.0	[]	292	
appointed3	OTHER	-1	-1.0	-1.0	[appointed, appointed2]	3	
successor6	OTHER	–,th hi,rd hi,-,	-1.0	-1.0	[successor14, successor2, successor3, successor4, successor5]	222	
website	OTHER	/shig,/esal,senat,/ cit,	-1.0	-1.0	[]	73	
constituency_MP3	OTHER	nd an,th di,th wa,th se,(east,	-1.0	-1.0	[constituency_MP, constituency_MP2]	107	
imagesize	NUMBER	px,	-1.0	-1.0	[image_size]	34	
suffix	OTHER	-1	-1.0	-1.0	[prefix]	100	
unit	OTHER	-1	-1.0	-1.0	[]	0	
order7	STRING	-1	-1.0	-1.0	[order6, order5, order4]	7	
native_name_lang	STRING	-1	-1.0	-1.0	[]	2	
nationality	OTHER	-1	-1.0	-1.0	[]	24	
relations	STRING	-1	-1.0	-1.0	[]	7	
native_name	OTHER	-1	-1.0	-1.0	[]	10	
assembly3	OTHER	-1	-1.0	-1.0	[assembly2]	0	
group	OTHER	-1	-1.0	-1.0	[]	1	
order3	OTHER	nd]],st]],nd,th]],st [[,th mi,st na,st,rd,th,	-1.0	-1.0	[order1, order2]	50	

