office9	STRING	-1	-1.0	-1.0	[office8, office7]	3	
military_data5	OTHER	-1	-1.0	-1.0	[military_data4, military_data3, military_data2]	1	
demise_place	OTHER	-1	-1.0	-1.0	[]	0	
monarch3	OTHER	-1	-1.0	-1.0	[monarch2]	5	
spouse1	STRING	-1	-1.0	-1.0	[]	2	
profession	OTHER	-1	-1.0	-1.0	[]	50	
office6	OTHER	th [[,	-1.0	-1.0	[office5]	82	
spouse2	OTHER	}},june,-,	-1.0	-1.0	[spouse]	84	
preceded2	OTHER	-1	-1.0	-1.0	[]	1	
military_data1	STRING	-1	-1.0	-1.0	[]	1	
party	OTHER	) [[n,px|fl,), [[,, con,)  [[,-,	-1.0	-1.0	[partner, Party]	146	
succeeded2	OTHER	-1	-1.0	-1.0	[]	1	
religion	OTHER	-1	-1.0	-1.0	[Religion, relations]	60	
rank	OTHER	)|cap,	-1.0	-1.0	[branch]	10	
signature	STRING	-1	-1.0	-1.0	[]	11	
brothers	OTHER	-1	-1.0	-1.0	[]	0	
nickname	OTHER	-1	-1.0	-1.0	[]	0	
viceprimeminister	OTHER	-1	-1.0	-1.0	[]	1	
vicegovernor2	OTHER	-1	-1.0	-1.0	[]	1	
appointer2	NUMBER	rd ba,	-1.0	-1.0	[]	1	
small	OTHER	-1	-1.0	-1.0	[]	0	
military_blank5	OTHER	-1	-1.0	-1.0	[military_blank4, military_blank3, military_blank2]	0	
allegiance	OTHER	-1	-1.0	-1.0	[]	1	
military_blank1	STRING	-1	-1.0	-1.0	[]	1	
term_end2	NUMBER	,june,,janua,may,april,june,decem,,,march,augus,septe,octob,july,febru,novem,	1663.0	2006.0	[term_end]	259	
smallimage	OTHER	.jpg,	-1.0	-1.0	[]	3	
primeminister4	OTHER	-1	-1.0	-1.0	[primeminister3, primeminister2, primeminister]	3	
caption	OTHER	, c.,),.,th ce,	-1.0	-1.0	[]	16	
nominator2	OTHER	-1	-1.0	-1.0	[nominator]	3	
term_start6	OTHER	march,janua,april,june,octob,decem,july,febru,,,novem,	-1.0	-1.0	[term_start5]	51	
residence	OTHER	-1	-1.0	-1.0	[president2]	28	
term_end9	OTHER	,may,march,janua,augus,april,june,octob,decem,febru,,,novem,	-1.0	-1.0	[term_end7, term_end8]	47	
term_start9	NUMBER	janua,may,april,june,decem,,,march,augus,septe,octob,july,,july,febru,novem,	13.0	2003.0	[term_start2, term_start7, term_start8]	270	
ethnicity	OTHER	-1	-1.0	-1.0	[]	3	
serviceyears	NUMBER	–,-,	-1.0	-1.0	[]	6	
lieutenant2	OTHER	-1	-1.0	-1.0	[]	1	
death_place	OTHER	-1	-1.0	-1.0	[birth_place]	361	
dead	STRING	-1	-1.0	-1.0	[]	9	
appointer	OTHER	-1	-1.0	-1.0	[]	3	
alongside	OTHER	-1	-1.0	-1.0	[]	1	
death_date	NUMBER	(aged,janua,may,april,june,decem,,,(at,march,septe,octob,july,,july,|,novem,	1641.0	1993.0	[birth_date]	402	
occupation	OTHER	-1	-1.0	-1.0	[]	9	
governor2	NUMBER	–,	-1.0	-1.0	[]	1	
constituency	OTHER	-1	-1.0	-1.0	[]	4	
predecessor9	OTHER	) ''',),) [[g,)  [[,	-1.0	-1.0	[predecessor, predecessor2, predecessor1, predecessor4, predecessor3, predecessor6, predecessor5, predecessor8, predecessor7]	285	
alma_mater	OTHER	-1	-1.0	-1.0	[]	10	
footnotes	OTHER	-1	-1.0	-1.0	[]	3	
deputy1	OTHER	-,	-1.0	-1.0	[deputy]	4	
vicepresident1	STRING	-1	-1.0	-1.0	[]	1	
awards	OTHER	-1	-1.0	-1.0	[]	3	
vicepresident5	OTHER	–,) [[m,-,	-1.0	-1.0	[vicepresident2]	68	
vicepresident4	NUMBER	–,	-1.0	-1.0	[vicepresident3]	2	
birthname	STRING	-1	-1.0	-1.0	[birth_name]	8	
battles	OTHER	-1	-1.0	-1.0	[]	4	
commands	OTHER	-1	-1.0	-1.0	[]	2	
children	OTHER	-1	-1.0	-1.0	[]	3	
name	STRING	-r,,.png,(crop,e,).jpg,-.jpg,.jpg,%a,.jpeg,bild-,-,	-1.0	-1.0	[image]	381	
successor9	OTHER	–,) [[d,) [[n,),	-1.0	-1.0	[successor7, successor8]	290	
website	OTHER	-1	-1.0	-1.0	[]	1	
imgw	NUMBER	px,	-1.0	-1.0	[]	1	
premier2	OTHER	-1	-1.0	-1.0	[]	1	
title2	OTHER	-1	-1.0	-1.0	[title]	3	
imagesize	NUMBER	px,x,	200.0	200.0	[image_size]	24	
suffix	OTHER	-1	-1.0	-1.0	[prefix]	15	
unit	NUMBER	th ma,	-1.0	-1.0	[]	1	
nationality	OTHER	-1	-1.0	-1.0	[]	142	
order6	OTHER	th di,rd sp,rd pr,st]],px]],st pr,th]],th [[,rd,,,th,nd pr,nd [[,)|pre,th pr,rd [[,nd,st [[,st''',th go,	-1.0	-1.0	[order, order1, order4, order3, order2]	249	
term	NUMBER	,,	-1.0	-1.0	[]	1	
order5	STRING	-1	-1.0	-1.0	[]	1	
successor5	STRING	-1	-1.0	-1.0	[]	1	

