genre	OTHER	-1	-1.0	-1.0	[]	6	
status	OTHER	in co,	-1.0	-1.0	[]	7	
image	OTHER	-1	-1.0	-1.0	[]	3	
parent	OTHER	–,	-1.0	-1.0	[]	5	
divisions	OTHER	-1	-1.0	-1.0	[]	0	
distribution	OTHER	-1	-1.0	-1.0	[]	1	
url	OTHER	-1	-1.0	-1.0	[]	8	
headquarters	OTHER	[[ave,	-1.0	-1.0	[]	9	
country	OTHER	-1	-1.0	-1.0	[]	8	
topics	OTHER	-1	-1.0	-1.0	[]	1	
publications	OTHER	-1	-1.0	-1.0	[]	8	
company_name	STRING	-1	-1.0	-1.0	[]	8	
keypeople	OTHER	-1	-1.0	-1.0	[key_people]	3	
name	STRING	-1	-1.0	-1.0	[]	1	
imprints	OTHER	-1	-1.0	-1.0	[]	2	
founder	OTHER	in co,	-1.0	-1.0	[founded]	14	

