genre	OTHER	-1	-1.0	-1.0	[]	1	
logo	OTHER	-1	-1.0	-1.0	[]	0	
screenshot	OTHER	-1	-1.0	-1.0	[]	1	
developer	STRING	-1	-1.0	-1.0	[]	1	
name	STRING	-1	-1.0	-1.0	[]	1	
license	OTHER	-1	-1.0	-1.0	[]	1	
Slogan	STRING	-1	-1.0	-1.0	[]	1	
operating_system	OTHER	-1	-1.0	-1.0	[]	1	

