Place	OTHER	-1	-1.0	-1.0	[]	0	
TraElecCode	OTHER	-1	-1.0	-1.0	[]	0	
Operator	OTHER	-1	-1.0	-1.0	[]	0	
Code	OTHER	-1	-1.0	-1.0	[]	0	
Title	OTHER	-1	-1.0	-1.0	[EngTitle, Style, SubTitle, Line]	0	
TraStartLocal	OTHER	-1	-1.0	-1.0	[]	0	
Coordinates	OTHER	-1	-1.0	-1.0	[]	0	
TraLevel	OTHER	-1	-1.0	-1.0	[]	0	
RouteType	OTHER	-1	-1.0	-1.0	[]	0	
ImageSize	OTHER	-1	-1.0	-1.0	[ImageName]	0	
StartDate	OTHER	-1	-1.0	-1.0	[]	0	
ImageCaption	OTHER	-1	-1.0	-1.0	[]	0	
TraMile	OTHER	-1	-1.0	-1.0	[]	1	

