interval	OTHER	-1	-1.0	-1.0	[]	1	
winner	OTHER	-1	-1.0	-1.0	[]	1	
tag3	STRING	-1	-1.0	-1.0	[tag2]	4	
withdraw	OTHER	-1	-1.0	-1.0	[]	1	
entries	NUMBER	-1	13.0	13.0	[]	1	
year	NUMBER	-1	2012.0	2012.0	[ear]	2	
null	OTHER	-1	-1.0	-1.0	[col3]	1	
final	NUMBER	octob,	-1.0	-1.0	[]	1	
host	OTHER	-1	-1.0	-1.0	[]	1	
presenters	OTHER	-1	-1.0	-1.0	[]	1	
vote	NUMBER	.png,e,b,st: g,	-1.0	-1.0	[logo]	4	
theme	OTHER	-1	-1.0	-1.0	[]	1	
return	OTHER	-1	-1.0	-1.0	[]	0	
image	OTHER	-1	-1.0	-1.0	[]	0	
venue	OTHER	-1	-1.0	-1.0	[debut]	2	
director	OTHER	-1	-1.0	-1.0	[]	0	
exsupervisor	STRING	-1	-1.0	-1.0	[]	1	
opening	OTHER	-1	-1.0	-1.0	[]	0	

