home	OTHER	-1	-1.0	-1.0	[]	23	
home_image	NUMBER	afl b,px]],afl p,logo.,.png|,	-1.0	-1.0	[]	14	
network	OTHER	-1	-1.0	-1.0	[]	23	
prematch	OTHER	-1	-1.0	-1.0	[]	23	
umpire	OTHER	[[mat,), [[,[[ste,	-1.0	-1.0	[]	19	
anthem	OTHER	-1	-1.0	-1.0	[]	17	
coin_toss	OTHER	-1	-1.0	-1.0	[]	9	
away_abbr	STRING	-1	-1.0	-1.0	[]	23	
home_qtr4	NUMBER	.,	4.3	20.23	[home_qtr3, home_qtr2, home_qtr1]	92	
home_abbr	STRING	-1	-1.0	-1.0	[]	23	
year	NUMBER	septe,octob,|,	1990.0	2013.0	[next]	92	
announcers	OTHER	-1	-1.0	-1.0	[]	21	
norm_smith	OTHER	-1	-1.0	-1.0	[]	23	
jock_mchale	OTHER	)|mar,	-1.0	-1.0	[]	18	
away_qtr4	NUMBER	.,	1.2	13.11	[away_qtr3]	92	
home_score	NUMBER	.,	-1.0	-1.0	[]	23	
halftime	OTHER	-1	-1.0	-1.0	[]	1	
attendance	NUMBER	,,	-1.0	-1.0	[]	23	
away_score	NUMBER	.,	-1.0	-1.0	[]	23	
image	NUMBER	afl g,grand,aflgr,.png|,	-1.0	-1.0	[]	9	
postmatch	STRING	-1	-1.0	-1.0	[]	2	
kick_end	STRING	-1	-1.0	-1.0	[]	8	
away	OTHER	-1	-1.0	-1.0	[]	23	
stadium	OTHER	-1	-1.0	-1.0	[]	23	
away_image	NUMBER	afl b,px]],afl p,logo.,	-1.0	-1.0	[]	14	

