users	OTHER	-1	-1.0	-1.0	[user]	4	
articles	OTHER	-1	-1.0	-1.0	[]	3	
status	STRING	-1	-1.0	-1.0	[]	3	
designer	OTHER	-1	-1.0	-1.0	[]	2	
origin	OTHER	-1	-1.0	-1.0	[]	0	
into	OTHER	-1	-1.0	-1.0	[]	1	
retired	OTHER	-1	-1.0	-1.0	[]	0	
from	OTHER	-1	-1.0	-1.0	[]	1	
type	OTHER	-1	-1.0	-1.0	[]	5	
cost	OTHER	-1	-1.0	-1.0	[]	0	
produced	OTHER	-1	-1.0	-1.0	[]	0	
flight	OTHER	janua,	-1.0	-1.0	[]	2	
manufacturer	OTHER	-1	-1.0	-1.0	[]	4	
introduced	NUMBER	-1	1990.0	1990.0	[]	1	
built	NUMBER	-1	1.0	1.0	[]	3	
introduction	OTHER	-1	-1.0	-1.0	[]	0	

