Studios	OTHER	studi,]],	-1.0	-1.0	[Studio]	19	
Orchestrator	OTHER	-1	-1.0	-1.0	[]	2	
Longype	OTHER	″),(film,"),天,); [[,]]'',short,"]]),: son," / c,st pa,: cru,块环游世界,: sol,",無與倫比演,film),nd pa,面夏娃,季,個比利,"]],世界巡迴演,, dvd," vin,概念專輯,perfo,(tv s,秒,	-1.0	-1.0	[Longtupe, Longtye, Longtype]	1122	
singles	OTHER	the f,cinde,),,,	-1.0	-1.0	[Single, single, Singles, Singer]	31	
time	OTHER	halle,nd al,="[ht,}},cd re,.jpg,decem,px|u.,]],at mi,by mi,pllc,in [[,septe,karo,.ogg,_bg,secon,janua,, upc,&,| typ,relea,th,,(,.ny.u,.,/,,,{{ext,px,re-re,q,px]]c,:,down,qsxlq,, at,|,pix,	-1.0	-1.0	[image, side, Link, Img, code, Mixed, Mixer, Sides, Size, Type, runtime, date, Note, Mix, Style, Misc, Film, File]	131384	
Orchestra	STRING	-1	-1.0	-1.0	[]	1	
RIAA	OTHER	-1	-1.0	-1.0	[]	0	
producers	STRING	-1	-1.0	-1.0	[Producee, producer]	4	
video	NUMBER	d,px,kbps,:,) |]],×,),.,novem,x,	0.0	454.0	[demo, id, size, Video, Time, Audio, Width, order]	358	
Catnum	STRING	-1	-1.0	-1.0	[]	1	
chiken	NUMBER	-1	1997.0	1997.0	[]	1	
number	STRING	-1	-1.0	-1.0	[name, Members]	12	
Country	STRING	-1	-1.0	-1.0	[]	10	
Platforms	OTHER	]],	-1.0	-1.0	[]	3	
Performers	OTHER	-1	-1.0	-1.0	[]	2	
Laufzeit	NUMBER	:,	-1.0	-1.0	[]	1	
accessdate	NUMBER	-,	-1.0	-1.0	[]	8	
Miscellaneous	OTHER	-1	-1.0	-1.0	[]	8	
Concept	STRING	-1	-1.0	-1.0	[]	1	
Tracking	OTHER	-1	-1.0	-1.0	[]	0	
Prod	OTHER	(top,.jpg,-,	-1.0	-1.0	[No, Peak, Blog, Photo]	20	
Reception	NUMBER	|,	-1.0	-1.0	[]	2	
ASIN	NUMBER	jcq,k,	-1.0	-1.0	[]	2	
s	OTHER	balls,comed,great,monit,),years,.co.u,]]'',	-1.0	-1.0	[EP, by, anr, alt, at, TBA, ado, Url, art, URL, Cast]	193	
Links	OTHER	-1	-1.0	-1.0	[Lineup]	1	
Edition	NUMBER	june,	-1.0	-1.0	[]	1	
bass	STRING	,: sys,rd-lo,viole,memor,knock,(live,'s: t,",#,!,&,',%,+,(,),.,/,,,-,hits,...th,]] so,t'z g,:,?,evana,>,horns,day c,made,john,ang p,: dir," sin,times,corne,timer,guard,& fri,],: diw,ambie,luas,d,b,: hig,jazz,a,n,o,day w,day t,nen m,m,k,h,: dic,bisod,broke,: hip,i,v,unluc,u,ood s,of th,days,s,r,−,papil,p,guita,~,st si,z,dayz,x,: sup,&nbsp,basie,: sun,march,basic,année,(volu,rd -,divas,etern,: sto,: str,watch,(i se,lésio,commi,much,º,: sub,s & h,mysel,½,²,°,make,s & s,derrt,kilat,*merl,direc,horse,fanat,'s –,: dex,– the,naj,: des,: j'a,samur,: dev,: sta,: dem,×,chris,: dej,: her,: dee,½ yea,: dea,o'clo,(twin,b blu,(recr,memph,capit,&ndas,zápal,broth,tha h,"ers,tha f,tha c,a.m w,rock,jacks,tha b,rpm,chron,) aka,compo,: spe,rose,bästa,: dbz,s new,: ora,-stri,km/h,: sou,: dar,: dan,s): g,% no,: day,-way,: dav,compl,: son,ljuva,anive,: sol,beaut,life:,hell,toes,ro:,vivos,londo,offic,: sna,club,: ope,, pt.,- sam,myx,- cal,impak,gethe,every,eight,disc,: smo,(what,o oro,.com,hire,eye,trump,. yıl,: (,dita,: omi,: hou,: hon,- sci,: sla,aasta,-que!,super,: oka,below,drum,+ sel,for o,for t,fonky,- oct,damna,"s on,tears,of on,time!,bar r,chapt,nyc,drink,year,cuban,arash,under,% ver,kisse,eleme,on br,bar b,prese,borou,.. th,favor,cheap,: gyp,- sin,: tha,eva,- a n,: the,–,‒,life,mix),—,mixes,: thr,prett,da ba,•,_ the,: tig,: tim,be ho,ive,pacal,world,s (pa,rando,& up,. elp,rst,chamb,calif,mute,watts,eps,– pho,: gun,early,song,chans,.comm,: cru,('...,seven,: ori,giant,doors,- not,um  k,sessi,⅓,& ole,): th,zero,- spl,eaver,stock,- sou,-glor,pack:,mile,golde,) tri,pine,ep co,of a,again,teeth,stars,:a no,say,origi,years,: cro,/ pla,dance,littl,: har,: hat,femme,° off,: pai,words,: pan,: par,b-leg,mind,ep),: con,: pau,: pas,mini,: cot,/the,: cow,ixth,vs wu,: tai,años:,r.p.m,, yea,the f,the e,a.d.d,the c,x aga,- spr,the n,the l,the k,the j,tour,/ hit,dep s,〜,the h,the g,- sto,the w,soldi,the o,the r,: clu,the t,: clo,the s,, upp,iz st,° cen,h.m.,comeb,comed,dream,fulto,comes,or th,/ don,mars,suspe,cali,state,→,, unr,suara,chick,tv th,corps,-vind,inch,da ga,- sup,corri,fools,(six,: cla,wishe,: ele,rpm:,"),° poh,disco,th,&n,seaso,ores,film),: nev,: new,:  th,perce,- pit,tunna,vies,- swe,fille,s and,ocean,: enc,fillm,år me,s ant,sucka,: ima,'s my,d: or,stair,de ja,:  ve,canad,films,° n,a.m.,- pla,serie,: inf,: ind,: inc,highl,-bit,da ra,uk ac,visib,: egy,s alb,closi,m² un,"dear,circa,- fee,'',sale,hitów,hoods,pm me,perfo,/ping,walk,thing,ultim,de mi,la co,nite,today,non-s,sided,mil a,pm /,b sid,s vol,sides,die b,, do,'s re,: eig,: war,stand,% sku,sep,'s ro,oh!,: iso,nine,akoga,birds,cure,-gold,episo,stepe,, en,ton c,walke,stepz,heart,de co,steps,stepm,s mas,s, vo,in co,% col,novem,da yo,cute,fel!,: rom,zukko,c bil,st,,m – f,: roc,% sol,silve,: wor,blues,polar,' los,: nov,my ho,: non,-trac,'o,barry,'s,★ stu,succe,-c,-d,: ris,: rit,count,: rio,+ the,-e,/',-f,poten,outta,wings,:  fr,..,: inv,: int,: ins,.d,: nic,in he,seui,(silv,- the,'s li,& ali,), vo,-ty o,-x,tunes,big o,-',way,from,:the,bit h,real," mix,maior,: ear,(drea,års j,/sol,. dru,arts,° bel,: sex,in lo,recor,oz.,piece,: nut,: nuc,wayz,split,(i am,: hym,ways,face,gewin,(for,: sha,- blu,(ense,happy,, rou,os ak,: sho,in ja,. all,, vol,e.p.,d con,.v,lates,~ oto,gramm,revis,cadil,-dime,: sil,½?,+ one,: hus,faces,in ou,shune,album,~b'z,ozs o,a: ne,meses,dolla,' par,: dub,s… an,fun,rehea,: sce,of he,angel,? rem,revol,, lif,oz: r,pears,: scr,a.d.,px]],indee,(uk v,fifa,fri,m.p.h,lust,-sick,girls,rdbur,feet,marti,: sen,deadl,a  -t,unity,. dim,: set,: sep,winne,waste,th (t,for,:v,korak,in tr,in to,(dvd),in th,yola,megal,file,in ta,år ba,/cons,abeeb,st  b,kan,disko,: ibi,: wak,de se,winte,frigh,'em r,'s vs,(the,: aby,pm be,yo az,: abi,s ret,: sas,: ade,: add,conce,- ',- ),～cove,, lov,old s,s rec,new o,wm/no,frien,: aci,clark,/sad,boa d,churc,watt,caref,grani,/saki,anos,/san,adven,grand,he wr,jumpi,class,sooth,sense,-by t,>>,s mus,west,ever,odd f,ride,odd y,one,-poin,-årin,lor e,% kel,woodl,meat,entre,: doo,. apr,gallo,stitc,: dou,with,anni,to ∞,carat,parts,]] /,: val,hroni,nd li,live!,luftb,naugh,: el,video,s pun,- mix,: mag,...,nd la,fois,bar:,low l,shows,bis,: mas,: mar,: aft,s gol,k: br,vols.,: maj,sick,: afr,ix by,: fiv,: fix,: fir,ver,"mons,bats,: air,live.,hour,/ raz,till,live:,you'r,nd me,tage,seich,° fah,nd mi,… the,part.,bass,picks,base,(murd,: for,arpeg,: all,: joh,: alo,kiss,band,– mon,dynam,: ver,-hour,th wo,it wi,: mee,: qua,: meg,rebui,: mel,: jou,fores,:outt,: mex,volum,fast,off-b,nd of,racks,: and,nd se," pic,: anc,klass,songs,: ano,: zwa,meets,(a-to,(ultr,ballo,[twen,pay,messa,: ana,pac,& hum,music,: ame,|〜vi〜,… lif,: amb,ignit,s pop,: fly,: amo,duets,: alw,by el,hot!,great,tahla,: he,twent,: vir,elmir,;etat,nd to,tart,singl,: mia,'s ch,: vin,b.c.,"ain',:live,;s gr,: my,carro,smili,o: ju,final,off t,: no,: mix,nd st,: mil,: mik," (ja,- mar,jesus,nd ti,bar,febru,-tett,you o,vol.,: ara,proof,: fat,mothe,(elli,oz. t,oz. s,nd wa,st &,-test,: la,ten e,nd wi,am to,flavo,green,tales,cumbi,'s an,motio,nd ve,force,him,"s (,po vs,° eve,addic,shots,cycle,minut,fines,% gin,k: fu,grime,°: li,: asi,: ash,panic,lives,prose,: ava,) liv,: on,razlo,pac t,: jud,reloa,k: de,: fer,s gir,polis,% fun,|松浦亜弥,pac l,play,: feb,: aug,x kra,motel,(brea,años,night,: aus,step,: uni,: und,nice,: unf,neuro,eyes,my n.,: unp,k: so,: unr,exits,(shes,exito,krát,demon,apo t,demos,headb," of,° du,eye:,'n th,: mor,telev,: mot,s: ye,finge,½ spe,best,baby,gold,% les,% len,: rar,los a,back,dagar,(lp),explo,maste,reuni,% lea,quad,: rad,south,hype,sity,fivin,: mus,crass,remix,½: sp,good,: rey,my pa,cc li,: uru,rebel,½: th,days.,days,,hertz,nyan,k: ne,, six,sound,strai,: muj,volt,hull,am fr,éxito,micro,my ni,(clas,. geb,uživo,: rel,er fe,futur,: rep,: ret,: res,you,: rev,unit,-oqa+,- han,my me,: reb,cd),wit d,estac,anti-,k is,estab,- and,: bac,, sma,and b,:man,and d,: bat,: bas,: bar,lette,:caug,: bap,: ban,hours,satin,garde,and m,scrap,candl,summe,my so,up!,canci,cents,way t,way s,vulga,cento,-teas,and ',: jam,: ent,just,ball,post,guy,° of,er ar,"brot,'til,q man,soulf,- ele,k ep,s und,(five,-dome,: "an,/smoo,duals,chord,|〜v〜},strik,sins,strin,: bel,tram,–',kai w,: eve,: an,, a n,% syn,(feed,- liv,upper,numbe,!sash,, son,inolv,sept,by mo,hurts,- him,openi,eyes:,unfor,inche,k: th,detro,river,x hor,stori,-star,: bla,(orig,; vol,story,car g,, sta,, jul,rd mi,-one,deep,rd ma,cc an,: plu,höhep,(eye),: éta,miles,sleep,to th,(love,imagi,-face,. jul,cd an,% hel,– sec,?! ep,'n da,all-t,ualit,plast,nude,berry,: poe,: pol,: pop,: pos,may,beat,out o,: big,out d,til i,g+,ep,dog n,en,ur -,notes,taipe,ago,: yok,b ali,stone,plays,: goo,bt,- qua,% alb,reiss,bb,: bor,b s.p,: bon,: bol,on to,speci,: boi,: lab,& ove,: bog,on th,and,kix o,: bob,f·t·o,: bp∞,: lat,- der,y.o.,phasi,: kon,: koo,rd ro,cc,lb. m,cd,rd or,- ven,d in,jikke,s lun,: gre,passe,speed,ahead,at,reaso,danse,ai,color,glori,am,ad,: pro,milla,th fl,milli,nw,of,: per,fanta,villa,kiddi,vezes,feast,on,limit,th ep,th: a,th em,ov,: let,th el,) lp,or,th ex,curfe,degre,trans,gems,: lea,rd wa,th: l,wenty,month,pm,th: r,/uisc,: yes,th di,: get,rd st,th do,crew,lw,most,th dr,: bre,-ji n,th da,me,th de,(go r,acres,s hit,mm,th ch,ifth,dvd,or dr,rd ti,spiri,dub b,citie,na,plane,/chan,nc,nd,& par,ne,x cd,traps,colla,th ce,: ghe,homem,th bl,th bi,love,kg,more,ans d,taiwa,% liv,moro,: (th,th av,lover,live,warne,% hit,) hd,thoug,th an,th al,th ai,: liv,km,º and,s suc,jaar,le,d - d,: lim,|僕の見て,: lif,rd wi,lost,|ラブ・ア,rd wo,go ho,monte,bigge,yin,japan,santa,år,ie,less,: bue,ii,in,blue,featu,jailb,th ma,th me,g ep,, peo,xs,xt,/ moo,venge,x my,årsti,place,: a c,& plu,: a b,going,./ ',wo,th no,: ton,grace,reads,: tor,gli d,floor,{{!}},(bann,st of,shade,: so,rd: l,th n,- ep,hari,ocloc," str,: lov,sinne,% ugg,killa,-song,: we,: los,st li,easy,ve,grade,s lad,% pub,th le,park,, the,hire:,&time,weeks,gun b,st mi,tv,: up,: i h,to,nd an,nd al,st im,: i l,st in,hit w,th ik,nd av,round,nd as,: tri,: i c,th,rd as,... m,dark,-skin,st,... h,: i s,th is,versa,-cd s,st ju,versi,rd al,kids,rd an,– fir,rz,overt,: can,pie i,natsu,nd w,st ki,- il,st go,& len,th ge,jahre,decem,haruh,re,rd,hrs,s:,% mex,top,cent,all t,: a t,: a s,: a n,monke,: a j,at th,track,... t,... s,... w,inter,th &,intep,diagr,th ho,: a v,nd ed,infin,rd ey,shaki,mondi,st ep,st en,& god,rd fr,''',dge,rd fl,armed,nd en,: fre,plus,st ga,: pun,piano,: fri,th wa," col,- mon,: fro,th wi,st fo,econd,: two,″s,st fl,runne,rd de,s liv,th sy,nd ce,nd ch,somet,: kev,st co,th si,st cl,th su,th st,st ch,nd co,st ce,th so,nd de,to li,gangs,behin,mix,point,th to,th ti,% man,d ep,essen,ten,plugs,st as,hate,- vog,foot,: fur,: fut,fists,nd im," clu,nd ig,alive,shot,nd ii,(proc,to pi,diamo,bel a,at q.,st al,o.d,secon,st an,shoes,seksi,o-z,th sc,th,,th se,th-,: cin,nd jo,st be,st bi,arcad,at ne,st bo,- vol,/gmp,-year,n.a.m,th pa,- dow,other,: kin,a sou,ème t,s: a,th ot,girl,fresh,at mo,ships,th of,th oc,- doc,d fam,to pr,repor,fold,: chi,hedge,th pl,- inv,th po,gauge,lady,: cha,th pe,	-1.0	-1.0	[As, as, Class, Bass, Name]	110741	
p	NUMBER	:tbdx,:rtf,:f,:apfe,:g,:h,:,:fbdk,:bq,:ruax,:dift,rpm]],	27.0	8.08831107024E11	[m]	22	
Masterer	STRING	-1	-1.0	-1.0	[]	1	
years_active	NUMBER	}}–,	-1.0	-1.0	[]	1	
personnel	OTHER	-1	-1.0	-1.0	[Personnel]	2	
Source	OTHER	-1	-1.0	-1.0	[Sound]	4	
sex	STRING	,".,album,by," to,in th,cover,– liv,ep, ',secon,minut,unrel,class,),.,s dre,,,and," on,vtnj,:,small,-ty o,ml bo,-year,songs,.jpg,block,. the,-d'',–,re-is,outli,: dav,s. th," rec,a.i.",th st," wit," and,s - a,b,greek,front,photo,'s—mi,great,px," is,new o," in,divis,	-1.0	-1.0	[7, At, ID, Alt, Text]	827	
landscape	STRING	-1	-1.0	-1.0	[Landscape]	5	
Mixing	STRING	-1	-1.0	-1.0	[Editing]	10	
Produser	NUMBER	),	-1.0	-1.0	[]	1	
released	OTHER	,px|au,(tape,(orig,nd ma,[[blu,uk:fe,h,,([[ro,, jun,([[ru,s [[l,(adva,rd ma,|sept,(irel,sempt,&,([[ta,& apr,(,),.,(euro,/,,,-,([[sl,([[u.,germa,: mar,rd no,|mm|},([[sp,(reis,[[usa,([[so,feb,: may,([[sr,([[st,;,(excl,:,(stri,?,([[sw,/ re-,(down,uk  o,, aug,(pccd,(braz,px|co,- vin,([[po,(mani,(nz/a,times,in [[,(unit,([[ph,],nd no,mar,([[pu,([[pr,[,may,(''jo,[[fra,([[re,s,|,, fra,argo,(all,(finl,&nbsp,(poss,(cd/d,(u.s.,(can),|augu,march,([[no,(icel,/ oct,reiss,(volu,july,,(nort,oct.,july-,jan,(onli,(norw,& jun,([[pg,/reis,; re-,[[vhs,and,,  cd,([[op,[uk],oct,|df=y,(canc,(cana,±,[[sou,cd,, swe,]],,(marc,([[ma,(cd,v,, cd,,   a,|}},{{fla,([[lp,rd oc,rd,,(cham,(ulti,,   n,, apr,,   s,": no,([[ne,: dec,april,(us),,(undy,([[na,nd,,|marc,augus,(capi,(méxi,sep,(viny,[[com,(reco,}} on,([[me,(offi,[[emi,|octo,&ndas,- ger,promo,(uk),,(re-r,us re,of ju,(limi,}},,spept,px|ja,(uk);,(head,, {{s,th fe,(?),{{esp,(inte,, {{u,px|it,- re-,or,px|ir,(rere,(lati,''' (,± cd,#nove,febru,in co,th, [,([[la,novem,(b),(isra,(on s,([[ho,cwk,compi,st.,st,,in br,(nz),,; sep,}} {{,(on [,th de,.nove,expan,janua,([[ic,, may,[http,([[in,; rea,-octo,on [[,th]],,; rem,([[it,nd,(cass,([[ir,; rei,([[ja,(june,, mar,(nz),]], [,(eu),(sing,/ jap,– haw,(vide,rerel,]], s,th au,([[fr,, sar,warne,|}} (,|(unr,th ap,th an,(us),[[new,([[ge,{{sta,(fran,(itun,as mc,([[gr,(part,, nov,may [,(gree,(rema,([[de,for [,re-is,|..|.,: jul,(demo,([[eg,; pat,in,(cd,(re-i,feb (,'''vi,([[eu,|mf=y,([[ep,([[en,([[em,(spec,, feb,th ma,([[ar,([[at,([[au,cd re,/june,, [[t,_in_m,, [[u,, (re,may,,(comp,june,,(aust,(ooo,, [[j,(shel,st no,|nov},as a,, [[p,|apri,(uk a,th no,(swed,(colu,]]''',(tbd),re-re,st oc,/july,(rare,(japa,(cc),[[jap,in me,, [[c,(box),|nove,, r.,on cd,(for,([[co,, oct,(cd:,–,([[ch,'''({,([[cd,(init,([[ce,-pres,(worl,in ja,franc,(cd),([[ca,& [[u,(cd i,uk,([[br,jul,jun,us,-[[,(amer,(cd r,(lp),(as ',(cd v,([[be,{{end,. dec,octob,; dvd,south,box t,st ma,onwar,(in [,": ap,(lp o,(spai,, alt,album,nd au,(ep),nd ap,th,}} (c,rd au,, jan,}} (f,- u.k,|july,}} ([,(in c,, tht,(digi,/ uni,.june,st,-earl,or ma,, ini,(self,(ltd.,. nov,, pho,]] (m,versi,st ju,tbc (,th ja,(in u,rd ap,(stan,(boot,; apr,''uni,th ju,{{sma,or la,|june,(janu,in mu,may|,(uk:,(ital,(engl,px]],decem,(us a,(hand,rd,/nove,(uk r,(uk),; feb,(uk o,|janu,(uk,,vinyl,- rem,(us l,(aus,,at tr,, wit,; jul,(aus),}} (s,}} (o,{{nld,, eng,cd:,[[pee,{{cit,(de),,{{bel,: sep,[[tv,- nov,in tw,st fe,(phil,[[uk],, rei,/re-r,us: j,|| }},(dvd),(thro,]],dvd:,, rer,. sep,in th,, cop,''',and d,aug,,nd fe,and r,jpn /,), '',(ez l,in uk,||}},, us,({{us,(decc,(dece,nov,origi,dvd,,(firs,(#sog,rd de,}},(ger),(sund,[[dom,(vhs,,(vhs),dec,(un c,(tht,. [[c,(see,(new,apr,[[u.s,(tour,(vol.,(prom,in u.,new y,-nove,on lp,/ re,, u.k,(unre,(mexi,(reac,|df=,(u.k.,}}  [,,  [[,to ov,jun,,}} de,: {{s,as [[,rd ju,sep.,july,(unof,[[bih,remas,secon,(lp),,uk /,uk ,,th,,th se,jap:,(lp);,'''re,, [[,}}  (,|may|,/nov,& nov,[[uni,([[we,(lp)/,(de-,[[,june,([[un,px|us,([[us,, re-,; nov,(augu,, unr,([[vi,([[vh,numbe,px|un,(be),cd-r,septe,px|uk,(usa),sept,in vi,([[ve,th of,th oc,. apr,([[tu,with,– mar,(pola,natio,& mar,|||df,{{whe,[[lon,– may,(neth,(indo,- und,(ghos,(toné,]]  &,([[uk,[[mov,(inde,aug,]]  (,(scam,first,(scan,(germ,	-1.0	-1.0	[Rereleased]	109824	
author	STRING	-1	-1.0	-1.0	[]	9	
artist	OTHER	]] &,)|cla,viole,xdead,knots,(band,skido,_the_,event,year,ta li,(guit,s ban,',(,),demon,miles,.,)|ken,/,,,-,]] co,-ply],|the,:,st of,zla]],face,|kara,nude,l]],s jap,: the,c (gr,cal.],finge,gig]],o (am,stops,aka [,guns,leave,)|the,times,side,],(musi,volt],(rapp,•,moro],a,mute],]] an,_(ban,ers]],ft. j,s,days,(rap,pac]],-bit,ric]],south,world,ds|,-pist,&nbsp,guy]],am]],stone,)]],lw]],him]],|yuko,saab],-skin,divas,hero],ths]],rd ba,hertz,fruit,th wo,mm (b,xl]],speci,rd al,mafia,]] (s,grave,rd an,of he,mm pa,angel,'ange,cast,proje,;kel&,off-b,melan,techn,pect],siste,horse,days],rd pa,p.m.],micro,-one],dayso,s gro,]]/[[,pm]],rods],lg@]],s pop,|''hi,na]],colou,unit,/ sex,wo]],brown,icons,may]],oh!,giant,boyz],ª est,doors,-spee,glocc,l & e,th fl,m (ba,]],crew],|aust,& god,mile,rd fo,)|sli,)]] t,fem]],final,plus,walke,nd so,-hero,th wa,degre,/ luc,shoot,th dy,dw|,cent],years,runne,pisto,th di,cents,rd st,}},nd ch,band%,cubs,am cl,band),th st,}}, a,|silv,'s]],]] [[,st ce,u]]," roy,ball,s (ba,(kova,|hurr,/char,|plag,nc,dope],chain,ne,th ce,the h,t]],(grou,foot,(dani,gethe,s]],lockd,shot,um]],nd ii,]], [,fac]],uu's],]], h,secon,live,shoes,cycle,minut,+ yak,famil,strin,non b,cliqu,)|sha,]] wi,trap,o (sc,|aice,club],& tab,k]],cc]],th pa,eyes],other,-tay],bit p,cal]],state,k]] a,-keys,;&#,ds]],crazy,below,unlim,good],with,]] fe,inche,real],deep],ne]],x kra,th pr,th pl,'nizz,bears,featu,gauge,skinn,posse,|tomm,	-1.0	-1.0	[Artis, Artist, Artists]	110346	
music	OTHER	-1	-1.0	-1.0	[Music]	12	
reviewid	OTHER	link],|,.,	-1.0	-1.0	[Reviews]	704	
compilation	NUMBER	),	-1.0	-1.0	[]	1	
photo	OTHER	-1	-1.0	-1.0	[]	4	
Recording	NUMBER	/,]],and,	-1.0	-1.0	[]	3	
Keyboards	STRING	-1	-1.0	-1.0	[]	1	
NoReviews	STRING	-1	-1.0	-1.0	[]	1	
Production	OTHER	-cd,	-1.0	-1.0	[Producter]	5	
Leaked	NUMBER	,,	-1.0	-1.0	[]	3	
valign	OTHER	-1	-1.0	-1.0	[]	1	
Collaborators	STRING	-1	-1.0	-1.0	[Collaborated]	3	
Catalogue	OTHER	(re-r,, cd,(stan,,,	-1.0	-1.0	[]	9	
Influences	NUMBER	]], [,	-1.0	-1.0	[]	1	
Certifications	OTHER	x [[p,x gol,plati,× pla,july,x pla,x mul,&time,,,	-1.0	-1.0	[Certification]	57	
AnzahlTitel	OTHER	regul,	-1.0	-1.0	[]	2	
image_size	OTHER	px,x,px}},	-1.0	-1.0	[Img_size]	16	
border	STRING	,lhas.,- wha,_nowt,ogoco,eveny,.kran,(blac,tops-,bonni,- ohm,cvpwt,mania,_tosh,imper,ta li,rd_ma,-then,&,',%,-theg,+,keine,(,.,,,toppo,-,o jus,lusts,=,pies.,horns,- glo,- i.o,_part,day c,box.j,fgp_h,manfr,_ksco,_topy,_doub,corne,times,guard,_geog,ever.,_,- wit,f,g,d,e,que!!,b,e_wtk,c,-the-,a,n,day w,o,l,m,-skyw,j,_teny,k,h,i,bisod,-ftf.,v,unluc,u,t,days,s,portu,groov,r,q,p,~,guita,_remi,debut,_reme,x,-scor,ndcha,&nbsp,mecol,basie,_tool,afron,-esd-,'s_-_,stfor,basic,pield,esrt,etern,_best,mafia,- gil,much,kaput,-that,'s_.j,°,anime,-turb,derrt,_tomo,ggneb,.jpg,morer,– the,mores,samur,horro,a bra,ya ya,chris,_reis,-tusi,-inst,u alb,b blu,_get_,hello,re.jp,dqwb.,_toky,hrs.g,_geti,stnol,royal,(recr,k - p,-minu,k - n,samtl,broth,tha h,tha f,tha c,freak,ghett,rock,jacks,longh,nfliq,k dee,xs (n,_long,-indi,tha b,krát.,basta,_cana,lifew,zolof,bästa,_year,- geo,enviv,scene,_fahr,-stri,- gel,s (co,rd_st,_sjof,- war,rpmal,_doli,ljuva,thlpc,-bong,anive,-hurr,sxdcv,s-sat,life.,hell,toes,_call,l dow,offic,-alfi,(twen,_utso,_reel,_reg.,bass.,rjonc,impak,- gas,gethe,m-bal,th_bi,eight,_esta,(four,_patt,.com,ndset,trump,hero,_carn,offco,here,th_al,th_c.,- gal,ish.j,_car_,b - y,aasta,chess,-albu,for d,rd_or,super,- oca,- oce,thusa,_cant,drum,fth.j,for o,for t,rd_pa,decca,brook,damna,_artw,tears,_ekso,_door,_toto,time!,_dpi.,_sitd,arena,drink,_fina,o clo,dawn.,-phil,spani,under,eleme,callt,pinea,andol,prese,uabrs,favor,lw.jp,nz.jp,cheap,_cryi,toget,press,whate,zdrav,us.jp,- a c,th-al,- a n,th_ce,- a p,perso,)_-_b,–,h alb,life,_to_p,kpand,-u.jp,cc.jp,thgea,hot l,+unli,beyon,,_sta,- nud,world,footc,_(cro,oya l,thund,mute,no do,-wait,spare,-ston,d web,)time,rabbi,bonap,early,ratch,song,no co,frthu,p.jpg,gjyjj,bgxq,noplt,cdonl,(afte,seven,dosgr,giant,ª est,os.jp,- now,- not,birth,- gui,stock,solo,dand-,th_mi,kerfu,ep co,yeark,_(spi,-vruc,orige,till.,origi,uy.jp,years,- non,yearo,_yest,-visi,anddi,words,_movi,_eddi,_pref,ve_kn,-scre,-phot,year.,tour,hducn,hype.,elton,-phoe,-gdje,batal,_mote,gør d,_moti,° cen,s) gr,dcove,.gebo,poste,mediu,_eter,- gra,- gre,..jpg,%_alb,dag f,cal.,rd_al,rd_an,_belo,pix.g,_gfnz,_bell,pix.j,virus,wmr.j,th_ot,_more,unlim,- goo,corps,s_rui,fools,-necr,da.jp,up.jp,-atr-,mcgra,-stig,a cou,a cov,rdflo,lasve,visio,searc,_mome,- pic,(buck,gbaco,- fiv,a_fro,-_big,black,- pje,seaso,_proj,de la,- fis,-cong,death,perce,_-gol,supb,stmin,digit,tunna,&frie,rd.jp,way.j,m-chr,- pin,ocean,_mons,th-st,cd).j,re_ne,butt.,- fla,m.jpg,mwrig,canad,- ple,-colo,dearl,n alb,- pla,ll.jp,tklcu,to_pi,perfe,ep al,-jung,%a,%b,(toki,_left,- feb,ifwhy,_ep,tilin,perfo,him -,-smal,sealc,hatzi,-ostr,ultim,nite,renac,- pol,sfg,-sve-,ep_co,mil a,,jpg.,_sm.j,(hyde,dge.j,thwal,-a-gd,- pow,- pos,ndton,gesou,_cd.j,re_si,sstic,--alb,s_yel,_mode,(uk).,score,akoga,_or_d,-way_,winda,-digi,_musi,stepe,_cd.p,-ost.,-ost-,-by-n,stepz,-with,- par,klp%,- pas,de co,-ppc.,steps,stepm,-cove,-ride,ndjap,s mas,in_we,- fam,lpb.j,- pau,in co,dvd.j,gmp t,a chi,- fac,_circ,-chri,st-,.jpg.,.jpeg,satur,.jpg#,polar,don't,-yuko,-cov.,-c,eu jp,oz sl,_hits,(simo,thgal,poten,_vyko,merly,..,_frid,sle,eps.j,doubl,_cros,merle,-cora,- per,in he,- pet,funho,-m,re_in,(we a,bc-th,-neve,_mule,(gábo,-',dyo.j,bit h,st&re," mix,-diam,stuck,bh.jp,ligaz,,_,-amal,studi,) fro,_cate,baby.,_-_bl,° bel,fight,_-_bo,-sunc,_theb,(homb,-wild,in lo,in lp,_the_,-dipl,piece,manwa,_-_al,lalds,befor,(esca,ar al,fall.,- böh,ways,-smoo,born,_(jea,m-rem,_does,quali,_pian,in ja,jwc,- oze,-.jpg,falle,-summ,s&sax,.prev,_sjun,revis,box s,cadil,_thad,-all-,kixon,rw.jp,-c.jp,-cham,-chan,album,ricky,px_gr,meses,after,ndave,dolla,grey.,latee,_-_en,-frnt,_-_el,rehea,flewo,desde,salbu,_orca,revol,pears,_citi,sale.,_lett,-_the,brick,-supe,° n.j,sep.j,-fron,(uk s,ar ba,rdful,hallo,hatke,kusje,lucha,ie al,(blue,tage.,_-_co,deadl,_revi,_años,blind,-bogo,xroni,_reun,vissi,_-_ja,b leg,in to,prodi,thflo,_runn,(dvd),ply.j,(bo b,in th,tohos,j.jpg,asawa,brind,-frie,- ope,-smg.,-alwa,qtsis,-wibt,zyt,- fre,de se,_by_t,_-_iv,_craz,_stat,_retu,th.jp,- fro,_cras,pm al,-alta,_dgbx,rpm.j,_reta,(apri,_tedn,dmja-,_stby,yo az,itune,_elft,_-_ga,regul,, lov,new z,k-tru,_-_go,k - b,-pop-,new o,moro雙,pm co,based,inroc,steam,-mala,-acus,lg.jp,ndamo,uu's_,_elec,-alro,- otr,de we,-fres,ndstr,manki,class,sense,_-_mi,-mc-c,_repl,_pie_,_repo,ndann,b-sid,odd f,_pier,bulle,ver.j,voice,odd y,_-_lj,clapt,-just,sallf,dpi.j,clapp,pod.j,- for,entre,tool.,-alph,_-_lu,anni,bis.j,to ∞,- out,laloc,ndalb,_-_ku,rnrp.,-pepe,_usa.,(typi,nd lu,gerli,parts,party,thest,-idea,- mik,nd li,- eh,,- mic,thesi,nd lp,thesc,billy,,.jpg,fois,low l,low r,% (al,twine,_thou,theth,bolly,gh-fr,cr pu,guy.g,theul,s-wre,side,-mars,pac-p,_absu,- edg,h.jpg,onbro,thewa,volt_,_minu,_newl,ekszt,_newm,by in,_newh,you'r,nd me,_spec,picks,).gif,-pent,luas.,_news,_cumb,in a,_hate,volts,) cov,theot,_thre,rip i,_ever,voltw,arpeg,ball.,ball-,bc.jp,cielo,_shab,_shad,px_wa,- med,dynam,_root,_shan,_new.,- met,fores,volum,nd of,(shor," pic,-cind,ballm,-perc,) sav,-mano,todoe,bs.jp,ballo,messa,ignit,s pop,duets,talis,nqxa,never,s_alb,klaus,- mad,cc wi,singl,promo,_cure,tvvsv,_rods,lb ma,_pove,heu,easy.,tv.pn,rdwis,smili,-jail,final,o alb,-abc.,dcdby,nd st,- max,- mas,- mar,_powe,kuma,nd ti,tv.or,_rock,fri.j,pisto,_show,_potp,proof,_shop,_shoo,ha-of,amor.,nd wa,st &,-test,nd wi,.ster,r.jpg,flavo,star,canta,)_x-m,by al,lande,force,thewi,quad.,rusla,euro,-mayb,red.j,- ear,addic,cycle,(judi,frwls,dd.jp,musta,enter,zla,cc te,grime,-toda,_port,nenmo,_spju,prose,cc st,c_ove,-lamp,lolal,_mill,) liv,(spic,quick,'s_a_,_mile,razlo,reloa,path,good_,s gir,_spic,sundo,your,play,pac m,(brea,años,_club,d ep.,night,piv,west.,. чер,step,pm_sa,up il,-tell,neuro,thedi,mr.jp,thecr,cc no,ost c,- evo,exits,dscor,exito,demon,blood,pph,demot,heade,demos,yial.,° du,_of_,_quin,moond,param,)-cov,thefi,finge,- esc,kremi,_scen,& hit,best,gold,- est,thwon,sndtr,'sus.,bad_c,fdp_-,_blan,reuni,uppin,_blac,_ryan,tonch,simon,hamme,fivin,_veng,remix,st_al,up ev,days-,days.,hertz,st_bd,-arin,bell,s ny,strai,st_cd,-tept,thebe,t.jpg,volt,daysc,siste,-fit.,thebl,micro,dayso,_dvd_,thoma,doro,-temp,daysl,ss.jp,atama,- ext,lp).j,-jack,_id.j,cc mi,lp_sl,cc me,- eye,ixths,cd-,crus.,_(,_jubi,-tech,s-hit,cityr,- emo,, sma,nada,and b,tongu,- lon,games,antho,and u,lette,rimin,dayto,jo st,- ep.,and m,candl,- ene,.ring,_nymf,summe,)_cov,anthr,thekp,canci,thene,_quar,-teas,st_co,_half,ozpd_,- ups,st_cl,- ely,pile.,-_we_,cc ho,-at-t,- ele,rst a,themr,epsfr,(cd).,kelle,simpl,eva.j,.v.jp,_emin,_gr.j,theha,".jpg,st_im,theho,octop,_time,remas,strik,strin,non b,m-evo,paint,kai w,cc bl,_til_,-tota,xt co,st_ju,-nuev,- lji,- liv,numbe,upper,begx,, son,parel,by mo,hurts,openi,- una,- unc,- lif,unfor,- lib,- uni,_high,_ost.,- und,_youw,-tefl,eme-t,uu's,_weat,river,cc de,stori,- dar,-star,-burz,).png,gf,(zap,nd_al,story,ive c,wayst,slive,luism,-one,- nig,deep,-life,wayti,all.g,gw,_uk_s,-capl,miles,he,imagi,wayto,magic,all-t,– sec,ualit,plast,milec,love.,- dam,love-,- dal,ry.jp,-cass,gh.jp,play.,dw,wmnov,lsvew,strug,_dust,ec,- vio,stgra,dk,dn,tour.,look,beat,_(cal,ukesv,out o,ameri,fe,_marb,agj,d_pin,thyea,g+,kself,dog n,secs.,ep,cd.jp,fryco,anath,_-uk_,notes,dabas,alt.j,playi,-came,fxi.,stone,- dev,plays,dear,- det,sml.j,bt,sdire,- neb,- nei,bk,reiss,tbrot,bg,r&h.j,bh,_dest,bb,ant,c.jpg,k the,px st,c.jpe,valle,b s.p,- nev,on to,& ove,warum,ift,fcove,on th,cs,and,- dem,- dep,- des,phasi,- def,ce,roman,e%,cd,ways.,_mama,- vel,nd_e.,jikke,~.jpg,_duos,_devi,- vec,ix-by,. fro,-mbrr,re-bo,ay,-dmx,speed,slipc,at,ar,metri,reaso,av,mmi.j,color,-elec,_mann,bitop,kavin,ae,milla,-dodi,fdpwa,milli,min.j,nz,_degr,mille,vezes,kiddi,on,oh,ov,or,retur,curfe,trans,melon,month,- nap,small,- nat,pj,adele,ll,_main,lr,eye.j,johna,-d.jp,hhgvr,(go!g,most,click,ème.j,oz.jp,cdver,md,pmhx,me,- val,syste,acres,k_kor,s hit,batsl,dope,!john,-kako,cc_li,citie,zgfvg,plane,wayne,colle,ne,colla,cchit,_simp,_simo,wbvry,love,more,ddfro,kg,moro,-asap,toure,tourd,mfos,lover,warni,loves,stove,kp,out.j,y_mor,loud,_sing,thdye,n%,real.,monte,re-is,ic,crazy,ywar.,less,warpe,lovep,loveb,k-,spenc,in,adb,ive -,benas,mm.jp,love_,cc_gr,featu,-wtsg,trio.,_trad,-live,s-ali,_trap,_tran,ready,_tram,warag,-of-t,-estt,_trav,x my,ttlg.,_folk,xg,place,nd_s.,(die,sladi,- dre,_wood,-uk.j,wo,-elzh,grace,- dru,_goin,-sm.j,_jazz,austr,st of,_debu,th n,vh,ocloc,sinne,killa,donmo,_cd_f,easy,st le,_cd_c,grade,_work,xalbu,uk,_dear,park,, the,(bamb,front,st lp,tripl,weeks,_dead,st mi,part,rush_,_tree,to,ne-ki,nd al,-hits,ts,_a.jp,round,- dud,(ep).,- dug,th,-voca,_dub_,bcove,_def.,-skin,-befo,sl,sp,fel a,versi,-asis,'s.jp,monk.,xnodc,rz,overt,boadr,mitoc,na al,_dece,nd w,t_hav,ro,verte,st go,-layo,rm,decem,verti,s par,-craz,?.jpg,-list,i.jpg,plus.,fortr,monke,hi.jp,track,mbest,-hrva,- mus,all a,all k,`.jpg,_trib,- dil,nd ed,- dij,mmpbv,nd_ig,qwn,mondi,mmpbt,-gutt,mmpbr,gangr,cd.pn,& god,st en,nd en,sinz.,plus,nd_jo,- mos,mmpar,- moo,.the,st fl,_clas,mmpbd,abcgo,_good,st co,-cd.j,st ch,rpmth,(koti,st ce,nd co,orpha,point,-roma,kmh.j,m_wit,retai,_for_,plugs,o_oro,essen,st as,foot,m-ful,nd im,..png,st ba,nd ii,ringz,qcove,st al,wayz.,sajau,itwon,secon,s.bm.,_jani,_ep.j,_ep.p,cliqu,spdzn,- dne,food,at ne,(jaco,- vol,oklad,- voo,st br,-year,_sate,zh,_cdco,hankw,- dop,k sou,(rodr,-cris,-blue,_cdda,zr,fresh,stm —,nd_la,epthe,- doc,(sout,zl,yg,-over,d fam,gha.j,(soul,verli,nd_lo,_gold,gauge,.png.,_in_,_tale,viole,memor,px-ma,_ep_c,_gard,knock,_talt,(live,px-lo,- run,solac,_love,crook,st pr,px-le,wo (s,maria,hits,.stro,px-ki,...th,-la-s,made,nes,_awar,_full,_comp,px-iw,punan,broke,yola.,_how_,tz ga,of th,aialb,- jus,tribu,_coll,(hlah,-d-fr,comp.,como.,_hoot,px-pr,_lési,rd -,commu,-e.jp,st tu,witdr,-fore,watch,(omeg,label,_feli,stbor,,fron,_up_a,px-or,-vete,)albu,-yout,px-ob,kilat,direc,_hot-,cekwp,s, al,-f.jp,-oned,st vo,_take,ex.jp,silen,_taky,memph,fca,) alb,-spec,- cen,-spea,-hard,px -,ers(p,%_no_,_lp_j,-dvd.,wakin,- kak,_lp_c,wheny,- kar,- u i,peels,--f.j,)_big,compo,-aotp,px-ch,rose,nd.jp,ninaa,thcm.,yıl a,usa.j,broad,px-be,zbefc,c_vol,jr.jp,compi,px-bo,-way,thhou,-spcl,cr_nu,beaut,redis,s_fau,_radi,a nex,borde,lores,loren,_feel,_rice,vivos,px-al,ofthe,club,-vers,palbu,add.j,gepbl,- san,- sam,- cap,kplug,- cal,acen.,- cab,px-ic,) -f-,(what,_feed,hire,trib-,cedar,- kea,defre,- scr,- sco,beatt,- sce,px-gr,- cas,kan.j,- car,dep.j,_tabu,- sea,- sec,_o.d_,px-fa,_impr,below,csoun,d – d,fonky,ktran,px-el,)-fro,ndgra,(hunt,"s on,intu,-vene,- sep,_feat,stbes,nine.,bears,of on,- sel,chapt,_brot,knots,(exte,est,_sess,atthe,year,_brok,eflit,ww-,s-fig,cuban,-veil,arash,tutti,kisse,uk.jp,cdbox,-edni,zapal,bar b,borou,_gree,_grea,zapat,z.jpg,_dawg,- sin,pac_n,- cla,) itu,-half,- sij,- sit,thcen,- jed,mixep,chasi,mixes,da ba,- sho,- shi,- jen,mynig,__gre,alter,.seas,charl,)_alb,chari,chart,pacal,llpla,mtv u,t_cry,-tyra,f.gif,okyh.,chamb,_amar,_gran,watts,a nov,_grav,thcha,y me,pacgr,- cir,bingb,_(gre,_grad,randb,- che,'sthe,- cha,m-leg,xi.jp,egjx,chans,chant,_ourl,chile,- chr,nrk,.gif,vinyl,dirty,- jig,gyom.,chill,(rich,reduc,very,ne ab,doors,starg,- spa,sessi,am.jp,anniv,- spi,pts.j,_home,eaver,- sou,_homa,myx-e,golde,- zen,_-aus,km.jp,tothe,again,añosv,teeth,- som,- son,packs,_taub,stars,_put_,packf,adayt,_seld,littl,filth,cyexk,nt.jp,celly,_brin,años.,ttsr.,mini,_big_,mm_pa,_risi,s ahl,a num,no.,the f,the e,the d,the c,the b,the a,fpzf,the n,the m,the h,the g,the w,a.jpe,soldi,-blaz,- str,a.jpg,slate,the p,the o,- ste,the r,the t,the s,the v,the u,b off,mixtu,ne ep,- sta,)_(al,-apas,o-z.j,comeb,comed,dream,elpa.,comes,-blac,mad d,nd) (,suspe,mary,ostco,(danc,_tape,s_&_h,roll.,state,blog,sahep,_oldt,suara,chick,pacli,vemmj,(pole,chica,s - c,(pola,zappa,- sun,inch,- sum,da ga,tokio,s_x.j,sick.,- cov,s - n,egypt,- col,_dayz,½ cov,- com,s - z,_days,wishe,newtr,downw,- coa,deepp,-well,hitsp,menom,_onem,(just,hitso,° poh,um ps,asouv,disco,_onew,-off.,_inol,-bsbd,° -,pwk-,-gate,srock,nilso,_oned,nodou,_la_p,fzdi,ores.,chuck,vg.pn,fillm,disc.,- čud,år me,ty os,ccalb,nmjcc,lospr,_pers,成人禮.j,'s my,_bad_,_hero,_eye.,films,highw,serie,highl,_yand,-deic,_rive,nyc -,s alb,circl,s.jpg,s.jpe,closi,(milt,gfb,conmu,px.pn,- ata,_flig,gold.,stinf,maide,grave,neoph,stalb,hoods,- zbo,thing,stann,loste,-mees,- aug,sidea,c_dom,non-s,sided,jarre,- zap,_some,- zaj,s-dra,set.j,wiz,dust.,die b,still,'s re,flyin,stand,_song,_am.j,) bik,oh!,conqu,_flee,_groo,vies.,adcom,break,.jtue,iviny,blue.,airwa,- tbd,(mixt,) (,eyik.,walke,heart,amwc_,am_cd,na.jp,_octo,s, vo,_nude,herbi,½.jpg,hrkar,-cdco,cute,'s ep,conti,silve,blues,' los,my ho,(albu,-trac,- tak,rdbas,- taj,thbir,ayumi,count,_insi,dope.,epcov,_us.j,-dead,outta,_inro,cdsyr,hayes,ost.j,- leg,- tha,lou-z,- lee,heavy,- the,ltkso,'s li,) - b,) - d,bc co,) - f,lctr,) - g,) - h,_-sil,) - o,hagga,s jus,) - n,) - l,big o,wam,_grim,_wron,px.jp,from,hits.,rnnmm,_eyes,m-nat,molin,maior,emua,-gori,heave,-got-,princ,deep.,_gris,-ep.j,ccshe,print,cit.j,vient,bleed,tldso,%_dim,-lpco,- tel,- tem,gunal,-in-j,u.jpg,aus.j,_bar_,recor,_in_r,ayuro,_peac,_po_v,cdcov,- big,me.jp,anosd,cr_we,_base,pophe,roken,outof,_ran_,split,(lamb,mute.,_albu,face,dos t,gewin,- bli,face.,big.j,- bla,- tim,- til,belly,_-can,- kil,(ense,.diff,happy,td.jp,_joe_,ayutr,- kic,vvta,. mir,tate.,- thu,mymer,- kis,- thi,sokol,whys.,grams,-euro,_myis,-musc,- tor,squar,- bez,+ one,faces,_bana,- ton,_band,(myka,judds,face_,-vswu,hp hp,-mete,-meta,em ra,-hydr,unit.,- bel,anger,_lyny,negat,_joes,cr_re,_poem,_live,roach,sr.pn,_john,_livi,indee,disto,cr_un,-ayum,os_ak,_(hun,unite,hpsec,unith,rdbur,anos.,- you,marti,- kni,defia,unity,flash,_myse,for,- kor,e_spo,-look,korak,angry,clout,-mega,cover,mm_-_,saili,megal,- bri,.boxs,- bra,rtgsr,kgrea,cxuox,_futu,_cent,s-ear,s_gui,'s wi,us al,_infi,- tru,.sati,- tri,one f,frigh,- bud,- buc,_sorr,one a,cubs,nite.,- tra,-sigm,nocta,(the,px-th,_ball,one s,masca,.ny.j,_rari,india,-muje,quese,- krv,_like,conce,old f,snake,s rec,frien,tuser,churc,grani,_inco,si.jp,guy -,yolts,tay_o,_inch,grand,adven,px-va,aesta,three,px-vo,threa,tay_d,uk co,_cele,das b,s_out,_aliv,ever,_linn,silke,_fcov,iterv,vol,_rand,-bsb.,woodl,_rap.,byell,gallo,stitc,_soun,- bot,_souv,banne,atlan,outer,- bod,carat,indle,abc.j,bestr,s-sup,besto,a_liv,linda,_ligh,_-ind,_natu,surfi,) (al,hroni,bside,luftb,naugh,gazke,video,encor,_drea,_diff,inspe,linea,_ans_,iceho,s ttt,_walk,_slee,_zug_,namie,_narr,-big.,-big-,raw.j,iob b,- hvi,iob a,livec,livea,liveg,lived,live-,ukkyl,live.,sofar,hour,_anth,_lich,thave,thson,- hun,_zelj,_nash,(mcr),madeu,acous,xjpky,(u.s.,-aval,lpcov,oztof,gealm,_chor,th wo,- pre,carol,rachi,- pro,ndmin,omari,stlp.,day,rgb.j,(erki,large,incon,racks,_anyo,sah i,– vol,songs,-tab-,songe,alle,(a-to,_waik,- prv,-bran,(term,april,elmun,jessi,great,-zwan,acid,jessf,tahla,rd- l,namco,elmir,_uncu,(cove,jaarn,stliv,rhxwr,dita.,(fibe,a-cov,thalb,_watc,b.jpe,holdm,-swee,b.jpg,(amai,_watt,meest,oz. c,-days,mothe,(kard,thann,ten j,uncan,clubw,st.jp,usalb,bna.j,_wish,green,_chan,btxie,le al,pq.jp,souve,schoo,fires,_isra,shots,madne,plyim,-bigg,loyal,_xl.j,minut,c_chi,panic,ofhea,cluba,lives,- abs,c_the,hmc.j,- abo,liveo,livel,livin,_atth,_svar,aphex,thsta,_war_,thain,polis,-git-,- hys,club.,- hyp,motel,x kra,_melo,polic,-pain,minsn,-.gif,rober,._fol,my n.,eyes,_men_,cf bo,dt.jp,_easy,_turn,arcta,_onth,,reve,_turi,_unli,(atom,_eatm,saori," of,(adel,s_dil,gr.jp,_gli_,telev,miver,- hea,ep (a,-anci,mexic,xagai,-pref,kcsun,-pres,arcti,-tc.j,tok.j,-prev,dagam,back,limpo,(mucc,dagar,_vill,-kell,maste,_earl,stmed,-tame,_vild,endan,south,- aby,- her,_scor,-refl,juli.,ten.j,_mera,boy.p,eb ur,sound,techn,-cock,saon.,rdstr,lwagi,- hai,hull,arkus,(subu,(pigf,_vang,-os g,futur,-movi,-cofl,lp.jp,_nice,_jyj.,dtdd,-oqa+,-pjev,- hal,- haw,- aga,_viso,d.jpg,k is,orche,house,rdall,- how,- hom,_from,_fron,insha,ep.jp,extre,crews,_-_ur,hours,hourr,_-_un,bking,scrap,scrat,sonic,- ame,ad ep,).jpe,wfiaq,crewf,).jpg,crewi,_unto,crewn,thsin,- all,_-_tr,o (h,centu,-feed,- ale,am cl,- alb,_-_th,cento,vulga,_-_sk,ball,pay c,_-_so,_-_sp,inses,-the,aphro,_-_se,_-_si,garap,soulf,am co,insec,._tri,iohfg,._tre,_at_t,-anat,_-_re,(five,_-_ra,iob-b,_-_ro,) (fr,duals,mix.j,chord,inch.,-grea,- asc,bythe,(pink,-fuer,pelvi,–',jinoo,nyman,-and-,-lp.j,baep,a tri,_tung,eyesb,_-_pa,_-_pe,eyesa,-ruff,akqgt,月のlov,nc.jp,-taxi,- hig,sept,inchv,(fisk,-gran,pxls.,incha,- hit,-damm,inche,inchc,inchf,l_(cd,sm.jp,-danc,-whit,eyes.,thscr,first,-flig,ne -,o_cov,cd bo,c_bil,rd mi,synth,bar.j,pm.jp,_da_r,- so,fgp_p,cd al,-worl,s low,lp-sl,doit.,cd_th,u-cov,._und,-m-,berry,guns,leave,- to,iivin,- izr,man,-f-em,may,mosai,rd lo,intro,eiffe,burzu,a juv,-piss,-pist,_hund,mcd,- qua,yo.jp,- iv.,-retr,gxikx,_seet,cd fr,hard.,_suga,learn,ndver,eef,anewa,journ,s-tow,- we,-unit,casse,k.jpg,-univ,rd ro,xk be,setli,ties.,-hear,nonst,-prpp,_.jpg,-reve,-pira,-head,hvrkp,natal,-badb,edu,_secu,ac.jp,_seco,-back,ahead,trib,-proj,danse,_volu,cd co,-fult,(offi,-unle,_seat,th fl,villi,osts.,-unde,limit,danie,(prax,th em,th el,cc-th,th ex,feetd,degre,pqge,_jerr,rd wa,_dags,feeth,th di,-fant,a - i,rd st,th dr,selft,s-too,th de,- lo,xmasf,- rai,ne vi,ifth,(joss,- rap,- ran,m_alr,spiri,fun.j,- my,-us.j,neilz,th ce,ndlp.,½.png,last,ve_be,self-,ellie,phezu,th bi,- ne,selec,reel.,toyst,cd on,c_sil,s-bla,th av,- nu,live,mph.j,en.jp,dvdim,_plan,th an,th al,- od,st-al,s suc,jaar,(andy,tresc,_play,s_nau,_&_,rd wo,.dark,bigge,teede,- r.,feetu,japan,_blp,_eagl,karat,exten,_plea,stcen,, ori,pmbes,ep) c,human,p_emp,_itsa,th ma,busin,th me,_and_,, peo,ftcdp,_-_,årsti,dpi,hire.,going,d sou,do yo,de_la,_(fro,_guit,floor,-leve,iomy,- igr,_guil,aleja,- an,- at,_fatb,joe p,_fath,-sonn,- el," str,ksant,schri,-song,- ee,_fatu,_stru,- ris,cds.j,- riv,hires,sodom,flore,th le,-thir,-nome,- ric,o.jpg,- da,gun b,dos_h,dos_t,dos_s,dos_o,harry,hit w,_stut,sd.jp,- go,-san,axizh,dark,th is,-drun,boogi,oldli,rd al,pm-to,ozs_o,cdalb,- ico,buckm,m_see,.png,jahre,-john,oldie,- ret,_(flo,rocks,dvdco,_way_,top,cent,artwo,- red,- rec,pm-re,say.j,d alb,inter,-pic-,irist,tab e,hr.jp,diagr,bigon,th ho,_copy,hplow,hotsu,lu+mx,yrs.j,shaki,templ,shini,(phis,rd fr,utada,-gift,- iou,inthe,armed,'s -," cov,- ipa,th wa,th wi,-nosl,thtim,runni,ep).j,runne,_cont,xinzr,rd de,wewer,somet,ordin,thliv,th su,th st,l.jpg,boxse,to li,'s n,mix,th to,(ua a,uaxyf,- ros,- ror,bel a,diamo,woman,(ich,ao.jp,shoes,_cove,th se,th&,_plsr,(anth,qjvp,- ron,arcad,_coun,- roa,- rob,- roc,muyde,- ima,other,s the,- (th,th_sy,expo,m-thr,vid_p,_corr,_ston,vid_s,vid_u,vid_v,_stod,ships,-lg.j,th of,nowyo,- inc,hewro,morri,- inf,_anot,(asia,th_,hedge,- int,th pl,a spa,x.jpg,xlive,	-1.0	-1.0	[Mode, Recorder]	97467	
Published	STRING	-1	-1.0	-1.0	[]	1	
Alternate	OTHER	.gif,	-1.0	-1.0	[]	2	
Piano	STRING	-1	-1.0	-1.0	[]	1	
upright	NUMBER	.,	-1.0	-1.0	[]	1	
rev2Score	OTHER	.,	-1.0	-1.0	[]	2	
Songs	NUMBER	,,|s=,	17.0	29.0	[Sold, Seconds, Bonus]	4	
albums	NUMBER	,|las,rd-lo,: sys,viole,memor,ii]]',(live,(blac,'s: t,ta li,(blan,kenny,#,(ryth,&,',*,arran,+,(,(fore,),.,/,,,-,(cros,[[wil,hits,⅓ (al,(bob,|jazz,:,manha,t'z g,evana,>,horns,) )}},ktheo,john,'s|re,est|,°c]]',: dir,t'' (," sin,(lp)],guard,& fri,]," wit,: dis,que!!,b,: hig,a,lp|ju,jazz,maner,day w,day t,nen m,m,k,: dic,oz.]],: hip,broke,(mote,bisod,v,ood s,of th,'' (,s,days,r,ever],papil,guita,~,st si,},|,dayz,st se,y,(most,sampl,x,: sup,ten]],&nbsp,(joe,basie,-d|"w,: sun,|sing,basic,année,(volu,|lost,rd -,divas,etern,: sto,: str,ani]],watch,b]]'',lésio,: sub,mysel,s & h,)|as,ep]]',°,a|ayu,(rita,(marc,kilat,*merl,'s –,– the,naj,|love,glen,: des,samur,: j'a,: dev,: sta,)|sof,"  (,manch,: dem,]] ne,chris,)|ara,(plac,: dej,: dee,|kwes,: dea,(ll c,: hel,o'clo,"viny,(rod,-ply),b blu,royal,|raw,raspu,a]]'',zápal,(lenn,tha h,(blin,tha c,(lind,jacks,(j.j.,boney,(line,)|el,|aust,chron,(omar,compo,rose,bästa,(marv,: dbz,(oyst,-stri,olymp,life],km/h,: one,)|ibi,: sou,krát],'''',c_vol,|rehe,compi,-way,) / [,: son,(klep,]'''',beaut,･,life:,(leon,|body,hell,''" (,joy d,life',x]]'',londo,) end,#musi,: sna,offic,(twen,s (al,(twel,- sam,.]]'',- cal,gethe,every,eight,(four,brazi,)|is,o oro,trump,hero,nine],: [[s,ht]]',beat],)   (,)   ',: omi,- sci,: hon,: hom,: sla,aasta,'s|no,– m.f,for d,(blon,super,: oka,afric,|lond,below,+ sel,)|off,for t,(demo,fonky,t mee,(hunt,"s on,"ers],bass],des]],ver]],(epik,|euro,(j.o.,, nev,(hung,of on,time!,bar r,(rasp,-d#so,– son,saman,arena,(rasc,drink,year,may),)|''s,ep li,]]"'',cuban,(lewi,% ver,kisse,eleme,]]''",on br,prese,borou,]]''',favor,– cos,(snea,: gyp,a]],(wyno,- a n,)}},: the,|elki,to ∞],|anth,–,(moby,‒,life,st]]',—,)|saw,mixes,: thr,dge]],|welc,.oct.,da ba,•,|grav,(dein,)|''r,]]''},: tim,be ho,pay]],) iso,world,cali],|odys,kg]]',xs]]',mute,watts,ep|,.]],– pho,: gun,(rand,early,song,(outs,]]" (,cali:,)|no.,-inch,.comm,(the-,– sup,chile,: cru,.com],: tea,eva]],(ekat,"]],s_for,(rick,, ep),(rich,seven,(deer,: ori,high,rpm]],giant,(goo,doors,ª est,años],- not,sessi,(reag,& ole,solo,-glor,pack:,golde,pine,m|the,ne al,ep co,altos,of a,again,s (u.,oul'',tanya,(dark,:a no,nov,: cre,origi,years,: cro,dance,littl,: har,: hat,(wet,° off,(nouv,– guc,lina,)-->,(thos,words,legen,: pan,(madn,: par,: col,b-leg,ep),: com,: con,: pas,: cot,/the,(cky,(ozar,ad (a,")'',: cow,vs wu,: tai,: cov,años:,, yea,ad (e,the f,){{si,a.d.d,the c,the b,chain,x aga,- spr,the n,a.d.],the m,[[the,tour,the j,dep s,the g,the w,(dani,the p,: clu,the r,: clo,the t,the s,, upp,ne ep,° cen,iz st,comeb,無與倫比演,way]],(dami,dream,fulto,xt]]',or th,m]]'',ds ep,y.o.],(danc,state,→,, unr,suara,chick,(snow,tv th,unlim,(pole,s'''',)]] (,inch,da ga,- sup,|coll,fools,re go,(six,: cla,(nik,(susu,(merl,: ele,disc],d (ep,rpm:,(aphr,(merc,(buck,i]]'',disco,black,seaso,hits],preci,film),: nev,: new,perce,da st,|toro,- fig,|tba],: whi,: wha,(oliv,s mix,(mira,d (go,- swe,(s cl,fille,k ep],s and,'s ma,ocean,: enc,fillm,år me,(son,sucka,: ima,) bes,'s my,stair,(este,|izme,canad,a.m.,|pian,:kill,serie,: ind,: inc,k]]'',cc]]',th  ',(aven,uk ac,mics,(ment,(all,(calo,s alb,cd (c,(milt,closi,(cali,circa,(toki,ores],unrel,'',u]]"',|hôte,mm pa,sale,fleet,editi,oct,pm me,hoods,perfo,(cana,, as,(davi,ultim,de mi,la co,today,mix]],non-s,(sixx,(meli,sided,mil a,pm /,b sid,sides,)]]'',cd'',(aim,(hyde,(bigl,him a,briti,'s re,andy,(flor,augus,: war,)|fay,% sku,'s ro,sep,oh!,(sun,)(fr.,akoga,)],prelu,episo,ep)]],stepe,, en,|''sg,(mixt,) (,ton c,stepz,heart,- par,(juli,år]]',)},|demo,walk],steps,stepm,)|,''' (,''' ',)|bey,s mas,s, vo,in co,% col,novem,'s ed,(last,)|bet,)|bes,cute,|aris,ray s,(casi,: rom,zukko,: nob,c bil,st,,re]],m – f,|getz,: roc,(drag,: wor,blues,polar,(b,' los,my ho,% joh,de an,(albu,: non,-trac,) - ',(mega,'o,(lara,– pla,)),vies],deten,).,succe,: ris,|samh,: rio,+ the,/',poten,(esd,(sing,pm'',outta,wings,..,) --,: inv,t)|no,-]]'',: int,m'''',(ash,deep',.e,in he,- the,say]],& ali,ve]]',#live,) - d,tunes,(gábo,la]]',big o,-',from,) - u,bit h,(art," mix,real,: ear,maior,(paul,%]]'',(your,cd) |,deep],. dru," vin,)|res,(toby,t alb,(patt,nd (t," ep],° bel,: sex,: ''[,(homb,)'',in lo,ep'',recor,nd (a,th''',(bush,uk on,piece,(kink,(aust,rd (t,: nuc,%'',(cunt,(esca,"   (,(lamb,(i am,ways,_albu,face,: shi,(temp,gewin,(for,: sha,feb),)|ran,- blu,)|vol,(ense,(aute,happy,motor,rd '',: sho,(work,os ak,baby],in ja,, vol,|aero,d con,f_(en,(tele,)   },revis,|on t,?)-->,box s,-dime,(enri,(one,nd '',: sim,(timb,([[ay,|sket,: sil,+ one,k ]]',: hus,faces,)  (a,in ou,shune,album,~b'z,(alej,ozs o,a: ne,, liv,meses,)  (t,)  (s,) |,dolla,.v]]',: dub,)  (w,s… an,(n.z.,: sce,of he,? rem,, lif,oz: r,pears,- toi,: scr,luv',[[a m,in mu,|fz o,px]],]]: a,indee,(uk v,nc]]',]]: b,m.p.h,(uk s,]]: c,|punk,lust,-sick,/?/),unit],)|fre,girls,'s]]',''''',}} (s,(blue,(ten,)  '',cd|th,(blur,(elev,) / ',marti,deadl,: sen,sale],]]: i,) [,unity,]]: m,]]: l,. dim,: set,]]: s,]]: r,]]: u,: sep,winne,nd  [,in tr,th (n,in to,angry,) -->,(dvd),(bo b,in th,cover,r (al,) can,yola,(hatf,[a.k.,(big,th (c,th (a,abeeb,|clas,[[clu,: ibi,)  --,u]]'',) ---,|lull,winte,(also,frigh,(the,|song,: aby,jazz),pm be,(hypo,: abi,s ret,(harr,conce,(herb,)|asy,mind],- ',d (or,, lov,bacca,"|eve,th '',cd]]',(labr,s rea,lugar,(tim,wm/no,nite],frien,clark,churc,watt,eye]],grani,anos,/san,grand,he wr,|some,c_tx_,jumpi," alb,class,sooth,sense,...]],-disc,-by t,?),p]]'',ever,odd f,hate',:e no,odd y,no_on,d (th,_lind,(toro,d (tl,coast,-årin,]]'',)|mut,% kel,hp al,woodl,k'' (,: doo,. apr,gallo,you]],pm]]',film,d (so,")  (,mini:,(smok,(apop,anni,latin,carat,(hawk,(puff,(typi,(roge,]] (,party,lady],) (al,g|a,: val,hroni,live!,|deat,nd li,luftb,: fli,naugh,% (be,video,: mad,nd la,bar:,) (as,shows,|the,: mar,% (al,k: br,s gol,t's f,: maj,(stri,(o.s.,: afr,: man,: fir,|albu,jason,"mons,|soun,live_,|neu!,live],|enco,bats,volt),(musi,: air,live.,hour,till,live:,nd me,tage,° fah,seich,nd mi,part.,picks,: jim,base,#soun,(murd,(m. p,)  [w,: for,song),n'',: all,(u.s.,o (ha,: alo,(publ,th ye,- pri,-hour,a (al,th wo,it wi,: mee,: meg,: mex,volum,: joy,fast,(erki,nd of,– voi,: and,: anc," pic,nd se,– vol,songs,: zwa,meets,(ultr,) ([[,: ana,år]],(ronn,& hum,(term,(viol,ignit,: amb,: fly,: amo,rst'',! (,by el,: alw,-x|ос,/fun,great,(shon,twent,: vir,-d]]',nd to,singl,: mia,(kate,b.c.,"ain',;s gr,: my,carro,smili,o: ju,west],: no,off t,o alb,(amai,: mix,nd st,(eros,: mil,: mik,jesus,(dr.,nd ti,-tett,le]]',: arc,vol.,(isra,(ella,''  (,proof,mothe,(elli,pac'',short,thank,st &,(a-ha,nd wi,(my c,(fabr,*dome,(luis,green,''mou,link],cumbi,'s an,(coun,motio,nd ve,th]]',nl) (,force,(beyo,(tali,|live,(peac,|livi,/publ,)  -,)|yea,° eve,(vide,% kik,shots,addic,|spac,(judi,cycle,minut,% gin,(lp-,pac -,live|,grime,°: li,: asi,eva (,club],lives,(dung,prose,: ava,, no.,razlo,: jud,(judy,reloa,: vol,)|men,|litt,(kavi,s gir,ep)|p,ep)|n,% fun,ep)|t,pac a,: jus,(dvd,your,pac l,: aug,: feb,ep)|w,easy],(j. h,motel,ep)|a,x kra,ie#ma,años," pro,'nizz,up!]],night,(spir,: aus," ep,ep)|l,(roya,(pete,: uni,]] '',: und,k: ta,neuro,eyes,my n.,) (re,|inte,_(enu,|vans,: unp,(eddi,: unr,k: so,cool,exits,exito,)|liv,demon,apo t,demos,headb," of,° du,(adel,(keka,nw]]',eye:,: mor,telev,eva n,& the,finge,: mon,½ spe,mexic,s]]'',% les,% len,: rar,back,(mucc,dagar,explo,reuni,% lea,: rad,k: pa,mix)],-x''',simon,(suga,|nati,: mus,)'' ',)'' (,½: sp,remix,crass,good,|glob,)'' .,cc li,(bill,½: th," (,days,,proza,(shak,(emi,]] (l,& ',eps]],um ki,, six,sound,: muj," (ep,i (al,hunni,days],am fr,janic,(subu,éxito,micro,|inne,]] (e,(clas,. geb,uživo,: rel,|madv,, wit,futur,) & (,: rep,(beni,: ret,??),–pres,-oqa+,my me,)'' },: red,_.,estac,wit d,k is,, u.s,]],(fire,- and,) (ja,: bac,, sma,and d,)|pro,|spli,nudes,: bat,: bas,: bar,lette,: bap,and t,satin,hours,garde,scrap,candl,and n,"'' (,sonic,cd)|h,(palo,summe,my so,rst (,- all,cents,canci,(ging,(kerf,way s,(brya,cento,vulga,-teas,and ',st_ce,: jam,(geor,|play,ball,)|gra,° of,#kidz,)'''',er ar,'til,q man,strok,(supe,- ele,radio,turki,(cd)],''[[v,(u.k.,''[[t,(five,uk),''[[r,jun),uk,,''[[p,bodie,cal)|,(tba),/smoo,duals,(year,chord,''[[y,''[[f,''[[e,|stak,''[[c,cold,) red,''[[b,秒 (,''[[n,''[[m,july,''[[l,''[[j,|occa,''[[i,(pink,']]'',(seco,: bel,strin,–',paint,kai w,) (ep,|drea,: eve,eyes],+]]'',) (do,"'''',(feed,% syn,r]]'',(fisz,sonny,- liv,upper,!sash,numbe,bar]],, son,inolv,]]}}',by mo,(fisk,hurts,inch]," w/,unfor,inche,- ep|,k: th,(wind,]]  (,(do a,(gerl,river,(neil,stori,-star,: bla,) the,(doug,me]]',story,car g,, sta,, jul,rd mi,-one,° n]],u (al,deep,rd ma,cc al,cc an,: plu,höhep,(eye),miles,(love,(dove,, aus,. jul,cd an,% hel,'n da,– sec,all-t,plast,: kly,nude,″s]]',stops,berry,(cher,: poe,: pol,) |fo,|tran,!]]'',|wher,|'''i,(from,(van,may,beat,out o,ans'',)|hol,cd''',:a au,til i,g+,dog n,notes,b ali,|apar,-pist,) [wi,plays,: goo,asian,bt,"]]'',reiss,: kno,dead,bb,play],hand:,(o-to,xx)--,(lord,)  }},: bon,on to,speci,: boi,: lab,: bog,on th,and,: bob,: lat,- der,''the,phasi,: kon,: koo,rd ro,lb. m,s lun,]]",)|hit,k'',u luv,: gre,(char,speed,ahead,crépu,at,game,colou,danse,ways],color,(song,glori,cd co,)-->',(cock,: pro,demo,k (be,milla,) {{e,th fl,-d (w,(fred,milli,th fu,) (wi,th's,of,) {{s,villa,-f]]',cure],kiddi,vezes,feast,limit,(prax,ov,th: a,th em,: let,th el,(jour,[[ol',km (a,|vol.,(sola,degre,trans,)|hel,: lea,rd wa,th: l,wenty,month,變 (,th: r,(o-zo,th di,: get,rd st,crew,(go!g,th dr,d]] (,: bre,|bles,th da,-ji n,: i'm,acres,s hit,){{ex,(rage,|supe,(joss,|volu,°'''',or dr,rd ti,spiri,dub a,dub b,citie,|psyc,' now,plane,/chan,(soil,ne,traps,_symp,th ce,: ghe,(serg,homem,th bl,/deat,, tap,th bi,love,tour],more,taiwa,ans d,) (so,% liv,ans a,th av,: (th,lover,live,]])}},% hit,(arct,th an,th al,th ai,(kumb,d]]'',: liv,mötle,(diam,tram',: lit,s suc,jaar,d - d,(andy,: lim,newpo,: lif,|blac,lost,rd wo,go ho,"'',monte,bigge,|chil,o-z]],japan,(jeth,'|wil,) (uk,h'''',: bud,tram],(zero,|s-mo,in,wo]]',"]] (,love],th ma,'s'','s (a,(phat,d|aph,(come,, peo,cd re,'s (m,/ moo,k (il,'s (p,venge,(retr,'s (d,: a c,(comp,個比利 (,ric a,'s (j,dvd]],(die,./ ',(step,à l'o,cd se,: top,|b'z,grace,reads,: tor,gli d,floor,(ep)|,: so,shade,rd: l,frank,- ep,) ''',ocloc," str,: lov,sinne,% ugg,hire],|have,killa,: we,-song,: los,)|the,easy,|loca,)  pa,grade,% pub,_re-r,)|thr,vocal,, the,hire:,too l,'s (v,&time,weeks,% pur,pac]],part,to,fel!],: i h,nd al,hit w,th ik,guy]],nd av,: tri,: i c,(nanc,)''',/razo,th,)]],|nine,(jame,... l,berio,-skin,... h,: i s,th is,(base,-cd s,)|gåt,versi,st ju,rd al,rd an,)|dia,k#sou,(stan,overt,(wayn,: can,boadr,(trev,natsu,% (lo,flowe,kan]],& len,th ge,jahre,decem,(a.k.,(ep)],x mon,cent,: a t,: a s,: a n,sity],);  s,(john,monke,- rec,s-,at th,track,... t,% (ne,: a l,s),... w,inter,th &,'' (t,: tra,(joha,: gat,diagr,th ho,'' (j,nd ed,)|tri,(phil,shine,''",rd fr,''',nd en,catha,: fre,plus,piano,: fri,th wa,nd fe," col,- mon,th wi,) }},st fo,(jagu,k (re,econd,st fl,s'' (,nd fl,rd de,s liv,th sy,}},nd ch,somet,: kev,st co,th si,am]]',st cl,th su,th st,(koti,st ce,nd co,nd de,to li,relea,(prop,behin,)|opt,kids],point,th to,th ti,(ua a,% (ji,% man,) ''d,plugs,foot,: fur,) ''b,: fut,fists,) ''[,/supe,nd im,alive,shot,(proc,(ray,) ''u,ringz,to pi,diamo,|x,st an,) ''i,secon,th,,th se,(anto,cliqu,)|two,° (ge,(anth,|subs,nyc]],at ne,- vol,n.a.m,-year,/gmp,th pa,other,: kin,ème t,s: a,(rodr,[[sin,th ot,) [[t,th_st,-dvd,ships,th of,- doc,(sout,t_try,nd]],(soun,| nor,(soul,(nets,to pr,(indo,(asia,wayz],(rock,hedge,th pl,- inv,th po,gauge,: cha,(red,	-1.0	-1.0	[albumid]	100283	
Price	NUMBER	.,	-1.0	-1.0	[]	1	
recorded	NUMBER	th,,	-1.0	-1.0	[]	1	
Samples	OTHER	-1	-1.0	-1.0	[]	1	
Coversize	NUMBER	px,	190.0	720.0	[]	10	
publisher	OTHER	-1	-1.0	-1.0	[Publisher]	8	
Cover2	STRING	-1	-1.0	-1.0	[Color]	5	
Download	OTHER	-1	-1.0	-1.0	[]	1	
edited	NUMBER	-1	2008.0	2010.0	[Remixed]	2	
Stereo	STRING	-1	-1.0	-1.0	[Series]	3	
Brackground	STRING	ff,/,,,	-1.0	-1.0	[Background]	1484	
Engineers	OTHER	-d" d,nd en,	-1.0	-1.0	[Engineer, Engineered, Engineering]	153	
Reissued	NUMBER	with,(capi,septe,:,|,]],,,	-1.0	-1.0	[Reissue]	11	
Certified	OTHER	x pla,	-1.0	-1.0	[]	6	
Numbers	NUMBER	trans,	-1.0	-1.0	[]	1	
design	STRING	-1	-1.0	-1.0	[]	1	
Critics	OTHER	-1	-1.0	-1.0	[Critic]	0	
total_length	NUMBER	:,	-1.0	-1.0	[]	1	
location	STRING	-1	-1.0	-1.0	[]	1	
noprose	STRING	-1	-1.0	-1.0	[]	3	
italic	STRING	-1	-1.0	-1.0	[]	1	
Thumbnail	OTHER	-1	-1.0	-1.0	[]	0	
Boarder	OTHER	-1	-1.0	-1.0	[]	0	
type	STRING	album,	-1.0	-1.0	[site, title]	515	
credit	STRING	-1	-1.0	-1.0	[Credits]	2	
writer	OTHER	-,	-1.0	-1.0	[Written]	147	
reviews	NUMBER	:kzft,]]),&page,),|,.,/,	-1.0	-1.0	[review_id, Previous, Review]	20	
issued	OTHER	-1	-1.0	-1.0	[]	2	
release	NUMBER	march,may,april,septe,(japa,|,nd,,]],,,th,novem,	2003.0	2007.0	[Releases]	41	
Dedication	OTHER	-1	-1.0	-1.0	[]	1	
Arrangement	OTHER	-1	-1.0	-1.0	[]	1	
Liberado	NUMBER	grudn,	-1.0	-1.0	[]	1	
lbum	OTHER	th (t,nd al,guy ',]]),album,),.,(albu,]]'',-,)]],)'',nd mi,	-1.0	-1.0	[Album, alum]	200	
single4	NUMBER	),	-1.0	-1.0	[single3]	4	
distributor	OTHER	-1	-1.0	-1.0	[Distributor]	12	
Arranged	STRING	-1	-1.0	-1.0	[]	1	
Arranger	OTHER	-1	-1.0	-1.0	[]	12	
Guests	OTHER	-1	-1.0	-1.0	[Guest]	6	
Programmer	STRING	-1	-1.0	-1.0	[]	1	
Subtitles	OTHER	-1	-1.0	-1.0	[]	0	
Subtitled	NUMBER	extra,	-1.0	-1.0	[]	1	
Videos	OTHER	-1	-1.0	-1.0	[Mixers]	1	
References	STRING	-1	-1.0	-1.0	[]	1	
Catalog	STRING	-1	-1.0	-1.0	[]	1	
Facebook	OTHER	-1	-1.0	-1.0	[]	1	
Layout	STRING	-1	-1.0	-1.0	[]	1	
Photography	OTHER	]],	-1.0	-1.0	[Photographer]	17	
Recorded	OTHER	,at dm,- [[v,at di,- [[s,— dec,- [[t,([[se,bravo,at du,chero,at do,olive,@ red,o stu,at dr,. - m,&   a,[[kon,[[tri,(live,at cy,([[ro,– ors,mega,at de,in {{,right,at db,at da,tride,at en,",at g.,oct -,at el,, dur,at em,&,',(forg,(,- [[b,),dawg,.,([[th,@ har,/,at es,mangr,,,[[gol,-,[[wil,[[win,(reis,- [[c,- [[e,at eg,;,([[st,- [[p,:,at ee,at ed,([[su,- [[l,?,at ec,- [[n,at ea,- [[m,glenw,at fi,; smp,at fl,;  nu,at fo,([[py,nola,; exc,at fr,[[wes,at fu,at ey,, pye,],june–,at fa,−may,- win,at fe,at gl,at i.,at gm,tone,at gj,) jfd,at gp,–may,at gn,excep,tribe,at go,a,, "a&,at gr,([[ri,tel m,of sl,k,- jul,broke,may–,- jun,may—,at ga,groov,s,[[gre,days,−,at ge,guita,~,|,at gi,–mar,at gh,, @ k,st st,, @ j,; adv,at b.,, @ d,, @ g,&nbsp,, @ p,, @ s,{{fac,, @ n,;  lu,march,(volu,st to,, @ b,, @ c,rd -,rd &,morga,at as,at ar,}} [[,& jun,, dyn,at ap,at an,at am,(morg,at al,;  na,assau,acade,at ak,at ai,& jul,at ad,at ab,at ac,, @ t,[[krk,s, ad,–augu,at bo,([[ma,at br,— may,, pum,—july,; sin,at be,; est,,   c,at bi,at d.,at bl,at d-,,   a,(exce,— mar,; sic,,   e,rd,,at ba,([[lo,(redo,at at,at au,,   m,tarqu,at av,at ax,; ech,axis,rolo,([[ne,at co,peerm,nd/,: dec,at cu,([[na,of wo,at cr,at ci,at ch,nd,,([[mu,at cl,labca,iguan,at ca,, tuf,– [[l,at cd,at ce,("thr,royal,at cb,at cc,at bu,(reco,([[me,at by,, tur,capit,&ndas,-b st,, ire,st, t,— aug,longh,(resi,capri,. stu,{{esp,belto,devon,("let,(rere,compo,}} –,pye s,tango,teatr,olymp,[[pit,: sou,tange,, nad,@ roc,–mid,, eas,; sep,, ear,water,[[eag,, pre,prair,sydne,; jan,, pro,at a&,londo,[[pha,, nas,", [[,athen,cts s,patch,[[por,[[poo,. est,: smp,, yot,, yor,: [[a,helsi,, pog,[[dyn,- ken,, pol,[[pol,, pow,/ ear,, ech,, pot,nrg s,@ zma,: [[l,–dece,, ngm,— apr,( [[f,,{{fa,d.c.,: [[z,scale,(blow,([[de,elias,, plu,exche,; ele,; san,timbe,''bry,for r,. rec,for t,decca,at [[,- oct,dodge,,  ([,, isl,;  th,[[pla,- sep,art-s,, nem,at [h,amber,bears,, new,([[en,|s=,—janu,, mix,, ult,, mis,@ new,[[pat,blew,[[det,[[pas,& oct,, ego,; rté,arena,may-,[[har,may,,[[ham,[[han,rob's,elekt,[[dec,[[dea,june,,impul,[[las,june-,laugh,''tre,under,– spr,[[lak,june&,chape,farmy,. "le,]]''',, uni,re-re,, mic,, mid,, s.s,to ap,colum,to au,uníso,n. y.,on co,–earl,–,–apri,—,can-a,.oct.,, ukr,, ais,young,mount,[[pan,@ whi,world,oao s,[[hel,j's h,; nec,, alb,, ala,; new,/wint,calib,|febr,[[dal,thund,, all,(trid,, inn,, uk.,casa,, ele,@ war,mixma,chalk,, aka,, elm,, p,d.j.,, g.r,, l,– sum,, ind,[[pgp,early,, emb,mercu,armst,@ e.m,, emi,alask,, eme,[[hgl,; feb,& feb,, and,, "m",, ann,mixin,("we,; jun,|feb],, amp,/ dec,, #,, ams,, eng,, enh,kendu,seven,, &,[[pem,high,, ami,, (,- nov,starl,ridge,ripco,redwo,a&r s,milk,kiowa,; ( [,, s&k,; ear,start,, ibi,-nov,toyla,, aba,, abd,eleva,-spri,-jan,, abs,–c.,-   j,cello,wonda,, mot,nassa,, mou,(see,, mor,(new,, uto,, mon,[[oxf,, moo,a&r r,?  at,:  [[,the f,]] in,the d,the c,snoot,(disc,the b,the a,malt,- spr,the m,[[the,tour,the i,the h,the g,pacif,, ess,the w,, est,the p,ontar,the r,the s,the v,japs,[[tor,[[tok,burba,[[ton,- sta,q stu,, adv,soho,, mus,dream,, aby,art o,mavin,, [[,([[sã,([[wi,, aco,media,([[wa,(crea,can s,hacet,([[un,stati,sofa,glasg,; dyn,, eur,middl,&amp;,chica,—augu,inch,- sum,[[de,châte,[[lon,gatew,([[to,; roc,, uph,, yas,, ide,[[los,''m'',, eve,]]–,{{mda,total,arch,,-feb,; ton,– lat,thril,–marc,black,|sept,& apr,[[uso,, - d,stagg,''vem,[[ven,[[ver,- swe,not q,chuck,s and,ocean,rostr,tico-,, - j,in [[,–summ,; at,''aka,''zed,/jan,(vanc,serie,("ult,jaggo,; fut,thru,(all,regso,-june,—nove,}}–{{,; dao,one-o,- feb,-july,pit s,[[cri,–feb,kyoti,oct,, at,(acts,(#,& aug,g, gr,arc s,- aug,|may,- aut,jarre,}}-{{,, by,"u,throu,alpha,grays,–sept,audio,; thi,may&n,audit,, db,(port,|marc,-d st,flyin,augus,; the,sep,[[com,[[cor,stanl,[[cop,|octo,-aug,,birdl,scorp,in dr,ton s,- lat,rhyth,esp r,(?),s, wi,in de,arnya,windm,windo,islan,in ch,in co,funde,novem,–[[sp,in ca,, mag,-augu,); [[,, qua,umrk,st-,st,,in bo,in br,regen,in bi,polar,(a,in be,& spr,, hob,in ba,, may,[http,; per,(mixe,-trac,in au,in at,, mal,walls,, man,, hol,, mai,wally,'s,, maj,alham,, mat,in al,(june,, mas,; doc,, mar,(?) a,-dec-,; dim,, var,; sám,(?) m,e cie,; wer,(sing,[[mas,in ho,, van,, in,[[man,[[mam,[[mai,astia,oz so,/ jan,[[mad,: int,washi,may t,–nov,in ha,dalla,may r,- the,b stu,- pet,, "si,in hi,[[hot,in gr,[[hor,vielk,[[hol,may a,[[hon,, jg,[[vau,dž st,}}&nd,, med,-',[[van,-dece,in ge,to ?,in fr,in fl,, day,mixed,, dav,seatt,–octo,, dan,conwa,in fa,-?,(land,; pak,—sept,.",– pol,, le,-apri,may -,in fe,. dru,prinz,in en,in el,mason,, mer,(re-m,, mel,studi,, mem,in es,s, no,abc s,; "th,([[am,([[an,, lev,advis,in kr,unive,([[ab,in lo,in li,recor,-mid,wool,(homi,; whi,in ma,–sep,češnj,[[mel,, ms,san f,; "sl,–{{st,in mo,, hex,, her,in me,feb.,, rpl,in in,(life,–janu,, dec,in it,seedy,, ros,, dee,& jan,, voc,motor,, rou,in ja,([[ca,, vol,, det,, dev,[[cbs,, rob,, roc,([[bu,-summ,&mdas,([[bo,, rom,. mix,belmo,in ki,[[ibi,at	ci,in ko,(one,[[cbg,skyli,nrg,,(in [,stiúi,inner,& sep,in pa,[[cap,, hil,[[can,, liv,; col,- ?,, lit,, liq,[[cas,[[car,, hif,omni,in pi,, rg,in pl,[[cal,in ph,., me,tapew,in ps,-earl,in po,, vis,, rig,& edm,, ric,-wint,, vin,angel,@ bla,; cov,[[mid,whitn,("[[h,, rhy,revol,–june,in qu,bradl,;  [[,[[mia,, lib,; {{u,in mt,in mu,moder,, die,px]],, tv,; swe,disto,in na,–july,, dir,in ne,|janu,in jæ,pwl s,[[mex,—febr,, dim,unite,, x-r,; gig,''''',, st,, lju,("uzv,in oa,-mar,, zin,-may,; stu,, rel,, dou,, rem,produ,in tr,in to,hendr,(dvd),[[pye,basew,in th,, doc,; sub,engla,in sy,oakla,cleve,-{{st,in un,; sun,manor,; sui,, rec,, red,, rea,evil,- yea,s, ea,in ro,horus,engin,in ri,(the,/janu,("cou,''x s,(herm,a&m s,in re,sunse,popce,[[châ,tolli,in sp,in st,, lon,, zee,{{das,in sw,conce,in si,(tk.,/song,; wor,, los,new y,in so,in sa,; sta,in se,brand,(mexi,goose,}}  [,, rak,s, ju,, ram,churc,watt,, rai,, rad,spher,??,grand,|may],skywa,three,, raz,{{ref,pyram,?/,, dub,, hau,[[che,, har,subso,[[chi,, han,cavel,[[war,rosew,/nov,wave,& nov,;  br,[[wal,[[uni,[[chu,?-,west,clay,, dra,šašan,[[web,,-oct,, re-,at 'h,[[cha,woodh,}} -,in va,;  el,(vari,mean,arnol,in vi,;  es,woodc,}} &,in wo,[[moo,– mar,with,(holl,– dec,, dru,– may,; son,woods,squid,atlan,, zaz,; sou,banna,, rca,}}  d,, dri,[[mou,[[mor,; spa,atlas,arden,st. c,,janu,cazai,]] &,]] -,(advi,(isla,–late,- mid,[[bmg,— oct,— feb,viper,encor,schau,: mag,profi,[[nrg,bit,: mar,artis,alex,wdst,bips,bazoo,,  bl,/spri,; a t,("joy,(braz,sveas,,  br,tonst,side,yello,by ju,; lio,(stud,bars,— sep,,  at,-  ma,sorce,in a,july&,-jewe,[[nor,, bru,backy,kiss,cock,maxim,, bro,, bri,july,,july-,; a&r,pichó,; lom,, bra,,  co,- pre,[[ele,cryst,artes,-marc,[[eld,−dec,,,}} i,tallc,[[bri,|df=y,/augu,@ the,, gur,; cch,nd se,|emi,europ,{{fla,[[ind,music,april,nytes,, run,icebo,great,nd qu,, bst,@ lio,may–j,gener,—marc,'', ',-  de,[[bur,, gre,}},,)|yan,, gra,/octo,s.o.s,''do-,, gri,final,{{spa,, p.b,a & r,- may,(puk,westl,@ loh,- mar,weste,febru,foam,daydr,, cat,– mid,}}, h,, car,}}, i,(trk,, nie,, nid,, cav,}}, d,,  je,}}, s,landm,; cha,}}, l,-  fe,clear,}}, [,-sept,}}, c,kingd,, lag,|isle,, gol,addit,; lat,janua,stax,, goo,; lar,,  ic,, lan,green,by at,varis,talen,, lat,by ah,by al,, nip,th]],,(brio,}}, {,k aud,}}, t,durin,vario,, god,eastc,(öreb,thame,, can,&  [[," in,, cap,[[byr,, not,,  lo,, nor,(los,–; ja,, sal,,  li,pgp r,, sam,, nom,estud,- ear,[[isl,, woo,, sat,, sar,– ear,– red,ad st,[[new,, byr,) rus,club],hz so,, wüm,; a c,-janu,, nov,,  no,livin,"indi,find-,-  ja,goodn,, i.d,, gla,-  ju,-may,,, gle,—[[wh,smeck,east,@ avo,'s-pr,− nov,le ch,|dece,- hyd,svens,,  mo,larab,(cd,''dru,duned,also,–spri,[[fan,[[fam,, sea,]] '',— jun,— jul,, see,, sec,, [[v,, [[w,, [[t,, kir,, [[u,, [[z,.  th,[[nas,, [[y,[[nat,q-bic,at :,at <,, [[e,, [[d,, chi,, [[g,, [[f,, [[i,panda,, [[h,at a,, [[k,at b,, [[j,, [[m,, [[l,, [[o,, [[n,blood,, [[p,, kin,, [[s,|apri,, [[r,, ody,missi,, cha,, sep,[[jap,, [[a,, ser,, [[b,, [[c,--apr,, cin,param,, oct,parad,/earl,(midd,, khj,{{sfn,haunt,at q,[[rad,p.s.,at z,-pres,(atla,baby,at x,− apr,, wee,los a,(cd s,(berl,(bern,maste,, sch,quad,, sce,, ghe,, wer,octob,, oce,, scr,hamme,–  ma,, sco,hills,straw,, sig,; bry,barcl,[[bad,remix,good,, gem,, a&r,; man,, geo,, gen,; mar,; mas,[[bat,, ken,, cbs,, sho,[[bar,, a&m,days,,a.t.a,]] (o,(at u,, kel,, ger,-feb.,(a si,-apr,@spli,bell,; hom,sweet,& -,sound,switz,, sil,, sin,{{sma,; r.p,his m,canon,; sm,, cen,, cel,toron,/nove,thomm,, [[ł,, wic,(pigg,–febr,vulca,blake,, wir,, she,( see,, win,, sha,-febr,, wil,, (st,altam,: rev,top r,–pres,julie,{{cit,& mix,: rec,& dec,norma,-  au,, coa,by på,by th,-aug,[[el,orche,at  t,at  s,at  v,at  u,house,, col,]],at  w,, com,, con,and f,and e,and g,and b,and a,and d,by sw,, cox,avex,[[ber,by sp,emi s,and [,abbey,and w,at  [,at  b,and s,at  a,and t,(west,; tra,and o,july–,[[bea,and p,- amb,and m,and n,and l,and i,(with,and j,at  m,||}},cente,at  l,[[d&d,at  r,at  o,druga,at  p,at  e,at  c,at  d,at  g,at  h,centu,; bur,red r,, cra,–?,[[ric,, cri,web i,blank,red b,, cre,, sky,blant,air s,stron,red h,; pri,red g,, kon,, cry,, nyc,radio,s to,, kos,by ri,vox s,, sle,, spy,s -,akade,,  [[,, spr,, a &,''met,at '',&  ja,; [[h,; [[g,cold,; [[j,—octo,phono,[[bir,; [[l,; [[k,; [[n,; [[m,july,; yg,; [[r,; [[t,; [[s,, cle,– {{n,[[mus,, cli,[[mun,, squ,; [[c,(beds,; [[d,; [[a,, cla,gate,; [[b,trax,sing,, clo,sierr,[[,'s-,'s,,@ lar,june,[[rec,no '',[[eur,north,hurtz,, son,[[le,[[rea,- apr,idful,& mar,, wat,, sov,{{ger,& may,- unk,, war,, was,th&nd,, sou,at "b,polyd,polyg,, wal,at "h,, spi,at "t,abyss,at "s,at "r,hamil,–nove,, q d,, spa,at "m,to se,''her,, sto,, str,- dat,''hen,, ste,(orig,, sti,until,[[amh,, sta,, jul,– aug,, jun,reeev,– jan,gaga,– sep,, ava,plati,/apri,hedde,car s,u.s.,, aus,magic,to su,, aut,to sp,may –,- vil,, aud,/ mar,, aug,zampa,at: [,[[sto,at: h,[[sta,at: e,at: c,px|co,gm st,at: o,at: p,at: m,}} to,, ato,at: k,, atl,[[str,/ may,[[stu,at: s,at: t,tour,,, ath,at: r,bear,, sur,may,, ove,[[fri,, sun,[[sun,, sum,ameri,[[fra,–}} {,tw st,[[alb,}} si,, asi,, stu,; bal,, fra,: pre,, fre,; bas,[[jos,, are,, arg,}}; [,; bat,, swi,, aqu,- dec,, arc,, ''a,on th,; mon,, ''b,and,fly s,, ''d,[[son,[[ard,, ''k,e.,''the,, ''o,, ''p,phase,, ''s,spect,[[sou,[[for,, swe,[[ant,}}/{{,|}},passi,(some,edgew,[[flo,guru,(wake,, apr,"atla,--sep,; ras,obliv,, syn,– nov,metro,at,drago,; rak,rainb,; rad,, sys,danse,metre,(song,caper,plaza,(wald,, syc,[[aus,-fall,- jan,(lond,k-ci,; may,at zo,villa,at zs,or au,th fe,monum,frogv,, on-,(earl,or,, old,[[ava,batte,montr,trans,[[fla,month,battl,- nas,-feb,rd st,- {{s,retro,, oly,(''st,th de,in '',at xt,dope,, kay,[[fin,, fox,at zi,, for,; red,at ze,, kal,-octo,-jul,,–jul,—earl,-jun,at yl,plane,[[oly,, foe,nd,& par,at yo,, fog,[[ass,th ce,setai,, azm,in "t,-dec,, tak,, tal,]], [,humbl,, tan,]], l,, tar,fasci,– win,]], s,/may,th au,th av,– fal,live,warne,limef,@ one,th ap,, fin,(us),th an,d&b s,, fir,m-,−june,–dec,[[swe,nothi,newpo,– apr,oct –,–   j,; bla,[[syd,omnis,, fla,santa,("win,; vic,, tcs,th. s,([htt,(arge,locat,, ori,}} wo,– feb,(satu,blue,)  su,in  [,–   o,in:,khz,,, axi,/dece,jailh,; mid," [[w,at sl,, feb,at sm,th ma,,  re,at sk,at sh,at si,th -,, per,at sg,at st,at su,[[geo,at ss,at sp,at sq,at sn,bucha,at so,ruski,- by,at sy,– oct,at sw,clint,@ stu,at te,, jet,(comp,at ta,tarbo,(trac,at ri,@ sup,[[sav,- bi,at re,}} an,,  sa,d sou,at rh,[[san,st no,at rm,[[sar,at ro,th no,at rp,, pee,(colu,, tem,at ru,, ped,syncr,at sc,; s.m,(japa,at se,}} at,reeve,at sa,, ber,at s&,holly,, bev,sprin,– jun,-- ju,– jul,by [[,frans,'': a,donne,, bel,, pgp,rca m,, bea,at qu,''stu,ter-m,to ea,at mö,replu,, phi,, bed,,  oc,at rc,, pha,at ra,amari,at pe,vocal,at pf,-late,park,, the,at ph,at pi,rca v,vorte,at r.,at pl,retir,? -,at po,rca s,(''[[,at pr,to de,[[–]],at pu,at py,, xer,me st,; ann,at qc,at wy,to,onwar,wareh,)  mo,/marc,(spai,at wo,victo,, tic,at y.,nd ap,; var,th,may−,, tho,, jap,, jan,at xf,, jam,; int,st ja,, thi,; nas,, jak,at xa,dark,, fan,st,, thr,, jav,, fai,melbo,, fas,at vu,(star,at vr,(tree,st ju,th ja,mo' h,at vo,, jac,at vi,"o" s,kmh s,hansa,at wh,; apr,at wi,tde r,at wb,(stad,hanse,at we,at rü,at wa,, pie,th ju,[[kar,to fe,-[[go,, tit,|june,to ja,, bac,berge,at ut,]]-[[,, ban,decem,, bar,rd,at un,at ul,at va,rockf,, pla,at vh,at ve,, ple,react,globe,,  su,at to,at tr,langl,s,,s-,at tu,at th,track,rak s,at ti,at tk,—may,)  li,inter,th &,, bas,, bav,—mar,; van,]] –,, baz,at tw,-oct,, bon,at ku,at ko,at kn,loho,; ast,rd ey,dierk,th vi,(fasc,at ke,''',-sep,, boz,nov &,("eur,at ka,–aug,at kl,; isl,at km,, bos,at ki,at:,at jo,delta,[[adv,at ju,to ju,at ja,econd,trees,at ji,nd fl,at je,—pres,, bmg,at im,at io,-  sp,at in,rd de,}},at is,to mi,at ir,(bonu,at iv,at iz,icp s,, tok,at ib,, ton,at ic,at id,spin,th st,at if,at ig,, tob,, tod,. [[c,[[ace,a stu,shang,at j.,[[u.s,at hq,, joh,, joe,at ho,at hv,, tor,at hu,, top,, too,at hy,, tou,-nove,th to,at ha,("num,at he,at hi,to ma,larra,[[abb,st au,at pa,at oz,, pau,at ov,, exc,at or,shire,at ou,at on,sheph,at op,gear,essex,at om,at ol,oneda,, par,at of,power,at oi,[[air,fpsho,at oc,, pan,[[kin,, bla,th/,th,,at ny,th-,ter m,at jó,, pac,),  s,, tra,at nu,-volt,rca's,rhino,sinus,at nr,to no,, tri,to oc,at no,;  '',, tre,[[sev,at ni,at jä,copen,(rca,''soc,alex',at ne,at na,at my,cbs s,[[sig,puma',at mr,at mt,at mu,- dor,at mi,at mk,at o-,, bio,septe,at mo,—dece,, bir,at mn,) [[n,- c.,at ma,at mc,) [[k,at me,at o',at mg,th oc,at ly,nd ha,(soun,[[shi,, bjb,–apr,ar st,at lo,magne,at lu,at ls,rd ga,, ttg,at li,th pl,newbu,at la,bunka,(may,at le,	-1.0	-1.0	[Record]	66931	
Clips	STRING	-1	-1.0	-1.0	[Alias]	2	
Image	OTHER	.jpg|,volt_,zr,.jpg,_,-,	-1.0	-1.0	[]	17	
Picture	STRING	-1	-1.0	-1.0	[]	1	
Arrangements	STRING	-1	-1.0	-1.0	[]	1	
LongType	STRING	-1	-1.0	-1.0	[]	1	
MUSIC	OTHER	-1	-1.0	-1.0	[]	1	
Cover_caption	STRING	-1	-1.0	-1.0	[Cover_capt]	2	
writers	STRING	-1	-1.0	-1.0	[]	1	
Chronolgy	STRING	-1	-1.0	-1.0	[]	1	
Formate	NUMBER	digip,	-1.0	-1.0	[]	1	
Formats	OTHER	"/," ep],x[[vi," pic,xcd]]," cd,-inch,]],]], [,']],," sin," rec,"]],,]] [[,"), [,",downl,"]] v," [[e,x vin,"]],)," [[g,"]] (,rpm r," vin,' vin,), cd,[[com," [[v,cd,	-1.0	-1.0	[Format]	620	
Version	OTHER	, (al,-,	-1.0	-1.0	[Region]	15	
Next_album	NUMBER	),-,	-1.0	-1.0	[Last_album, Next_Album]	6	
Tracks	NUMBER	-1	5.0	21.0	[]	25	
Conductor	OTHER	-1	-1.0	-1.0	[]	3	
TOCT	OTHER	io,	-1.0	-1.0	[]	3	
rev1Score	NUMBER	|,	-1.0	-1.0	[]	2	
Award	STRING	-1	-1.0	-1.0	[]	1	
Mixtape	NUMBER	),	-1.0	-1.0	[]	4	
Mastering	OTHER	carl,june,	-1.0	-1.0	[Mastered]	34	
fusiongenres	OTHER	-1	-1.0	-1.0	[]	1	
Remastered	NUMBER	]],,,-,	-1.0	-1.0	[Registered]	3	
Vocals	STRING	-1	-1.0	-1.0	[]	2	
Notable_instruments	OTHER	-1	-1.0	-1.0	[]	5	
Duration	NUMBER	:,	-1.0	-1.0	[]	9	
Perfomance	NUMBER	,,	-1.0	-1.0	[]	1	
Composers	OTHER	)  [[,	-1.0	-1.0	[Composer]	269	
engineer	STRING	-1	-1.0	-1.0	[Ingeneer]	2	
Status	OTHER	x pla,	-1.0	-1.0	[]	2	
Category	OTHER	-1	-1.0	-1.0	[]	10	
Info	OTHER	rotan,	-1.0	-1.0	[]	4	
Disks	NUMBER	e,(cocc,	1.0	3.0	[Discs]	24	
Origin	SET_OF_STRINGS	-1	-1.0	-1.0	[]	1	
this_album	NUMBER	),	-1.0	-1.0	[This_album]	3	
Sale	NUMBER	|,,,	-1.0	-1.0	[Base]	2	
Awards	OTHER	londo,	-1.0	-1.0	[]	2	
Songwriter	OTHER	-1	-1.0	-1.0	[]	1	
director	OTHER	to,}} (d,, chr,),:''',	-1.0	-1.0	[Directors, direction]	505	
Recordputoed	OTHER	-1	-1.0	-1.0	[]	0	
Upcoming	OTHER	-1	-1.0	-1.0	[Grooming]	2	
executive_producer	STRING	-1	-1.0	-1.0	[]	1	
supervisor	OTHER	-1	-1.0	-1.0	[Supervisor]	5	
stars	NUMBER	.,	-1.0	-1.0	[]	1	
Graham	OTHER	-1	-1.0	-1.0	[]	0	
Img_alt	STRING	-1	-1.0	-1.0	[]	2	
language	OTHER	track,)  [[,	-1.0	-1.0	[Language]	2867	
position	OTHER	([[fi,(us b,(oric,[http,(us),(nl)*,(u.s.,-,(uk),([[po,[[ind,([[or,''',us [[,(jp [,([[uk,([[sw,(uk c,	-1.0	-1.0	[Position]	31	
Management	OTHER	-1	-1.0	-1.0	[]	2	
lyrics	OTHER	-1	-1.0	-1.0	[Lyrics]	14	
chronology	OTHER	film),]] st,(tour,'',album,.jpg,viole,]],]] no,non-s,degre,-keys,days,times,sound,years,studi,|tomm,winte,	-1.0	-1.0	[Chrononology]	6865	
length	NUMBER	,&ndas,px|au,'' –,(dvd),min :,min.,hr.,discs,''',hr,,":,min,,",',hours,min:,cds,(,),min's,.,,,-,;,:,min (,=,}},lp,''  ',[[cd],:  mi,'''-,–,min.,,"]]),cds (,lp:,''':,min,:?? (,min.?,relea,. min,eps |,hour,m,mins,h,-trac,??:??,~,|,&nbsp,album,disc,cds.,minte," -,* min,de we,m:,minut,|m=,'',: (,[[min,|=,: ? d,m.,cd's,minue,eps,[[hou,m (vi,cd,hr,min a,:]],mins:,hrs,mins(,mins.,½ hou,parel,mins,,:''',track,at,}} (o,|sec=,cd:," vin,--,: ??:,hour,,|s=,	5.0	2004.0	[Lentgh]	72734	
Musicians	OTHER	-1	-1.0	-1.0	[]	6	
fecha	DATE	-1	-1.0	-1.0	[]	1	
Ratings	OTHER	.allm,|,	-1.0	-1.0	[Rating]	6	
caption	OTHER	) alb,scand,.html,cd re,(orig,s hou,''pas,)'',cover,recor,disco,'' co,video,'' br,film),cd sp,+,),had t,.,u.s.,[[rso,,,-,digit,by ch,-face,re-re," of,austr,winte,novem,ever',[[ver,press,}},''  (,dvd c,lp,cd+dv,-page,by ba,addit,lp co,relea,cd)'',tripl,-trac,the f,ood s,in ar,delux,durin,octob,ne,box s,[[alb,).,world,st as,ad re,uk la,cd) c,album,nd as,(blp,=gold,.  pr,lp re,dolla,, in,reiss,for ',days',rd &,remas,-d il,warne,, uk,,'',versi,'' is,'zipp,-disc,editi,ter r,rd ro,re-ma,mercu,-d al,phili,europ,''. f,"'',]] dv,-inch,tnn r,re-is,japan,septe,cd +,vinyl,aerie,music,''''',nd re,(twin,track,[[lp,lp'',photo,marti," vin,'s '',cd co,[[mos,	-1.0	-1.0	[Caption]	1327	
tour	NUMBER	|iron,may,uk,th,,%,),([[un,,,th,(uk),uk, t,octob,aus,-pres,:,	2007.0	2007.0	[Tour, that]	29	
Positions	NUMBER	([[or,(nl),u.s.,us bi,[[fra,	-1.0	-1.0	[]	5	
Executives	STRING	-1	-1.0	-1.0	[]	1	
Puntuation	OTHER	-1	-1.0	-1.0	[]	1	
Assessment	OTHER	-1	-1.0	-1.0	[]	0	
genre	OTHER	[[pop,}},.html,]]),.afk.,s|syn,s and,;funk,]],|reas,}}, [,;gard,s|,(musi,), [[,s, [[,]] [[,st ce,s sou,;pop],}} [[,-step,s [[p,)  {{,s in,;tech,),.,(albu,b|r&b,/,st-ce,,,)  [[,'s-st,s,tone],'s po,'s ro,fdoom,:,(japa,|pp=,th ce,-tone,th-ce,	-1.0	-1.0	[Genres, Year, Subgenre]	106289	
Translation	OTHER	-1	-1.0	-1.0	[]	1	
Editor	STRING	-1	-1.0	-1.0	[]	1	
rev2	OTHER	-1	-1.0	-1.0	[rev1]	5	
Narrator	OTHER	-1	-1.0	-1.0	[]	1	
Releasing	NUMBER	|,	-1.0	-1.0	[]	2	
Associated_acts	OTHER	-1	-1.0	-1.0	[]	3	
photographer	STRING	-1	-1.0	-1.0	[]	1	
Italictitle	STRING	-1	-1.0	-1.0	[]	1	
work	OTHER	.cdn.,	-1.0	-1.0	[artwork]	26	
class	OTHER	",|pure,	-1.0	-1.0	[]	7	
format	STRING	-1	-1.0	-1.0	[]	3	
starring	OTHER	-1	-1.0	-1.0	[Starring]	3	
imgsize	NUMBER	px,×,	200.0	200.0	[imagesize]	24	
Original	NUMBER	,,	-1.0	-1.0	[]	2	
upper	OTHER	,% rec,- [[s,[[blu,]] /,]] -,, bwc,locom,imper,) ete,/caro,",%,+,(,ark r,),.,[[int,t's r,, bvc,/,,,xlp v,-,germa,artis,([[sp,(reis,)|imp,- [[e,[[wic,:,, bur,nail,m ent,([[po,)  br,st ro,) , n,corne,)  bi,],(musi,us/uk,st re,/haro,tone,d,e,s|wea,b,c,a,-h (u,l,m,ft. r,hour,k,s pte,v,/rele,t,s,r,guita,~,|,, bwr,(regu,x,[[tvt,st st,(finl,[[grp,lcd,(u.s.,[[noi,[[non,) q d,) col,rd &,cd/lp,}} [[,[[dre,[[ele,)  [[,º,)|gia,st uk,/ pfg,d med,°,,   b,) ([[,{{fla,(mono,) san,ième,), [[,music,go! r,picor,april,) har,nd re,br-,([[mo,peace,musiq,weapo,(viny,(reco,[[emi,(cd-d,'' [[,xa-,(limi,, gra,pj-,(rest,deuce,%beba,) nor,) / s,nd st,) los,(cds),)|gen,febru,(mona,, cas,) and,/ tic,)init,)|cbs,) / [,[[nin,st &,compa,) / g,''':,～,|brid,(splh,hole,[[wou,) / (,bloss,ceven,-tera,([[in,|alie,landf,on [[,londo,#musi,([[ja,)|sil,ad re,pld,lp re,er pi,|deep,|stru,/[[e,bros.,e_rec,cycle,minut,(row),enter,: [[h,: [[i,beat],)   (,[[irs,paul,([[gr,drvh,sunbe,u.s.:,) , [,- cat,w/lis,h ent,. rec,major,)   p,)   t,play,)   m,[[pla,)   b,)   [,- sel,west.,(denm,edl'',lp -,/ fla,[[den,[[del,gn),[[fad,, [[e,, [[i,[[rap,, [[j,cg re,lp ([,) fea,, [[p,, [[s,, [[r,gkm,us/ge,koc-,sign],re-re,posit,, [[a,, [[c,press,prest,)}},lp),–,": [[,apost,-pres,(atla,(cd),] / c,/aura,]] an,(lp),[[nar,(cd a,bvcr-,[[hea,, imp,x lp),/b/c,, uk),crash,]] (j,]] (o,[[les,) cd,]] (u,(not,, s,)|jaz,ltd,{{sma,thumb,) (la,cdl),/bst,volt,(uk:,[[tel,-inch,[[tem,[[ten,(uk),hicko,(uk,,) rob,vinyl,([[,]] (c,.com],by vh,h  [[,, sha,sony,alarm,: rec,very,welco,cd),s)|fr,p  (n,) tra,(cd+d,emi a,cd, c,]],|!k,by su,and a,inc.|,usa [,lp),,a rec,and p,?prod,and m,[[lib,/ djx,solid,) pat,us: a,lp) [,[[grö,us: [,origi,(firs,lemon,(cd+[,cents,]]) ,,bst,[[riv,]]) (,wise],hz}},[[rhi,,ceri,leu,beads,|plag,d rec,[[thr,ad]],radio,[[the,en re,o, [[,(u.k.,us -,/avan,''[[r,, us),,  [[,[[tof,; [[f,llc,) red,) (ex,bx-,mv]],; [[r,remas,) rev,obala,]]  t,/ xll,tonef,trap,, acc,]]  a,) (dv,]]  b,]]  c,/blp,gxf,inc.,]]  m,cd/re,[[,[[rep,)|eve,issue,[[rec,([[un,px|us,[[reg,[[bla,[[rei,([[vi,orang,px|uk,g ([[,]]}}),ksbl-,inch,) (cd,msx.,/flr,us, c,, wal,]]  !,([[uk,]]  (,(germ,store,p rec,visio,(orig,"),/[[lo,/ cmr,(nono,over,wagra,– nse,discs,rio r,ú rec,ltd.,uk: c,/sp-,uk: [,gx,/ xct,sleep,(euro,gil,gl,/[[me,''and,x pla,mono,[[ver,dali/,)/arm,/ mag,k rec,(unit,/sp,& am,deck,[[stu,italy,beat,)}} l,)|hom,itali,(ilps,eh,ep,/cd:,px|ca,lp, u,) blu,me%,t ([[,mcd,cd (c,stone,cd ([,xb re,reiss,, ark,(nort,|gold,/mg,pop]],'',scien,archi,[[cre,/univ,)}} (,#mau,dimen,cs,[[qwe,[[fon,[[vir,editi,[[son,e-,(cana,ainl,)/[[f,[[sou,cd,]],,bxbyf,[[spa,]]),[[spi,a&m,/http,|fuel,hands,/[[ji,five,ounce,game,m dis,augus,[[con,/ che,) no,ad,[[coo,[[col,[[com,rd. s,) {{f,|rj's,th fl,(uk),,us re,th fr,sylla,), so,sr-,-s),(uk);,) ,,) (,, fnc,-->,(inte,d vis,cd is,oap-,e ent,[[ave,'s gy,&aid=,);  [,/l.a.,)|tan,month,amp r,skybl,/[[em,), re,novem,castl,rd st,lp,(eul,/ a&m,); [[,[[asi,trap],rc]],st-,/aezr,[[a-w,)|vic,stere,ml,]] [[,acres,mj,[[atl,)|par,– ana,) vel,ft.,,dvd,cd)'',(albu,barre,-trac,trap},perlo,(cass,/ cdf,[[ast,consp,),,th ce,[[hip,), ph,-d,) in,-j,; dis,-g,-h,]], [,(eu),jk,-f,) (u.,), wo,}} /[,th be,cd  [,rerel,/lazy,(''un,y)  f,! rec,]])}},}} uk,(us,,g]],(us),'s lp,), ve,-r,: lio,-s,-n,(''to,)  us,/[[at,/[[au,_ ins,)|new,) gn,) - r,&id=,re-is,japan,k),ad|,[[awa,) (uk,(uk)|,, dar,)  th,° pro,; pas,.com/,"]] (,cd  (,), th,|vh,/[[ch,)  st,/b~c,), tr,/[[co,)|reg,studi,) (vh,/bn,)  s.,skidi,)|fli,) uni,cd re,[[a&m,[[gen,ready,th mo,spot,)'',[[gef,recor,/ glo,) sty,)|mod,)  re,), io,/ awc,)  rc,xf,)  ra,[[cen,)  ro,mono,,(ster,h mus,[[mer,jwp," - [,") su,(enha,(japa,ways,) zom,), he,x),([[co,ad/[[,by [[,uk re,, ded,)  ot,th ki,[[mat,s lab,uk,cd) /,bunga,p / [,)|dom,x lp,tyrol,®|b.o,/crl,/ mrk,uk la,[[aad,frost,[[cap,tf,td,) [eu,)''',[[car,)]],lp: t,(eu a,th im,raks,tapes,(spar,sx,,  wa,sk,sd,versi,[[mil,o rec,kids,)|dia,/ cs,/ srs,(stan,_fly|,/cti,xlp),;  [[,ot (#,brcd,"un-r,cd tk,/b),in mu,brick,), la,mx-,_ente,decem,t),distr,), li,, pla,tot,") ([,rcd-,]]/[[,(uk d,girls,x  uk,us cd,s-,), mo,feet,l rec,)  li,inter,th &,)  ma,/ sur,), lp,(wow),.cs (,/[[un,), an,/coop,rs st,produ,yesbo,ark]],men w,men r,) cap,), (,''',f rec,at%,), au,), bm,[[mo',fer-p,alerc,); mo,, rec,ad/ba,thras,copie,-ab,(also,)  go,tiger,}},nd ce,th si,/flam,tónar,spin,st ci,one l,/colu,|pure,st ce,st ed,ad]]&,relea,to li,ad]]/,rue c,[[kkr,saint,ad]],,point,/[[wa,new n,cloud,[[ult,/prlp,),  [,uk cd,th re,wise,|k,st av,jazz],/ mcd,)  es,rykx,/ mcc,rack,shot,|b,zencd,kids/,(tk,grand,uk &,three,a, bw,[[nuc,s gym,secon,/[[ra,[[kin,/ ls,[[chr,),  s,class,, har,orles,th),) get,[[war,/ mcl,),  m,, blp,[[wax,-orig,[[uni,dk]],west,) [[e,) [[f,) [[c,) [[d,) [[a,) [[b,[[sir,uk) [,k sou,)  co,, re-,k, hi,/[[so,), co,) [[v,) [[u,) [[s,) [[r,septe,) [[p,/b cd,) [[o,(usa),) [[m,) [[l,) [[k,) [[i,) [[h,) [[g,)  ca,; ''',ème b,); on,natio,[[ki/,rd ge,(rev,) [[w,) [[z,)  de,/b ([,th pl,/b (c,[[sha,[[ful,), ea,)  da,/b (j,	-1.0	-1.0	[lower, Number]	105665	
Producers	OTHER	,; cd,]] &,, ste,, dré,"),, sta,'s [[,)|sym,kinan,ta li,syria,rd, a,' p),,&,',höhep,-off],),.,/,ton,,,,-,|the,tym|t,]] se,:,j. wa," she,u oli,/ mar,l (ge,m ent,& mor,o (am,leave,volt,,side,): [[,) cur,dj,],(musi,k sho,u inc,u" on,volt],ice m,tone,canad,#trac,"&nbs,ft. j,days,bit,,en,u pra,|,cc]],,ft. g,by ha,july",, ad,rd ra,&.,mil"],/ lin,reiss,, bri,saab],hero],th wo,fprod,scien,speci,mafia,mil",mm pa,and,)  [[,: las,cc,ftfty,, bud,[[ant,horse,l cha,), [[,tall,|dré],music,rd pr,syl,,, dj,rods],ent.,,lg@]],, da,|alex,menta,am," jam,elusi,rainm,[[cor,hero|,oh!,glocc,l & e,id di,st, r,aurea,(matt,da]],only),, gra," you,sup t,d & d,keys,,)|sli,, p.f,([[ki,-off,ighty,king|,aurel,), re,th di,mill",] and,, nic,band%,}}, s,keys],, mad,, nig,wound,}}, m,by bo,}}, [,king],lp: [,)|mar,}}, c,}}, a,]] [[,kt, f,, pra,ron g,|joel,l dj,e-cle,, may,da, c,|warh,, v d,, one,dope],}}, t,'s an,ne,, j.,).,th ce,, can,. pc.,, mar," sas,-a,, id,]], c,]], b,s]];,bars,,; dis,, you,]], [,]], l,]], m,]], p,]], r,]], s,]], d,shots,]], e,]], f,]], g,]], h,loc s,live,am mu,famil,g's,,, fir,: [[h,]], t,team,|dedr,andre,) , d,n),d's,sinat,-[[ne,bit p,real,,dvd-a,, dav,, dat,deep,,, dan,to b,deep],)   n,)|dav,([[ex,, met," hor,, ora,bit|e,cd re,(band,skido,x uni,, [[w,)'','s, j,, [[t,, [[u,recor,bit]],, [[y,, off,year,[[dee,, [[d,, [[f,, [[h,) gig,, [[k,, [[j,, chr,, [[m,, [[l,]] e.,, [[p,lil b,, [[s,tuff,,eleme,, [[r,, ter,demos,, mik,), ju,) jun,re-re,, sel,, cha,, [[a,, [[b,, [[c,boro,th ke,ric (,a]],) mic,jb mr,finge,–,face,,—,kz, f,& [[t,)  pe,ne]],,(rapp,•,manyf,, rod,, the,'s, [,g, [[,back,]] an,®|b.o,um,}} da,% pur,pac]],(rap,'anim,south,|dust,), ho,to,[[dan,drop,,skril,, thx,am]],, hil,[[dav,, tho,u car,|yuko,calib,, jay,-skin,um]],,rd ba,, a,]] (n,, ric,watts,rd an," mos,hz pr,angel,awkwa,, lil,, sil,|geof,volt,, bac,, ant,.comm,off]],micro,only,,dayso,]] ([," fra,, k-d,'s]],,cent,''''',, wit,kid,,, #,), ma,track,) tom,e' sm,) ton,, bat,th &,da]],,may|c,, k.e,, env,(dan,boyz],caleb,produ,.html,k, jo,orche,_%,]] ki,th vi,]],, kri,, cos,[[bei,and d,]] jo,and c,, don,' wat,xlc,,and [,) tre,[[cli,th wa,and r,|vect,da hi,cent],/ pla,blocc,cents,}},, mr.,star,,am cl,king,or nu,rude,,, ton,hab]],th st,rd di,"), [,ball,)  ho,a. ev,guy,, joh,, joe,relea,ixth,, cro,|jaak," wal,, moh,or no,]] in,, kom,chain,m s,the h,swift,, lod,}}  [,(grou,#cont,s]],um]],nd ii,fac]],, d-g,(prod,$ourc,grand,[[tom,|crun,, par,uu's],remas,kt) k,secon,shoes,")  g,, tra,strip,, han," bla,j ban,, tre,]]  f,ter t,k]],media,) [[e,cc]],-tay],state,north,rd, v,-keys,) [[s,, son,, ice,ak, g,rd, p,]] do,) [[p,) [[m,) [[l,unlim,) [[j,) [[i,rd, f,}} &,|gee,th py,& max,th pr,]] em,th pl,), dw,gauge,d" de,]]  (,	-1.0	-1.0	[Producer]	76149	
with	STRING	-1	-1.0	-1.0	[Title]	11	
Cover_size	OTHER	px,	-1.0	-1.0	[]	3	
website	OTHER	-musi,?mt=,	-1.0	-1.0	[Fansite, Webzine]	22	
Copyrighted	STRING	-1	-1.0	-1.0	[]	1	
Leight	OTHER	-1	-1.0	-1.0	[Bought]	1	
Img_capt	OTHER	songs,cd re,,,	-1.0	-1.0	[]	11	
Minutes	NUMBER	-1	40.0	40.0	[]	1	

