origprop	OTHER	-1	-1.0	-1.0	[]	5	
claims	STRING	-1	-1.0	-1.0	[]	6	
topics	OTHER	-1	-1.0	-1.0	[]	5	
origyear	OTHER	s,	-1.0	-1.0	[]	5	
image_width	NUMBER	px,	-1.0	-1.0	[]	1	
image	STRING	-1	-1.0	-1.0	[]	2	
caption	STRING	-1	-1.0	-1.0	[]	1	
laterprop	OTHER	-1	-1.0	-1.0	[]	2	
seealso	OTHER	-1	-1.0	-1.0	[]	6	

