president	OTHER	-1	-1.0	-1.0	[]	0	
vicechair	STRING	-1	-1.0	-1.0	[]	1	
party_logo	OTHER	px|so,px|]],px]],px|df,px|de,sm.pn,px|ce,px|li,px|il,px|co,px|or,px|ca,	-1.0	-1.0	[]	68	
treasurer	OTHER	-1	-1.0	-1.0	[]	3	
governor	STRING	-1	-1.0	-1.0	[]	1	
spokesperson	OTHER	-1	-1.0	-1.0	[]	0	
religion	OTHER	-1	-1.0	-1.0	[]	1	
founded	NUMBER	-1	1854.0	1854.0	[]	1	
slogan	OTHER	-1	-1.0	-1.0	[]	2	
assemblyleader	OTHER	-1	-1.0	-1.0	[]	6	
co_chairs	OTHER	-1	-1.0	-1.0	[]	0	
national	OTHER	–,, ind,-,	-1.0	-1.0	[]	126	
international	OTHER	-1	-1.0	-1.0	[]	7	
fiscalpolicy	OTHER	-1	-1.0	-1.0	[]	3	
footnotes	OTHER	somet,	-1.0	-1.0	[]	109	
colours	OTHER	;  a,	-1.0	-1.0	[colors]	116	
party_articletitle	STRING	-1	-1.0	-1.0	[]	110	
position	OTHER	-1	-1.0	-1.0	[]	26	
chairman	OTHER	-1	-1.0	-1.0	[Chairman, Chairwoman, chair]	132	
vicechairman	OTHER	-1	-1.0	-1.0	[]	1	
name_english	STRING	-1	-1.0	-1.0	[]	1	
senateleader	OTHER	-1	-1.0	-1.0	[]	90	
leader	OTHER	-1	-1.0	-1.0	[]	1	
ideology	OTHER	-1	-1.0	-1.0	[]	133	
foundation	NUMBER	,s,as un,june,or ea,|,?,,,	1816.0	2002.0	[]	89	
socialpolicy	OTHER	-1	-1.0	-1.0	[]	3	
colorcode	OTHER	a,	-1.0	-1.0	[]	4	
houseleader	OTHER	-1	-1.0	-1.0	[]	83	
website	OTHER	-1	-1.0	-1.0	[]	125	
party_name	STRING	-1	-1.0	-1.0	[]	139	
headquarters	OTHER	,hills,hampt,w. ba,state,lafay,higgi,keawe,north,e. ma,, col,[[cha,n str,, sta,east,s. va,l st,,plato,sw,mcleo,park,dearb,b ave,, pho,lake,, [[p,e. gr,,,pratt,-,maple,ryndo,w. mi,-a ne,partr,n. be,e. je,s. wi,	-1.0	-1.0	[]	85	
secretary	OTHER	-1	-1.0	-1.0	[]	4	
seats5_title	OTHER	-1	-1.0	-1.0	[seats4_title]	11	
seats5	NUMBER	|,	-1.0	-1.0	[UHseats, seats4, seats3]	89	
dissolution	NUMBER	]],	-1.0	-1.0	[]	2	
seats2	OTHER	|,	-1.0	-1.0	[seats1]	8	

