kunya	STRING	-1	-1.0	-1.0	[]	1	
expl	OTHER	-1	-1.0	-1.0	[]	0	
ism	STRING	-1	-1.0	-1.0	[]	1	
trans	STRING	-1	-1.0	-1.0	[]	1	
regnal	STRING	-1	-1.0	-1.0	[]	1	
tribe	OTHER	-1	-1.0	-1.0	[]	1	
nisba	OTHER	-1	-1.0	-1.0	[nasab]	0	
ar	OTHER	-1	-1.0	-1.0	[]	1	
laqab	STRING	-1	-1.0	-1.0	[]	1	

