significant_works	OTHER	-1	-1.0	-1.0	[]	1	
architects	OTHER	–,),	-1.0	-1.0	[]	79	
website	STRING	-1	-1.0	-1.0	[]	1	
image	OTHER	).jpg,amphi,.jpg,seanm,world,large,x,	-1.0	-1.0	[]	54	
significant_buildings	OTHER	]], l,yorkv,) [[r,north,), [[,),)   [,, [[a,-,	-1.0	-1.0	[]	75	
caption	OTHER	inter,pavil,.,-,	-1.0	-1.0	[]	43	
location_city	OTHER	-1	-1.0	-1.0	[]	1	
location_country	STRING	-1	-1.0	-1.0	[]	1	
homepage	OTHER	-1	-1.0	-1.0	[]	1	
city	OTHER	sw,	-1.0	-1.0	[]	72	
significant_design	OTHER	e,	-1.0	-1.0	[]	21	
founded	NUMBER	(as r,(as d,s,}},(resu,,,-,	1853.0	2009.0	[]	85	
dissolved	OTHER	-1	-1.0	-1.0	[]	7	
partners	OTHER	); jo,	-1.0	-1.0	[]	9	
significant_projects	OTHER	, ens,dubai,c mus,manch,-,	-1.0	-1.0	[]	23	
awards	OTHER	) bes,[[sti,civic,[[wor,desig,)  pr,),oar p,sia-g,,,for i,) [[s,[[ame,envir,) [[r,) [[p,[[rib,socie,[[ria,|,) (,	-1.0	-1.0	[]	39	
name	STRING	lhd,xn,archi,	-1.0	-1.0	[]	84	
branches	STRING	-1	-1.0	-1.0	[]	1	
coordinates	NUMBER	|,.,	-1.0	-1.0	[]	5	

