first_incumbent	OTHER	-1	-1.0	-1.0	[]	10	
website	OTHER	archb,	-1.0	-1.0	[]	12	
coatofarms	STRING	-1	-1.0	-1.0	[]	3	
image	OTHER	feb,archb,st ce,	-1.0	-1.0	[date]	15	
diocese	OTHER	-1	-1.0	-1.0	[]	9	
archbishopric	OTHER	-1	-1.0	-1.0	[]	11	
country	OTHER	-1	-1.0	-1.0	[]	4	
province	OTHER	-1	-1.0	-1.0	[]	6	
cathedral	OTHER	-1	-1.0	-1.0	[]	9	
font_color	STRING	-1	-1.0	-1.0	[]	12	
border	STRING	-1	-1.0	-1.0	[]	11	
incumbent	OTHER	-1	-1.0	-1.0	[]	11	

