flagbearer	OTHER	-1	-1.0	-1.0	[]	0	
bronze	NUMBER	-1	0.0	-1.0	[]	1	
total	NUMBER	-1	0.0	-1.0	[]	1	
games	NUMBER	-1	2010.0	2010.0	[]	1	
rank	OTHER	-1	-1.0	-1.0	[]	1	
competitors	NUMBER	-1	10.0	10.0	[]	1	
silver	NUMBER	-1	0.0	-1.0	[]	1	
sports	NUMBER	-1	3.0	3.0	[]	1	
gold	NUMBER	-1	0.0	-1.0	[]	1	

