flagbearer	OTHER	-1	-1.0	-1.0	[]	0	
bronze	NUMBER	-1	0.0	4.0	[]	4	
total	NUMBER	-1	1.0	6.0	[]	4	
games	NUMBER	asian,	-1.0	-1.0	[]	6	
rank	NUMBER	-1	7.0	31.0	[]	6	
competitors	NUMBER	-1	2.0	17.0	[]	3	
silver	NUMBER	-1	0.0	2.0	[]	3	
sports	NUMBER	-1	1.0	3.0	[]	2	
officials	OTHER	-1	-1.0	-1.0	[]	0	
gold	NUMBER	-1	0.0	2.0	[]	4	

