flagbearer	OTHER	-1	-1.0	-1.0	[]	0	
bronze	NUMBER	-1	0.0	1.0	[]	4	
total	NUMBER	-1	0.0	3.0	[]	4	
games	NUMBER	west,asian,	-1.0	-1.0	[]	5	
rank	OTHER	-1	-1.0	-1.0	[]	5	
competitors	NUMBER	-1	3.0	24.0	[]	2	
silver	NUMBER	-1	0.0	1.0	[]	4	
officials	OTHER	-1	-1.0	-1.0	[]	0	
sports	NUMBER	-1	2.0	2.0	[]	1	
gold	NUMBER	-1	0.0	2.0	[]	4	

