champion	STRING	-1	-1.0	-1.0	[]	1	
logo	OTHER	-1	-1.0	-1.0	[]	0	
host	STRING	-1	-1.0	-1.0	[]	1	
runnerup	STRING	-1	-1.0	-1.0	[]	1	
scorer	OTHER	-1	-1.0	-1.0	[]	1	
dateto	NUMBER	-,	-1.0	-1.0	[datefrom]	2	
nations	NUMBER	-1	9.0	9.0	[]	1	

