flagbearer	OTHER	-1	-1.0	-1.0	[]	0	
bronze	NUMBER	-1	0.0	6.0	[]	7	
total	NUMBER	-1	0.0	12.0	[]	7	
games	NUMBER	asian,	-1.0	-1.0	[]	7	
rank	NUMBER	-1	7.0	32.0	[]	7	
competitors	NUMBER	-1	5.0	52.0	[]	3	
silver	NUMBER	-1	0.0	5.0	[]	6	
officials	OTHER	-1	-1.0	-1.0	[]	0	
sports	NUMBER	-1	4.0	5.0	[]	2	
gold	NUMBER	-1	0.0	1.0	[]	6	

