flagbearer	OTHER	-1	-1.0	-1.0	[]	0	
bronze	NUMBER	-1	5.0	98.0	[]	30	
total	NUMBER	-1	19.0	416.0	[]	30	
games	NUMBER	east,asian,	-1.0	-1.0	[]	30	
rank	NUMBER	asian,	1.0	4.0	[]	30	
competitors	NUMBER	-1	81.0	960.0	[]	11	
silver	NUMBER	-1	5.0	119.0	[]	30	
officials	NUMBER	-1	87.0	87.0	[]	1	
sports	NUMBER	-1	9.0	46.0	[]	7	
gold	NUMBER	-1	4.0	199.0	[]	30	

