flagbearer	OTHER	-1	-1.0	-1.0	[]	0	
bronze	NUMBER	-1	1.0	12.0	[]	6	
total	NUMBER	-1	1.0	25.0	[]	5	
games	NUMBER	west,asian,	-1.0	-1.0	[]	6	
rank	NUMBER	-1	6.0	19.0	[]	6	
competitors	NUMBER	-1	44.0	44.0	[]	1	
silver	NUMBER	-1	0.0	9.0	[]	6	
sports	NUMBER	-1	6.0	6.0	[]	1	
officials	OTHER	-1	-1.0	-1.0	[]	0	
gold	NUMBER	-1	0.0	8.0	[]	6	

