flagbearer	OTHER	-1	-1.0	-1.0	[]	2	
bronze	NUMBER	-1	0.0	37.0	[]	34	
total	NUMBER	-1	0.0	214.0	[]	34	
games	NUMBER	south,asian,	-1.0	-1.0	[]	35	
rank	NUMBER	-1	1.0	12.0	[]	34	
competitors	NUMBER	-1	5.0	625.0	[]	11	
silver	NUMBER	-1	0.0	59.0	[]	34	
officials	NUMBER	-1	150.0	150.0	[]	1	
sports	NUMBER	-1	2.0	41.0	[]	8	
gold	NUMBER	-1	0.0	118.0	[]	34	

