flagbearer	OTHER	-1	-1.0	-1.0	[]	0	
bronze	NUMBER	-1	0.0	19.0	[]	16	
total	NUMBER	-1	0.0	51.0	[]	16	
games	NUMBER	west,asian,	-1.0	-1.0	[]	16	
rank	NUMBER	-1	3.0	33.0	[]	16	
competitors	NUMBER	-1	7.0	47.0	[]	3	
silver	NUMBER	-1	0.0	22.0	[]	16	
officials	OTHER	-1	-1.0	-1.0	[]	0	
sports	NUMBER	-1	2.0	6.0	[]	2	
gold	NUMBER	-1	0.0	21.0	[]	16	

