flagbearer	OTHER	)|kim,	-1.0	-1.0	[]	6	
bronze	NUMBER	-1	0.0	91.0	[]	34	
total	NUMBER	-1	5.0	260.0	[]	34	
games	NUMBER	east,asian,	-1.0	-1.0	[]	34	
rank	NUMBER	-1	2.0	9.0	[]	34	
competitors	NUMBER	-1	46.0	806.0	[]	29	
silver	NUMBER	-1	3.0	80.0	[]	34	
sports	NUMBER	-1	4.0	41.0	[]	24	
officials	NUMBER	-1	24.0	238.0	[]	19	
gold	NUMBER	-1	1.0	96.0	[]	34	

