flagbearer	OTHER	-1	-1.0	-1.0	[]	0	
bronze	NUMBER	-1	2.0	2.0	[]	1	
total	NUMBER	-1	3.0	3.0	[]	1	
games	NUMBER	-1	2010.0	2010.0	[]	1	
rank	NUMBER	-1	26.0	26.0	[]	1	
competitors	OTHER	-1	-1.0	-1.0	[]	0	
silver	NUMBER	-1	1.0	1.0	[]	1	
sports	OTHER	-1	-1.0	-1.0	[]	0	
gold	NUMBER	-1	0.0	-1.0	[]	1	

