flagbearer	OTHER	-1	-1.0	-1.0	[]	0	
bronze	NUMBER	-1	1.0	1.0	[]	1	
total	NUMBER	-1	6.0	6.0	[]	1	
games	NUMBER	-1	2010.0	2010.0	[]	1	
rank	NUMBER	-1	16.0	16.0	[]	1	
competitors	OTHER	-1	-1.0	-1.0	[]	0	
silver	NUMBER	-1	4.0	4.0	[]	1	
sports	OTHER	-1	-1.0	-1.0	[]	0	
gold	NUMBER	-1	1.0	1.0	[]	1	

