flagbearer	OTHER	-1	-1.0	-1.0	[]	1	
bronze	NUMBER	-1	0.0	53.0	[]	10	
total	NUMBER	-1	0.0	110.0	[]	10	
games	NUMBER	east,asian,	-1.0	-1.0	[]	11	
rank	NUMBER	-1	4.0	19.0	[]	11	
competitors	NUMBER	-1	3.0	401.0	[]	6	
silver	NUMBER	-1	0.0	31.0	[]	10	
officials	NUMBER	-1	152.0	152.0	[]	1	
sports	NUMBER	-1	2.0	37.0	[]	5	
gold	NUMBER	-1	0.0	26.0	[]	10	

