flagbearer	STRING	-1	-1.0	-1.0	[]	2	
bronze	NUMBER	-1	7.0	27.0	[]	5	
total	NUMBER	-1	12.0	40.0	[]	5	
games	NUMBER	south,asian,	-1.0	-1.0	[]	6	
rank	NUMBER	-1	9.0	19.0	[]	6	
competitors	NUMBER	-1	22.0	163.0	[]	4	
silver	NUMBER	-1	3.0	11.0	[]	5	
sports	NUMBER	-1	5.0	8.0	[]	2	
officials	NUMBER	-1	13.0	67.0	[]	2	
gold	NUMBER	-1	0.0	4.0	[]	5	

