cost7	NUMBER	milli,.,,,	4.0	4.0	[cost6]	19	
cost8	OTHER	}},|,|apri,,,	-1.0	-1.0	[closed, closed8]	17	
replacement8	OTHER	,d exp,years,),	-1.0	-1.0	[replacement7]	15	
course	OTHER	-1	-1.0	-1.0	[count]	0	
vehicles	NUMBER	or mo,	1.0	32.0	[]	13	
single_rider	STRING	-1	-1.0	-1.0	[]	9	
supplier	STRING	-1	-1.0	-1.0	[]	1	
logo_width	NUMBER	px,	-1.0	-1.0	[]	19	
rows_per_boat	NUMBER	-1	1.0	1.0	[]	1	
logodimensions	NUMBER	px,	-1.0	-1.0	[]	2	
vehicle_names	OTHER	-1	-1.0	-1.0	[]	3	
restraint_type	STRING	-1	-1.0	-1.0	[]	1	
location8	STRING	-1	-1.0	-1.0	[location7]	94	
gforce	NUMBER	-1	1.5	5.5	[force]	8	
small	OTHER	-1	-1.0	-1.0	[]	8	
soft_opened8	OTHER	,,	-1.0	-1.0	[soft_opened6, soft_opened7, soft_opened4, soft_opened2, soft_opened3]	3	
custom_value_8	OTHER	–,,th wo,]],	-1.0	-1.0	[custom_value_7]	42	
soft_opened5	NUMBER	|,,,	-1.0	-1.0	[soft_opened]	9	
sitearea_sqm	NUMBER	-1	53949.0	177000.0	[sitearea_sqft]	2	
animatronics	NUMBER	-1	2.0	2.0	[]	1	
control_system	OTHER	-1	-1.0	-1.0	[]	0	
transfer_accessible	STRING	-1	-1.0	-1.0	[]	2	
reopened	OTHER	|,,,	-1.0	-1.0	[opened4, opened6, opened5]	11	
custom_label_7	OTHER	-1	-1.0	-1.0	[custom_label_5, custom_label_6, custom_label_4]	0	
custom_label_8	STRING	-1	-1.0	-1.0	[custom_label_3, custom_label_1, custom_label_2]	38	
capacity	NUMBER	-,	300.0	5000.0	[]	13	
virtual_queue_status	STRING	-1	-1.0	-1.0	[]	20	
logo	STRING	,- a c,logo.,	-1.0	-1.0	[host]	29	
site_area	OTHER	-1	-1.0	-1.0	[]	0	
previousnames	STRING	-1	-1.0	-1.0	[]	1	
designer	OTHER	-1	-1.0	-1.0	[]	18	
virtual_queue_name	OTHER	u]],	-1.0	-1.0	[]	27	
caption	STRING	ft dr,),.,-d ad,	-1.0	-1.0	[]	31	
appearances	STRING	-1	-1.0	-1.0	[]	1	
angle	NUMBER	-1	240.0	240.0	[]	1	
h	NUMBER	-1	135.0	135.0	[]	1	
virtual_queue_image	STRING	u ava,	-1.0	-1.0	[]	27	
imagedimensions	NUMBER	px,	-1.0	-1.0	[]	26	
lift_count	OTHER	-1	-1.0	-1.0	[]	0	
assistive_listening	STRING	-1	-1.0	-1.0	[]	7	
acceleration	OTHER	-1	-1.0	-1.0	[]	0	
acceleration_from	OTHER	-1	-1.0	-1.0	[]	0	
type	OTHER	holly,: jud,film),}},-d fi,-d]],	-1.0	-1.0	[theme]	89	
acceleration_mph	OTHER	-1	-1.0	-1.0	[acceleration_in]	0	
closed3	NUMBER	|,	-1.0	-1.0	[]	1	
drop_m	NUMBER	-1	6.0	125.0	[drop_ft]	6	
speed_rpm	NUMBER	-1	10.0	76.0	[speed_mph]	10	
height_m	NUMBER	-1	23.0	301.0	[height_ft]	15	
riders_per_vehicle	NUMBER	in al,	2.0	200.0	[]	18	
length_ft	NUMBER	-1	1090.0	1090.0	[]	1	
inversions	NUMBER	''tom,	-1.0	-1.0	[]	1	
riders_per_row	NUMBER	-1	3.0	20.0	[]	8	
closed7	OTHER	|,	-1.0	-1.0	[closed5, closed6]	3	
footnotes	OTHER	-1	-1.0	-1.0	[]	0	
rows	OTHER	circu,	-1.0	-1.0	[]	9	
propulsion	OTHER	-1	-1.0	-1.0	[]	0	
status8	STRING	-1	-1.0	-1.0	[status, status7, status3, status2]	78	
status6	OTHER	-1	-1.0	-1.0	[status5, status4]	8	
length_m	OTHER	-1	-1.0	-1.0	[]	0	
section8	OTHER	-d fi,world,d dis,	-1.0	-1.0	[section7]	80	
opened8	NUMBER	}},june,decem,|,,,	1972.0	2013.0	[opened3, opened7]	84	
manufacturer	STRING	-1	-1.0	-1.0	[]	24	
lift	OTHER	-1	-1.0	-1.0	[]	0	
coordinates3	NUMBER	|,.,	-1.0	-1.0	[coordinates2]	16	
launch_count	OTHER	-1	-1.0	-1.0	[]	0	
coordinates8	OTHER	-1	-1.0	-1.0	[coordinates6]	0	
attraction_height	OTHER	-1	-1.0	-1.0	[]	0	
cc	OTHER	-1	-1.0	-1.0	[]	25	
model	OTHER	-1	-1.0	-1.0	[]	10	
legacylocation	OTHER	-1	-1.0	-1.0	[]	3	
vehicle_type	OTHER	-1	-1.0	-1.0	[]	11	
restriction_in	NUMBER	-1	0.0	140.0	[restriction_ft]	20	
previousattraction6	STRING	-1	-1.0	-1.0	[previousattraction4]	2	
previousattraction8	OTHER	–,d adv,&mdas,-,	-1.0	-1.0	[previousattraction7]	31	
name	STRING	,-d,;s fu,.jpg,: a c,-d ad,;s al,-,	-1.0	-1.0	[image]	106	
accessible	STRING	-1	-1.0	-1.0	[]	12	
audience_capacity	OTHER	-1	-1.0	-1.0	[]	0	
music	OTHER	-1	-1.0	-1.0	[]	1	
participants_per_group	OTHER	''(,	-1.0	-1.0	[]	2	
pay_per_use	STRING	-1	-1.0	-1.0	[]	1	
track	OTHER	-1	-1.0	-1.0	[]	0	
locationarticle	STRING	-1	-1.0	-1.0	[]	2	
previous_names	OTHER	-1	-1.0	-1.0	[]	0	
image2	OTHER	-1	-1.0	-1.0	[]	0	
duration	OTHER	min,minut,:,secon,-,	-1.0	-1.0	[]	41	

