position	OTHER	st /,rd /,th /,) fou,rd,th,rd}},of,th (f,th}},nd ju,nd,th (,st of,th of,st (u,nd of,	-1.0	-1.0	[Position]	94	
mascot	STRING	-1	-1.0	-1.0	[]	1	
chairman	OTHER	-1	-1.0	-1.0	[]	2	
president	STRING	-1	-1.0	-1.0	[President]	105	
manager	STRING	-1	-1.0	-1.0	[]	1	
Rank	NUMBER	rd }},	-1.0	-1.0	[]	1	
emblem	STRING	-1	-1.0	-1.0	[]	131	
Ground	STRING	-1	-1.0	-1.0	[]	1	
treasurer	STRING	-1	-1.0	-1.0	[Treasurer]	2	
ground	OTHER	grind,) ade,|,,,-,	-1.0	-1.0	[]	122	
coaches	STRING	s,sts -,st- p,	-1.0	-1.0	[coach, Coach]	113	
captain	STRING	s,st an,	-1.0	-1.0	[Captain]	85	
founded	NUMBER	(as c,may,march,(mang,april,june,as th,by ra,decem,(as l,/,-,	1871.0	2009.0	[]	121	
division	STRING	-1	-1.0	-1.0	[]	1	
name	STRING	-1	-1.0	-1.0	[]	1	
2011	OTHER	-1	-1.0	-1.0	[2007, 2010]	4	
capacity	OTHER	footb,,,	-1.0	-1.0	[]	32	
closed	OTHER	may,	-1.0	-1.0	[]	3	
fullname	STRING	-1	-1.0	-1.0	[]	137	
website	STRING	-1	-1.0	-1.0	[]	1	
boss	STRING	-1	-1.0	-1.0	[]	1	
Season	NUMBER	-1	2005.0	2005.0	[]	1	
sport	OTHER	-1	-1.0	-1.0	[song]	221	
Nicknames	STRING	-1	-1.0	-1.0	[Nickname]	3	
Merger	NUMBER	-1	1978.0	1978.0	[]	1	
strip	STRING	–,px|la,px]],px|de,.gif],.png|,	-1.0	-1.0	[]	127	
league	OTHER	–,may,px|]],px]],px|ce,)|nor,acent,	-1.0	-1.0	[image]	190	
secretary	STRING	-1	-1.0	-1.0	[]	2	
colours	OTHER	-1	-1.0	-1.0	[]	1	
premierships	NUMBER	,,	2009.0	2009.0	[Premierships]	3	
positions	NUMBER	teams,	-1.0	-1.0	[]	1	
firstseason	OTHER	(tanf,([[no,([[ta,(nfa),(nwfl,[[nor,(vafa,/,(seni,(city,-,	-1.0	-1.0	[]	54	
season	OTHER	&,(sfl),/,tsl,(tsl),	-1.0	-1.0	[]	91	
Reserves	STRING	-1	-1.0	-1.0	[]	1	
motto	OTHER	-1	-1.0	-1.0	[]	3	
clubname	STRING	-1	-1.0	-1.0	[]	139	

