num_employ	NUMBER	-1	160.0	160.0	[]	1	
enrolment	NUMBER	(day),	-1.0	-1.0	[]	1	
established	NUMBER	-1	1972.0	1972.0	[]	1	
fees	NUMBER	,,	-1.0	-1.0	[]	1	
type	OTHER	-1	-1.0	-1.0	[state]	2	
homepage	STRING	-1	-1.0	-1.0	[]	1	
colours	NUMBER	}}{{c,	-1.0	-1.0	[]	1	
key_people	OTHER	-1	-1.0	-1.0	[]	0	
city	STRING	-1	-1.0	-1.0	[]	1	
country	OTHER	-1	-1.0	-1.0	[]	0	
slogan	OTHER	-1	-1.0	-1.0	[]	0	
name	STRING	-1	-1.0	-1.0	[]	1	
motto	OTHER	-1	-1.0	-1.0	[]	1	
products	OTHER	-1	-1.0	-1.0	[]	0	
coordinates	OTHER	-1	-1.0	-1.0	[]	0	
denomination	OTHER	-1	-1.0	-1.0	[]	1	
revenue	OTHER	-1	-1.0	-1.0	[]	0	

