image_map1	OTHER	-1	-1.0	-1.0	[image_alt]	3	
elevation_footnotes	OTHER	-1	-1.0	-1.0	[]	1	
beach	STRING	-1	-1.0	-1.0	[]	1	
coast_km	NUMBER	-1	1.0	1.0	[]	1	
languages	OTHER	-1	-1.0	-1.0	[]	1	
seal_size	OTHER	-1	-1.0	-1.0	[flag_size]	0	
blank_emblem_type	OTHER	-1	-1.0	-1.0	[blank_emblem_size]	0	
area_footnotes	OTHER	-1	-1.0	-1.0	[]	1	
longs	NUMBER	-1	0.0	92.0	[longm, lats]	128	
seat	OTHER	-1	-1.0	-1.0	[]	2	
leader_name1	OTHER	}}},	-1.0	-1.0	[]	4	
image_dot_map	OTHER	-1	-1.0	-1.0	[]	0	
leader_name	STRING	-1	-1.0	-1.0	[]	8	
leader_party	OTHER	-1	-1.0	-1.0	[]	5	
literacy_rate	NUMBER	.%,%,.,	-1.0	-1.0	[]	58	
image_blank_emblem	OTHER	-1	-1.0	-1.0	[]	0	
image_seal	OTHER	-1	-1.0	-1.0	[image_flag]	0	
nickname	STRING	-1	-1.0	-1.0	[]	5	
image_map	STRING	-1	-1.0	-1.0	[]	6	
population_as_of	NUMBER	censu,	1991.0	2011.0	[]	60	
footnotes	OTHER	-1	-1.0	-1.0	[]	52	
temple	OTHER	-1	-1.0	-1.0	[]	0	
coordinates_type	OTHER	nd_re,	-1.0	-1.0	[]	2	
population_demonym	OTHER	-1	-1.0	-1.0	[]	2	
population_total	NUMBER	,,	0.0	7509000.0	[]	62	
postal_code	NUMBER	-,	1600.0	9400.0	[]	20	
population_note	OTHER	-1	-1.0	-1.0	[]	1	
motto	OTHER	-1	-1.0	-1.0	[dot_y, dot_x]	2	
elevation_m	NUMBER	-1	0.0	8.0	[]	3	
Tahid	STRING	-1	-1.0	-1.0	[]	1	
mapsize1	OTHER	-1	-1.0	-1.0	[mapsize]	0	
pushpin_label_position	STRING	-1	-1.0	-1.0	[]	40	
Women	NUMBER	-1	593280.0	612740.0	[Men]	2	
image_shield	OTHER	-1	-1.0	-1.0	[]	0	
leader_title1	OTHER	}}},	-1.0	-1.0	[]	2	
map_caption1	OTHER	-1	-1.0	-1.0	[map_caption]	20	
dot_mapsize	OTHER	-1	-1.0	-1.0	[]	0	
rate	NUMBER	.,	-1.0	-1.0	[]	1	
established_title	OTHER	th ap,	-1.0	-1.0	[established_date]	10	
longEW	STRING	-1	-1.0	-1.0	[]	4	
name	STRING	satkh,	-1.0	-1.0	[]	61	
area_note	OTHER	-1	-1.0	-1.0	[]	4	
coordinates_display	SET_OF_STRINGS	-1	-1.0	-1.0	[]	62	
dot_map_caption	OTHER	-1	-1.0	-1.0	[]	0	
image_skyline	OTHER	.jpg,(prim,	-1.0	-1.0	[]	16	
latNS	STRING	-1	-1.0	-1.0	[]	4	
population_footnotes	OTHER	-1	-1.0	-1.0	[]	1	
pushpin_map	STRING	-1	-1.0	-1.0	[]	2	
website	OTHER	.htm,	-1.0	-1.0	[]	60	
shield_size	OTHER	-1	-1.0	-1.0	[]	0	
coordinates_footnotes	OTHER	-1	-1.0	-1.0	[]	1	
imagesize	NUMBER	px,	-1.0	-1.0	[]	2	
seat_type	OTHER	-1	-1.0	-1.0	[]	2	
population_rank	OTHER	-1	-1.0	-1.0	[]	3	
division_name	OTHER	-1	-1.0	-1.0	[]	62	
pushpin_map_caption	STRING	-1	-1.0	-1.0	[]	2	
leader_title	STRING	-1	-1.0	-1.0	[]	5	
area_total_km2	NUMBER	,,	2.0	5282.98	[]	62	
pushpin_mapsize	NUMBER	-1	280.0	280.0	[]	2	
maplink	OTHER	-jess,	-1.0	-1.0	[]	3	
native_name	OTHER	-1	-1.0	-1.0	[]	39	
area_metro_km2	NUMBER	-1	1.0	197.33	[]	2	

