college	OTHER	–,ers m,&ndas,) [[s,−,—,),]],-,	-1.0	-1.0	[]	1528	
previous_clubs	NUMBER	-,	-1.0	-1.0	[]	1	
religion	OTHER	-1	-1.0	-1.0	[]	1	
years5	NUMBER	&ndas,}},–[[,wnba,–,) [[t,ethni,) [[s,-pres,([[,|kk l,|star,–?,-?,),–{{nb,,,-,–pres,(?)&n,prese,|end},?,|full,s–,–) →,—pres,	2.0	2012.0	[years4]	5828	
stat4label	STRING	-1	-1.0	-1.0	[]	1	
spouse	OTHER	-1	-1.0	-1.0	[sport]	12	
salary	OTHER	-1	-1.0	-1.0	[award]	2	
hightschool	OTHER	–,)|dur,fhigh,}},.html,-,	-1.0	-1.0	[highschool, high_school]	1190	
nickname	OTHER	|kala,-d (d,	-1.0	-1.0	[]	271	
image	OTHER	,mikha,-all-,, est,a.jpg,olivi,g.jpg,-n-sb,_bc_k,steph,-kalt,copy,sara,stu d,minut,fotsi,vergi,tiana,(,),.,dariu,mcdee,-,).jpg,manny,wizz.,olymp,desha,.leon,tessa,-beog,.png,madel,.jpg,demet,glen,) .jp,e'twa,.gif,silve,big w,carle,bckhi,kk-za,psu b,giorg,argyr,russi,jahli,spenc,shank,-vaid,cropp,	-1.0	-1.0	[]	935	
number	NUMBER	(numb,&,''',;,,,	0.0	99.0	[]	1413	
image_caption	NUMBER	px,	-1.0	-1.0	[]	1	
years9	OTHER	,&ndas,|gree,–{{nb,,,-,–pres,–,ers]],st),canar,-pres,|end},|star,|cypr,|full,	-1.0	-1.0	[years8, years7, years6, cyears10, team9, team19, years12, years11, years10, years19, years18, years17, years16, years15, years14, years13, years24, years25, years21, years23, teams1]	3012	
nba_historical_profile	STRING	-1	-1.0	-1.0	[]	11	
bowl_list	OTHER	-1	-1.0	-1.0	[]	0	
HOF_coach	OTHER	-1	-1.0	-1.0	[]	7	
draftteam	OTHER	th ro,ers]],ers|s,	-1.0	-1.0	[draft_team]	785	
nationalteam	OTHER	-1	-1.0	-1.0	[]	1	
draft_round_pba	NUMBER	st,	1.0	2.0	[]	16	
draftyear	NUMBER	-1	1947.0	2012.0	[debutyear, draft_year]	1127	
deathplace	OTHER	-1	-1.0	-1.0	[death_place, deathdate, birthplace]	54	
league1	OTHER	|gree,-leag,l]],saudi,),]],-,–pres,–,ethni,|amer,liga|,|cypr,liga],	-1.0	-1.0	[league]	1699	
background	STRING	-1	-1.0	-1.0	[]	1	
height_in	NUMBER	|ft|,cm,',+,.,/,|in=,|cm|f,	0.0	193.0	[height, height_ft, height_cm]	4848	
draft_team_pba	OTHER	-,	-1.0	-1.0	[]	22	
draftrank	OTHER	-1	-1.0	-1.0	[]	0	
minor	OTHER	–,d,),	-1.0	-1.0	[honors, major]	7	
stat3label	OTHER	-poin,p%]],	-1.0	-1.0	[stat2label, stat1label]	638	
medalteplates	OTHER	px|sp,px|so,.jpg|,jones,	-1.0	-1.0	[medaltemplates]	485	
weight_lbs	NUMBER	kg,	65.0	370.0	[weight_kg, weight_lb, weight_kgs]	2315	
updated	OTHER	may,janua,march,june,:,.,febru,novem,	-1.0	-1.0	[]	104	
historical_profile	STRING	-1	-1.0	-1.0	[]	9	
expand	OTHER	-1	-1.0	-1.0	[end]	4	
conference	OTHER	confe,	-1.0	-1.0	[]	2	
draftpick	NUMBER	nd,(,th ov,st ov,th,	1.0	157.0	[draft_pick]	565	
death_date	NUMBER	(aged,janua,april,}},june,decem,,,-,augus,march,septe,octob,july,|,febru,th oc,th fe,novem,	1935.0	1984.0	[birth_date]	2917	
width	OTHER	px,	-1.0	-1.0	[]	49	
tournaments	STRING	-1	-1.0	-1.0	[]	2	
coach_end	NUMBER	-1	2007.0	2007.0	[]	1	
first_nbl_game	NUMBER	-1	1998.0	1999.0	[]	2	
country	OTHER	-1	-1.0	-1.0	[]	1	
points2	NUMBER	-1	0.0	21.0	[points1]	2	
awards	OTHER	,× all,&ndas,]] st,) all,]] (,) sun,]],[[all,x [[c,), (,x [[b,x [[a,ethni,x [[g,x [[f,[[kor,x [[e,]] ju,(retr,× bla,, nbl,[[nba,-time,x [[p,bsn f,nba f,&,[[lig,x [[u,–)|ab,honor,[[njc,''' -,[[pre,x [[h,),[[int,x [[l,.,third,x [[m,/,,,bsn r,x [[n,-,x [[o,[[usb,x mac,men's,summe,all-s,fiba,[[lis,x fir,lkl a,years,x fre,nba a,nd te,ukrai,fastb,all-d,}},)}},most,[[wes,th te,parad,all-b,–,. [[l,times,]] [[,rp ce,]] ro,[[atl,)  ab,) isr,in ba,[[sup,[[ule,x slo,]] al,frenc,) ita,[[phi,point,colle,|end},[[mcd,[[pac,|,world,tourn,[[bal,[[ita,) ap,st te,ncaa,mvps,,[[cam,champ,pba f,[[bas,[[big,x oly,|big,), fr,youth,[[bb&,and,)  [[,) [[,× [[a,× [[b,× [[e,[[sou,× [[h,) [[e,[[,) [[c,× [[m,x bsn,) [[a,× [[l,[[a,) [[b,× [[i,]]),× fir,confe,d-lea,europ,[[eur,× [[u,mvp,ebba,baske,fresh,x all,caa m,liga|,) [[l,× nbl,all t,slove,) ed,|seas,natio,[[upc,[[ill,mvp o,)   k,mwc m,atlan,mvp a,great,× con,all b,)   f,euroc,)   [,first,hoops,	-1.0	-1.0	[]	1429	
DEATH	OTHER	-1	-1.0	-1.0	[]	0	
nicknames	STRING	-1	-1.0	-1.0	[]	4	
HOF_player	STRING	-1	-1.0	-1.0	[]	7	
FIBA_HOF_player	OTHER	-1	-1.0	-1.0	[]	52	
former_teams	NUMBER	&ndas,]] (,]] {{,}}(,) cen,de ju,|star,tübin,bc|ae,&,–),(,),/,ers (,-,)  [[,leagu,;,) [[e,) [[f,× [[o,) [[c,) [[a,) [[b,× [[s,-),–,) ([[,) [[t,) [[s,) [[r,) [[q,) roc,) [[p,-pres,) [[m,), [[,) [[k,) [[i,) [[h,) [[g,) [[č,)  {{,&mdas,) [[w,–pres,ers]],) sou,|beov,) kuş,) met,)   [,|full,	-1.0	-1.0	[]	981	
bowl_games	OTHER	-1	-1.0	-1.0	[]	0	
profile	OTHER	-1	-1.0	-1.0	[file]	144	
tournament_list	NUMBER	ncaa,x nca,	-1.0	-1.0	[]	2	
imagesize	NUMBER	px,×,	120.0	275.0	[image_size]	110	
photo	OTHER	.fiba,	-1.0	-1.0	[logo]	2	
highlights	NUMBER	× all,x [[b,x [[a,ncaa,st te,x [[e,champ,}}),abc c,nba f,× tur,x [[i,),x [[l,,,-,men's,x [[y,× [[a,sec m,× [[b,× [[c,x fir,× [[d,× [[e,× [[f,× [[h,nba a,nd te,× [[p,× [[o,× [[n,× [[m,× arg,× [[l,× [[i,confe,× [[w,-poin,defen,× [[s,× [[r,–,baske,all-[,) [[n,]] [[,[[atl,atlan,great,mount,|end},[[mcd,high,world,	-1.0	-1.0	[]	502	
team8	OTHER	|cai,|smed,]],st ba,ethni,stock,expre,]]) [,de ju,bc|tr,bc|ae,_nörd,seaso,s]] (,–)|ab,–),),th),ers (,-,leagu,roset,|seve,nd te,]]),|zara,-),–,) [[u,]] ([,st),|kvar,/ slo,liga|,|cypr,st]]),'s]],nd]]),ers|g,nd]],|gree,ers|l,nd),|radn,ramat,ers|r,–pres,ers]],|beov,canar,ers|a,ers,th]]),	-1.0	-1.0	[team7]	10134	
draft	OTHER	baa d,nba d,rd ov,([[na,(,th ov,st ov,,,nd ov,th,th ro,st ro,/ pic,th in,:,st,rd ro,nd ro,	-1.0	-1.0	[]	654	
stat4value	NUMBER	%,(,,,(hoba,	0.0	685.0	[stat1value, stat2value, stat3value]	636	
school	OTHER	-1	-1.0	-1.0	[]	10	
nba	STRING	w,d,;keef,	-1.0	-1.0	[name, bbr]	3248	
color2	NUMBER	b,	-1.0	-1.0	[]	1	
color1	STRING	-1	-1.0	-1.0	[]	1	
junior_association	OTHER	-1	-1.0	-1.0	[]	3	
coach_start	NUMBER	-1	1972.0	2003.0	[]	4	
draft_league	STRING	-1	-1.0	-1.0	[]	1	
fullname	STRING	-1	-1.0	-1.0	[]	2	
career_start	NUMBER	–,prese,: not,-pres,|star,/,(?),-,	1929.0	2012.0	[]	2421	
NAME	STRING	-1	-1.0	-1.0	[]	2	
DESCRIPTION	OTHER	-1	-1.0	-1.0	[]	0	
stats_league	STRING	-1	-1.0	-1.0	[]	188	
teams22	STRING	-1	-1.0	-1.0	[]	1	
start	NUMBER	-1	2006.0	2010.0	[]	8	
records	NUMBER	, [[,	-1.0	-1.0	[]	1	
position	OTHER	-1	-1.0	-1.0	[]	2806	
medals	STRING	-1	-1.0	-1.0	[]	1	
draft_year_pba	NUMBER	-1	1993.0	2012.0	[]	23	
NAMES	OTHER	-1	-1.0	-1.0	[]	0	
CBBASKHOF_year	NUMBER	-1	2010.0	2010.0	[]	1	
finalyear	NUMBER	,,	1974.0	2008.0	[]	8	
championship_list	OTHER	nit c,	-1.0	-1.0	[]	2	
caption	OTHER	]].,playi,ukrai,]] ga,[[spa,]] qu,victo,]],[[car,wnba,super,–,camp,time,game.,at ka,when,big w,ers i,) at,(left,minut,, dur,with,may,russi,th an,) dep,michi,game,.,as a,nba p,,,-,– kre,), pl,of th,shoot,[[lit,fiba,summe,ers,opals,	-1.0	-1.0	[]	512	
club	STRING	-1	-1.0	-1.0	[class]	3	
nationality_2	OTHER	px|sp,),	-1.0	-1.0	[nationality]	2837	
ethnicity	OTHER	-1	-1.0	-1.0	[]	1	
carre_end	OTHER	or,;,?,-,(?),	-1.0	-1.0	[career_end]	703	
birth_name	STRING	-1	-1.0	-1.0	[]	3	
jersey	NUMBER	-1	3.0	44.0	[]	13	
fontcolor	OTHER	-1	-1.0	-1.0	[]	4	
weight_ib	OTHER	-1	-1.0	-1.0	[]	0	
team_link	STRING	canar,	-1.0	-1.0	[tam_link]	332	
height_footnote	NUMBER	|a|a},	-1.0	-1.0	[]	2	
youthyears1	OTHER	-1	-1.0	-1.0	[youthteam1]	1	
occupation	OTHER	-1	-1.0	-1.0	[]	2	
hometown	OTHER	-1	-1.0	-1.0	[]	1	
letter	STRING	-1	-1.0	-1.0	[]	492	
status	OTHER	-1	-1.0	-1.0	[]	0	
birth_place	OTHER	}}, [,}},px|co,	-1.0	-1.0	[]	2710	
pcupdate	NUMBER	july,	-1.0	-1.0	[]	1	
draftround	NUMBER	-1	1.0	13.0	[draft_round]	571	
HOF	OTHER	-1	-1.0	-1.0	[]	2	
championships	OTHER	,,	-1.0	-1.0	[]	4	
birthdate	NUMBER	|,	-1.0	-1.0	[]	2	
last_nbl_game	OTHER	-1	-1.0	-1.0	[]	0	
caps1	NUMBER	-1	18.0	18.0	[]	1	
university	STRING	-1	-1.0	-1.0	[]	1	
with	NUMBER	|lb|k,lbs.,kg (,[[pou,lb (,.,,,lbs /,kg,px,|kg|l,lbs (,[[kil,lbs,x,	1.63	213.0	[size, weight]	434	
alias	OTHER	th''',	-1.0	-1.0	[]	5	
website	OTHER	-1	-1.0	-1.0	[]	2	
nba_profile	STRING	-1	-1.0	-1.0	[nba_profiel]	142	
coach	NUMBER	–,&ndas,-pres,	-1.0	-1.0	[]	3	
agency	STRING	-1	-1.0	-1.0	[]	1	
draft_pick_pba	NUMBER	th ov,st ov,nd ov,	-1.0	-1.0	[]	18	
career_highlights	NUMBER	)   p,point,nd al,;,),austr,	-1.0	-1.0	[]	10	
current_teams	OTHER	-1	-1.0	-1.0	[]	7	
motherteam	OTHER	-1	-1.0	-1.0	[]	7	
playername	STRING	-1	-1.0	-1.0	[]	2	

