position	OTHER	-1	-1.0	-1.0	[]	2	
party_logo	NUMBER	px|vl,px| v,px]],px|rw,	-1.0	-1.0	[]	10	
name_native	STRING	-1	-1.0	-1.0	[]	4	
senate_seats	OTHER	-1	-1.0	-1.0	[]	0	
youth_wing	OTHER	-1	-1.0	-1.0	[]	0	
party_wikicolourid	STRING	-1	-1.0	-1.0	[]	1	
leader	OTHER	-1	-1.0	-1.0	[]	11	
ideology	OTHER	-1	-1.0	-1.0	[]	12	
foundation	NUMBER	(as s,novem,	1961.0	2006.0	[]	12	
colorcode	OTHER	cb,c,a,	-1.0	-1.0	[]	11	
website	OTHER	-1	-1.0	-1.0	[]	13	
german	OTHER	-1	-1.0	-1.0	[]	1	
cartel	OTHER	-1	-1.0	-1.0	[]	5	
international	OTHER	-1	-1.0	-1.0	[]	10	
party_name	STRING	-1	-1.0	-1.0	[]	12	
youth	OTHER	-1	-1.0	-1.0	[]	1	
headquarters	NUMBER	,charl,bruss,, eup,,,be,-,	-1.0	-1.0	[]	9	
flemish	OTHER	-1	-1.0	-1.0	[]	2	
walloon	OTHER	-1	-1.0	-1.0	[]	3	
colours	OTHER	-1	-1.0	-1.0	[]	10	
european	OTHER	-1	-1.0	-1.0	[europarl]	17	
names	OTHER	-1	-1.0	-1.0	[]	8	
seats5_title	OTHER	-1	-1.0	-1.0	[seats4_title]	5	
seats5	NUMBER	|,	-1.0	-1.0	[seats4, seats3, seats2, seats1]	5	
dissolution	NUMBER	-1	2009.0	2009.0	[]	1	

