current_season	NUMBER	speed,	-1.0	-1.0	[]	3	
website	OTHER	-1	-1.0	-1.0	[]	3	
current_champions	OTHER	-1	-1.0	-1.0	[]	3	
relegated	OTHER	-1	-1.0	-1.0	[]	0	
sport	OTHER	-1	-1.0	-1.0	[]	4	
governing_body	OTHER	-1	-1.0	-1.0	[]	4	
country	OTHER	-1	-1.0	-1.0	[]	4	
founded	NUMBER	-1	1932.0	2009.0	[]	4	
competition7	OTHER	-1	-1.0	-1.0	[competition1, competition2, competition5, competition6, competition3, competition4]	17	
noofteams	NUMBER	-1	8.0	13.0	[]	3	
formerly	OTHER	-1	-1.0	-1.0	[]	2	
most_championships	NUMBER	)''',	-1.0	-1.0	[]	3	
leaguename	STRING	-1	-1.0	-1.0	[]	4	
teams2	OTHER	-1	-1.0	-1.0	[teams1]	7	
promoted	OTHER	-1	-1.0	-1.0	[]	0	
closed	NUMBER	-1	1964.0	1964.0	[]	1	

