alliance	OTHER	-1	-1.0	-1.0	[]	0	
destinations	OTHER	-1	-1.0	-1.0	[]	2	
stations	OTHER	(métr,	-1.0	-1.0	[]	3	
service_type	OTHER	-1	-1.0	-1.0	[]	11	
defunct	OTHER	-1	-1.0	-1.0	[]	0	
leader_type	OTHER	-1	-1.0	-1.0	[]	2	
depots	OTHER	-1	-1.0	-1.0	[]	0	
hubs	OTHER	-1	-1.0	-1.0	[]	6	
stops	OTHER	-1	-1.0	-1.0	[]	0	
ridership	NUMBER	milli,	-1.0	-1.0	[]	1	
image_size	OTHER	px,	-1.0	-1.0	[]	2	
leader	STRING	-1	-1.0	-1.0	[]	2	
company_slogan	STRING	-1	-1.0	-1.0	[]	1	
name	STRING	-1	-1.0	-1.0	[]	11	
lounge	OTHER	}},|,as '',(raps,	-1.0	-1.0	[locale, founded]	19	
logo_size	OTHER	px,	-1.0	-1.0	[]	7	
logo	STRING	-1	-1.0	-1.0	[ceo]	11	
website	OTHER	= htt,.aspx,	-1.0	-1.0	[]	13	
service_area	OTHER	-1	-1.0	-1.0	[]	9	
parent	OTHER	-1	-1.0	-1.0	[]	5	
image	OTHER	cya.j,.jpg,ft.jp,	-1.0	-1.0	[]	7	
image_caption	OTHER	to ha,ft. g,	-1.0	-1.0	[]	4	
headquarters	OTHER	,avenu,regen,langd,mille,third,	-1.0	-1.0	[]	11	
operator	OTHER	-1	-1.0	-1.0	[]	3	
fleet	OTHER	+,/,,,	-1.0	-1.0	[]	4	
fuel_type	OTHER	-1	-1.0	-1.0	[]	5	
routes	OTHER	brts,|km|m,/sf,	-1.0	-1.0	[]	7	

