next	NUMBER	–,,,	-1.0	-1.0	[end]	17	
time3	NUMBER	,,	-1.0	-1.0	[time2, time]	20	
senators	NUMBER	-1	40.0	40.0	[]	9	
assemblymembers	NUMBER	-1	80.0	80.0	[]	9	
leader3	OTHER	-1	-1.0	-1.0	[leader, leader2]	20	
previous	NUMBER	–,	-1.0	-1.0	[]	9	
image	OTHER	-1	-1.0	-1.0	[]	0	
speaker2	OTHER	-1	-1.0	-1.0	[speaker]	15	
imagename	OTHER	-1	-1.0	-1.0	[]	0	
district3	NUMBER	nd,st,rd,th,	-1.0	-1.0	[district2]	20	
party3	STRING	-1	-1.0	-1.0	[party2]	20	
years	NUMBER	–,,,	-1.0	-1.0	[start]	18	
tem2	OTHER	-1	-1.0	-1.0	[tem]	22	

