ChiefJudge	OTHER	-1	-1.0	-1.0	[]	19	
ArgueYear	NUMBER	-1	1972.0	2011.0	[]	7	
NotParticipating	STRING	-1	-1.0	-1.0	[]	1	
Dissent2	STRING	-1	-1.0	-1.0	[Dissent]	19	
JoinPlurality	SET_OF_STRINGS	-1	-1.0	-1.0	[]	2	
Prior	OTHER	cal.r,cal.a,cal.,	-1.0	-1.0	[]	13	
Citations	NUMBER	cal.,	-1.0	-1.0	[Citation]	21	
Majority	STRING	-1	-1.0	-1.0	[]	16	
JoinDissent	OTHER	-1	-1.0	-1.0	[]	2	
FullName	STRING	),	-1.0	-1.0	[]	21	
Holding	STRING	did n,is va,	-1.0	-1.0	[]	20	
Overruled	NUMBER	([[ca,	-1.0	-1.0	[]	1	
JoinMajority	SET_OF_STRINGS	-1	-1.0	-1.0	[]	14	
JoinDissent2	STRING	-1	-1.0	-1.0	[]	1	
Concurrence4	STRING	-1	-1.0	-1.0	[Concurrence2, Concurrence3]	19	
JoinConcurrence	OTHER	-1	-1.0	-1.0	[]	0	
DecideDate	DATE	,,	-1.0	-1.0	[]	19	
LawsApplied	OTHER	, and,§§,),,,	-1.0	-1.0	[]	22	
Litigants3	STRING	-1	-1.0	-1.0	[Litigants2]	23	
ArgueDate	DATE	-1	-1.0	-1.0	[]	5	
Plurality	STRING	-1	-1.0	-1.0	[]	2	
DecideYear	NUMBER	-1	1886.0	2011.0	[]	19	
AssociateJudges	OTHER	-1	-1.0	-1.0	[]	20	
Subsequent	OTHER	cal.,u.s.,,,	-1.0	-1.0	[]	5	

