president	STRING	-1	-1.0	-1.0	[]	1	
english_motto	STRING	-1	-1.0	-1.0	[]	17	
location	NUMBER	/draw,	-1.0	-1.0	[]	31	
boat_club	STRING	-1	-1.0	-1.0	[]	32	
link_colour	OTHER	ccff,ff,cccc,cc,	-1.0	-1.0	[]	30	
sister_college	OTHER	-1	-1.0	-1.0	[]	30	
Coordinates	NUMBER	|,	-1.0	-1.0	[]	1	
student_body_name	STRING	-1	-1.0	-1.0	[]	14	
sister_college_pl	STRING	-1	-1.0	-1.0	[]	6	
mcr	STRING	-1	-1.0	-1.0	[jpc]	41	
name	STRING	-1	-1.0	-1.0	[]	31	
infobox_colour	OTHER	cc,	-1.0	-1.0	[]	31	
student_body	STRING	-1	-1.0	-1.0	[]	14	
old_names	OTHER	–,s),),-?) p,-,	-1.0	-1.0	[]	16	
named_for	OTHER	th vi,	-1.0	-1.0	[]	26	
head	OTHER	octob,	-1.0	-1.0	[]	31	
founder	OTHER	) [[e,) [[j,); [[,th du,rd ba,)  [[,	-1.0	-1.0	[]	19	
head_label	OTHER	-1	-1.0	-1.0	[]	31	
colours2	NUMBER	|#cc,|#,}}{{c,	-1.0	-1.0	[colours]	32	
founder_pl	STRING	-1	-1.0	-1.0	[]	8	
women_only	STRING	-1	-1.0	-1.0	[]	3	
image	NUMBER	px|lu,px|pe,px|wa,px|ne,px|ma,px|se,px]],px|go,px|si,px|ki,px|co,px|em,px|do,px|cl,px|tr,px|ch,px|st,px|ro,px|je,.png|,px|qu,	-1.0	-1.0	[]	30	
established	OTHER	}},septe,octob,, ref,(,refou,	-1.0	-1.0	[]	31	
graduates	NUMBER	(as o,[http,{{r|u,	132.0	650.0	[]	31	
photo	NUMBER	px|lu,.jpg|,px]],s.jpg,px|gr,px|el,px|th,px|ki,px|pa,px|cl,px|tr,px|st,px|ch,).jpg,px|al,px|ro,px|a,px|ol,px|vi,px|da,	-1.0	-1.0	[]	31	
homepage	STRING	-1	-1.0	-1.0	[]	31	
mature_students	STRING	-1	-1.0	-1.0	[]	3	
latin_motto	STRING	-1	-1.0	-1.0	[]	16	
fellows	NUMBER	-1	110.0	110.0	[]	1	
motto_language	STRING	-1	-1.0	-1.0	[]	15	
text_colour	OTHER	-1	-1.0	-1.0	[]	1	
undergraduates	NUMBER	(as o,	60.0	663.0	[]	31	
latin_name	STRING	-1	-1.0	-1.0	[]	3	
full_name	STRING	-1	-1.0	-1.0	[]	13	

