type	STRING	-1	-1.0	-1.0	[]	151	
network	OTHER	]],	-1.0	-1.0	[]	76	
city	OTHER	-1	-1.0	-1.0	[]	151	
colour	STRING	-1	-1.0	-1.0	[]	100	
parade	OTHER	-1	-1.0	-1.0	[]	1	
time	NUMBER	-grey,,.jpg|,th va,px]],.gif|,pm et,/,,,.svg|,logo.,grey,vanie,.png|,rd gr,novem,	0.0	48.0	[date, home3, home4, home5, home6, home1, home2, image]	782	
anthem	OTHER	e rég,	-1.0	-1.0	[]	13	
name	OTHER	-1	-1.0	-1.0	[]	149	
announcers	OTHER	]] va,) [[g,	-1.0	-1.0	[]	41	
coach	OTHER	-1	-1.0	-1.0	[]	149	
halftime	OTHER	winte,	-1.0	-1.0	[]	23	
attendance	NUMBER	,,	-1.0	-1.0	[]	141	
image_caption	OTHER	-,	-1.0	-1.0	[]	3	
number	NUMBER	-1	1.0	102.0	[]	151	
visitor6	NUMBER	-1	0.0	54.0	[visitor5]	601	
record	NUMBER	–,-,	-1.0	-1.0	[]	141	
referee	OTHER	-1	-1.0	-1.0	[]	41	
stadium	OTHER	-1	-1.0	-1.0	[]	151	
toss	OTHER	-1	-1.0	-1.0	[off]	175	
ratings	OTHER	.,,,	-1.0	-1.0	[]	149	

