head_label	OTHER	-1	-1.0	-1.0	[]	2	
english_motto	STRING	-1	-1.0	-1.0	[]	1	
location	STRING	-1	-1.0	-1.0	[]	2	
link_colour	STRING	-1	-1.0	-1.0	[]	2	
image	OTHER	-1	-1.0	-1.0	[]	1	
established	NUMBER	-1	1850.0	1850.0	[]	1	
graduates	OTHER	-1	-1.0	-1.0	[]	1	
photo	OTHER	-1	-1.0	-1.0	[]	0	
homepage	STRING	-1	-1.0	-1.0	[]	2	
colours	NUMBER	|#,	-1.0	-1.0	[]	2	
latin_motto	OTHER	-1	-1.0	-1.0	[]	1	
motto_language	STRING	-1	-1.0	-1.0	[]	2	
text_colour	OTHER	-1	-1.0	-1.0	[]	0	
undergraduates	NUMBER	-1	152.0	176.0	[]	2	
infobox_colour	OTHER	-1	-1.0	-1.0	[]	2	
name	STRING	-1	-1.0	-1.0	[]	2	
affiliated	STRING	-1	-1.0	-1.0	[]	2	
head	STRING	-1	-1.0	-1.0	[]	2	
founder	OTHER	-1	-1.0	-1.0	[]	0	

