deathstyle	STRING	-1	-1.0	-1.0	[]	7	
relstyle	OTHER	-1	-1.0	-1.0	[]	30	
see	STRING	-1	-1.0	-1.0	[name]	249	
image	STRING	-,	-1.0	-1.0	[]	10	
offstyle	STRING	-1	-1.0	-1.0	[dipstyle]	494	
See	OTHER	-1	-1.0	-1.0	[]	245	
size	NUMBER	px,	-1.0	-1.0	[]	1	

