skills	OTHER	-1	-1.0	-1.0	[]	122	
playing_time	NUMBER	to,min,minut,hours,&nbsp,min.),-,–,min.,+ hou,mins.,min.{,min p,	-1.0	-1.0	[Playing_time]	146	
random_chance	STRING	-1	-1.0	-1.0	[]	129	
alt_names	STRING	s,,	-1.0	-1.0	[]	63	
complexity	STRING	-1	-1.0	-1.0	[]	1	
setup_time	NUMBER	minut,	-1.0	-1.0	[]	6	
type	OTHER	-1	-1.0	-1.0	[]	136	
related	OTHER	rum|m,(card,	-1.0	-1.0	[]	159	
title	STRING	rum,	-1.0	-1.0	[]	175	
rank	NUMBER	,	-1.0	-1.0	[]	2	
deck	OTHER	-suit,-a on,	-1.0	-1.0	[]	169	
ages	NUMBER	&ndas,and u,and o,+,-,	-1.0	-1.0	[]	36	
games	OTHER	-1	-1.0	-1.0	[]	1	
num_cards	OTHER	+ mul,or,) var,per d,+,(,(doub,,,-,–,-card,;,x (,(addi,cards,x,	-1.0	-1.0	[]	169	
origin	OTHER	),	-1.0	-1.0	[]	138	
play	STRING	,,	-1.0	-1.0	[]	153	
strategy	STRING	-1	-1.0	-1.0	[]	1	
card_rank	NUMBER	,hk h,r c f,...,k d b,),,,-,k q,joker,), ac,k q j,j a,a k q,) q j,	-1.0	-1.0	[]	88	
image_caption	OTHER	in pr,card,.,-,	-1.0	-1.0	[]	37	
caption	OTHER	-1	-1.0	-1.0	[]	0	
image_link	NUMBER	playi,- la,.jpg|,px]],-kh.p,of sp,px|th,px| ',-qs.p,-,of di,px|tr,px|'',px| t,px|a,-kc.p,-jc.p,	-1.0	-1.0	[]	139	
footnotes	OTHER	-1	-1.0	-1.0	[]	168	
players	OTHER	to,&ndas,+ (,or,in pa,+,(,,,+ (be,(stan,-,(''va,–,, in,(vari,best,, but,×,	-1.0	-1.0	[]	177	
subtitle	OTHER	–,playe,-,	-1.0	-1.0	[]	15	
Family	OTHER	-1	-1.0	-1.0	[]	38	

