founded	NUMBER	-1	1966.0	1982.0	[]	6	
zip	NUMBER	-1	73070.0	74601.0	[]	8	
address	NUMBER	,sprin,sam n,north,west,	-1.0	-1.0	[]	8	
website	OTHER	-1	-1.0	-1.0	[]	9	
centers	STRING	-1	-1.0	-1.0	[center]	8	
state	OTHER	-1	-1.0	-1.0	[name]	8	
image	STRING	-1	-1.0	-1.0	[]	6	
enrollment	NUMBER	(,,,	-1.0	-1.0	[]	8	
superintendent	STRING	-1	-1.0	-1.0	[]	8	
city	OTHER	-1	-1.0	-1.0	[]	8	

