nickname	STRING	-1	-1.0	-1.0	[]	1	
status	STRING	-1	-1.0	-1.0	[]	1	
subspecies	STRING	-1	-1.0	-1.0	[]	7	
image	STRING	.jpg,	-1.0	-1.0	[]	7	
use	STRING	-1	-1.0	-1.0	[name]	14	
image_caption	STRING	-1	-1.0	-1.0	[]	7	
horn	STRING	-1	-1.0	-1.0	[coat]	13	
maleweight	NUMBER	kg,|to(-,,,-,|-|,	-1.0	-1.0	[femaleweight]	12	
distribution	OTHER	count,	-1.0	-1.0	[]	5	
country	OTHER	-1	-1.0	-1.0	[]	7	
image_alt	STRING	-1	-1.0	-1.0	[]	3	
altname	OTHER	-1	-1.0	-1.0	[]	2	
note	OTHER	-1	-1.0	-1.0	[]	3	

