occupation	OTHER	-1	-1.0	-1.0	[]	2	
birth_date	NUMBER	|,	-1.0	-1.0	[]	1	
website	OTHER	-1	-1.0	-1.0	[]	2	
networth	OTHER	-1	-1.0	-1.0	[]	0	
employer	OTHER	-1	-1.0	-1.0	[]	1	
imagesize	NUMBER	px,	-1.0	-1.0	[]	1	
image	OTHER	-1	-1.0	-1.0	[]	1	
caption	OTHER	-1	-1.0	-1.0	[]	0	
footnotes	OTHER	-1	-1.0	-1.0	[]	2	
known_for	STRING	-1	-1.0	-1.0	[]	1	
death_place	OTHER	-1	-1.0	-1.0	[death_date, birth_place]	1	
nationality	OTHER	-1	-1.0	-1.0	[]	1	
residence	OTHER	-1	-1.0	-1.0	[]	1	
spouse	OTHER	-1	-1.0	-1.0	[]	0	
name	STRING	-1	-1.0	-1.0	[]	3	
salary	OTHER	-1	-1.0	-1.0	[]	0	

