rulers	OTHER	-1	-1.0	-1.0	[]	16	
location	OTHER	-1	-1.0	-1.0	[]	16	
name	STRING	-1	-1.0	-1.0	[Name]	28	
origin	OTHER	-1	-1.0	-1.0	[]	1	
map	NUMBER	px|te,px|ap,px|th,px|ce,px|be,	-1.0	-1.0	[]	15	
caption	STRING	-1	-1.0	-1.0	[]	1	
capital	OTHER	-1	-1.0	-1.0	[]	16	
fullname	STRING	-1	-1.0	-1.0	[]	16	

