shortestreign	NUMBER	days],> day,(<,en (,cold,days),min),mins),secon,week),min,day)},minut,hours,nd re,day),-dope,day}},hour),days},dope],day -,month,day e,day]],), to,pw op,=,	-1.0	-1.0	[]	379	
shortest	NUMBER	|in=,	-1.0	-1.0	[]	1	
revivedchamp	STRING	-1	-1.0	-1.0	[]	1	
promotion	OTHER	–,)}} [,—,]] ze,pro w,–curr,]],,,-,	-1.0	-1.0	[]	447	
finalchamp	OTHER	-1	-1.0	-1.0	[]	4	
tallest	NUMBER	years,|,),|in=,	-1.0	-1.0	[oldest]	99	
firstchampion	OTHER	(wres,cold,''',([[ip,]], [,	-1.0	-1.0	[firstchamp]	437	
image_size	NUMBER	px,	200.0	250.0	[]	38	
created	NUMBER	april,}},th,,decem,,,(by t,-,augus,march,rd,,s,july,,|,{{sma,novem,	1926.0	2008.0	[]	441	
currentholder	OTHER	&item,, jr.,tuff,]],	-1.0	-1.0	[]	302	
alt	STRING	-1	-1.0	-1.0	[]	7	
youngest	NUMBER	}} (,count,yrs.,),|,years,-,	-1.0	-1.0	[]	86	
deactivated	NUMBER	,,	-1.0	-1.0	[Deactivated]	3	
championshipname	OTHER	inter,ultim,pw wo,champ,pro w,austr,pw op,women,world,	-1.0	-1.0	[]	447	
lightest	NUMBER	lb co,|lb|k,lbs.),kg (,count,[[pou,lb (,|lbs|,kg),punds,|kg|l,lb) c,lbs (,lb. (,lbs),	-1.0	-1.0	[]	87	
won	NUMBER	may,augus,st,,septe,th,,octob,decem,may,,july,|,rd ap,,,	1990.0	2005.0	[on]	284	
youngest_champ	NUMBER	years,	-1.0	-1.0	[]	1	
lastchamp	OTHER	), to,	-1.0	-1.0	[]	12	
titleretired	OTHER	,may,st,,(rena,septe,july,febru,,,novem,	-1.0	-1.0	[]	193	
champion	OTHER	to,until,]], o,st,,st ch,-time,th ch,-late,- pre,th cm,th an,-febr,&mdas,– may,th ll,.,- may,– pre,,,-,inter,- sep,nd me,th nw,	-1.0	-1.0	[caption]	99	
heaviest	NUMBER	lb co,|lb|k,kg (,[[pou,lb (,|lbs|,]] (,kg),lb.),|kg|l,lbs (,lb) c,lb. (,pound,	-1.0	-1.0	[]	86	
revived	NUMBER	,,,	-1.0	-1.0	[retired]	5	
image	STRING	jrcha,wrest,da,).jpg,.jpg,class,-,	-1.0	-1.0	[]	106	
oldest_champ	NUMBER	years,	-1.0	-1.0	[]	1	
longestreign	NUMBER	'' ([,]])}},+ day,year,,days],),{{nob,]], [,,,-,days,days},days),month,({{ag,, jr.,tuff,years,pw op,) (,=,	-1.0	-1.0	[]	393	
pastnames	OTHER	open,),-,	-1.0	-1.0	[]	120	
pastlookimages	OTHER	-.jpg,s-,px]],-,	-1.0	-1.0	[]	237	
brand	OTHER	-1	-1.0	-1.0	[]	4	
alt_text	STRING	-1	-1.0	-1.0	[]	2	
mostreigns	NUMBER	) bri,) ''',) doc,) the,(tied,)}},]],(the,(nick,) ter,)]],) ([[,en (,) [[t,)}} },cold,)}} w,times,]] ([,) [[o,) [[m,tuff,(jan,) ''i,)}} l,wreck,reign,)}} t,)}} ',),) (as,) chi,) }},(wres,) ind,) chr,) ryu,) jes,offic,time),) lat,pw op,{{sma,) lon,(j.c.,	-1.0	-1.0	[]	397	

