office5	OTHER	nd [[,th pr,th co,th [[,st an,	-1.0	-1.0	[office4, office1, office3, office2, office]	55	
monarch4	OTHER	-1	-1.0	-1.0	[monarch3]	34	
profession	OTHER	-1	-1.0	-1.0	[]	9	
preceded4	OTHER	-1	-1.0	-1.0	[preceded3, preceded2, preceded1]	4	
party	OTHER	) ind,), [[,-,	-1.0	-1.0	[parents]	57	
succeeded2	NUMBER	),	-1.0	-1.0	[]	1	
succeeded4	OTHER	-1	-1.0	-1.0	[succeeded3]	3	
religion	OTHER	}},	-1.0	-1.0	[relations]	21	
rank	OTHER	px]],.gif|,	-1.0	-1.0	[]	19	
deputy	OTHER	–,	-1.0	-1.0	[]	7	
spouse	OTHER	–,septe,decem,); go,),-,	-1.0	-1.0	[]	27	
partner	STRING	-1	-1.0	-1.0	[parent]	2	
signature	STRING	-1	-1.0	-1.0	[]	13	
home_town	OTHER	-1	-1.0	-1.0	[]	1	
nickname	OTHER	|p=,	-1.0	-1.0	[]	2	
image	OTHER	c_,iii-,-b,b.jpg,st ea,.jpg,bild-,-j,harre,-,-r,_bild,-s,zl.jp,	-1.0	-1.0	[]	77	
restingplace	OTHER	-1	-1.0	-1.0	[resting_place]	0	
appointer4	OTHER	-1	-1.0	-1.0	[appointer3, appointed, appointed2, appointed4]	5	
branch	NUMBER	px]],	-1.0	-1.0	[]	18	
motto	OTHER	-1	-1.0	-1.0	[]	0	
2namedata	STRING	-1	-1.0	-1.0	[]	1	
term1	NUMBER	–,-,	1624.0	1624.0	[term]	11	
allegiance	OTHER	),	-1.0	-1.0	[]	19	
title	OTHER	-1	-1.0	-1.0	[state]	1	
ambassador_from3	STRING	-1	-1.0	-1.0	[ambassador_from2]	2	
smallimage	STRING	-1	-1.0	-1.0	[]	1	
leader2	OTHER	-1	-1.0	-1.0	[leader1]	2	
term_end7	OTHER	janua,may,april,june,decem,,,augus,march,septe,octob,july,|,novem,	-1.0	-1.0	[term_end3, term_end4, term_end5]	62	
country3	STRING	-1	-1.0	-1.0	[country2]	2	
alongside1	OTHER	-1	-1.0	-1.0	[alongside]	3	
caption	STRING	octob,),as an,	-1.0	-1.0	[]	31	
primeminister7	OTHER	rd du,st ea,st du,	-1.0	-1.0	[primeminister6]	32	
otherparty	NUMBER	)|nat,	-1.0	-1.0	[]	1	
boards	OTHER	-1	-1.0	-1.0	[awards]	1	
residence	OTHER	) [[w,linco,-,	-1.0	-1.0	[president3]	26	
term_end8	NUMBER	may,janua,april,june,decem,,,march,augus,septe,octob,july,febru,novem,	1594.0	1999.0	[term_end6]	99	
term_start7	OTHER	janua,may,april,june,decem,,,augus,march,septe,octob,july,|,novem,	-1.0	-1.0	[term_start5]	62	
term_start8	NUMBER	may,janua,april,june,decem,,,march,augus,septe,octob,july,febru,novem,	1573.0	2008.0	[term_start6]	106	
serviceyears	NUMBER	–,−,-,	-1.0	-1.0	[]	7	
imagestyle	OTHER	-1	-1.0	-1.0	[]	0	
known_for	OTHER	|sep.,	-1.0	-1.0	[]	2	
death_place	OTHER	downi,	-1.0	-1.0	[birth_place]	110	
other_names	STRING	-1	-1.0	-1.0	[]	1	
death_date	NUMBER	(aged,augus,janua,april,octob,{{dea,|,febru,,,novem,	580.0	1968.0	[birth_date]	166	
occupation	OTHER	-1	-1.0	-1.0	[]	16	
constituency	OTHER	-1	-1.0	-1.0	[]	1	
alma_mater	OTHER	-1	-1.0	-1.0	[]	23	
footnotes	OTHER	-1	-1.0	-1.0	[]	4	
death_cause	OTHER	-1	-1.0	-1.0	[]	2	
predecessor8	OTHER	augus,st vi,st ea,st ma,st ba,st) n,nd ba,	-1.0	-1.0	[predecessor6, predecessor7]	157	
relatives	OTHER	-1	-1.0	-1.0	[]	0	
battles	OTHER	-,	-1.0	-1.0	[]	2	
birthname	STRING	-1	-1.0	-1.0	[birth_name]	10	
signature_alt	STRING	-1	-1.0	-1.0	[]	2	
resting_place_coordinates	OTHER	-1	-1.0	-1.0	[]	0	
commands	OTHER	-1	-1.0	-1.0	[]	1	
employer	OTHER	-1	-1.0	-1.0	[]	1	
children	OTHER	child,nd vi,]],	-1.0	-1.0	[]	10	
education	OTHER	-1	-1.0	-1.0	[]	1	
alt	NUMBER	gener,.,	-1.0	-1.0	[]	2	
name	STRING	-1	-1.0	-1.0	[]	97	
university	OTHER	-1	-1.0	-1.0	[]	2	
successor8	OTHER	st vi,st ea,st) [,st ba,st ma,-,	-1.0	-1.0	[successor7]	153	
website	OTHER	-1	-1.0	-1.0	[]	3	
cabinet	OTHER	-1	-1.0	-1.0	[]	1	
imagesize	NUMBER	px,	-1.0	-1.0	[image_size]	30	
1namedata	OTHER	-1	-1.0	-1.0	[]	2	
suffix	OTHER	-1	-1.0	-1.0	[prefix]	22	
unit	OTHER	photo,	-1.0	-1.0	[]	2	
order8	OTHER	–,|chie,rd [[,th ch,st,,st vi,th]],th [[,th,	-1.0	-1.0	[order, order7, order6, order1, order5, order4, order3, order2]	120	
nationality	OTHER	-1	-1.0	-1.0	[]	22	
2blankname	STRING	-1	-1.0	-1.0	[1blankname]	3	
chancellor4	OTHER	) him,	-1.0	-1.0	[chancellor3]	22	

