Name	STRING	-1	-1.0	-1.0	[]	2	
Last	OTHER	-1	-1.0	-1.0	[First]	4	
Powers	OTHER	-1	-1.0	-1.0	[]	2	
Example	OTHER	-1	-1.0	-1.0	[]	2	
Trait	STRING	-1	-1.0	-1.0	[]	2	
Creator	STRING	-1	-1.0	-1.0	[]	2	
Image	NUMBER	px]],	-1.0	-1.0	[]	1	
Sub	STRING	-1	-1.0	-1.0	[]	2	
Title	STRING	-1	-1.0	-1.0	[]	2	

