acronym	STRING	-1	-1.0	-1.0	[]	30	
manufacturers	OTHER	-1	-1.0	-1.0	[]	6	
name	STRING	mv ac,.jpg,f pbm,	-1.0	-1.0	[image]	51	
classification	OTHER	-1	-1.0	-1.0	[]	32	
analytes	OTHER	-1	-1.0	-1.0	[]	15	
hyphenated	OTHER	-1	-1.0	-1.0	[]	31	
caption	STRING	f mag,profe,	-1.0	-1.0	[]	19	
related	OTHER	-1	-1.0	-1.0	[]	34	

