third_interval	OTHER	-1	-1.0	-1.0	[]	28	
interval	OTHER	-1	-1.0	-1.0	[]	1	
second_interval	OTHER	-1	-1.0	-1.0	[]	29	
sixth_interval	OTHER	-1	-1.0	-1.0	[fifth_interval]	9	
chord_name	STRING	{{mus,	-1.0	-1.0	[]	29	
fourth_interval	OTHER	-1	-1.0	-1.0	[]	21	
forte_number	NUMBER	-,	-1.0	-1.0	[]	10	
tuning	NUMBER	:,	-1.0	-1.0	[]	18	
first_interval	OTHER	-1	-1.0	-1.0	[]	29	

