successor	OTHER	-1	-1.0	-1.0	[]	0	
writings	OTHER	.writ,books,) ''f,, isb,autho,“seas,),), '',,,-,	-1.0	-1.0	[]	58	
religion	OTHER	-1	-1.0	-1.0	[]	11	
known_for	OTHER	-1	-1.0	-1.0	[]	0	
family	OTHER	-,	-1.0	-1.0	[]	2	
spouse	OTHER	), an,&ndas,- ?),),) aug,,,. she,-,–,) rac,-pres,|,(?)-,) luc,	-1.0	-1.0	[]	101	
schooling	STRING	-1	-1.0	-1.0	[]	1	
image_width	NUMBER	px,	-1.0	-1.0	[]	1	
grandchildren	OTHER	-1	-1.0	-1.0	[]	2	
salary	NUMBER	,,	-1.0	-1.0	[]	1	
place	OTHER	,may,.png,t.jpg,).png,s.jpg,.jpg,ubert,-,marti,).jpg,.jpeg,-crop,	-1.0	-1.0	[image]	162	
other_names	STRING	-1	-1.0	-1.0	[]	40	
signature	STRING	hartz,	-1.0	-1.0	[]	15	
denomination	OTHER	-1	-1.0	-1.0	[]	2	
death_date	NUMBER	(aged,may,janua,april,&nbsp,decem,(,/,,,and,–,augus,march,septe,, {{d,octob,july,|,febru,novem,	383.0	1997.0	[]	182	
occupation	OTHER	-1	-1.0	-1.0	[]	17	
churches	OTHER	-,	-1.0	-1.0	[church]	232	
footnotes	OTHER	encyc,	-1.0	-1.0	[]	223	
resting_place	OTHER	-1	-1.0	-1.0	[]	3	
category	OTHER	-1	-1.0	-1.0	[]	1	
death_cause	OTHER	-1	-1.0	-1.0	[]	2	
signatu	OTHER	-1	-1.0	-1.0	[]	0	
awards	NUMBER	px|li,	-1.0	-1.0	[]	1	
bgcolour	STRING	-1	-1.0	-1.0	[]	1	
congregations	OTHER	–,&ndas,-,	-1.0	-1.0	[]	100	
birthname	STRING	-1	-1.0	-1.0	[birth_name]	21	
resting_place_coordinates	OTHER	-1	-1.0	-1.0	[]	0	
parents	OTHER	decem,st ba,rd ba,-,	-1.0	-1.0	[]	64	
ministry	STRING	-1	-1.0	-1.0	[Ministry]	2	
employer	OTHER	-1	-1.0	-1.0	[]	1	
children	OTHER	sons,&nbsp,(,),)   m,-,	-1.0	-1.0	[]	80	
education	OTHER	b.a.,); b.,) [[p,- [[p,) con,; [[m,pitts,),); [[,, [[p,studi,-,	-1.0	-1.0	[]	176	
predecessor	OTHER	-1	-1.0	-1.0	[]	0	
title	STRING	–,&ndas,– ),	-1.0	-1.0	[titile]	123	
pronunciation	OTHER	-1	-1.0	-1.0	[]	2	
order	OTHER	-1	-1.0	-1.0	[]	0	
name	STRING	-1	-1.0	-1.0	[]	262	
officesheld	OTHER	–,nd pr,field,&ndas,th pr,club],st ja,),.,thpre,– pre,-,	-1.0	-1.0	[offices_held]	141	
held	STRING	-1	-1.0	-1.0	[dead]	2	
website	OTHER	-1	-1.0	-1.0	[]	20	
imagesize	NUMBER	px,×,	150.0	200.0	[image_size]	104	
residency	OTHER	-1	-1.0	-1.0	[residence]	4	
caption	OTHER	may,, [[f,),.,in,=gnan,-,–,, pai,[[dem,s,engra,).,	-1.0	-1.0	[]	76	
pseudonym	OTHER	-1	-1.0	-1.0	[]	1	
deathplace	OTHER	.,	-1.0	-1.0	[deathdate, death_place]	366	
nationality	OTHER	-1	-1.0	-1.0	[]	10	
ordained	OTHER	const,([[de,by th,&nbsp,decem,march,septe,july,in da,may,april,czerw,, [[p,/,,,-,, [[r,augus,(prie,octob,by pr,, pri,|,, new,novem,	-1.0	-1.0	[]	124	
birthp_lace	OTHER	may,janua,april,june,}},&nbsp,decem,,,and,-,–,march,augus,septe,july,|,febru,novem,	-1.0	-1.0	[birth_date]	265	
yearsactive	NUMBER	- pre,-pres,	-1.0	-1.0	[years_active]	3	

