president	STRING	-1	-1.0	-1.0	[]	2	
altlogo	OTHER	px|ce,	-1.0	-1.0	[]	11	
boathouse	STRING	-1	-1.0	-1.0	[]	1	
fightsong	OTHER	",go, g,nczeo,s);,&medi,),ers",	-1.0	-1.0	[]	248	
city	STRING	-1	-1.0	-1.0	[]	402	
slogan	STRING	.png,c,).gif,.gif,.jpg,new l,_colo,athle,	-1.0	-1.0	[logo]	377	
founded	NUMBER	(,	1863.0	1899.0	[]	7	
arena2	OTHER	&spid,arena,px]],(c.,),,,	-1.0	-1.0	[arena]	506	
h_pattern_s	STRING	-1	-1.0	-1.0	[h_pattern_b, a_pattern_s, a_pattern_b]	4	
pagefreelabel	STRING	-1	-1.0	-1.0	[]	1	
conference	OTHER	(lead,) [[b,sport,confe,),]],,,]], [,-,)  [[,)'',[[mid,teams,-pres,), [[,]] [[,	-1.0	-1.0	[]	402	
stateabb	STRING	-1	-1.0	-1.0	[state]	803	
logo_width	OTHER	px,x,	-1.0	-1.0	[]	190	
symbol	OTHER	-1	-1.0	-1.0	[]	2	
nickname	STRING	- pre,ers,–pres,-,	-1.0	-1.0	[]	398	
association	OTHER	-1	-1.0	-1.0	[]	102	
colors	STRING	}} [[,cf}},}} {{,),	-1.0	-1.0	[color3, color4, color2, color1]	856	
pagefreevalue	OTHER	-1	-1.0	-1.0	[]	1	
width	NUMBER	px,	-1.0	-1.0	[]	1	
director	OTHER	kevin,	-1.0	-1.0	[]	391	
soccerstadium	OTHER	field,,,	-1.0	-1.0	[]	89	
nation	OTHER	-1	-1.0	-1.0	[]	1	
colours	OTHER	-1	-1.0	-1.0	[]	0	
country	OTHER	-1	-1.0	-1.0	[]	2	
size	NUMBER	px,	-1.0	-1.0	[]	4	
SID	STRING	-1	-1.0	-1.0	[]	1	
teams	NUMBER	inter,men a,teams,''' (,varsi,men &,men's,men,,(,(incl,	3.0	37.0	[]	377	
h_body	NUMBER	-1	800000.0	800000.0	[a_body]	2	
PagFreeValue	OTHER	-1	-1.0	-1.0	[]	2	
marchingband	OTHER	-1	-1.0	-1.0	[]	1	
subdivision	OTHER	- pre,('',),) of,]],)'',,	-1.0	-1.0	[division]	395	
song	OTHER	-1	-1.0	-1.0	[]	3	
mascot	OTHER	, edd,.html,px|te,, ret,),	-1.0	-1.0	[]	312	
mascots	STRING	-1	-1.0	-1.0	[]	2	
Field	STRING	-1	-1.0	-1.0	[]	1	
h_shorts	NUMBER	-1	800000.0	800000.0	[a_shorts]	2	
rival2	STRING	-1	-1.0	-1.0	[rival1]	2	
baseballfield	OTHER	),,,	-1.0	-1.0	[]	295	
pagename	STRING	px]],	-1.0	-1.0	[]	400	
championships	NUMBER	,,	26.0	26.0	[Championships]	2	
Outfitter	OTHER	-1	-1.0	-1.0	[]	1	
Course	STRING	-1	-1.0	-1.0	[]	1	
pronunciation	OTHER	-1	-1.0	-1.0	[]	0	
softballfield	STRING	),	-1.0	-1.0	[]	6	
name	STRING	px]],ers,	-1.0	-1.0	[band, mater]	405	
current	NUMBER	–,	-1.0	-1.0	[]	1	
stadium2	OTHER	–,(c.,),,,	-1.0	-1.0	[stadium]	326	
logo_size	NUMBER	px,	-1.0	-1.0	[]	5	
soccerlacrossestadium	OTHER	-1	-1.0	-1.0	[]	7	
confDivision	STRING	-1	-1.0	-1.0	[]	1	
pageurl	STRING	&key=,c,	-1.0	-1.0	[]	402	
university	OTHER	-1	-1.0	-1.0	[]	402	
rivals	OTHER	-1	-1.0	-1.0	[rival, rivalry]	14	
hex4	OTHER	ca,ccae,ebae,deb,dd,ff,aaab,bf,bddff,bc,bd,f,d,daa,e,b,c,eab,a,adb,dff,ad,aa,caff,bfa,cff,cf,cc,af,	-1.0	-1.0	[cheer, hex3, hex2, hex1]	846	
track	STRING	-1	-1.0	-1.0	[]	1	
soccertadium	STRING	-1	-1.0	-1.0	[]	1	
pastconference	OTHER	-1	-1.0	-1.0	[]	0	
field	OTHER	-1	-1.0	-1.0	[]	3	
lacrossestadium	OTHER	stadi,),	-1.0	-1.0	[]	18	
PagFreeLabel	STRING	-1	-1.0	-1.0	[]	2	
softballstadium	OTHER	-1	-1.0	-1.0	[]	5	

