conference9_wins	OTHER	-1	-1.0	-1.0	[conference3_wins, conference11_wins, conference2_wins, conference6_wins, conference7_wins, conference8_wins, conference4_wins, conference5_wins, conference1_wins, conference10_wins, conference12_wins]	0	
bowl_end	OTHER	-1	-1.0	-1.0	[]	0	
regular_season	OTHER	-1	-1.0	-1.0	[]	0	
conference9	OTHER	-1	-1.0	-1.0	[conference7, conference8]	0	
number_of_bowls	OTHER	-1	-1.0	-1.0	[]	0	
champions	OTHER	-1	-1.0	-1.0	[]	0	
championship_location	OTHER	-1	-1.0	-1.0	[]	0	
conference9_losses	OTHER	-1	-1.0	-1.0	[conference1_losses, conference7_losses, conference8_losses, conference5_losses, conference11_losses, conference6_losses, conference12_losses, conference2_losses, conference10_losses, conference3_losses, conference4_losses]	0	
all_star_games	OTHER	-1	-1.0	-1.0	[]	0	
image	OTHER	-1	-1.0	-1.0	[]	0	
image_caption	OTHER	-1	-1.0	-1.0	[]	0	
conference9_teams	OTHER	-1	-1.0	-1.0	[conference8_teams]	0	
season	OTHER	-1	-1.0	-1.0	[]	0	
bowl_challenge_cup	OTHER	-1	-1.0	-1.0	[]	0	
conference9_ap_poll	OTHER	-1	-1.0	-1.0	[conference7_ap_poll, conference8_ap_poll]	1	
championship_bowl	OTHER	-1	-1.0	-1.0	[]	0	
bowl_start	OTHER	-1	-1.0	-1.0	[]	0	

