song	OTHER	-1	-1.0	-1.0	[]	0	
mascot	OTHER	-1	-1.0	-1.0	[]	0	
surface	NUMBER	' x,	-1.0	-1.0	[]	1	
location	STRING	-1	-1.0	-1.0	[]	1	
NCRHAsemifinal	NUMBER	-1	0.0	-1.0	[]	1	
fontcolor	NUMBER	af,	-1.0	-1.0	[]	1	
coach_wins	OTHER	-1	-1.0	-1.0	[coach_ties]	0	
coach_losses	OTHER	-1	-1.0	-1.0	[]	0	
fight_song	OTHER	-1	-1.0	-1.0	[]	0	
organization	STRING	-1	-1.0	-1.0	[]	1	
division	OTHER	-1	-1.0	-1.0	[]	0	
uniform_image	OTHER	-1	-1.0	-1.0	[]	2	
arena	OTHER	-1	-1.0	-1.0	[]	1	
image_size	NUMBER	-1	100.0	100.0	[]	1	
organization_short	STRING	-1	-1.0	-1.0	[]	1	
current	NUMBER	–,	-1.0	-1.0	[]	1	
capacity	OTHER	-1	-1.0	-1.0	[]	0	
university	STRING	-1	-1.0	-1.0	[]	1	
color3	STRING	-1	-1.0	-1.0	[color2, color1]	3	
coach	OTHER	-1	-1.0	-1.0	[]	0	
hex3	STRING	-1	-1.0	-1.0	[]	1	
team_name	STRING	-1	-1.0	-1.0	[]	1	
hex2	NUMBER	af,	0.0	-1.0	[hex1]	2	
NCRHAchampion	NUMBER	-1	0.0	-1.0	[]	1	
image	STRING	-1	-1.0	-1.0	[]	1	
NCRHArunner	NUMBER	-1	0.0	-1.0	[]	1	
conference_tournament	NUMBER	-1	0.0	-1.0	[]	1	
conference_season	NUMBER	-1	0.0	-1.0	[]	1	
studentsection	OTHER	-1	-1.0	-1.0	[]	0	
captains	OTHER	-1	-1.0	-1.0	[acaptains]	0	
coach_year	OTHER	-1	-1.0	-1.0	[]	0	
season	NUMBER	-1	2003.0	2003.0	[]	1	
NCRHAtourneys	NUMBER	,,	-1.0	-1.0	[]	1	

