ncaa_tourneys	NUMBER	•,ncaa,,,	1990.0	2009.0	[ncaa_tourn]	96	
conf_tourn	NUMBER	,,	-1.0	-1.0	[]	1	
nat_champ	NUMBER	colle,,,	-1.0	-1.0	[]	3	
cws	OTHER	colle,,,divis,	-1.0	-1.0	[]	67	
national_champion	OTHER	texas,,,divis,	-1.0	-1.0	[]	23	
fontcolor	OTHER	f,d,e,b,c,a,caff,cc,	-1.0	-1.0	[]	101	
pagename	STRING	-1	-1.0	-1.0	[]	1	
conference_champion	OTHER	,•,fic:,big s,acc:,swiaa,:,c-usa,misso,,,-,	-1.0	-1.0	[]	107	
bgcolor	OTHER	-1	-1.0	-1.0	[]	0	
city	STRING	-1	-1.0	-1.0	[]	113	
NCAArunnerup	NUMBER	,,	-1.0	-1.0	[]	1	
ncaa_super_regional	NUMBER	,,	-1.0	-1.0	[]	1	
founded	NUMBER	}},	1851.0	1998.0	[]	102	
division	STRING	ncaa,	-1.0	-1.0	[]	29	
name	OTHER	ers,	-1.0	-1.0	[]	113	
current	NUMBER	georg,conne,clems,kent,texas,kentu,lsu t,ucf k,misso,vcu r,arkan,alaba,ucla,the c,stony,arizo,calif,south,flori,	-1.0	-1.0	[]	21	
capacity	NUMBER	,,and,	500.0	2000.0	[]	108	
logo_size	OTHER	px,	-1.0	-1.0	[]	88	
conference	STRING	confe,-,	-1.0	-1.0	[]	113	
conference_short	STRING	,,	-1.0	-1.0	[]	108	
pageurl	STRING	-1	-1.0	-1.0	[]	1	
logo_width	NUMBER	-1	125.0	125.0	[]	1	
stateabb	STRING	-1	-1.0	-1.0	[state]	226	
conference_tourneys	OTHER	,,	-1.0	-1.0	[]	2	
logo	STRING	.png,	-1.0	-1.0	[]	92	
color3	STRING	-1	-1.0	-1.0	[color2, color1]	242	
university	STRING	-1	-1.0	-1.0	[]	112	
website	OTHER	-1	-1.0	-1.0	[]	1	
nickname	OTHER	-1	-1.0	-1.0	[]	106	
coach	OTHER	-,	-1.0	-1.0	[]	107	
hex3	OTHER	f,daa,d,e,b,ff,c,a,ceeb,caff,cc,af,	-1.0	-1.0	[hex2, hex1]	237	
conf_champ	OTHER	,,	-1.0	-1.0	[]	5	
ncaa_super_regionals	OTHER	,,	-1.0	-1.0	[]	2	
super_regionals_appearances	NUMBER	,,	-1.0	-1.0	[]	1	
conference_tournament	NUMBER	horiz,wac:,[[sun,:,south,confe,north,,,big e,	1977.0	2012.0	[]	67	
record	NUMBER	–,	-1.0	-1.0	[]	1	
conf_short	STRING	-1	-1.0	-1.0	[]	4	
stadium	OTHER	-1	-1.0	-1.0	[]	112	
tenure	NUMBER	st ye,th (,nd,st,rd,-,th,	2012.0	2012.0	[]	106	
runner_ups	NUMBER	,,	-1.0	-1.0	[]	1	

