mascot	STRING	-1	-1.0	-1.0	[]	1	
ncaa_tourneys	NUMBER	,(,,,	-1.0	-1.0	[]	6	
national_champion	NUMBER	,(aiaw,(,,,	-1.0	-1.0	[]	6	
fontcolor	STRING	-1	-1.0	-1.0	[]	7	
fightsong	OTHER	-1	-1.0	-1.0	[]	3	
conference_champion	OTHER	,(,,,(pac-,	-1.0	-1.0	[]	9	
city	STRING	-1	-1.0	-1.0	[]	8	
founded	NUMBER	-1	1931.0	1981.0	[]	8	
division	OTHER	-1	-1.0	-1.0	[]	0	
arena	OTHER	-1	-1.0	-1.0	[]	6	
capacity	NUMBER	,,	-1.0	-1.0	[]	7	
logo_size	NUMBER	px,	150.0	150.0	[]	7	
conference	OTHER	confe,	-1.0	-1.0	[]	8	
knownas	OTHER	-1	-1.0	-1.0	[]	8	
conference_short	STRING	-1	-1.0	-1.0	[]	8	
pageurl	STRING	-1	-1.0	-1.0	[]	1	
stateabb	STRING	-1	-1.0	-1.0	[state]	27	
logo	STRING	-1	-1.0	-1.0	[]	7	
university	STRING	-1	-1.0	-1.0	[]	8	
color3	OTHER	-1	-1.0	-1.0	[]	0	
nickname	STRING	-1	-1.0	-1.0	[]	5	
coach	OTHER	-1	-1.0	-1.0	[]	8	
hex3	OTHER	d,a,	-1.0	-1.0	[hex2, hex1]	16	
ncaa_regionals	NUMBER	,(regi,(,(),,,	-1.0	-1.0	[]	6	
supersix	NUMBER	,(,,,	-1.0	-1.0	[]	5	
stadium	OTHER	-1	-1.0	-1.0	[]	3	
tenure	NUMBER	nd,-pres,st,rd,th,	34.0	34.0	[]	8	
color2	STRING	-1	-1.0	-1.0	[color1]	16	

