ohsv	OTHER	f,dc,cb,d,e,b,c,a,ceeb,fffd,deb,fff}},fff,ee,ff,ab,ffff,ccd,cf,aead,	-1.0	-1.0	[hex]	70	
sRGB	NUMBER	&thin,	1.0	100.0	[s]	65	
textcolor	STRING	-1	-1.0	-1.0	[]	46	
colorspace	OTHER	-1	-1.0	-1.0	[]	2	
caveat	OTHER	-1	-1.0	-1.0	[]	3	
frequency	NUMBER	–,	-1.0	-1.0	[]	8	
rgbspace	OTHER	-1	-1.0	-1.0	[]	14	
variations	NUMBER	-1	1.0	1.0	[]	1	
title	STRING	-1	-1.0	-1.0	[]	69	
variation2color	NUMBER	f,fcfff,	-1.0	-1.0	[variation1color]	2	
variation1textcolor	STRING	-1	-1.0	-1.0	[]	1	
spelling	STRING	-1	-1.0	-1.0	[]	8	
image	OTHER	.svg,.png,by da,	-1.0	-1.0	[]	19	
caption	OTHER	-1	-1.0	-1.0	[]	3	
pic	OTHER	-1	-1.0	-1.0	[]	0	
wavelength	NUMBER	–,	-1.0	-1.0	[]	10	
source	OTHER	.us/m,.us/n,&c=,c tr,color,&form,.com/,pourp,-g}},.org/,	-1.0	-1.0	[]	62	
symbolism	OTHER	-1	-1.0	-1.0	[]	9	
variation2	STRING	-1	-1.0	-1.0	[variation1]	2	
y	NUMBER	}},[http,`,&thin,	0.0	350.0	[v]	533	

