limited	STRING	-1	-1.0	-1.0	[]	18	
subcat	STRING	-1	-1.0	-1.0	[cat]	89	
addpubcat1	STRING	-1	-1.0	-1.0	[addgrpcat1]	8	
multigenre	STRING	-1	-1.0	-1.0	[]	11	
pencillers	OTHER	)''':,),''' [,)''',) [[g,	-1.0	-1.0	[]	25	
debut2	OTHER	) #,(apri,(july,, #,'' #,(june,in co,|new,(augu,	-1.0	-1.0	[debut1, debut]	55	
Mystery	STRING	-1	-1.0	-1.0	[]	1	
sortkey	STRING	-1	-1.0	-1.0	[]	51	
TPB9	STRING	–,(vol.,: tri,	-1.0	-1.0	[TPB5, TPB6]	73	
TPB8	OTHER	),-,	-1.0	-1.0	[TPB7, ISBN8]	7	
image	OTHER	,dc,_i,.jpg,cov,),-cove,covfi,v,cover,).jpg,s tea,legio,aces.,	-1.0	-1.0	[base]	61	
main_char_team	OTHER	-1	-1.0	-1.0	[]	4	
creators	OTHER	s)''',s tea,	-1.0	-1.0	[]	45	
letterers	OTHER	) [[a,)''',-,	-1.0	-1.0	[]	14	
creators_series	OTHER	-1	-1.0	-1.0	[]	8	
owners	OTHER	s)''',) [[a,)''',-,	-1.0	-1.0	[inkers]	35	
cvr_caption	NUMBER	) #,(nov.,(sept,(janu,|nove,, #,|type,(apri,|jan,,(july,. art,(may,(nove,	-1.0	-1.0	[]	17	
date	NUMBER	in co,)''',:''',	-1.0	-1.0	[]	6	
creative_team_month	OTHER	-1	-1.0	-1.0	[]	2	
villain	STRING	-1	-1.0	-1.0	[]	4	
publisher	OTHER	-1	-1.0	-1.0	[]	48	
1stishhead3	OTHER	),: the,resum,)''',cont.,	-1.0	-1.0	[]	13	
altcat	OTHER	-1	-1.0	-1.0	[]	0	
1stishhead4	STRING	),: rai,: rev,)''',	-1.0	-1.0	[1stishhead2]	84	
1stishhead5	NUMBER	)''',cont.,	-1.0	-1.0	[]	2	
pub_series	OTHER	-1	-1.0	-1.0	[]	6	
team_name	STRING	-1	-1.0	-1.0	[]	1	
Horror	STRING	-1	-1.0	-1.0	[]	2	
caption	OTHER	) #,#,(marc,, #,, the,|may,st is,(,.,cover,. fro,s x-f,|july,'' #,(june,art b,	-1.0	-1.0	[]	41	
artists	OTHER	)''',	-1.0	-1.0	[]	15	
endishyr5	NUMBER	-1	1969.0	2013.0	[endishyr4, 1stishyr5]	107	
writers	OTHER	) [[s,)''':,),, vol,)''',-,	-1.0	-1.0	[editors]	53	
genre	OTHER	)''',	-1.0	-1.0	[]	8	
debutmo2	DATE	-1	-1.0	-1.0	[debutmo1, debutmo]	49	
colorists	OTHER	) [[h,)''',	-1.0	-1.0	[]	21	
type	STRING	),	-1.0	-1.0	[title, Spy, team, name]	123	
cvr_image	NUMBER	,kirby,.png,.jpg,_,	-1.0	-1.0	[]	17	
hero	STRING	-1	-1.0	-1.0	[]	44	
1shot	STRING	-1	-1.0	-1.0	[]	2	
format	OTHER	[reve,&,)''',-,	-1.0	-1.0	[]	18	
pub	STRING	-1	-1.0	-1.0	[]	5	
creative_team_year	NUMBER	-1	2009.0	2009.0	[]	1	
issues	OTHER	,:''':,''''',''','''da,''':,+,)''':,'''(v,)''',:''',	-1.0	-1.0	[]	45	
1stishyr3	NUMBER	-1	1961.0	2012.0	[1stishyr2]	104	
fullroster	OTHER	–,	-1.0	-1.0	[]	14	
ISBN9	NUMBER	v (pa,-,x,	1.401200206E9	1.563898543E9	[ISBN5]	72	
ISBN7	OTHER	-,	-1.0	-1.0	[ISBN6]	6	
debutyr2	NUMBER	-1	1958.0	2011.0	[debutyr1]	50	
SciFi	STRING	-1	-1.0	-1.0	[]	10	
debuthead2	NUMBER	s,	-1.0	-1.0	[]	1	
debuthead1	OTHER	s,s tea,	-1.0	-1.0	[debuthead]	10	
business	OTHER	-1	-1.0	-1.0	[]	0	
organization	STRING	-1	-1.0	-1.0	[organisation]	35	
Superhero	STRING	-1	-1.0	-1.0	[]	33	
members	OTHER	-d ma,|apol,(comi,s tea,	-1.0	-1.0	[]	37	
1stishmo2	OTHER	-1	-1.0	-1.0	[]	20	
1stishmo5	DATE	-1	-1.0	-1.0	[1stishmo4]	90	
imagesize	NUMBER	-1	150.0	250.0	[]	5	
endishmo5	OTHER	-1	-1.0	-1.0	[endishmo, endishmo4, endishmo3, endishmo2]	76	
nonUS	OTHER	-1	-1.0	-1.0	[]	0	
schedule	STRING	)''',	-1.0	-1.0	[]	38	
ongoing	STRING	-1	-1.0	-1.0	[]	38	
Adventure	STRING	-1	-1.0	-1.0	[]	1	
endishmo1	DATE	-1	-1.0	-1.0	[]	25	
group	STRING	-1	-1.0	-1.0	[]	45	
employees	STRING	-1	-1.0	-1.0	[]	1	

