writer2	OTHER	-1	-1.0	-1.0	[writer1]	13	
subcat	STRING	-1	-1.0	-1.0	[cat]	66	
debutyr8	OTHER	) #,#,, #,|''ac,(spri,(may,(augu,	-1.0	-1.0	[debutyr7]	53	
subject	OTHER	-1	-1.0	-1.0	[]	0	
debutyr5	NUMBER	-1	1938.0	2008.0	[debutyr4]	73	
code_name	STRING	-1	-1.0	-1.0	[]	46	
subage	OTHER	.png,.jpg,.,	-1.0	-1.0	[image]	17	
type	OTHER	-1	-1.0	-1.0	[see]	0	
artist1	OTHER	-1	-1.0	-1.0	[]	5	
noimage	STRING	-1	-1.0	-1.0	[]	2	
villain	STRING	-1	-1.0	-1.0	[]	4	
addcharcat2	STRING	-1	-1.0	-1.0	[addcharcat1]	5	
publisher	OTHER	-1	-1.0	-1.0	[]	53	
alt	OTHER	-1	-1.0	-1.0	[]	0	
sortkey	STRING	-1	-1.0	-1.0	[]	32	
date2	OTHER	-1	-1.0	-1.0	[date1]	0	
hero	STRING	-1	-1.0	-1.0	[]	13	
debutmo	DATE	-1	-1.0	-1.0	[]	50	
imagesize	NUMBER	-1	145.0	145.0	[]	1	
caption	OTHER	) #,|dec,|nov,,|may,featu,. art,s, [[,.,, art,	-1.0	-1.0	[]	19	
nextage	OTHER	-1	-1.0	-1.0	[]	0	
creators	OTHER	-1	-1.0	-1.0	[]	43	
prevage	OTHER	-1	-1.0	-1.0	[parentage]	0	
characters	OTHER	s and,)]] [,(comi,|jake,	-1.0	-1.0	[]	22	
seealso	OTHER	-1	-1.0	-1.0	[]	38	

