flagbearer	STRING	-1	-1.0	-1.0	[]	2	
bronze	NUMBER	-1	7.0	9.0	[]	2	
games	NUMBER	-1	2006.0	2010.0	[]	2	
rank	OTHER	th,	-1.0	-1.0	[]	2	
competitors	NUMBER	-1	102.0	371.0	[]	2	
silver	NUMBER	-1	5.0	11.0	[]	2	
sports	NUMBER	-1	11.0	11.0	[]	1	
officials	OTHER	-1	-1.0	-1.0	[]	0	
gold	NUMBER	-1	6.0	12.0	[]	2	

