flagbearer	STRING	-1	-1.0	-1.0	[]	1	
bronze	OTHER	-1	-1.0	-1.0	[]	0	
games	NUMBER	-1	2010.0	2010.0	[]	1	
rank	OTHER	-1	-1.0	-1.0	[]	1	
competitors	OTHER	-1	-1.0	-1.0	[]	0	
silver	OTHER	-1	-1.0	-1.0	[]	0	
sports	OTHER	-1	-1.0	-1.0	[]	0	
officials	OTHER	-1	-1.0	-1.0	[]	0	
gold	OTHER	-1	-1.0	-1.0	[]	0	

