flagbearer	STRING	-1	-1.0	-1.0	[]	2	
bronze	OTHER	-1	-1.0	-1.0	[]	0	
games	NUMBER	-1	2006.0	2010.0	[]	2	
rank	OTHER	-1	-1.0	-1.0	[]	2	
competitors	OTHER	(,	-1.0	-1.0	[]	2	
silver	OTHER	-1	-1.0	-1.0	[]	0	
sports	NUMBER	-1	5.0	5.0	[]	1	
officials	OTHER	-1	-1.0	-1.0	[]	0	
gold	OTHER	-1	-1.0	-1.0	[]	0	

