flagbearer	STRING	-1	-1.0	-1.0	[]	2	
bronze	NUMBER	-1	10.0	13.0	[]	2	
games	NUMBER	-1	2006.0	2010.0	[]	2	
rank	OTHER	th,	-1.0	-1.0	[]	2	
competitors	OTHER	-1	-1.0	-1.0	[]	0	
silver	NUMBER	-1	11.0	13.0	[]	2	
sports	OTHER	-1	-1.0	-1.0	[]	0	
officials	OTHER	-1	-1.0	-1.0	[]	0	
gold	NUMBER	-1	12.0	12.0	[]	2	

