killed	NUMBER	bosni,.,,,	23.0	23.0	[]	18	
location	OTHER	}} [[,	-1.0	-1.0	[]	37	
use	OTHER	rocke,|janu,septe,th ca,nd in,,,–pres,	-1.0	-1.0	[for, type]	112	
operation	OTHER	,|octo,may,– sep,&nbsp,decem,,,-,–,march,augus,oktob,s,and a,– aug,– jan,july,	-1.0	-1.0	[]	35	
chambers	OTHER	(late,vans,(expa,	-1.0	-1.0	[]	6	
longs	NUMBER	-1	0.0	63.0	[longm, lats]	180	
longEW	STRING	-1	-1.0	-1.0	[]	29	
name	STRING	-1	-1.0	-1.0	[alt, map]	73	
construction	OTHER	– may,— jul,novem,	-1.0	-1.0	[]	10	
books	OTHER	-,	-1.0	-1.0	[]	9	
latNS	STRING	-1	-1.0	-1.0	[]	29	
website	OTHER	-1	-1.0	-1.0	[]	11	
width	OTHER	px,	-1.0	-1.0	[]	9	
caption	STRING	-1	-1.0	-1.0	[]	22	
display	SET_OF_STRINGS	|,	-1.0	-1.0	[]	35	
size	NUMBER	px,x,	-1.0	-1.0	[]	8	
names	OTHER	.gif,.jpg,-holo,	-1.0	-1.0	[inmates]	43	

