profession	OTHER	, beg,),-,	-1.0	-1.0	[]	623	
religion	OTHER	–,}}, [,}},),-,	-1.0	-1.0	[relations]	1110	
deputy	NUMBER	&ndas,) [[j,-,	-1.0	-1.0	[]	3	
criminal_charge	OTHER	-1	-1.0	-1.0	[]	0	
movement	OTHER	-1	-1.0	-1.0	[monuments]	0	
partner	STRING	-1	-1.0	-1.0	[]	1	
salary	OTHER	-1	-1.0	-1.0	[]	0	
resting_placed	STRING	-1	-1.0	-1.0	[resingplace]	3	
nickname	OTHER	-1	-1.0	-1.0	[]	5	
portfolio	OTHER	-1	-1.0	-1.0	[]	0	
image_caption	STRING	-1	-1.0	-1.0	[]	1	
box_width	OTHER	-1	-1.0	-1.0	[]	1	
restingplace	OTHER	-1	-1.0	-1.0	[resting_place]	643	
party_election2	OTHER	-1	-1.0	-1.0	[]	1	
appointer8	OTHER	-1	-1.0	-1.0	[appointer5]	28	
2namedata	OTHER	-1	-1.0	-1.0	[1namedata5, 1namedata2]	4	
constituency_AM	STRING	-1	-1.0	-1.0	[]	1	
accessdate	OTHER	-1	-1.0	-1.0	[]	0	
ambassador_from4	STRING	-1	-1.0	-1.0	[ambassador_from1, ambassador_from2, ambassador_from3, ambassador_from]	13	
criminal_penalty	OTHER	-1	-1.0	-1.0	[]	0	
state_senate7	STRING	-1	-1.0	-1.0	[state_senate5, state_senate6]	177	
nominator8	OTHER	-1	-1.0	-1.0	[nominator5]	2	
election_date	NUMBER	,,	-1.0	-1.0	[]	1	
years_active	OTHER	-1	-1.0	-1.0	[]	0	
dead	STRING	-1	-1.0	-1.0	[]	43	
death_date	NUMBER	,|dece,(aged,}},june,th,,,,-,(age,|mont,octob,|,?,	1702.0	1975.0	[birth_date]	5319	
agent	OTHER	-1	-1.0	-1.0	[]	0	
death_cause	OTHER	-1	-1.0	-1.0	[]	4	
deputy2	STRING	-1	-1.0	-1.0	[]	1	
employer	OTHER	-1	-1.0	-1.0	[]	0	
education	OTHER	-1	-1.0	-1.0	[]	7	
organization	OTHER	-1	-1.0	-1.0	[]	0	
honorific_suffix	OTHER	-1	-1.0	-1.0	[]	0	
name	STRING	,.png,sh ma,).png,s.jpg,.jpg,nd ma,campa,-hec.,rd,u.jpg,–,th_co,th u.,ejpg,.tif,.gif,.jpeg,_,_texa,th).j,e,c,or,a,-dies,th co,,,nih.j,-,r-ny%,).jpg,rd co,p,	-1.0	-1.0	[alt]	2600	
signature_size	OTHER	-1	-1.0	-1.0	[]	0	
constituency_MP3	OTHER	-1	-1.0	-1.0	[constituency3]	5	
imagesize	NUMBER	px,x,	175.0	200.0	[image_size]	209	
majorityleader2	NUMBER	th,	-1.0	-1.0	[]	1	
order9	STRING	-1	-1.0	-1.0	[order10, order11]	6	
order8	OTHER	th di,th ma,nd se,nd &,th]],th mi,rd,th,nd [[,st co,st,,nd wa,st [[,th su,st,nd co,rd ma,st an,democ,nd]],th an,th co,th  [,),th [[,bosto,th  p,{{cit,rd [[,nd,	-1.0	-1.0	[order7, order6, order5, order4, order3, order2, order]	278	
native_name_lang	OTHER	-1	-1.0	-1.0	[]	0	
order1	NUMBER	rd [[,nd,th an,st [[,st,rd,th [[,th,	-1.0	-1.0	[]	25	
native_name	OTHER	-1	-1.0	-1.0	[]	0	
placeofburial_label	STRING	-1	-1.0	-1.0	[]	2	
name2	OTHER	,.png,edwar,).png,s.jpg,.jpg,milli,-hec.,mcclu,byche,sketc,th oh,nd co,-larg,b,c,a,th co,.pdf,,,-,.tiff,pg,ninet,).jpg,rd co,th pi,cropp,large,x,	-1.0	-1.0	[mater]	1049	
military_data5	OTHER	-1	-1.0	-1.0	[military_data4, military_data1, military_data3, military_data2]	10	
preceded9	OTHER	to,) [[e,th di,) [[d,other,) [[b,st) n,–,) [[t,th) [,st te,) [[r,st ti,st),) [[n,) [[l,) [[j,rd di,censu,nd) [,)|and,th),,th) n,'',nd),th),),) [[w,)  [[,-,)   [,th ce,	-1.0	-1.0	[preceded7, preceded6, preceded5, preceded4, preceded3, preceded2, preceded1, preceded, preceded11, preceded10]	3748	
preceded8	STRING	-1	-1.0	-1.0	[]	1	
influences	OTHER	-1	-1.0	-1.0	[influenced]	0	
succeeded8	STRING	-1	-1.0	-1.0	[]	1	
languages	OTHER	-1	-1.0	-1.0	[]	0	
image_name	OTHER	-1	-1.0	-1.0	[]	0	
viceprimeminister2	OTHER	-1	-1.0	-1.0	[viceprimeminister]	0	
suceeded2	OTHER	th di,)|bel,) [[f,other,) [[a,nd) n,th) [,) [[t,th be,st te,) [[r,st),st ti,) [[n,) [[j,) [[h,rd di,) [[g,nd) [,nd di,nd),),th),) [[w,th [[,,,-,)  [[,nd),,st di,|,)   [,th ce,	-1.0	-1.0	[succeeded9]	3639	
state_house6	STRING	-1	-1.0	-1.0	[state_house2, state_house3, state_house4, state_house5, state_house, state_house1]	209	
module6	OTHER	-1	-1.0	-1.0	[module3, module4, module5]	0	
spouses	NUMBER	–,	-1.0	-1.0	[]	1	
television	OTHER	-1	-1.0	-1.0	[]	0	
allegiance	OTHER	,–,}} [[,}},}}[[u,.,	-1.0	-1.0	[]	130	
criminal_status	OTHER	-1	-1.0	-1.0	[]	0	
residence	OTHER	) [[e,) [[f,) [[s,-,	-1.0	-1.0	[president, president4, president5, president1, president2, president3]	701	
notable_works	OTHER	-1	-1.0	-1.0	[]	0	
callsign	OTHER	-1	-1.0	-1.0	[]	0	
state_delegate3	STRING	-1	-1.0	-1.0	[state_delegate2]	5	
family	STRING	-1	-1.0	-1.0	[]	1	
alongside5	OTHER	other,-,	-1.0	-1.0	[alongside3]	62	
alongside4	STRING	other,	-1.0	-1.0	[]	6	
denomination	OTHER	-1	-1.0	-1.0	[]	0	
occupation	OTHER	&ndas,),-,	-1.0	-1.0	[]	713	
body_discovered	OTHER	-1	-1.0	-1.0	[]	0	
placeofburial	STRING	-1	-1.0	-1.0	[]	1	
state7	STRING	-1	-1.0	-1.0	[]	2	
signature_alt	STRING	-1	-1.0	-1.0	[]	10	
laterwork	OTHER	-1	-1.0	-1.0	[]	9	
commands	OTHER	th ma,th re,nd ai,nd re,rd ge,th vi,,,nd ne,rd re,th in,|,d bat,nd oh,st ne,	-1.0	-1.0	[]	31	
citizenship	OTHER	-1	-1.0	-1.0	[]	7	
restingplacecoordinates	NUMBER	|,.,	-1.0	-1.0	[resting_place_coordinates]	14	
governor6	OTHER	-,	-1.0	-1.0	[governor4]	30	
1namedata	NUMBER	–,	-1.0	-1.0	[]	1	
suffix	OTHER	-1	-1.0	-1.0	[prefix]	27	
office9	STRING	-1	-1.0	-1.0	[office8, office10]	7	
home_state	OTHER	-1	-1.0	-1.0	[]	1	
office7	OTHER	th di,th ma,st as,}},th mi,repub,distr,]],nd [[,st co,]] ([,st [[,th su,th go,rd ma,rd di,nd co,th as,th le,rd pr,th ch,b,nd di,th wa,(ecto,th co,commi,([[ea,),st  m,th es,massa,th [[,,,-,(orle,{{cit,|dist,nd ju,rd [[,rd co,st di,|,th ju,rd ch,th  e,(fult,	-1.0	-1.0	[office5, office6]	855	
spouse	OTHER	. car,&ndas,– div,, die,) ali,) kat,-),) ann,child,–,lida,st: [,) gay,septe,d.,, div,st) e,-pres,) [[m,st ch,)mart,|dece,.  di,, d.,{{spa,) mar,)  lo,) els,; dec,–),),.,– pre,,,)   m,-,–pres,– his,) rut,) isa,augus,) suz,|,) wil,daugh,, mar,) luc,	-1.0	-1.0	[]	1266	
honorific_prefix	STRING	-1	-1.0	-1.0	[]	1	
place	OTHER	-1	-1.0	-1.0	[]	3	
termstart5	NUMBER	,; ele,march,(seco,decem,]],,,-,	1789.0	2009.0	[termstart4]	2396	
signature	OTHER	–,.svg,signa,) sig,th co,nd ma,sorg,,,-,	-1.0	-1.0	[]	171	
termstart2	OTHER	{{cit,june,th un,,,	-1.0	-1.0	[term_start10, term_start5, term_start6, term_start3, term_start4, term_start2, term_start9, term_start7]	1826	
state_legislature1	STRING	-1	-1.0	-1.0	[]	1	
leader3	OTHER	-,	-1.0	-1.0	[leader2]	4	
country4	STRING	-1	-1.0	-1.0	[country1, country2, country3]	15	
majority1	OTHER	-1	-1.0	-1.0	[majority]	0	
majority2	NUMBER	,,	-1.0	-1.0	[]	1	
termend5	NUMBER	,- nov,to,&ndas,may,janua,- jan,– dec,- aug,.,]],,,-,–,- sep,march,rd,,- mar,—,– jan,–marc,	1793.0	2012.0	[termend4]	2839	
servicyears	NUMBER	,to,&ndas,-july,– sep,{{spa,to ap,- aug,&mdas,,,–pres,-,–,– aug,-pres,; mar,years,	1861.0	1918.0	[serviceyears]	207	
battles_label	NUMBER	–,	-1.0	-1.0	[]	1	
termend2	OTHER	,{{cit,septe,th un,?,,,(exce,(assa,	-1.0	-1.0	[term_end10, term_end2, term_end3, term_end1, term_end6, term_end7, term_end4, term_end5, term_end9]	1775	
death_place	OTHER	–,}},elm s,]] no,,,	-1.0	-1.0	[birth_place]	5051	
grandchildren	STRING	grand,	-1.0	-1.0	[]	5	
width	OTHER	px,	-1.0	-1.0	[]	70	
predecessor9	OTHER	censu,other,)|sam,),-,	-1.0	-1.0	[predecessor10, predecessor2, predecessor4, predecessor3, predecessor6, predecessor5, predecessor8, predecessor7]	721	
alma_mater	OTHER	, [[d,) [[c,; [[y,, [[m,),; [[c,); [[,; [[b,)  [[,-,) [[u,; [[h,; [[g,) [[s,, and,, j.d,;  [[,[[uni,), [[,)   [,)[[un,) [[h,, [[b,harva,	-1.0	-1.0	[]	1470	
footnotes	OTHER	. pag,) pub,nd di,|,,,	-1.0	-1.0	[]	554	
size	NUMBER	px,	1805.0	1805.0	[date]	7	
party5	OTHER	&ndas,s)|li,),– pre,,,)  [[,–pres,-,–,) ; (,st te,) [[r,-pres,) [[l,)|pro,) [[i,th ce,rd di,	-1.0	-1.0	[party3]	3079	
battles	OTHER	–,st,,]] [[,]],–pres,	-1.0	-1.0	[]	198	
weight	OTHER	-1	-1.0	-1.0	[height]	0	
children	OTHER	), je,), na,; tho,) mar,, kel,),) joh,,,) vio,-,–,child,grand,; eli,) dav,) gra,;  wi,sep.,, inc,),,)  an,daugh,	-1.0	-1.0	[]	509	
blank1	STRING	-1	-1.0	-1.0	[]	2	
runningmate2	OTHER	-1	-1.0	-1.0	[]	1	
cabinet	OTHER	-1	-1.0	-1.0	[]	0	
siblings	NUMBER	: mar,	-1.0	-1.0	[]	1	
burial_place	OTHER	-1	-1.0	-1.0	[]	2	
unit	OTHER	th ra,th ma,th re,nd ai,nd in,th vi,st ba,rd ta,th un,rd oh,th in,th oh,st re,rd fo,nd co,st ne,th ne,d wea,st we,th wi,rd ar,rd [[,st oh,st di,rd en,st ma,st br,	-1.0	-1.0	[]	99	
nationality	OTHER	) {{u,}},	-1.0	-1.0	[]	175	
service	NUMBER	-,	-1.0	-1.0	[]	1	
servicenumber	OTHER	-1	-1.0	-1.0	[]	0	
Service	OTHER	-1	-1.0	-1.0	[]	1	
birth	NUMBER	,,	-1.0	-1.0	[]	2	
brothers	STRING	-1	-1.0	-1.0	[]	1	
home_town	OTHER	-1	-1.0	-1.0	[]	0	
district8	NUMBER	nd an,th di,st su,other,nd (,th mi,rd,]],th,st co,st &,th su,th st,st,|firs,|seco,nd co,appor,nd ha,redis,nd]],b,th/,|sixt,th an,a,th co,nd st,th &,of th,s_,rd co,nd,st di,|,	6.0	13.0	[district7]	3720	
district9	OTHER	th-->,st co,rd co,th an,th co,st,|,rd,th,	-1.0	-1.0	[district5]	70	
military_blank5	OTHER	-1	-1.0	-1.0	[military_blank4, military_blank3, military_blank2]	0	
assembly	STRING	-1	-1.0	-1.0	[]	1	
state_assembly8	STRING	-1	-1.0	-1.0	[state_assembly4]	13	
military_blank1	STRING	-1	-1.0	-1.0	[]	1	
constituency2	OTHER	-1	-1.0	-1.0	[constituency1]	4	
end	NUMBER	,,	-1.0	-1.0	[]	1	
smallimage	STRING	.jpg,	-1.0	-1.0	[]	11	
opponents	OTHER	-1	-1.0	-1.0	[opponent2, opponent]	1	
nominee2	NUMBER	|pres,	-1.0	-1.0	[]	1	
speaker	NUMBER	th,	-1.0	-1.0	[]	1	
caption	OTHER	px]],by [[,from,(age,sketc,th un,[[nit,as pa,or,|mi|k,congr,th co,),.,photo,,,-,portr,at wh,s,'', t,'s,durin,, as,, nov,, an,	-1.0	-1.0	[]	180	
otherparty	OTHER	–,),	-1.0	-1.0	[other_party]	27	
boards	OTHER	) [[c,) out,) [[b,px]],),px|li,); [[,[[oak,-,–,) [[v,) [[p,) [[i,px]][,	-1.0	-1.0	[awards]	100	
primeminister2	OTHER	-1	-1.0	-1.0	[primeminister]	0	
ethnicity	OTHER	-1	-1.0	-1.0	[]	2	
university2	OTHER	-1	-1.0	-1.0	[university]	3	
lieutenant4	OTHER	–,-,	-1.0	-1.0	[lieutenant3]	11	
known_for	OTHER	-1	-1.0	-1.0	[]	0	
image_width	OTHER	-1	-1.0	-1.0	[]	0	
other_names	OTHER	-1	-1.0	-1.0	[]	0	
work	OTHER	- spc,)|cap,|serg,st in,)#uni,c_u.s,_insi,px]],,,-,)]],.svg|,px|un,rd ma,insig,	-1.0	-1.0	[rank, sr, wars]	519	
minister_from3	STRING	-1	-1.0	-1.0	[minister_from2]	2	
networth	OTHER	-1	-1.0	-1.0	[net_worth]	0	
vicepresident2	OTHER	-1	-1.0	-1.0	[vicepresident]	0	
served_with2	OTHER	-1	-1.0	-1.0	[]	1	
known	OTHER	-1	-1.0	-1.0	[]	0	
relatives	OTHER	-1	-1.0	-1.0	[]	0	
birthname	STRING	-1	-1.0	-1.0	[birth_name]	332	
committees	OTHER	to,&ndas,march,	-1.0	-1.0	[]	21	
succeeding2	OTHER	th co,	-1.0	-1.0	[succeeding]	23	
title5	STRING	-1	-1.0	-1.0	[]	1	
successor9	OTHER	–,other,th co,),-,	-1.0	-1.0	[successor7, successor8]	718	
title6	OTHER	th di,th ma,th in,th co,th [[,	-1.0	-1.0	[title4]	3536	
incumbent2	OTHER	-1	-1.0	-1.0	[incumbent]	1	
website	OTHER	/ off,.com/,.com,we%,	-1.0	-1.0	[]	142	
2blankname	OTHER	-1	-1.0	-1.0	[1blankname5]	5	
county4	OTHER	-1	-1.0	-1.0	[]	1	

