government_footnotes	OTHER	-1	-1.0	-1.0	[]	0	
elevation_footnotes	OTHER	-1	-1.0	-1.0	[]	0	
postal_code_type	OTHER	-1	-1.0	-1.0	[]	0	
timezone	OTHER	-1	-1.0	-1.0	[]	26	
area_footnotes	OTHER	-1	-1.0	-1.0	[]	0	
longs	NUMBER	-1	0.0	55.0	[longm]	53	
image_size	OTHER	-1	-1.0	-1.0	[]	0	
seat	OTHER	-1	-1.0	-1.0	[lats]	12	
leader_name	STRING	-1	-1.0	-1.0	[]	16	
leader_party	OTHER	-1	-1.0	-1.0	[]	2	
settlement_type	OTHER	-1	-1.0	-1.0	[]	25	
utc_offset_DST	NUMBER	-1	2.0	2.0	[]	12	
founder	OTHER	-1	-1.0	-1.0	[]	0	
blank_info_sec1	OTHER	-1	-1.0	-1.0	[]	0	
nickname	OTHER	-1	-1.0	-1.0	[]	0	
map_caption	STRING	-1	-1.0	-1.0	[image_caption]	26	
image_map	STRING	-1	-1.0	-1.0	[image_flag]	27	
population_as_of	NUMBER	,,	2008.0	2010.0	[]	26	
coordinates_region	STRING	-1	-1.0	-1.0	[]	13	
footnotes	OTHER	-1	-1.0	-1.0	[]	25	
population_density_km2	OTHER	-1	-1.0	-1.0	[]	25	
population_demonym	OTHER	-1	-1.0	-1.0	[]	0	
population_total	OTHER	,,	-1.0	-1.0	[]	26	
postal_code	OTHER	-1	-1.0	-1.0	[]	0	
population_note	NUMBER	th in,	-1.0	-1.0	[]	1	
elevation_m	NUMBER	-1	455.0	455.0	[]	1	
established_date	NUMBER	decem,	1847.0	2003.0	[]	13	
area_code	OTHER	-1	-1.0	-1.0	[]	0	
subdivision_type	OTHER	-1	-1.0	-1.0	[subdivision_name]	50	
image_shield	STRING	-1	-1.0	-1.0	[]	6	
subdivision_type2	STRING	-1	-1.0	-1.0	[subdivision_type1]	38	
blank_name_sec1	OTHER	-1	-1.0	-1.0	[]	0	
longEW	STRING	-1	-1.0	-1.0	[]	13	
established_title	STRING	-1	-1.0	-1.0	[]	14	
timezone_DST	OTHER	-1	-1.0	-1.0	[]	12	
name	STRING	-1	-1.0	-1.0	[]	26	
area_note	NUMBER	rd in,	-1.0	-1.0	[]	1	
coordinates_display	SET_OF_STRINGS	-1	-1.0	-1.0	[]	8	
area_code_type	OTHER	-1	-1.0	-1.0	[]	0	
latNS	STRING	-1	-1.0	-1.0	[]	13	
image_skyline	OTHER	-,	-1.0	-1.0	[]	2	
population_footnotes	OTHER	-1	-1.0	-1.0	[]	0	
iso_code	NUMBER	-,	-1.0	-1.0	[]	1	
website	OTHER	-1	-1.0	-1.0	[]	11	
seat_type	OTHER	-1	-1.0	-1.0	[]	12	
utc_offset	NUMBER	-1	0.0	1.0	[]	26	
unit_pref	OTHER	-1	-1.0	-1.0	[]	0	
area_total_km2	NUMBER	-1	766.0	11551.0	[]	25	
leader_title	STRING	-1	-1.0	-1.0	[]	16	
subdivision_name1	OTHER	-1	-1.0	-1.0	[]	25	
subdivision_name2	NUMBER	-1	3.0	17.0	[]	13	
map_alt	OTHER	-1	-1.0	-1.0	[image_alt]	0	
native_name	STRING	-1	-1.0	-1.0	[]	12	

