location	OTHER	-1	-1.0	-1.0	[]	1	
forest_type	OTHER	-1	-1.0	-1.0	[]	1	
image	NUMBER	px]],mod.j,	-1.0	-1.0	[]	2	
forest_area	NUMBER	|abbr,,,	-1.0	-1.0	[]	3	
caption	STRING	-1	-1.0	-1.0	[]	2	
deforestation_rate	NUMBER	,,	-1.0	-1.0	[]	1	
main_causes	OTHER	-1	-1.0	-1.0	[]	3	
the_country	STRING	-1	-1.0	-1.0	[]	1	
country	STRING	-1	-1.0	-1.0	[]	1	

