Fourth	OTHER	-1	-1.0	-1.0	[]	2	
Alternate2	OTHER	-1	-1.0	-1.0	[Alternate]	97	
Dates	NUMBER	–,– sep,- mar,– dec,- apr,-marc,-febr,-apri,– apr,,,–dece,-,	2010.0	2010.0	[]	218	
Logo	NUMBER	usncc,scott,.png,wwhcc,tanka,.jpg,ontar,coct.,brier,ontan,ecc.j,trail,wwcc.,.gif,wscc,.jpeg,logo.,wwc.g,_wmdc,tim h,wmcc.,canad,usnat,cancu,wscc.,wmdcc,world,capit,	-1.0	-1.0	[]	82	
Third2	OTHER	-1	-1.0	-1.0	[Third]	251	
winner	OTHER	''',}},}}''',	-1.0	-1.0	[Winner]	218	
Attendance	NUMBER	,,	-1.0	-1.0	[]	26	
Skip2	OTHER	-1	-1.0	-1.0	[Skip]	253	
city	OTHER	-1	-1.0	-1.0	[]	218	
Second2	OTHER	-1	-1.0	-1.0	[Second]	253	
Size	NUMBER	bern,ontar,m&m m,h&m w,st. p,sobey,trail,saska,manit,amj c,meyer,nokia,white,horiz,cactu,quebe,baden,scott,vilni,nova,roar,schmi,alber,le gr,europ,newfo,swiss,twin,scotc,labat,grey,hexag,princ,ford,sun l,unite,nwt/y,curle,tim h,canad,briti,bdo c,the d,mount,new b,px,royal,pione,air c,world,pacif,capit,	200.0	300.0	[Name]	304	
club2	OTHER	-1	-1.0	-1.0	[club]	253	
Finalist2	OTHER	-1	-1.0	-1.0	[Finalist]	253	
Arena	OTHER	-1	-1.0	-1.0	[]	217	
Coach2	OTHER	-1	-1.0	-1.0	[Coach]	70	
Lead2	OTHER	-1	-1.0	-1.0	[Lead]	253	

