cyclists	OTHER	,,	-1.0	-1.0	[cycling]	2	
previous	NUMBER	uci t,uci r,uci m,dutch,europ,world,asian,	-1.0	-1.0	[]	52	
events	NUMBER	(,	1.0	23.0	[]	29	
stadium	OTHER	-1	-1.0	-1.0	[]	0	
next	NUMBER	uci t,uci r,uci m,dutch,europ,world,asian,	-1.0	-1.0	[]	53	
velodrome	OTHER	th bi,	-1.0	-1.0	[]	6	
image	NUMBER	&ndas,june,europ,asian,uci t,–,uci r,(madi,augus,septe,uci m,octob,|,	1978.0	2014.0	[date]	59	
venue	OTHER	-1	-1.0	-1.0	[]	50	
nations	NUMBER	-1	17.0	72.0	[]	5	

