genre	OTHER	-1	-1.0	-1.0	[]	1	
birth	STRING	-1	-1.0	-1.0	[]	1	
associated_acts	OTHER	-1	-1.0	-1.0	[]	1	
years_active	NUMBER	–,&ndas,- pre,}},-pres,–pres,-,	-1.0	-1.0	[]	47	
influences	OTHER	-1	-1.0	-1.0	[influenced]	0	
magnum_opus	OTHER	-1	-1.0	-1.0	[]	0	
religion	OTHER	-1	-1.0	-1.0	[relations]	0	
known_for	OTHER	-1	-1.0	-1.0	[]	1	
death_place	OTHER	-1	-1.0	-1.0	[birth_place]	161	
height	NUMBER	cm,|ft||,',.,|in=,	-1.0	-1.0	[]	11	
collaborator	OTHER	-1	-1.0	-1.0	[]	0	
image_size	OTHER	px,.,	-1.0	-1.0	[]	3	
spouse	OTHER	-?),–),–pres,	-1.0	-1.0	[]	8	
prizes	OTHER	-1	-1.0	-1.0	[]	0	
partner	OTHER	-1	-1.0	-1.0	[]	0	
other_names	STRING	-1	-1.0	-1.0	[]	1	
portrayed_by	STRING	-1	-1.0	-1.0	[]	1	
work_institution	OTHER	-1	-1.0	-1.0	[]	0	
death_date	NUMBER	–,}},july,|,febru,,,	1905.0	2001.0	[birth_date]	171	
occupation	OTHER	&ndas,	-1.0	-1.0	[]	112	
dances	OTHER	),	-1.0	-1.0	[]	39	
home_town	OTHER	-1	-1.0	-1.0	[]	1	
image	OTHER	.jpg,_,febru,ro.jp,-,	-1.0	-1.0	[]	47	
label	OTHER	-1	-1.0	-1.0	[]	1	
period	OTHER	-1	-1.0	-1.0	[]	0	
alma_mater	OTHER	-1	-1.0	-1.0	[]	2	
footnotes	STRING	-1	-1.0	-1.0	[]	1	
size	NUMBER	px,	-1.0	-1.0	[]	1	
resting_place	OTHER	-1	-1.0	-1.0	[]	2	
death_cause	OTHER	-1	-1.0	-1.0	[]	2	
awards	OTHER	-1	-1.0	-1.0	[]	0	
relatives	OTHER	-1	-1.0	-1.0	[]	1	
birthname	STRING	-1	-1.0	-1.0	[birth_name]	15	
former_groups	OTHER	-,- jul,	-1.0	-1.0	[]	58	
children	STRING	-1	-1.0	-1.0	[]	2	
citizenship	STRING	-1	-1.0	-1.0	[]	1	
education	OTHER	-1	-1.0	-1.0	[]	7	
ploys	OTHER	-1	-1.0	-1.0	[]	0	
training	OTHER	-1	-1.0	-1.0	[]	1	
current_group	OTHER	&ndas,-),	-1.0	-1.0	[]	61	
alt	OTHER	-1	-1.0	-1.0	[]	4	
name	STRING	-1	-1.0	-1.0	[]	148	
website	OTHER	-1	-1.0	-1.0	[]	76	
imagesize	NUMBER	px,	-1.0	-1.0	[]	1	
caption	OTHER	perfo,octob,. pho,ameri,.,[[mez,,,	-1.0	-1.0	[]	31	
siblings	OTHER	-1	-1.0	-1.0	[]	1	
field	OTHER	-1	-1.0	-1.0	[]	0	
debut_works	OTHER	-1	-1.0	-1.0	[]	0	
nationality	STRING	-1	-1.0	-1.0	[]	10	
residence	OTHER	-1	-1.0	-1.0	[]	4	
background	STRING	-1	-1.0	-1.0	[]	1	
notable_works	OTHER	-1	-1.0	-1.0	[]	0	
ethnicity	OTHER	-1	-1.0	-1.0	[]	1	
full_name	STRING	-1	-1.0	-1.0	[]	27	

