weight	OTHER	,|cara,.,,,x,	-1.0	-1.0	[]	44	
cutter	OTHER	; sli,-,	-1.0	-1.0	[]	27	
gem_name	STRING	-1	-1.0	-1.0	[]	41	
image	NUMBER	.jpg|,px|]],px]],	-1.0	-1.0	[]	19	
caption	STRING	s [[r,	-1.0	-1.0	[]	16	
country	OTHER	-1	-1.0	-1.0	[]	39	
colour_scheme	OTHER	ff,	-1.0	-1.0	[]	24	
original_owner	OTHER	,,	-1.0	-1.0	[]	32	
color	STRING	-1	-1.0	-1.0	[]	38	
name	STRING	-1	-1.0	-1.0	[]	1	
value	OTHER	&nbsp,milli,|,.,,,–$,	-1.0	-1.0	[]	43	
owner	OTHER	),	-1.0	-1.0	[mine]	68	
dimensions	NUMBER	.,	-1.0	-1.0	[]	1	
clarity	STRING	-1	-1.0	-1.0	[]	1	
grams	NUMBER	.,,,	1.022	193.8	[]	39	
cut	STRING	-face,	-1.0	-1.0	[]	37	
found	OTHER	may,s,july,),s),.,th ce,,,	-1.0	-1.0	[]	29	

