position	OTHER	-1	-1.0	-1.0	[]	3	
Released	OTHER	july,,,	-1.0	-1.0	[]	12	
Format	STRING	-1	-1.0	-1.0	[]	6	
Type	STRING	-1	-1.0	-1.0	[]	12	
Singles	OTHER	- 고요태,,,	-1.0	-1.0	[Sales]	29	
Cover	OTHER	.jpg,	-1.0	-1.0	[]	2	
ChartPosition	OTHER	-1	-1.0	-1.0	[]	0	
info	OTHER	-1	-1.0	-1.0	[]	6	
Tracks	OTHER	-1	-1.0	-1.0	[]	4	
Writer	OTHER	-1	-1.0	-1.0	[]	0	
Info	STRING	-1	-1.0	-1.0	[]	1	
Producer	OTHER	-1	-1.0	-1.0	[]	4	
Certification	STRING	-1	-1.0	-1.0	[]	2	
Album	OTHER	-1	-1.0	-1.0	[]	0	

