population_year	NUMBER	-1	2006.0	2006.0	[]	1	
Region	OTHER	-1	-1.0	-1.0	[]	17	
area_total	NUMBER	,,	-1.0	-1.0	[]	17	
population_total	NUMBER	,,	252011.0	252011.0	[]	17	
Municipalities	NUMBER	]],	16.0	16.0	[]	17	
Parliament	NUMBER	-1	2.0	47.0	[]	17	
population_density	NUMBER	-1	16.0	774.0	[]	17	
image_map	STRING	-1	-1.0	-1.0	[]	17	
Capital	OTHER	-1	-1.0	-1.0	[]	17	
Province	OTHER	-,	-1.0	-1.0	[]	17	
official_name	STRING	-1	-1.0	-1.0	[]	17	
Parishes	NUMBER	-1	82.0	515.0	[]	17	

