region	STRING	-1	-1.0	-1.0	[]	1	
Landrat	OTHER	-1	-1.0	-1.0	[]	5	
ssel	NUMBER	-1	1051.0	16077.0	[]	130	
density	NUMBER	,,	42.0	1222.0	[]	144	
website	OTHER	-1	-1.0	-1.0	[]	1	
carsign	STRING	.,	-1.0	-1.0	[]	156	
state	STRING	-1	-1.0	-1.0	[name, Karte]	323	
population_as_of	NUMBER	may,dez,decem,th of,,,-,	1999.0	2010.0	[]	154	
party	OTHER	,,	-1.0	-1.0	[area]	162	
regierungsbezirk	OTHER	-1	-1.0	-1.0	[]	55	
capital	OTHER	-1	-1.0	-1.0	[]	161	
url	OTHER	.htm,	-1.0	-1.0	[]	157	
founded	OTHER	-,	-1.0	-1.0	[]	4	
dissolved	OTHER	june,july,-,	-1.0	-1.0	[]	31	
image_coa	STRING	-1	-1.0	-1.0	[]	12	
address	NUMBER	,	-1.0	-1.0	[]	1	
map	STRING	.svg,.png,).png,	-1.0	-1.0	[]	159	
arms	STRING	-1	-1.0	-1.0	[]	1	
NUTS	STRING	-1	-1.0	-1.0	[]	1	
Gliederung	NUMBER	-1	23.0	23.0	[]	1	
population	NUMBER	,,	127.464	272922.0	[]	157	

