total	NUMBER	,,	-1.0	-1.0	[]	1	
budget	NUMBER	bn,	-1.0	-1.0	[]	1	
events	OTHER	-1	-1.0	-1.0	[]	0	
secondary	NUMBER	,,	-1.0	-1.0	[]	1	
image	NUMBER	px|fl,	-1.0	-1.0	[]	1	
agency	OTHER	-1	-1.0	-1.0	[]	1	
type	OTHER	-1	-1.0	-1.0	[]	1	
women	NUMBER	),	99.0	99.0	[names, men]	3	
footnotes	OTHER	-1	-1.0	-1.0	[]	1	
languages	OTHER	-1	-1.0	-1.0	[]	1	
student	OTHER	-1	-1.0	-1.0	[]	0	
dates	OTHER	-1	-1.0	-1.0	[]	0	
name	STRING	-1	-1.0	-1.0	[]	1	
primary	NUMBER	,,	-1.0	-1.0	[]	1	
titles	STRING	-1	-1.0	-1.0	[]	1	
year	NUMBER	-1	2012.0	2012.0	[]	1	

