ballot_access	STRING	-1	-1.0	-1.0	[]	1	
State_name	STRING	-1	-1.0	-1.0	[]	1	
absentee_ballot	STRING	-1	-1.0	-1.0	[]	1	
voting_systems	STRING	-1	-1.0	-1.0	[]	1	
NPV_compact	NUMBER	; bot,	-1.0	-1.0	[]	1	
redistricting	STRING	-1	-1.0	-1.0	[]	1	
Other	STRING	-1	-1.0	-1.0	[]	1	
image	OTHER	-1	-1.0	-1.0	[]	1	
youth_voting	NUMBER	set b,	-1.0	-1.0	[]	1	
caption	STRING	-1	-1.0	-1.0	[]	1	
voting_equipment	OTHER	-1	-1.0	-1.0	[]	1	
initiative	STRING	-1	-1.0	-1.0	[]	1	

