Caption	STRING	-1	-1.0	-1.0	[]	1	
Released	NUMBER	may,june,th,,|,,,	2008.0	2008.0	[]	11	
Format	OTHER	" vin,"]],,	-1.0	-1.0	[]	5	
Type	STRING	-1	-1.0	-1.0	[Name]	22	
album	NUMBER	cadil,),	-1.0	-1.0	[]	10	
Recorded	OTHER	[[ham,-,	-1.0	-1.0	[]	7	
Cover	STRING	-1	-1.0	-1.0	[]	10	
side	OTHER	-1	-1.0	-1.0	[Misc]	5	
Writer	OTHER	-1	-1.0	-1.0	[]	0	
Reviews	OTHER	-1	-1.0	-1.0	[]	0	
Length	NUMBER	:,	-1.0	-1.0	[]	10	
Genre	OTHER	-1	-1.0	-1.0	[]	10	
Label	OTHER	-1	-1.0	-1.0	[]	10	
Producer	OTHER	-1	-1.0	-1.0	[]	6	
Certification	OTHER	-1	-1.0	-1.0	[]	1	
Chronology	OTHER	-1	-1.0	-1.0	[]	2	
Artist	OTHER	-1	-1.0	-1.0	[]	11	
Album	OTHER	nd mi,	-1.0	-1.0	[]	2	

