position	NUMBER	th,	-1.0	-1.0	[]	4	
president	STRING	-1	-1.0	-1.0	[]	1	
chairman	OTHER	-1	-1.0	-1.0	[]	2	
emblem	OTHER	px]],provi,	-1.0	-1.0	[]	69	
ground	OTHER	,°,,,	-1.0	-1.0	[]	115	
cup1titles	NUMBER	-1	1.0	1.0	[]	1	
captain	STRING	-1	-1.0	-1.0	[]	3	
founded	NUMBER	as fe,refor,s,as sc,as sh,; nam,as so,, (jo,	1876.0	2012.0	[]	105	
homejersey	NUMBER	.svg,	-1.0	-1.0	[]	1	
name	OTHER	px|]],px]],px|ce,-,	-1.0	-1.0	[image]	48	
shortname	STRING	-1	-1.0	-1.0	[]	1	
capacity	OTHER	,,	-1.0	-1.0	[]	5	
fullname	OTHER	-1	-1.0	-1.0	[]	125	
cup1years	NUMBER	-1	2012.0	2012.0	[]	1	
Staff	STRING	-1	-1.0	-1.0	[]	1	
nickname	OTHER	-1	-1.0	-1.0	[]	5	
coach	OTHER	-1	-1.0	-1.0	[Coach, Coaches]	13	
cup1	OTHER	-1	-1.0	-1.0	[ceo]	2	
Captain	OTHER	-1	-1.0	-1.0	[]	1	
sport	OTHER	-1	-1.0	-1.0	[]	130	
web	OTHER	.rmc.,/ web,.info,aveni,.over,.com/,-,.type,.c.la,.fr/,.ifra,.fr/i,offic,_,.e-mo,.roxo,.free,	-1.0	-1.0	[]	133	
league	OTHER	midla,south,north,),|fren,east],rugby,|nati,]],st gr,	-1.0	-1.0	[]	129	
rugby	STRING	-1	-1.0	-1.0	[]	1	
colours	STRING	-1	-1.0	-1.0	[]	110	
season	NUMBER	–,amnrl,-,	-1.0	-1.0	[]	4	
teamname	STRING	-1	-1.0	-1.0	[]	1	
titles	NUMBER	(,	-1.0	-1.0	[]	1	
Position	OTHER	-1	-1.0	-1.0	[]	0	
clubname	STRING	-1	-1.0	-1.0	[]	131	

