Secretary	STRING	-1	-1.0	-1.0	[]	1	
location	OTHER	-1	-1.0	-1.0	[]	1	
key_person	STRING	-1	-1.0	-1.0	[]	1	
longd	NUMBER	-1	22.725298	75.865534	[latd]	2	
type	OTHER	-1	-1.0	-1.0	[]	138	
nativename	OTHER	-1	-1.0	-1.0	[]	40	
Group	OTHER	-1	-1.0	-1.0	[]	1	
currency	OTHER	-1	-1.0	-1.0	[]	106	
city	OTHER	surga,, ath,	-1.0	-1.0	[alt]	137	
longs	OTHER	.jpg],px]],.gif|,px|lo,px|cs,px|us,px|sm,px|ho,px|eu,px|gs,px|ms,px|mn,.jpg|,px|pd,px|im,px|ne,px|rt,px|ny,secur,px|ns,-nov,px|ce,.png|,px|ca,	-1.0	-1.0	[longm, lats]	90	
longEW	STRING	-1	-1.0	-1.0	[]	1	
name	STRING	secur,	-1.0	-1.0	[]	136	
focus	STRING	-1	-1.0	-1.0	[]	1	
coordinates_display	SET_OF_STRINGS	-1	-1.0	-1.0	[]	1	
foundation	OTHER	janua,(as a,septe,}},decem,|,th au,,,novem,	-1.0	-1.0	[]	77	
industry	OTHER	-1	-1.0	-1.0	[]	1	
products	OTHER	-1	-1.0	-1.0	[]	1	
branches	NUMBER	-1	2.0	2.0	[]	1	
members	NUMBER	-1	119.0	119.0	[]	1	
mcap	NUMBER	[[,billi,) ...,trill,milli,.,,,	-1.0	-1.0	[]	58	
latNS	STRING	-1	-1.0	-1.0	[]	1	
Website	OTHER	-1	-1.0	-1.0	[]	1	
coor	NUMBER	|,.,	-1.0	-1.0	[]	26	
alt_name	OTHER	-1	-1.0	-1.0	[]	11	
image	NUMBER	px|os,.jpg|,px|]],copyr,kansa,px]],px|sg,px|th,px|ce,.,px|ca,-,	-1.0	-1.0	[]	48	
caption	STRING	-1	-1.0	-1.0	[]	1	
listings	OTHER	in sp,{{cit,('',compa,(,(may,liste,,,	-1.0	-1.0	[]	69	
homepage	OTHER	secur,offic,/defa,www.b,	-1.0	-1.0	[]	129	
footnotes	OTHER	, no,. for,	-1.0	-1.0	[]	102	
country	OTHER	-1	-1.0	-1.0	[]	134	
key_people	OTHER	-1	-1.0	-1.0	[]	97	
commodity	OTHER	emiss,	-1.0	-1.0	[]	13	
CEO	STRING	-1	-1.0	-1.0	[]	1	
volume	NUMBER	billi,b sha,) ...,milli,|,.,twh (,,,	-1.0	-1.0	[]	33	
owner	OTHER	janua,%, la,april,(prec,%) [[,th,,bvmf,% own,),]],,,banks,	-1.0	-1.0	[founder]	136	
indices	OTHER	cscx,ftse,index,]] s&,, bgt,imkb,.,]] [[,]],	-1.0	-1.0	[indexes]	70	

