Most_wins_constructor	NUMBER	) {{f,),	-1.0	-1.0	[]	2	
Second	OTHER	-1	-1.0	-1.0	[]	1	
Winning_team	OTHER	-1	-1.0	-1.0	[]	2	
Pole_team	OTHER	-1	-1.0	-1.0	[]	1	
Winning_time	NUMBER	:,	-1.0	-1.0	[]	1	
Pole_driver	OTHER	-1	-1.0	-1.0	[]	1	
Pole_time	NUMBER	:,	-1.0	-1.0	[]	1	
Laps	NUMBER	-1	70.0	70.0	[]	1	
Second_time	NUMBER	|lotu,.,	-1.0	-1.0	[Second_team]	2	
Times_held	NUMBER	-1	12.0	49.0	[]	2	
Third_team	OTHER	-1	-1.0	-1.0	[]	1	
Winner	OTHER	-1	-1.0	-1.0	[]	2	
Current_year	NUMBER	-1	1971.0	2012.0	[]	2	
Circuit	OTHER	–,	-1.0	-1.0	[]	2	
Flag	STRING	-1	-1.0	-1.0	[]	2	
Circuit_image	STRING	-1	-1.0	-1.0	[]	1	
Third_time	NUMBER	.,	-1.0	-1.0	[]	1	
Most_wins_driver	NUMBER	),	-1.0	-1.0	[]	2	
Name	OTHER	-1	-1.0	-1.0	[]	2	
Fastest_lap	OTHER	:,	-1.0	-1.0	[]	2	
Third	OTHER	-1	-1.0	-1.0	[]	1	
Fastest_lap_team	OTHER	-1	-1.0	-1.0	[]	1	
Circuit_length_mi	NUMBER	-1	2.089	4.361	[Circuit_length_km]	4	
Fastest_lap_driver	OTHER	-1	-1.0	-1.0	[]	1	
Last_held	NUMBER	-1	1958.0	1971.0	[First_held]	3	
Race_length_mi	NUMBER	-1	189.694	305.27	[Race_length_km]	2	

