area_served	OTHER	-1	-1.0	-1.0	[]	1	
location	OTHER	-1	-1.0	-1.0	[]	5	
prev_link	OTHER	-1	-1.0	-1.0	[]	0	
by	STRING	-1	-1.0	-1.0	[]	1	
years_active	OTHER	-1	-1.0	-1.0	[]	0	
type	OTHER	-1	-1.0	-1.0	[]	2	
participants	OTHER	-1	-1.0	-1.0	[]	0	
founded	NUMBER	-1	1991.0	2010.0	[]	2	
languages	OTHER	-1	-1.0	-1.0	[]	0	
composer	OTHER	-1	-1.0	-1.0	[]	0	
dissolved	OTHER	-1	-1.0	-1.0	[]	0	
year	OTHER	-1	-1.0	-1.0	[next]	0	
longitude	OTHER	-1	-1.0	-1.0	[latitude]	0	
points	OTHER	-1	-1.0	-1.0	[]	0	
place	OTHER	-1	-1.0	-1.0	[last]	0	
curator	OTHER	-1	-1.0	-1.0	[]	0	
ends	DATE	-1	-1.0	-1.0	[]	1	
map_caption	OTHER	-1	-1.0	-1.0	[]	0	
begins	DATE	-1	-1.0	-1.0	[]	1	
visitors	OTHER	-1	-1.0	-1.0	[]	0	
number	OTHER	-1	-1.0	-1.0	[]	0	
next_link	OTHER	-1	-1.0	-1.0	[]	1	
director	STRING	-1	-1.0	-1.0	[]	1	
footnotes	OTHER	-1	-1.0	-1.0	[]	1	
country	OTHER	-1	-1.0	-1.0	[]	1	
prev	OTHER	-1	-1.0	-1.0	[]	0	
active	NUMBER	–pres,	-1.0	-1.0	[]	1	
language	STRING	-1	-1.0	-1.0	[]	2	
frequency	STRING	-1	-1.0	-1.0	[]	1	
lyrics	OTHER	-1	-1.0	-1.0	[lyricist]	0	
founders	OTHER	-1	-1.0	-1.0	[]	0	
dates	NUMBER	april,	-1.0	-1.0	[]	1	
name	STRING	-1	-1.0	-1.0	[image]	11	
map_type	OTHER	-1	-1.0	-1.0	[]	0	
artist	OTHER	-1	-1.0	-1.0	[]	0	
with	OTHER	-1	-1.0	-1.0	[city]	2	
website	OTHER	-1	-1.0	-1.0	[]	8	
conductor	OTHER	-1	-1.0	-1.0	[]	0	
imagesize	NUMBER	px,	-1.0	-1.0	[]	1	
established	NUMBER	-1	2002.0	2002.0	[]	1	
caption	NUMBER	'',	-1.0	-1.0	[]	1	
publictransit	OTHER	-1	-1.0	-1.0	[]	0	
address	OTHER	-1	-1.0	-1.0	[]	1	
native_name	STRING	-1	-1.0	-1.0	[]	1	

