genre	OTHER	-1	-1.0	-1.0	[]	36	
oceans	STRING	-1	-1.0	-1.0	[]	1	
imagesize	NUMBER	px,	-1.0	-1.0	[]	20	
caption	OTHER	janua,''[[d,),orbit,=hnar,film],	-1.0	-1.0	[]	20	
type	OTHER	-1	-1.0	-1.0	[]	4	
people	OTHER	-1	-1.0	-1.0	[]	26	
universe	OTHER	]]'',	-1.0	-1.0	[]	32	
creator	OTHER	-1	-1.0	-1.0	[]	30	
colour	OTHER	-1	-1.0	-1.0	[color]	10	
locations	OTHER	admin,)|int,(spac,	-1.0	-1.0	[]	16	
name	STRING	.jpg,|back,-,	-1.0	-1.0	[image]	50	
continents	OTHER	-1	-1.0	-1.0	[]	0	
races	OTHER	)|sha,	-1.0	-1.0	[]	26	

