location	OTHER	alber,	-1.0	-1.0	[Location]	4	
imagesize	NUMBER	px,	-1.0	-1.0	[]	5	
caption	STRING	until,	-1.0	-1.0	[]	5	
type	OTHER	-1	-1.0	-1.0	[]	2	
key_people	OTHER	-1	-1.0	-1.0	[]	2	
duration	NUMBER	-pres,–pres,	-1.0	-1.0	[Duration]	2	
address	STRING	-1	-1.0	-1.0	[Address]	3	
name	STRING	-1	-1.0	-1.0	[Type, image]	12	
owner	OTHER	%) [[,	-1.0	-1.0	[Owner]	5	
closure	OTHER	-1	-1.0	-1.0	[]	0	
products	STRING	-1	-1.0	-1.0	[]	1	
first	NUMBER	octob,th ja,febru,,,	-1.0	-1.0	[First]	4	
employees	OTHER	(curr,	-1.0	-1.0	[Employees]	6	

