genre	OTHER	-1	-1.0	-1.0	[]	0	
area_served	STRING	-1	-1.0	-1.0	[]	2	
equity	NUMBER	,,	-1.0	-1.0	[]	1	
location	NUMBER	sawye,	-1.0	-1.0	[]	1	
net_income	NUMBER	,,	-1.0	-1.0	[]	1	
cap	OTHER	-1	-1.0	-1.0	[]	0	
company_type	OTHER	-1	-1.0	-1.0	[]	1	
operating_income	OTHER	-1	-1.0	-1.0	[]	0	
divisions	SET_OF_STRINGS	-1	-1.0	-1.0	[]	1	
type	STRING	-1	-1.0	-1.0	[name]	7	
dissolved	OTHER	-1	-1.0	-1.0	[]	0	
company_name	STRING	-1	-1.0	-1.0	[]	2	
locations	OTHER	-1	-1.0	-1.0	[]	0	
company_slogan	OTHER	-1	-1.0	-1.0	[]	1	
foundation	NUMBER	,,	1839.0	2006.0	[]	5	
num_advisors	NUMBER	,,	-1.0	-1.0	[]	1	
industry	OTHER	-1	-1.0	-1.0	[]	5	
products	OTHER	-1	-1.0	-1.0	[]	3	
revenue	NUMBER	milli,,,	-1.0	-1.0	[]	2	
founder	STRING	-1	-1.0	-1.0	[]	1	
services	OTHER	-1	-1.0	-1.0	[]	0	
parent	OTHER	-1	-1.0	-1.0	[]	3	
traded_as	OTHER	-1	-1.0	-1.0	[]	1	
location_country	OTHER	-1	-1.0	-1.0	[]	3	
location_city	OTHER	-1	-1.0	-1.0	[]	4	
homepage	OTHER	-1	-1.0	-1.0	[]	5	
num_employees	OTHER	-1	-1.0	-1.0	[]	2	
key_people	OTHER	-1	-1.0	-1.0	[]	5	
aum	NUMBER	billi,	-1.0	-1.0	[]	1	
assets	NUMBER	billi,,,	-1.0	-1.0	[]	2	
company_logo	NUMBER	pxcfn,	-1.0	-1.0	[]	1	
footnote	OTHER	-1	-1.0	-1.0	[]	2	
subsid	STRING	-1	-1.0	-1.0	[]	1	
owner	OTHER	-1	-1.0	-1.0	[]	0	
tagline	STRING	-1	-1.0	-1.0	[]	1	

