Stadium	STRING	-1	-1.0	-1.0	[]	1	
TeamName	STRING	-1	-1.0	-1.0	[]	1	
WebsiteURL	STRING	-1	-1.0	-1.0	[]	1	
CurrentSeason	NUMBER	georg,	-1.0	-1.0	[]	1	
Image	OTHER	-1	-1.0	-1.0	[]	0	
Location	SET_OF_STRINGS	-1	-1.0	-1.0	[]	1	
WebsiteName	STRING	-1	-1.0	-1.0	[]	1	
StadSurface	STRING	-1	-1.0	-1.0	[]	1	

