Badge_size	NUMBER	px,	-1.0	-1.0	[]	1	
Secretary	STRING	-1	-1.0	-1.0	[]	1	
Website	OTHER	-1	-1.0	-1.0	[]	14	
Logo	STRING	-1	-1.0	-1.0	[]	15	
Headquarters	OTHER	-1	-1.0	-1.0	[]	10	
Subregion	OTHER	-1	-1.0	-1.0	[]	7	
Name	STRING	-1	-1.0	-1.0	[]	1	
Coach	OTHER	-),	-1.0	-1.0	[]	2	
Region	OTHER	-1	-1.0	-1.0	[]	15	
Founded	OTHER	|,febru,,,	-1.0	-1.0	[]	17	
President	OTHER	-1	-1.0	-1.0	[]	18	
affiliation	NUMBER	may,	1954.0	2005.0	[]	7	
Director	STRING	-1	-1.0	-1.0	[]	1	

