role9	STRING	-1	-1.0	-1.0	[role7, role8]	41	
internationalrole2	OTHER	austr,th of,	-1.0	-1.0	[internationalrole1]	382	
internationalrole5	STRING	-1	-1.0	-1.0	[internationalrole3, internationalrole4]	5	
death_place	OTHER	–,	-1.0	-1.0	[birth_place]	344	
height	NUMBER	.,|in=,	-1.0	-1.0	[]	8	
worth	OTHER	-1	-1.0	-1.0	[]	0	
fullname	STRING	-1	-1.0	-1.0	[]	306	
death_date	NUMBER	–,march,may,|df=y,septe,}},july,|,,,	1898.0	1983.0	[birth_date]	372	
internationalyears5	NUMBER	- ''p,–,&ndas,-?,{{spa,-curr,-pres,–?,-,—pres,–pres,	1966.0	2012.0	[internationalyears4]	289	
confederation5	OTHER	pan a,summe,fifa,	-1.0	-1.0	[confederation, confederation3, confederation4, confederation1, confederation2]	349	
nickname	OTHER	-1	-1.0	-1.0	[]	0	
internationalyears3	OTHER	-,	-1.0	-1.0	[]	2	
officialname	STRING	-1	-1.0	-1.0	[]	40	
years9	NUMBER	&ndas,s -,-?,-??,- ?,,,([[wo,–pres,-,–,s,-curr,—,-pres,|,—pres,	6.0	2012.0	[years5, years8, years7, years6]	601	
1	OTHER	-1	-1.0	-1.0	[]	1	
otheroccupation	OTHER	|poli,	-1.0	-1.0	[]	139	
years	OTHER	-1	-1.0	-1.0	[]	0	
Nickname	STRING	-1	-1.0	-1.0	[]	2	
name	STRING	-1	-1.0	-1.0	[]	328	
imagesize	NUMBER	px,	-1.0	-1.0	[image_size]	2	
caption	OTHER	–,px,fifa,	-1.0	-1.0	[]	13	
background	STRING	-1	-1.0	-1.0	[]	1	
role4	OTHER	-1	-1.0	-1.0	[role, role3, role2, role1]	558	
league9	OTHER	ukrai,.png,|j,.jpg,. lig,fifa,.,]],-,abr,–,. fuß,_uefa,).jpg,st di,]]/[[,	-1.0	-1.0	[league8]	733	

