coatofarms	OTHER	-,	-1.0	-1.0	[]	4	
last_leaders	OTHER	-1	-1.0	-1.0	[last_leader, first_leaders]	12	
party_title	STRING	-1	-1.0	-1.0	[]	4	
image	OTHER	.jpg,-,	-1.0	-1.0	[]	3	
caption	OTHER	-1	-1.0	-1.0	[]	0	
ended	NUMBER	decem,,,	-1.0	-1.0	[]	4	
country	STRING	-1	-1.0	-1.0	[]	4	
began	NUMBER	octob,decem,,,	-1.0	-1.0	[]	4	
border	STRING	-1	-1.0	-1.0	[]	4	
appointer	OTHER	-1	-1.0	-1.0	[]	3	
stateended	NUMBER	octob,decem,	-1.0	-1.0	[]	2	
after_leaders	OTHER	-1	-1.0	-1.0	[]	1	
coatofarmscaption	OTHER	-1	-1.0	-1.0	[]	4	
coatofarmssize	NUMBER	px,	-1.0	-1.0	[]	4	

