insigniasize	NUMBER	px,	-1.0	-1.0	[]	1	
imagecaption	STRING	-1	-1.0	-1.0	[]	1	
image	STRING	-1	-1.0	-1.0	[]	1	
imagesize	NUMBER	px,	-1.0	-1.0	[]	1	
ended	NUMBER	octob,	-1.0	-1.0	[]	1	
title	STRING	-1	-1.0	-1.0	[]	1	
style	OTHER	-1	-1.0	-1.0	[]	1	
residence	OTHER	-1	-1.0	-1.0	[]	1	
insigniacaption	OTHER	-1	-1.0	-1.0	[]	1	
began	NUMBER	march,	-1.0	-1.0	[]	1	
last_regent	OTHER	-1	-1.0	-1.0	[first_regent]	2	
insignia	NUMBER	–,	-1.0	-1.0	[]	1	
salary	OTHER	-1	-1.0	-1.0	[]	2	
appointer	OTHER	-1	-1.0	-1.0	[]	0	

