series	OTHER	-1	-1.0	-1.0	[]	0	
sort	OTHER	-1	-1.0	-1.0	[arc]	3	
alttxt	STRING	-1	-1.0	-1.0	[alt]	2	
colorists	OTHER	-1	-1.0	-1.0	[]	0	
pencillers	OTHER	-1	-1.0	-1.0	[]	0	
image	STRING	-1	-1.0	-1.0	[]	2	
imagesize	OTHER	-1	-1.0	-1.0	[]	0	
inkers	OTHER	-1	-1.0	-1.0	[]	0	
caption	OTHER	|art=,	-1.0	-1.0	[]	2	
run	OTHER	-1	-1.0	-1.0	[]	2	
nonUS	OTHER	-1	-1.0	-1.0	[]	3	
publisher	OTHER	-1	-1.0	-1.0	[]	2	
main_char_team	OTHER	-1	-1.0	-1.0	[]	1	
artists	OTHER	-1	-1.0	-1.0	[]	2	
title	OTHER	-1	-1.0	-1.0	[date]	2	
crossover	OTHER	-1	-1.0	-1.0	[]	0	
writers	OTHER	-1	-1.0	-1.0	[]	2	
letterers	OTHER	-1	-1.0	-1.0	[]	0	
hatnotes	OTHER	-1	-1.0	-1.0	[]	0	
mini	STRING	-1	-1.0	-1.0	[]	2	

