goals2	OTHER	-1	-1.0	-1.0	[goals1]	0	
attendance	OTHER	-1	-1.0	-1.0	[]	0	
score	OTHER	-1	-1.0	-1.0	[]	0	
round	OTHER	-1	-1.0	-1.0	[]	0	
motm	OTHER	-1	-1.0	-1.0	[date]	1	
time	OTHER	-1	-1.0	-1.0	[team1, team2]	0	
referee	OTHER	-1	-1.0	-1.0	[]	0	
stadium	OTHER	-1	-1.0	-1.0	[]	0	
report	OTHER	-1	-1.0	-1.0	[]	0	

