flux	NUMBER	m[[cr,.,	12.8	12.8	[]	22	
constellation	OTHER	-1	-1.0	-1.0	[]	26	
redshift	OTHER	.,	-1.0	-1.0	[]	27	
epoch	NUMBER	#juli,.,]],	-1.0	-1.0	[]	27	
caption	OTHER	''' s,''' f,in [[,]], s,. ima,	-1.0	-1.0	[]	8	
brightest_member	NUMBER	masx,]],]] (b,	-1.0	-1.0	[]	5	
temperature	NUMBER	,.,	-1.0	-1.0	[]	15	
ra	NUMBER	,.jpg|,hst.j,px]],.gif|,xray,.,has t,-mass,(chan,hstfu,|,.png|,(capt,{{e|,	-1.0	-1.0	[mass, dec]	87	
distance	NUMBER	|mpc|,.,	-1.0	-1.0	[]	27	
richness	NUMBER	-1	0.0	5.0	[]	24	
name	OTHER	clust,	-1.0	-1.0	[]	27	
credit	OTHER	-1	-1.0	-1.0	[]	4	
luminosity	NUMBER	×,.,	-1.0	-1.0	[]	2	
member_no	OTHER	+,	-1.0	-1.0	[]	6	
other_names	OTHER	|j]][,,,	-1.0	-1.0	[]	28	
velocity_dispersion	NUMBER	,km/s,,,	-1.0	-1.0	[]	3	
bmtype	STRING	-1	-1.0	-1.0	[]	19	

