president	STRING	-1	-1.0	-1.0	[]	1	
manager	STRING	-1	-1.0	-1.0	[Manager]	4	
imagsize	OTHER	for w,_(cam,.png,e,count,.jpg<,.jpg,pdxop,photo,women,-,thhol,rd ho,nd ho,j.jpg,c_hol,th gr,th.jp,th ho,ricoh,px|,	-1.0	-1.0	[image]	186	
course8	STRING	red,blue,),holes,hole,	-1.0	-1.0	[course7]	150	
course4	OTHER	-hole,ravin,dubsd,),holes,hole,	-1.0	-1.0	[course2]	103	
golf_facility_name	STRING	.jpg|,	-1.0	-1.0	[]	275	
length8	NUMBER	|m|yd,, yel,|yd|,yd,m,.,|yd|m,/,,,yards,meter,|yd}},|yard,|yd|a,yd. -,yds,	7.005	7823.0	[length7]	391	
longs	NUMBER	regul,(thre,holes,,,(plus,	0.0	1992.0	[longm, holes, lats]	502	
logo_width	NUMBER	px,	-1.0	-1.0	[]	1	
available	STRING	-1	-1.0	-1.0	[]	1	
nrhp	OTHER	-1	-1.0	-1.0	[]	9	
par8	NUMBER	(memb,,(blue,- (,(cham,(,each,/,m/,	10.0	74.0	[par4, par7, par6]	400	
par5	OTHER	m/,	-1.0	-1.0	[]	3	
Secretary	NUMBER	,	-1.0	-1.0	[]	1	
designer8	OTHER	) ale,) and,) [[b,), ve,),); [[,briti,by bo,and,-,renov,[[bob,),  k,) / [,(nort,bob e,), [[,redes,(sout,	-1.0	-1.0	[designer6, designer7]	356	
latNS	STRING	-1	-1.0	-1.0	[]	40	
elevation	NUMBER	|ft|m,	-1.0	-1.0	[]	1	
operator	OTHER	-1	-1.0	-1.0	[]	87	
rating5	OTHER	.,	-1.0	-1.0	[rating4, rating]	20	
pushpin_map_caption	STRING	-1	-1.0	-1.0	[]	3	
chain	OTHER	-1	-1.0	-1.0	[]	0	
pushpin_mapsize	OTHER	-1	-1.0	-1.0	[]	0	
rating8	NUMBER	slope,(unof,.,/,	4.5	132.0	[rating7]	243	
record8	OTHER	; [[v,- [[z,: g.k,brett,- [[s,- sil,[[joh,- [[t,(jay,by [[,- six,[[pat,[[nic,, [[t,gavin,; [[j,[[sam,- rus,(chap,, [[d,, [[g,by ga,, [[m,(,- ric,- [[b,, [[n,, [[p,([[ti,, [[s,; [[b,, [[r,- [[j,(ted,– [[j,- [[e,([[gr,- [[n,, [[c,	-1.0	-1.0	[record7]	184	
location	OTHER	,nez p,th an,px]],th te,),,,th,rd ho,pga c,, mod,nd ho,th fa,|,yates,th ho,(par,hardi,	-1.0	-1.0	[caption]	395	
type	STRING	; cou,px]],; cro,	-1.0	-1.0	[by, name]	317	
image_width	NUMBER	px,	-1.0	-1.0	[]	1	
imagesize2	NUMBER	px,	200.0	200.0	[image_size, imagesize]	88	
establishment	NUMBER	{{cit,}},octob,(nort,south,(,,,novem,	1552.0	2009.0	[established]	308	
tournaments	OTHER	&ndas,lpga,) [[d,wgc-a,-dece,); [[,open,ncaa,) [[s,times,-pres,laws,), [[,) [[i,[[u.s,/inde,canad,m cha,oga p,ryder,),u.s.,women,,,–pres,and,-,.asp?,pga c,-curr,summe,[[pac,[[uni,)   [,	-1.0	-1.0	[]	163	
architect	STRING	-1	-1.0	-1.0	[]	1	
season	STRING	-1	-1.0	-1.0	[]	1	
owner	OTHER	-1	-1.0	-1.0	[]	81	
Founder	STRING	-1	-1.0	-1.0	[]	1	
policy	STRING	-1	-1.0	-1.0	[]	1	
slope8	OTHER	-1	-1.0	-1.0	[slope7]	0	
slope5	NUMBER	is,- {{c,(blue,(gold,(,th,-,yards,– lon,	104.0	155.0	[slope, slope3, slope1, slope2]	85	
superintendent	STRING	-1	-1.0	-1.0	[Superintendent]	2	
driving_range	STRING	-1	-1.0	-1.0	[]	1	
iso_region	STRING	-1	-1.0	-1.0	[]	2	
caption2	OTHER	open,th ho,	-1.0	-1.0	[]	50	
facility	STRING	-1	-1.0	-1.0	[]	1	
longEW	STRING	-1	-1.0	-1.0	[logo]	41	
coordinates_display	SET_OF_STRINGS	-1	-1.0	-1.0	[]	39	
coordinates	NUMBER	|,.,	-1.0	-1.0	[]	58	
pushpin_map	STRING	-1	-1.0	-1.0	[]	30	
website	OTHER	.asp?,/deta,pebbl,blue,offic,&page,.com/,/buen,/,-,	-1.0	-1.0	[]	305	
fees	NUMBER	weekd,	-1.0	-1.0	[]	1	
image2	OTHER	th ho,	-1.0	-1.0	[]	9	
address	NUMBER	terry,	-1.0	-1.0	[]	1	
pro	STRING	-1	-1.0	-1.0	[]	1	

