unitname	NUMBER	|orga,	-1.0	-1.0	[]	1	
activity1name	OTHER	-1	-1.0	-1.0	[]	0	
governingbody	STRING	-1	-1.0	-1.0	[]	1	
overviewtype	OTHER	-1	-1.0	-1.0	[]	0	
overviewbody	OTHER	-1	-1.0	-1.0	[]	0	
seal_caption	STRING	billi,th '',logo.,years,),until,-,	-1.0	-1.0	[]	480	
deputyminister3_name	OTHER	-1	-1.0	-1.0	[deputyminister1_name, deputyminister2_name]	39	
minister9_name	OTHER	–,augus,st vi,),-,	-1.0	-1.0	[minister1name, minister3_name, minister4_name, minister7_name, minister10_name, minister5_name, minister1_name, minister2_name, minister8_name, Minister2_Name, minister6_name]	1165	
airbases	OTHER	-1	-1.0	-1.0	[]	0	
logo_width	NUMBER	px,px  h,pix,x,	80.0	362.0	[box_width]	1100	
person1reason	OTHER	-1	-1.0	-1.0	[]	0	
hqlocleft	OTHER	-1	-1.0	-1.0	[]	0	
nickname	STRING	-1	-1.0	-1.0	[]	1	
parent_agency_type	STRING	-1	-1.0	-1.0	[]	3	
parent	OTHER	-1	-1.0	-1.0	[]	0	
image	OTHER	px]],	-1.0	-1.0	[ame, badge, flag]	3	
number	NUMBER	,	24.0	24.0	[Members]	2	
image_caption	STRING	-1	-1.0	-1.0	[]	1	
vehicles1	OTHER	-1	-1.0	-1.0	[]	0	
keydocument6	OTHER	,/ ann,}};,annua,, com,]],/leye,of,/ley_,}}; a,, art,/base,}} an,, et,(decr,/lexl,/basl,'',(popu,/tomo,=http,]] (s,(,to th,.,/,,,-,:decr,:,/dici,-of-,.pr.g,}},demar,state,docum,/ley%,.jsp?,decre,/juli,vo,]]'',de,.pdf|,df,.pdf},___tr,_,]] (c,_ley_,.minc,sena/,[http,.pdf,steel,/recu,/decr,mrvie,	-1.0	-1.0	[keydocument5]	241	
keydocument8	NUMBER	}},	-1.0	-1.0	[keydocument7]	2	
succeding1	OTHER	b]] (,&ndas,{{spa,in ca,{{das,px]],puert,. the,),) of,.,,,-,–,to ju,- apr,—,th de,novem,	-1.0	-1.0	[preceding1]	716	
Contact_detail	OTHER	-1	-1.0	-1.0	[]	0	
accessdate	NUMBER	-,	-1.0	-1.0	[]	1	
coat_of_arms	OTHER	-1	-1.0	-1.0	[]	0	
collection	NUMBER	,,	-1.0	-1.0	[]	1	
locations	NUMBER	-1	13.0	13.0	[]	1	
unittype	STRING	-1	-1.0	-1.0	[]	2	
chief8_name	OTHER	&ndas,.c,membe,- pre,}},c_u.s,]]),- ],),-apri,st ba,-),-,–,offic,_,	-1.0	-1.0	[chief6_name]	3053	
latNS	STRING	-1	-1.0	-1.0	[]	194	
speciality	STRING	-1	-1.0	-1.0	[]	1	
Function	STRING	-1	-1.0	-1.0	[]	1	
mottotranslated	STRING	-1	-1.0	-1.0	[]	1	
abbreviation	STRING	-1	-1.0	-1.0	[]	293	
child2_website	OTHER	-1	-1.0	-1.0	[]	1	
formedyear	NUMBER	-1	1990.0	1990.0	[]	1	
mapcaption	STRING	-1	-1.0	-1.0	[caption]	3	
award1	OTHER	-1	-1.0	-1.0	[]	0	
nongovernment	OTHER	-1	-1.0	-1.0	[]	0	
notes	OTHER	budge,:,]],,,	-1.0	-1.0	[name, motto, date3, date1]	60	
anniversary1	OTHER	-1	-1.0	-1.0	[]	0	
stationtype	OTHER	-1	-1.0	-1.0	[]	0	
deputyminister2_pfo	OTHER	-1	-1.0	-1.0	[]	2	
flagcaption	OTHER	-1	-1.0	-1.0	[]	0	
minister9_pfo	OTHER	–,|mini,-,	-1.0	-1.0	[minister1_pfo, minister2_pfo, minister8_pfo, minister7_pfo, minister6_pfo]	1000	
founded	OTHER	,waste,(in [,th ,,&nbsp,(olde,(oper,(lega,| jan,]],. sep,|mm}},ad /,march,}} (a,as go,as [[,(reor,|febr,july,(role,, ope,elect,(pres,th,,under,|jan|,'''mo,.,/,as a,,,chino,-,]] ({,||}},|may|,(curr,marrc,|apr|,([[we,as '',febru,?,novem,incep,(as t,of ma,june,}},as lo,as th,}}, r,decem,(as m,|}},, by,dec,|janu,septe,|dece,may,janua,(new,april,, ori,(abol,}} (m,}} (o,(as ',|marc,(as d,augus,s,octob,or ea,(as [,|,	-1.0	-1.0	[formed]	2276	
rden_logo	OTHER	-1	-1.0	-1.0	[]	0	
dissolved	OTHER	may,janua,april,(rena,june,th,,decem,|mar|,until,,,of,augus,march,septe,octob,(reor,july,|,novem,	-1.0	-1.0	[]	185	
chief1_predecessor	OTHER	-1	-1.0	-1.0	[]	0	
seal_width	NUMBER	px,×,x,	150.0	200.0	[map_width]	677	
appointer	STRING	-1	-1.0	-1.0	[]	1	
original_hq	STRING	-1	-1.0	-1.0	[]	1	
width	OTHER	-1	-1.0	-1.0	[city]	1	
countryabbr	STRING	-1	-1.0	-1.0	[]	1	
picture_width	NUMBER	px,	180.0	275.0	[picture_wh]	123	
url	NUMBER	-,	-1.0	-1.0	[]	1	
footnotes	OTHER	&q=sc,[[eme,or,px]],),.,/,-,vesse,.pdf],appli,, to,''':,:,	-1.0	-1.0	[footnote]	1867	
country	OTHER	-1	-1.0	-1.0	[centre]	3	
electeetype	OTHER	-1	-1.0	-1.0	[]	0	
rr	STRING	.png,-wff,.pdf,	-1.0	-1.0	[map]	25	
chief8_position	OTHER	–,st vi,offic,-,	-1.0	-1.0	[chief2_position]	715	
department	OTHER	-1	-1.0	-1.0	[]	11	
remarks	OTHER	-1	-1.0	-1.0	[]	1	
sizearea	OTHER	-1	-1.0	-1.0	[]	0	
termlength	STRING	-1	-1.0	-1.0	[]	1	
child	OTHER	-1	-1.0	-1.0	[]	1	
agency_type	OTHER	),	-1.0	-1.0	[]	182	
lockups	OTHER	-1	-1.0	-1.0	[]	0	
regulatory_agency	OTHER	-1	-1.0	-1.0	[]	1	
aircraft1type	OTHER	-1	-1.0	-1.0	[]	0	
imagesize	OTHER	-1	-1.0	-1.0	[]	0	
Seal	OTHER	-1	-1.0	-1.0	[]	0	
headquarters	OTHER	,b bis,[[dun,storr,memor,bestg,st. p,lengk,meint,[[whi,melvi,don r,&,ne or,, dun,sri a,e. pr,),irraw,.,/,loron,,,-,soi p,fat k,cluny,sivul,e. st,carli,boule,execu,queen,ahmad,john,alexa,petty,lee s,d,b,m str,pitt,ogden,highw,gil j,[[bou,w,n lin,|,linco,ª №,y,marcu,&nbsp,[[nor,stone,marda,/f.,,m. ab,, asb,circu,s.w.,to wa,yonge,bisho,d-,commu,e str,, d-,anson,, d.,av. n,scien,sala,maple,strub,i str,u str,°,artem,, gur,s. di,, uzb,honch,n. ce,horse,[[bru,g st.,n. cl,de ma,ncca,{{fla,[[ind,rd,,broen,, gua,e. wi,, pub,locus,u. ha,april,s. cl,meado,croma,kite,maker,[[ili,peach,e. va,amors,yusif,, rue,[[con,[[tun,a, [[,java,a nat,capit,[[bue,israe,&ndas,millb,elim,n rob,gover,(eski,th fl,no,olimp,lafay,jacks,mille,nw,westr,berli,xuzho,worth,[[okl,, ex,hill,walke,ross,colis,gongy,n. br,allan,third,finan,an №,warin,c, [[,hazen,scott,nazih,halse,const,broad,w. ot,, hr-,, qua,moles,uzeyi,]] [[,water,[[vol,c str,hercu,, lan,fritz,k. ke,, gov,macqu,beave,resea,massa,easto,w. pr,e kel,chaun,colle,route,ne,, maj,, cam,landa,/f an,penns,binag,cause,count,e. ma,]], [,[[ist,[[mar,[[mas,stadi,e. mi,lambt,[[mad,everg,kalla,mero,th an,[[new,cedar,senat,, opt,kaohu,beatr,n.w.,dunca,milit,ann s,giffo,quebe,andri,[[hol,[[nef,juron,w. st,marin,w. su,chest,pitts,n mar,prosp,goodm,husu,fusio,[[nev,/f, r,/f, o,philp,f str,/f, p,w. te,l str,g ale,/f, w,east,princ,/f, s,via x,domin,aviat,st. v,[[pla,, met,srich,avern,vulyt,gyeon,marke,monro,solya,tsoha,kimba,maxwe,samad,(leve,[[geo,, sec,[[nay,unive,, [[v,mt al,trent,, [[w,, [[t,jones,, [[z,pier,e. ar,, [[g,, [[i,[[lan,, [[h,[[tbi,, [[k,d -,, [[j,, [[m,bukit,, [[o,, [[n,, [[p,, [[s,, [[r,grace,e. br,floor,[[jav,, [[a,, [[b,, aga,, [[c,sprin,j str,/f,,, kho,/f-,holme,n. wh,–,n. we,walnu,, def,, del,[[sej,[[rad,gorok,w. je,gold,preto,soutp,wilsh,podgo,park,yanac,smith,outra,sw ja,south,wilso,world,[[ban,kembl,belfo,[[cap,marsh,victo,bras,[[car,niyaz,robin,n st.,jerse,marsd,[[cal,bowen,chamb,kassa,sw,assoc,jocfe,a sh.,merce,azadl,minne,indep,norod,, tir,techn,oak s,rolar,/f, [,px]],s. st,/f, i,/f, e,hamps,/f, c,, v.,n str,ingor,bridg,dorp,n sti,[[st,east-,nguye,/f &,/ ul.,s.,s. ty,, st,bulbu,eliza,marti,chann,wolf,a inv,thoms,alumn,[[pen,demir,deade,al.ka,high,parli,orcha,/f qu,, rev,wille,, col,vermo,]],willi,cowie,parkw,leyds,n cla,, bou,golde,insha,rd fl,f pca,ziya,eunos,dekor,candl,manor,cente,n. li,[[jin,cerri,a №,st fl,mykha,nd fl,[[i-,vojko,№,ubi a,wang,king,atone,[[smi,, abn,red r,. [[g,k str,. gro,fifth,, lor,havel,no.,al. k,, tot,new b,new c,rue n,recto,new j,new h,buena,pacif,khata,[[khr,grant,churc,,  [[,slate,r str,the t,van n,new_z,, rat,nicho,secon,[[kin,st bu,n con,class,paint,edsa,,ninth,, [[,l'enf,monac,kause,[[kil,h.zar,west,fizul,[[,empir,davis,grosv,state,, cmc,n. sa,north,depar,[[cha,corpo,upper,a [[b,pasir,sherm,n. se,, bir,a [[g,sheri,woodb,[[k s,/f,qu,natio,kiçik,th&nd,egypt,w sev,atlan,hasan,newto,n. ro,group,welli,river,	-1.0	-1.0	[]	2495	
reference	OTHER	-1	-1.0	-1.0	[]	2	
constitution2	OTHER	-1	-1.0	-1.0	[constitution1]	0	
mission	STRING	-1	-1.0	-1.0	[]	2	
parent_department	OTHER	-1	-1.0	-1.0	[]	76	
commonname	OTHER	-1	-1.0	-1.0	[]	0	
employees	OTHER	,uncla,membe,(appr,&nbsp,(post,milli,{{as,unifo,estim,(fy,(sept,full-,+,(fisc,class,(,),.,[[pri,pmo p,agent,,,-,(feb.,(at,peopl,(dece,(c.,(part,sworn,{{cn|,fte ',fte (,centr,(marc,(as o,}},(auth,–,staff,full,(perm,],civil,+ swo,inclu,[http,):,{{whe,in,(as d,(as a,(full,offic,(may,(june,[[ful,attor,perma,	-1.0	-1.0	[]	903	
Chairman	OTHER	-1	-1.0	-1.0	[]	1	
nativenamea	OTHER	gong,keui,'',jing,	-1.0	-1.0	[nativename, nativename_r, nativename_a, nativename_b]	1294	
authorlink	STRING	-1	-1.0	-1.0	[]	1	
slogan	OTHER	-1	-1.0	-1.0	[Slogan, blog, local]	4	
Coverage	NUMBER	.,	-1.0	-1.0	[]	1	
longs	NUMBER	-1	-156.503723	174.779439	[longm, lats]	1123	
income	NUMBER	milli,	-1.0	-1.0	[]	1	
activitytype	OTHER	-1	-1.0	-1.0	[]	0	
agencyname	STRING	puert,),	-1.0	-1.0	[agency_name]	2901	
superseeding	OTHER	px]],&wgid,minis,),), [[,)|nor,,,	-1.0	-1.0	[superseding]	183	
Predecessor	STRING	-1	-1.0	-1.0	[]	2	
services	STRING	-1	-1.0	-1.0	[]	2	
map_caption	OTHER	-1	-1.0	-1.0	[]	537	
national	STRING	-1	-1.0	-1.0	[]	1	
formedmonthday	DATE	-1	-1.0	-1.0	[]	1	
director	STRING	-1	-1.0	-1.0	[]	1	
region_code	STRING	-,	-1.0	-1.0	[]	309	
unsworn	OTHER	-1	-1.0	-1.0	[sworn]	0	
incumbentsince	NUMBER	,,	-1.0	-1.0	[]	1	
animals1	OTHER	-1	-1.0	-1.0	[]	0	
position	STRING	-1	-1.0	-1.0	[]	2	
logo_height	NUMBER	px,	-1.0	-1.0	[]	2	
programme1	OTHER	-1	-1.0	-1.0	[]	0	
child_agency	OTHER	st-,regio,px]],),]],.upme,-,	-1.0	-1.0	[child9_agency]	1145	
budget	NUMBER	,_depa,fisca,m (,€,}},&nbsp,}} bi,&xid=,milli,m [[a,),m,.,,,pakis,billi,|c}},mio.,;]],+ mil,}} mi,m for,	-1.0	-1.0	[]	808	
company_type	OTHER	-1	-1.0	-1.0	[]	5	
contact	OTHER	-1	-1.0	-1.0	[]	0	
sps_pfo	STRING	-1	-1.0	-1.0	[]	1	
provideragency	OTHER	-1	-1.0	-1.0	[]	0	
publisher	OTHER	-1	-1.0	-1.0	[]	0	
logocaption	STRING	)'',logo,cente,rocke,s,|lc=o,). th,),s),,,	-1.0	-1.0	[logo_caption]	586	
badgecaption	OTHER	-1	-1.0	-1.0	[]	0	
vehicle1type	OTHER	-1	-1.0	-1.0	[]	0	
sizepopulation	OTHER	-1	-1.0	-1.0	[]	0	
council_name	STRING	-1	-1.0	-1.0	[]	1	
animal1type	OTHER	-1	-1.0	-1.0	[]	0	
established	NUMBER	-1	2003.0	2003.0	[]	1	
child3_division	STRING	-1	-1.0	-1.0	[child2_division]	3	
secretary	STRING	-1	-1.0	-1.0	[]	1	
Address	NUMBER	indep,	-1.0	-1.0	[]	1	
effective_date	NUMBER	,,	-1.0	-1.0	[]	1	
Interns	OTHER	-1	-1.0	-1.0	[]	1	
sps_name	OTHER	-1	-1.0	-1.0	[]	1	
telephone	NUMBER	,	-1.0	-1.0	[]	3	
patch	OTHER	-1	-1.0	-1.0	[]	0	
date3_name	OTHER	-1	-1.0	-1.0	[]	0	
preceding7	OTHER	&ndas,janua,{{spa,{{das,px]],),,,-,)]],–,. a s,st ss,throu,—,-pres,	-1.0	-1.0	[preceding, preceding4, preceding3, preceding6, preceding5, preceding2]	383	
skyline	STRING	-1	-1.0	-1.0	[]	1	
location	OTHER	-1	-1.0	-1.0	[Location]	4	
skyline_caption	STRING	-1	-1.0	-1.0	[]	1	
uniformedas	OTHER	-1	-1.0	-1.0	[]	0	
jurisdiction	OTHER	.svg|,}} [[,area,count,px]],[[con,),air s,px|bo,,,citie,and,	-1.0	-1.0	[Juristiction]	1987	
aircraft1	OTHER	-1	-1.0	-1.0	[]	0	
type	STRING	-1	-1.0	-1.0	[title]	563	
police	STRING	-1	-1.0	-1.0	[]	1	
date2_name	STRING	-1	-1.0	-1.0	[date1_name]	35	
image_width	NUMBER	px,	-1.0	-1.0	[]	1	
date2	NUMBER	|,pta o,-,	1945.0	1996.0	[date]	7	
hqlocmappoptitle	OTHER	-1	-1.0	-1.0	[]	0	
department_name	STRING	-1	-1.0	-1.0	[]	1	
chief9_name	STRING	edwar,	-1.0	-1.0	[chief7_name]	10	
minister5_pfo	STRING	–,	-1.0	-1.0	[minister4_pfo]	57	
hqloctop	OTHER	-1	-1.0	-1.0	[hqlocmap]	0	
Secretary_name	OTHER	-1	-1.0	-1.0	[]	2	
status	OTHER	-1	-1.0	-1.0	[stations]	1	
issued	NUMBER	(fisc,,,	-1.0	-1.0	[]	2	
format	OTHER	-1	-1.0	-1.0	[]	0	
picture	OTHER	,-c,r.jpg,porta,.png,a.jpg,b.jpg,.jpg,-j,.,-h,-,main,-r,, bun,chime,iii-w,by ma,-s,i-,-yang,).jpg,-wff,baker,	-1.0	-1.0	[]	185	
Attached_organizations	OTHER	-1	-1.0	-1.0	[]	1	
lockuptype	OTHER	-1	-1.0	-1.0	[]	0	
person1type	OTHER	-1	-1.0	-1.0	[person1name]	0	
legaljuris	STRING	-1	-1.0	-1.0	[]	1	
boat1type	OTHER	-1	-1.0	-1.0	[]	0	
purpose	STRING	-1	-1.0	-1.0	[]	1	
reorganized	NUMBER	(sect,	-1.0	-1.0	[]	1	
staff	NUMBER	as of,	-1.0	-1.0	[]	1	
seal	STRING	,.png,(logo,.jpg,).svg,seal.,,,.svg,dfas%,.gif,logo.,. ss-,crest,	-1.0	-1.0	[]	647	
offices	OTHER	-1	-1.0	-1.0	[]	2	
longEW	STRING	.png,-.jpg,.jpg,cedar,seal.,-,.svg,inch.,dfas%,rocke,st_of,).jpg,cpa,.gif,logo.,_,pix.j,large,x,	-1.0	-1.0	[logo]	1534	
patchcaption	OTHER	-1	-1.0	-1.0	[]	0	
deputyminister3_pfo	STRING	nd ch,	-1.0	-1.0	[deputyminister1_pfo]	22	
coordinates	NUMBER	|,.,	-1.0	-1.0	[]	103	
boats1	OTHER	-1	-1.0	-1.0	[]	0	
acronym	STRING	-1	-1.0	-1.0	[]	1	
nativenamer	STRING	-1	-1.0	-1.0	[]	2	
website	OTHER	gener,.html,/main,.econ,/home,&art_,.go.k,.gov.,nd/?l,/draf,.htm,.stat,=http,,,-,.aspx,.ph}},o.com,/en/h,|url=,isro,fak],&obji,}},.mpra,bb/pd,supar,.refa,&subs,],_,.cent,aaib%,/ www,&item,www.m,www.g,biz.c,www.u,.php,.com/,.ga.u,fe,;s,.asp?,/min_,.ed.g,color,en.ht,offic,.mil,www.c,@egor,&lang,.shtm,	-1.0	-1.0	[]	2613	
chief9_position	STRING	–,april,st vi,),nd vi,,,-,	-1.0	-1.0	[chief7_position]	2353	
unsworntype	OTHER	-1	-1.0	-1.0	[sworntype]	0	
volunteers	OTHER	-1	-1.0	-1.0	[]	0	
origin	OTHER	-1	-1.0	-1.0	[]	2	
agency	OTHER	-1	-1.0	-1.0	[]	3	
position_equivalent_in_Army	OTHER	-1	-1.0	-1.0	[]	1	
picture_caption	OTHER	april,, hea,nd bu,.,/b-,until,in so,-,[[dep,rd fs,st ss,s,: mli,(in c,stree,mk,).,	-1.0	-1.0	[]	165	
commander	OTHER	-1	-1.0	-1.0	[]	0	
officetype	OTHER	-1	-1.0	-1.0	[officename]	0	
parentagency	OTHER	er.gi,px]],s-,,,-,	-1.0	-1.0	[parent_agency]	973	
first	STRING	-1	-1.0	-1.0	[]	1	

