Third_Rider_80_Country	STRING	-1	-1.0	-1.0	[Third_Rider_500_Country, Third_Rider_50_Country, Third_Rider_250_Country, Third_Rider_125_Country, Third_Rider_350_Country]	1202	
Third_Rider_50_Country_flag_suffix	NUMBER	-1	1928.0	1945.0	[Third_Rider_350_Country_flag_suffix, Third_Rider_500_Country_flag_suffix, Third_Rider_250_Country_flag_suffix, Third_Rider_125_Country_flag_suffix]	22	
First_Rider_80_Bike	OTHER	-1	-1.0	-1.0	[First_Rider_250_Bike, First_Rider_350_Bike, Fast_Rider_50_Bike, Fast_Rider_80_Bike, First_Rider_125_Bike, First_Rider_500_Bike, First_Rider_50_Bike]	443	
Second_Passenger_Sidecar_B2B_Country	STRING	-1	-1.0	-1.0	[]	2	
Fast_Time_MotoGP	NUMBER	:,	-1.0	-1.0	[Fast_Time_Moto2, Fast_Time_Moto3]	277	
Caption	OTHER	-1	-1.0	-1.0	[]	0	
Third_Rider_Sidecar_B2B_Country	STRING	-1	-1.0	-1.0	[]	2	
Pole_Rider_Sidecar_B2B_Bike	OTHER	-1	-1.0	-1.0	[]	2	
Pole_Rider_50_Country_flag_suffix	NUMBER	-1	1928.0	1977.0	[Pole_Rider_500_Country_flag_suffix]	62	
Pole_Rider_Sidecar_Country	STRING	-1	-1.0	-1.0	[]	38	
Third_Passenger_Sidecar_Country	STRING	-1	-1.0	-1.0	[]	72	
First_Rider_50_Country_flag_suffix	NUMBER	-1	1928.0	1977.0	[Fast_Rider_500_Country_flag_suffix, Fast_Rider_50_Country_flag_suffix, First_Rider_350_Country_flag_suffix, First_Rider_125_Country_flag_suffix, First_Rider_500_Country_flag_suffix, First_Rider_250_Country_flag_suffix]	98	
Flag	OTHER	-1	-1.0	-1.0	[]	0	
Pole_Passenger_Sidecar_B2B	OTHER	-1	-1.0	-1.0	[]	2	
Third_Rider_Sidecar_B2B_Bike	OTHER	-1	-1.0	-1.0	[]	3	
First_Rider_MotoGP_Country	STRING	-1	-1.0	-1.0	[Fast_Rider_MotoGP_Country, First_Rider_Moto2_Country, First_Rider_Moto3_Country]	558	
Course_mi	NUMBER	.,,,	1.939	60.72	[Course_km]	955	
Grand_Prix	OTHER	-1	-1.0	-1.0	[]	0	
Pole_Rider_Sidecar_Bike	OTHER	-1	-1.0	-1.0	[Pole_Rider_Sidecar_B2B]	40	
Third_Rider_MotoGP	OTHER	-1	-1.0	-1.0	[Third_Rider_Moto3, Third_Rider_Moto2]	279	
Official_Name	OTHER	]] d',	-1.0	-1.0	[]	133	
Second_Rider_Sidecar_Bike	OTHER	-1	-1.0	-1.0	[Second_Rider_Sidecar_B2B]	74	
Third_Rider_80_Bike	OTHER	-1	-1.0	-1.0	[Third_Rider_50_Bike]	412	
Second_Rider_50_Country_flag_suffix	NUMBER	-1	1928.0	1977.0	[Second_Rider_125_Country_flag_suffix, Second_Rider_500_Country_flag_suffix, Second_Rider_250_Country_flag_suffix, Second_Rider_350_Country_flag_suffix]	42	
Race_No	NUMBER	-1	1.0	18.0	[]	478	
Third_Passenger_Sidecar_B2B	OTHER	-1	-1.0	-1.0	[]	2	
Pole_Rider_80	OTHER	-1	-1.0	-1.0	[Pole_Rider_500]	1044	
Second_Passenger_Sidecar	OTHER	-1	-1.0	-1.0	[]	72	
Pole_Time_Sidecar	NUMBER	:,	-1.0	-1.0	[]	26	
Second_Rider_Sidecar	OTHER	-1	-1.0	-1.0	[]	72	
Second_Rider_Sidecar_B2B_Bike	OTHER	-1	-1.0	-1.0	[]	2	
First_Rider_Sidecar_Country	STRING	-1	-1.0	-1.0	[Fast_Rider_Sidecar_Country]	142	
First_Rider_Sidecar	OTHER	-1	-1.0	-1.0	[Fast_Rider_Sidecar]	142	
Pole_Rider_MotoGP	OTHER	-1	-1.0	-1.0	[Pole_Rider_Moto2, Pole_Rider_Moto3]	279	
Third_Passenger_Sidecar_B2B_Country	STRING	-1	-1.0	-1.0	[]	2	
Pole_Time_Sidecar_B2B	NUMBER	:,	-1.0	-1.0	[]	1	
First_Rider_80_Country	STRING	-1	-1.0	-1.0	[First_Rider_500_Country, First_Rider_50_Country, Fast_Rider_80_Country]	2389	
Year	NUMBER	-1	1949.0	2012.0	[]	478	
Fast_Rider_500_Bike	OTHER	-1	-1.0	-1.0	[Fast_Rider_125_Bike, Fast_Rider_250_Bike, Fast_Rider_350_Bike]	373	
Third_Rider_MotoGP_Country	STRING	-1	-1.0	-1.0	[Third_Rider_Moto2_Country, Third_Rider_Moto3_Country]	279	
Pole_Rider_MotoGP_Bike	OTHER	-1	-1.0	-1.0	[Pole_Rider_Moto3_Bike]	65	
Third_Rider_Sidecar	OTHER	-1	-1.0	-1.0	[]	72	
Second_Rider_MotoGP	OTHER	-1	-1.0	-1.0	[Second_Rider_Moto3]	279	
Second_Rider_80_Country	STRING	-1	-1.0	-1.0	[Second_Rider_50_Country]	1203	
Fast_Time_80	NUMBER	:,m,.,|mph|,	-1.0	-1.0	[Fast_Time_500, Fast_Time_125, Fast_Time_50, Fast_Time_350, Fast_Time_250]	1121	
Fast_Rider_350	OTHER	}} [[,	-1.0	-1.0	[Fast_Rider_250, Fast_Rider_125]	901	
Fast_Rider_Sidecar_B2B_Bike	STRING	-1	-1.0	-1.0	[]	2	
Second_Rider_80_Bike	OTHER	-1	-1.0	-1.0	[Second_Rider_50_Bike]	413	
Second_Passenger_Sidecar_Country	STRING	-1	-1.0	-1.0	[]	72	
Third_Rider_Sidecar_Bike	OTHER	-1	-1.0	-1.0	[Third_Rider_Sidecar_B2B]	74	
Second_Rider_80	OTHER	-1	-1.0	-1.0	[Second_Rider_500]	1205	
Second_Rider_Sidecar_B2B_Country	STRING	-1	-1.0	-1.0	[]	2	
GP_suffix	STRING	-1	-1.0	-1.0	[GP_Suffix]	20	
Third_Rider_MotoGP_Bike	OTHER	-1	-1.0	-1.0	[Third_Rider_Moto3_Bike]	64	
Fast_Time_Sidecar	NUMBER	:,.,	-1.0	-1.0	[]	57	
Course	STRING	-1	-1.0	-1.0	[]	20	
First_Rider_80	OTHER	-1	-1.0	-1.0	[First_Rider_500, Fast_Rider_80]	1498	
First_Passenger_Sidecar_Country	STRING	-1	-1.0	-1.0	[Fast_Passenger_Sidecar_Country]	141	
Fast_Time_Sidecar_B2B	NUMBER	:,	-1.0	-1.0	[]	1	
First_Passenger_Sidecar_B2B	OTHER	-1	-1.0	-1.0	[Fast_Passenger_Sidecar_B2B]	4	
Third_Passenger_Sidecar	OTHER	-1	-1.0	-1.0	[]	72	
Pole_Time_80	NUMBER	',:,	-1.0	-1.0	[Pole_Time_500]	984	
First_Passenger_Sidecar_B2B_Country	STRING	-1	-1.0	-1.0	[Fast_Passenger_Sidecar_B2B_Country]	4	
Pole_Passenger_Sidecar	OTHER	-1	-1.0	-1.0	[]	38	
Second_Rider_Sidecar_Country	STRING	-1	-1.0	-1.0	[]	72	
Third_Rider_Sidecar_Country	STRING	-1	-1.0	-1.0	[]	72	
Pole_Rider_80_Bike	OTHER	-1	-1.0	-1.0	[Pole_Rider_500_Bike, Pole_Rider_50_Bike]	253	
Season_No	NUMBER	-1	6.0	18.0	[]	478	
Pole_Rider_80_Country	STRING	-1	-1.0	-1.0	[Pole_Rider_50_Country]	1043	
Pole_Time_MotoGP	NUMBER	;,:,	-1.0	-1.0	[Pole_Time_Moto3]	279	
Third_Rider_80	OTHER	-1	-1.0	-1.0	[Third_Rider_500]	1205	
Pole_Passenger_Sidecar_Country	STRING	-1	-1.0	-1.0	[]	38	
Pole_Rider_Sidecar_B2B_Country	STRING	-1	-1.0	-1.0	[]	2	
flag	STRING	.svg,.png,ring.,.jpg,versi,-nord,-gp.s,-,	-1.0	-1.0	[Image]	895	
First_Rider_Sidecar_B2B_Country	STRING	-1	-1.0	-1.0	[Fast_Rider_Sidecar_B2B_Country]	4	
First_Passenger_Sidecar	OTHER	-1	-1.0	-1.0	[Fast_Passenger_Sidecar]	142	
Flag_suffix	NUMBER	-1	1930.0	1977.0	[]	10	
Second_Rider_MotoGP_Country	STRING	-1	-1.0	-1.0	[Second_Rider_Moto3_Country]	279	
Pole_Rider_Sidecar	OTHER	-1	-1.0	-1.0	[]	38	
Prix	STRING	-1	-1.0	-1.0	[]	478	
Pole_Passenger_Sidecar_B2B_Country	STRING	-1	-1.0	-1.0	[]	2	
First_Rider_Sidecar_B2B_Bike	OTHER	-1	-1.0	-1.0	[]	2	
Location	OTHER	-ring,	-1.0	-1.0	[]	478	
Name	OTHER	–,may,augus,march,april,septe,june,octob,july,-,	-1.0	-1.0	[Date]	484	
Second_Passenger_Sidecar_B2B	OTHER	-1	-1.0	-1.0	[]	2	
Second_Rider_MotoGP_Bike	OTHER	-1	-1.0	-1.0	[Second_Rider_Moto3_Bike]	64	
First_Rider_Sidecar_Bike	OTHER	-1	-1.0	-1.0	[First_Rider_Sidecar_B2B, Fast_Rider_Sidecar_Bike]	146	
Pole_Rider_MotoGP_Country	STRING	-1	-1.0	-1.0	[Pole_Rider_Moto3_Country]	279	
First_Rider_MotoGP_Bike	OTHER	-1	-1.0	-1.0	[Fast_Rider_MotoGP_Bike, First_Rider_Moto3_Bike]	128	
First_Rider_MotoGP	OTHER	-1	-1.0	-1.0	[First_Rider_Moto3, Fast_Rider_MotoGP]	558	

