member	OTHER	-1	-1.0	-1.0	[]	7	
region	OTHER	-1	-1.0	-1.0	[]	7	
previous	OTHER	-1	-1.0	-1.0	[]	0	
elects_howmany	STRING	-1	-1.0	-1.0	[]	7	
image	OTHER	-1	-1.0	-1.0	[]	0	
parl_name	OTHER	-1	-1.0	-1.0	[]	7	
type	OTHER	-1	-1.0	-1.0	[map3]	0	
unit	OTHER	-1	-1.0	-1.0	[next]	14	
electorate	NUMBER	,,	-1.0	-1.0	[]	7	
name	STRING	-1	-1.0	-1.0	[map2, map1]	21	
year	NUMBER	-1	1974.0	1974.0	[]	7	

