client	OTHER	-1	-1.0	-1.0	[]	0	
location	OTHER	-1	-1.0	-1.0	[]	1	
services_engineer	OTHER	-1	-1.0	-1.0	[]	0	
altitude	OTHER	-1	-1.0	-1.0	[]	0	
renovation_date	OTHER	-1	-1.0	-1.0	[]	0	
building_type	OTHER	-1	-1.0	-1.0	[]	1	
ren_oth_designers	OTHER	-1	-1.0	-1.0	[]	0	
ren_architect	OTHER	-1	-1.0	-1.0	[]	0	
references	OTHER	-1	-1.0	-1.0	[]	2	
height	OTHER	-1	-1.0	-1.0	[]	0	
longs	OTHER	-1	-1.0	-1.0	[longm, lats]	0	
location_town	STRING	-1	-1.0	-1.0	[]	1	
longitude	NUMBER	-1	30.3152	74.6812	[latitude]	2	
alternate_names	OTHER	-1	-1.0	-1.0	[]	0	
architecture_firm	OTHER	-1	-1.0	-1.0	[]	0	
opened_date	OTHER	-1	-1.0	-1.0	[]	0	
demolition_date	OTHER	-1	-1.0	-1.0	[]	0	
main_contractor	OTHER	-1	-1.0	-1.0	[]	0	
status	STRING	-1	-1.0	-1.0	[]	1	
map_caption	OTHER	-1	-1.0	-1.0	[]	0	
groundbreaking_date	OTHER	-1	-1.0	-1.0	[]	0	
embedded	OTHER	-1	-1.0	-1.0	[]	0	
url	OTHER	-1	-1.0	-1.0	[]	0	
former_names	OTHER	-1	-1.0	-1.0	[]	0	
architect	OTHER	-1	-1.0	-1.0	[]	0	
roof	OTHER	-1	-1.0	-1.0	[cost]	0	
image_alt	STRING	-1	-1.0	-1.0	[]	1	
ren_qty_surveyor	OTHER	-1	-1.0	-1.0	[]	0	
awards	OTHER	-1	-1.0	-1.0	[]	0	
owner	OTHER	-1	-1.0	-1.0	[]	0	
destruction_date	OTHER	-1	-1.0	-1.0	[]	0	
other_dimensions	OTHER	-1	-1.0	-1.0	[]	0	
ren_firm	OTHER	-1	-1.0	-1.0	[]	0	
civil_engineer	OTHER	-1	-1.0	-1.0	[]	0	
ren_awards	OTHER	-1	-1.0	-1.0	[]	0	
seating_capacity	OTHER	-1	-1.0	-1.0	[]	0	
designations	OTHER	-1	-1.0	-1.0	[]	0	
current_tenants	OTHER	-1	-1.0	-1.0	[]	0	
floor_area	OTHER	-1	-1.0	-1.0	[]	0	
coordinates_format	STRING	-1	-1.0	-1.0	[]	1	
ren_str_engineer	OTHER	-1	-1.0	-1.0	[ren_civ_engineer, ren_serv_engineer]	0	
iso_region	STRING	-1	-1.0	-1.0	[]	1	
top_floor	OTHER	-1	-1.0	-1.0	[]	0	
map_type	OTHER	-1	-1.0	-1.0	[]	0	
name	STRING	-1	-1.0	-1.0	[image, Type]	5	
coordinates_display	SET_OF_STRINGS	-1	-1.0	-1.0	[]	1	
quantity_surveyor	OTHER	-1	-1.0	-1.0	[]	0	
coordinates	NUMBER	|,	-1.0	-1.0	[]	1	
structural_system	OTHER	-1	-1.0	-1.0	[]	0	
landlord	OTHER	-1	-1.0	-1.0	[]	0	
latNS	OTHER	-1	-1.0	-1.0	[]	0	
diameter	OTHER	-1	-1.0	-1.0	[]	0	
other_designers	OTHER	-1	-1.0	-1.0	[]	0	
seating_type	OTHER	-1	-1.0	-1.0	[]	0	
architectural_style	OTHER	-1	-1.0	-1.0	[]	0	
caption	STRING	-1	-1.0	-1.0	[]	2	
completion_date	OTHER	-1	-1.0	-1.0	[]	0	
location_country	STRING	-1	-1.0	-1.0	[location_Country]	2	
antenna_spire	OTHER	-1	-1.0	-1.0	[]	0	
ren_cost	OTHER	-1	-1.0	-1.0	[]	0	
native_name_lang	STRING	-1	-1.0	-1.0	[]	1	
inauguration_date	OTHER	-1	-1.0	-1.0	[]	0	
address	OTHER	-1	-1.0	-1.0	[]	0	
floor_count	OTHER	-1	-1.0	-1.0	[]	0	
elevator_count	OTHER	-1	-1.0	-1.0	[]	0	
map_alt	OTHER	-1	-1.0	-1.0	[]	0	
native_name	OTHER	-1	-1.0	-1.0	[]	1	
start_date	OTHER	-1	-1.0	-1.0	[]	0	
structural_engineer	OTHER	-1	-1.0	-1.0	[]	0	

