terminate	OTHER	m,,b nwf,	-1.0	-1.0	[]	3	
via	NUMBER	b and,p,,,,	-1.0	-1.0	[]	3	
street	OTHER	[[que,[[con,	-1.0	-1.0	[]	4	
alternative	STRING	-1	-1.0	-1.0	[]	1	
image	OTHER	.jpg,	-1.0	-1.0	[cname]	7	
fontcolor	STRING	-1	-1.0	-1.0	[]	4	
nearbysights	OTHER	-1	-1.0	-1.0	[]	4	
nearbystreets	STRING	-1	-1.0	-1.0	[]	2	
bgcolor	STRING	-1	-1.0	-1.0	[]	4	
area	OTHER	-1	-1.0	-1.0	[]	4	
opendate	OTHER	,,	-1.0	-1.0	[]	3	
ename	STRING	-1	-1.0	-1.0	[]	4	
notes	OTHER	-1	-1.0	-1.0	[]	0	
district	OTHER	-1	-1.0	-1.0	[]	4	
feeder	OTHER	-1	-1.0	-1.0	[]	4	

