region	OTHER	-1	-1.0	-1.0	[]	12	
feeds	OTHER	-1	-1.0	-1.0	[]	0	
confed	OTHER	–,	-1.0	-1.0	[]	2	
promotion	OTHER	-1	-1.0	-1.0	[]	1	
conferences	NUMBER	regio,	-1.0	-1.0	[]	1	
divisions	OTHER	leagu,	-1.0	-1.0	[]	3	
champions	OTHER	-1	-1.0	-1.0	[]	15	
founded	NUMBER	,,	1918.0	2008.0	[folded]	22	
leader_title2	STRING	-?),-,	-1.0	-1.0	[leader_title]	18	
leader_name2	OTHER	-1	-1.0	-1.0	[leader_name]	18	
name	OTHER	-1	-1.0	-1.0	[champ]	24	
lassc_champ	OTHER	-1	-1.0	-1.0	[assc_champ]	14	
feeder	NUMBER	–,	-1.0	-1.0	[]	1	
republic	OTHER	-1	-1.0	-1.0	[]	1	
logo	STRING	-1	-1.0	-1.0	[]	16	
current_season	OTHER	–,	-1.0	-1.0	[]	11	
website	OTHER	/,	-1.0	-1.0	[]	19	
caption	STRING	-1	-1.0	-1.0	[]	1	
pixels	OTHER	px,	-1.0	-1.0	[]	12	
former_names	OTHER	-,	-1.0	-1.0	[]	8	
headquarters	OTHER	-1	-1.0	-1.0	[]	8	
country	OTHER	-1	-1.0	-1.0	[]	7	
teams	NUMBER	(,(peak,-,	4.0	128.0	[]	17	
season	NUMBER	–,-,	-1.0	-1.0	[]	11	
relegation	OTHER	]] [[,	-1.0	-1.0	[]	2	
tv	NUMBER	–,	-1.0	-1.0	[]	1	
club	NUMBER	title,times,'''),), [[,),	-1.0	-1.0	[]	7	
first	NUMBER	-,	-1.0	-1.0	[]	1	
TV	OTHER	-1	-1.0	-1.0	[]	0	

