city	OTHER	–,	-1.0	-1.0	[]	55	
founded	NUMBER	to,}},(kent,(earl,-,	1885.0	2011.0	[]	51	
arena	OTHER	ice s,),,(seat,,,lumbe,	-1.0	-1.0	[]	52	
conference	OTHER	-1	-1.0	-1.0	[]	4	
text	OTHER	-1	-1.0	-1.0	[]	19	
team	STRING	-1	-1.0	-1.0	[]	57	
league	OTHER	–,. lig,. nár,]],	-1.0	-1.0	[]	54	
affiliates	OTHER	-1	-1.0	-1.0	[]	2	
colours	OTHER	f,e,a,}} {{,	-1.0	-1.0	[colour]	74	
farmclub	OTHER	-1	-1.0	-1.0	[]	0	
owner	OTHER	north,ltd,	-1.0	-1.0	[]	19	
parentclub	OTHER	-1	-1.0	-1.0	[]	0	
operated	NUMBER	–,–?,-,	-1.0	-1.0	[]	5	
captain	OTHER	px|ca,	-1.0	-1.0	[]	17	
division	OTHER	-1	-1.0	-1.0	[]	6	
CAN_eng	NUMBER	-1	1.0	1.0	[]	37	
logosize	NUMBER	px,	-1.0	-1.0	[]	11	
logo	STRING	-1	-1.0	-1.0	[]	34	
website	OTHER	-1	-1.0	-1.0	[]	27	
coach	OTHER	px|ca,	-1.0	-1.0	[]	33	
dates5	OTHER	–,&ndas,-pres,/,–pres,	-1.0	-1.0	[dates4, dates2]	54	
dates3	NUMBER	–,&ndas,/,	-1.0	-1.0	[dates1]	11	
name5	STRING	-1	-1.0	-1.0	[name2]	7	
name4	OTHER	-1	-1.0	-1.0	[name3, altname4]	15	
GM	OTHER	-1	-1.0	-1.0	[]	5	
altname8	OTHER	-1	-1.0	-1.0	[altdates8, altname7]	1	

