tournament	NUMBER	inter,railw,	-1.0	-1.0	[]	2	
image	OTHER	-1	-1.0	-1.0	[]	0	
imagesize	OTHER	-1	-1.0	-1.0	[]	0	
caption	OTHER	-1	-1.0	-1.0	[]	0	
champions	OTHER	-1	-1.0	-1.0	[]	2	
teams	OTHER	px]],	-1.0	-1.0	[]	2	
goals	NUMBER	-1	11.0	11.0	[]	1	
matches	NUMBER	-1	2.0	3.0	[]	2	
scorer	NUMBER	)|ric,	-1.0	-1.0	[]	1	
name	NUMBER	inter,railw,|,febru,	-1.0	-1.0	[date]	4	
year	NUMBER	-1	1928.0	2013.0	[]	2	
points	NUMBER	-1	1.0	98.0	[count]	2	

