Dissipated	OTHER	,,	-1.0	-1.0	[]	12	
Type	STRING	-1	-1.0	-1.0	[]	2	
Basin	STRING	-1	-1.0	-1.0	[]	10	
Image	NUMBER	).jpg,june,b may,track,middm,subtr,.,b oct,	-1.0	-1.0	[]	11	
Pressure	NUMBER	-1	946.0	1002.0	[]	10	
Track	NUMBER	b,track,	-1.0	-1.0	[]	8	
Formed	OTHER	,,	-1.0	-1.0	[]	12	
winds	NUMBER	-1	25.0	95.0	[]	12	
WarningCenter	STRING	-1	-1.0	-1.0	[]	1	

