Year	NUMBER	-1	2001.0	2010.0	[]	5	
WHS	STRING	-1	-1.0	-1.0	[]	5	
Region	STRING	-1	-1.0	-1.0	[]	5	
Link	STRING	-1	-1.0	-1.0	[]	5	
Session	NUMBER	th,	-1.0	-1.0	[]	1	
Image	NUMBER	-,	-1.0	-1.0	[]	1	
Party	OTHER	-1	-1.0	-1.0	[]	5	
ID	NUMBER	-1	11.0	383.0	[]	5	

