champion	STRING	-1	-1.0	-1.0	[]	7	
tourney_name	NUMBER	ifaf,	-1.0	-1.0	[]	8	
logo	NUMBER	ifaf,	-1.0	-1.0	[]	2	
games	NUMBER	-1	4.0	12.0	[]	6	
host	STRING	-1	-1.0	-1.0	[]	8	
attendance	OTHER	-1	-1.0	-1.0	[]	0	
by	OTHER	ifaf,	-1.0	-1.0	[MVP]	10	
third	STRING	-1	-1.0	-1.0	[]	7	
other_titles	OTHER	-1	-1.0	-1.0	[]	0	
runnerup	STRING	-1	-1.0	-1.0	[]	7	
dateto	DATE	-1	-1.0	-1.0	[datefrom]	14	
year	NUMBER	-1	1999.0	2015.0	[]	8	
nations	NUMBER	-1	4.0	8.0	[]	7	

