history	OTHER	-1	-1.0	-1.0	[]	0	
Badge_size	OTHER	-1	-1.0	-1.0	[]	0	
president	OTHER	-1	-1.0	-1.0	[]	0	
IIHFnation	OTHER	-1	-1.0	-1.0	[]	0	
organization	OTHER	-1	-1.0	-1.0	[]	0	
joined	OTHER	-1	-1.0	-1.0	[founded]	0	
website	OTHER	-1	-1.0	-1.0	[]	1	
womens_ranking	OTHER	-1	-1.0	-1.0	[mens_ranking]	0	
logo_image	OTHER	-1	-1.0	-1.0	[]	0	

