rear_camera	OTHER	-1	-1.0	-1.0	[]	0	
unitssold	OTHER	-1	-1.0	-1.0	[]	0	
partnumber	OTHER	-1	-1.0	-1.0	[]	0	
weight	OTHER	-1	-1.0	-1.0	[]	0	
successor	OTHER	-1	-1.0	-1.0	[]	0	
front_camera	OTHER	-1	-1.0	-1.0	[]	0	
releasedate	OTHER	-1	-1.0	-1.0	[]	0	
related	OTHER	-1	-1.0	-1.0	[]	0	
predecessor	OTHER	-1	-1.0	-1.0	[]	0	
slogan	OTHER	-1	-1.0	-1.0	[logo]	0	
name	OTHER	-1	-1.0	-1.0	[hac, image]	0	
dimensions	OTHER	-1	-1.0	-1.0	[]	0	
power	OTHER	-1	-1.0	-1.0	[model]	0	
generation	OTHER	-1	-1.0	-1.0	[]	0	
os	OTHER	-1	-1.0	-1.0	[gpu, form]	0	
audio	OTHER	-1	-1.0	-1.0	[]	0	
website	OTHER	-1	-1.0	-1.0	[]	1	
status	OTHER	-1	-1.0	-1.0	[]	0	
connectivity	OTHER	-1	-1.0	-1.0	[]	0	
display	OTHER	-1	-1.0	-1.0	[]	0	
caption	OTHER	-1	-1.0	-1.0	[]	0	
available	OTHER	-1	-1.0	-1.0	[]	0	
memory	OTHER	-1	-1.0	-1.0	[]	0	
unitsshipped	OTHER	-1	-1.0	-1.0	[]	0	
input	OTHER	-1	-1.0	-1.0	[]	0	
developer	OTHER	-1	-1.0	-1.0	[]	0	
manufacturer	OTHER	-1	-1.0	-1.0	[]	0	
service	OTHER	-1	-1.0	-1.0	[price]	0	
storage	OTHER	-1	-1.0	-1.0	[]	0	

