primary_dns	OTHER	-1	-1.0	-1.0	[]	10	
located_in	OTHER	-1	-1.0	-1.0	[]	11	
average_servers	NUMBER	}},	-1.0	-1.0	[]	11	
image	OTHER	px]],	-1.0	-1.0	[]	9	
average_users	NUMBER	,,	-1.0	-1.0	[]	11	
executive_board	OTHER	-1	-1.0	-1.0	[]	1	
average_channels	NUMBER	,,-,	-1.0	-1.0	[]	11	
unofficial	STRING	-1	-1.0	-1.0	[]	1	
based_in	OTHER	-1	-1.0	-1.0	[]	9	
founded_on	OTHER	, as,	-1.0	-1.0	[]	11	
name	STRING	-1	-1.0	-1.0	[]	11	
website_url	OTHER	-1	-1.0	-1.0	[]	10	
main_content	OTHER	-1	-1.0	-1.0	[]	12	

