party_logo	OTHER	px]],	-1.0	-1.0	[]	2	
website	OTHER	-1	-1.0	-1.0	[]	4	
name_native	OTHER	-1	-1.0	-1.0	[]	4	
international	OTHER	-1	-1.0	-1.0	[]	1	
MPcurrent	OTHER	|,	-1.0	-1.0	[]	4	
party_name	STRING	-1	-1.0	-1.0	[]	4	
headquarters	OTHER	-1	-1.0	-1.0	[]	1	
colours	OTHER	-1	-1.0	-1.0	[]	1	
european	OTHER	-1	-1.0	-1.0	[]	1	
ideology	OTHER	-1	-1.0	-1.0	[]	3	
foundation	OTHER	}},|,	-1.0	-1.0	[]	4	
letters	OTHER	-1	-1.0	-1.0	[leader]	5	
colorcode	OTHER	-1	-1.0	-1.0	[]	4	

