party_chairman9	OTHER	)|yaa,)|yit,	-1.0	-1.0	[party_chairman7, party_chairman8]	198	
party9	OTHER	)|uni,)|yah,	-1.0	-1.0	[party7, party8]	198	
PM_after_election	OTHER	-1	-1.0	-1.0	[]	16	
next_election	NUMBER	|,	-1.0	-1.0	[]	16	
after_party	OTHER	-1	-1.0	-1.0	[]	16	
previous_election	NUMBER	|,	-1.0	-1.0	[]	15	
before	NUMBER	-1	1.0	5.0	[]	10	
before_party	OTHER	-1	-1.0	-1.0	[]	15	
percentage9	NUMBER	.,	-1.0	-1.0	[percentage8]	198	
PM_before_election	OTHER	-1	-1.0	-1.0	[]	15	
election_name	NUMBER	may,janua,june,rd kn,decem,th kn,augus,march,octob,nd kn,july,febru,novem,	-1.0	-1.0	[election_date]	32	
seats9	NUMBER	-1	1.0	56.0	[seats15, seats8, seats7, seats6, seats5, seats4, seats3, seats2]	198	
votes9	NUMBER	,,	-1.0	-1.0	[votes8]	198	

