captionb	NUMBER	and u,	-1.0	-1.0	[]	1	
reairdate	NUMBER	may,janua,april,decem,march,augus,septe,octob,july,|,febru,novem,{{cn|,	-1.0	-1.0	[airdate]	37	
location	OTHER	-1	-1.0	-1.0	[caption]	2	
website	OTHER	-1	-1.0	-1.0	[]	35	
replacedby	OTHER	''' (,augus,july,.,	-1.0	-1.0	[replaced]	40	
image	NUMBER	chann,px|se,px|al,px]],logo.,.png|,	-1.0	-1.0	[]	32	
by	OTHER	-1	-1.0	-1.0	[]	1	
closeddate	NUMBER	may,janua,septe,octob,decem,july,febru,	1968.0	1968.0	[closedate]	29	
presenter	OTHER	-1	-1.0	-1.0	[]	1	
size	OTHER	-) me,-) ca,-) ht,-)  y,- ),-)  t,-),-)  w,-) ch,-)  a,-)  b,-) sc,–) gr,-) lo,(itv,	-1.0	-1.0	[aired, share, name]	37	
slogan	OTHER	-1	-1.0	-1.0	[]	1	
owner	OTHER	–,to,]],-,	-1.0	-1.0	[]	36	
oldlogo	NUMBER	.jpg|,px]],s.jpg,logo.,.png|,-,px]]',	-1.0	-1.0	[]	14	
based	OTHER	–,to,am un,, [[l,:,	-1.0	-1.0	[area]	73	

