parents	STRING	-1	-1.0	-1.0	[]	8	
successor	OTHER	-1	-1.0	-1.0	[]	3	
birth_name	STRING	-1	-1.0	-1.0	[]	6	
predecessor	OTHER	-1	-1.0	-1.0	[]	5	
religion	OTHER	-1	-1.0	-1.0	[]	1	
initiation_date	NUMBER	th ma,	1919.0	1968.0	[]	5	
rank	STRING	-1	-1.0	-1.0	[]	9	
death_place	OTHER	-1	-1.0	-1.0	[birth_place]	12	
image_size	NUMBER	px,	-1.0	-1.0	[]	1	
degree_in	OTHER	-1	-1.0	-1.0	[]	0	
signature	OTHER	-1	-1.0	-1.0	[]	0	
cremation_place	OTHER	-1	-1.0	-1.0	[]	2	
official_name	STRING	vidya,gyans,	-1.0	-1.0	[]	10	
death_date	NUMBER	|,	-1.0	-1.0	[]	7	
occupation	OTHER	-1	-1.0	-1.0	[]	1	
birth_date	OTHER	|,	-1.0	-1.0	[]	9	
website	OTHER	-1	-1.0	-1.0	[]	11	
image	STRING	.jpg,	-1.0	-1.0	[]	5	
caption	NUMBER	th ac,vidya,th he,gyans,	-1.0	-1.0	[]	4	
alma_mater	OTHER	-1	-1.0	-1.0	[]	0	
works	STRING	-1	-1.0	-1.0	[]	3	
nationality	OTHER	-1	-1.0	-1.0	[]	1	
initiation_place	OTHER	-1	-1.0	-1.0	[]	6	
new_name_given	STRING	-1	-1.0	-1.0	[]	10	
initiator	OTHER	-1	-1.0	-1.0	[initiated]	7	

