radio_announcers	OTHER	-1	-1.0	-1.0	[]	0	
champion	NUMBER	),	-1.0	-1.0	[]	40	
television	NUMBER	) [[t,, als,, ann,), [[,, jnn,),,,, coo,-,and,	-1.0	-1.0	[]	26	
image	NUMBER	–,&ndas,japan,– oct,– nov,js lo,— oct,	-1.0	-1.0	[date]	48	
caption	OTHER	-1	-1.0	-1.0	[]	0	
champion_games	NUMBER	–,&ndas,	-1.0	-1.0	[]	34	
runnerup_games	NUMBER	–,&ndas,	-1.0	-1.0	[]	34	
umpires	OTHER	-1	-1.0	-1.0	[]	40	
radio_network	OTHER	, abc,]], [,	-1.0	-1.0	[]	15	
champion_manager	OTHER	-1	-1.0	-1.0	[]	40	
runnerup	NUMBER	),	-1.0	-1.0	[]	40	
year	NUMBER	-1	1950.0	2012.0	[]	40	
runnerup_manager	OTHER	-1	-1.0	-1.0	[]	40	
announcers	STRING	),	-1.0	-1.0	[]	6	
MVP	OTHER	-1	-1.0	-1.0	[FSA]	65	

