address	STRING	-1	-1.0	-1.0	[]	1	
website	STRING	-1	-1.0	-1.0	[]	1	
name	STRING	-1	-1.0	-1.0	[image]	2	
caption	STRING	-1	-1.0	-1.0	[]	1	
city	OTHER	-1	-1.0	-1.0	[]	1	
country	OTHER	-1	-1.0	-1.0	[]	1	
opened	SET_OF_STRINGS	-1	-1.0	-1.0	[]	1	

