president	OTHER	-1	-1.0	-1.0	[]	25	
bg_color	OTHER	-1	-1.0	-1.0	[]	3	
honors	OTHER	)  be,	-1.0	-1.0	[]	2	
captain	OTHER	-1	-1.0	-1.0	[]	77	
founded	NUMBER	janua,as ec,(as t,as [[,july,(,|,as '',]] [[,as eh,,,	1878.0	2012.0	[]	172	
dissolved	NUMBER	(refo,,,	2000.0	2012.0	[]	15	
division	OTHER	]]''',]],	-1.0	-1.0	[]	37	
arena	OTHER	arena,)|tip,]],,,world,	-1.0	-1.0	[]	176	
scris	STRING	-1	-1.0	-1.0	[]	1	
current	OTHER	-1	-1.0	-1.0	[]	4	
head_coach	OTHER	)|vla,	-1.0	-1.0	[]	141	
capacity	OTHER	&,',,,-,	-1.0	-1.0	[]	164	
conference	STRING	-1	-1.0	-1.0	[]	28	
fullname	OTHER	–,–''pr,&ndas,''',??-pr,-pres,ers'',-''pr,-,	-1.0	-1.0	[]	174	
uniform	NUMBER	.jpg|,px|je,px]],/,px|kh,px]][,	-1.0	-1.0	[]	13	
nickname	OTHER	-1	-1.0	-1.0	[]	65	
website	OTHER	.ru/,/],ers.a,.com/,.com,	-1.0	-1.0	[]	179	
cadru	NUMBER	ff,	-1.0	-1.0	[]	1	
image	NUMBER	.jpg],logo,.jpg|,px]],.gif|,]],.svg|,px-ve,.jpeg,erjun,.png|,-logo,erslo,	-1.0	-1.0	[]	168	
league	OTHER	–''pr,-'',&ndas,nd bu,-''pr,-,–pres,–,. div,(ice,-''cu,-pres,. čes,	-1.0	-1.0	[]	170	
affiliates	OTHER	ers]],)|hk,]] ([,]]),skali,]] (p,. nár,),	-1.0	-1.0	[]	38	
ass_coach2	OTHER	-1	-1.0	-1.0	[ass_coach]	5	
history	OTHER	-1	-1.0	-1.0	[]	0	
gm	OTHER	-1	-1.0	-1.0	[]	66	
based_in	OTHER	-1	-1.0	-1.0	[]	184	
owner	OTHER	-1	-1.0	-1.0	[]	36	
fansite	STRING	-1	-1.0	-1.0	[]	1	
media	NUMBER	tv]],	-1.0	-1.0	[]	1	
clubname	STRING	ers,	-1.0	-1.0	[]	180	
text_color	OTHER	f,d}} {,d,e,b,}},ab}},c,a,ff}},aee,e}} {,bc}},c}} {,cd}},}} {{,dd}},ae,f}} {,	-1.0	-1.0	[team_color]	153	

