region	OTHER	-1	-1.0	-1.0	[]	415	
altUnoSp	STRING	-1	-1.0	-1.0	[altOffSp]	12	
area_dunam	NUMBER	-1	6550.0	96156.0	[]	5	
pushpin_label_position	STRING	-1	-1.0	-1.0	[]	71	
imgsize3	NUMBER	-1	300.0	300.0	[]	1	
ISO	STRING	-1	-1.0	-1.0	[]	1	
council	OTHER	-1	-1.0	-1.0	[]	430	
populationi	NUMBER	,,	80.0	2011.0	[population]	65	
hebname	OTHER	-1	-1.0	-1.0	[arname]	203	
caption3	NUMBER	examp,	-1.0	-1.0	[]	1	
founded	NUMBER	-1	1950.0	1979.0	[]	2	
longs	NUMBER	-1	0.0	59.99	[longm, lats]	2576	
kibbutz_name	STRING	-1	-1.0	-1.0	[]	12	
longEW	STRING	-1	-1.0	-1.0	[]	156	
name	STRING	-1	-1.0	-1.0	[]	493	
affiliation	OTHER	-1	-1.0	-1.0	[]	393	
foundation	NUMBER	(in [,janua,may,april,june,(as p,decem,(orig,/,,,-,augus,march,(as a,septe,octob,july,febru,(firs,novem,	1899.0	2007.0	[]	488	
industry	OTHER	-1	-1.0	-1.0	[]	176	
district	STRING	-1	-1.0	-1.0	[]	61	
latNS	STRING	-1	-1.0	-1.0	[]	156	
pushpin_map	STRING	-1	-1.0	-1.0	[]	430	
website	OTHER	/ www,www.k,/lang,&item,.il/,c,.html,-,.aspx,&act=,/einm,dyam/,.co.i,|bot=,	-1.0	-1.0	[]	487	
mayor	OTHER	-1	-1.0	-1.0	[]	2	
n	OTHER	-1	-1.0	-1.0	[]	0	
image	OTHER	squar,nevat,a.jpg,watch,.jpg,archi,shome,eilot,mitzp,-,old s,-se.j,settl,timra,).jpg,-kefa,ein h,geogr,commu,alone,	-1.0	-1.0	[]	155	
caption	STRING	st vi,.,	-1.0	-1.0	[]	53	
meaning	STRING	-1	-1.0	-1.0	[]	56	
founded_by	OTHER	) [[p,	-1.0	-1.0	[]	374	
pushpin_mapsize	NUMBER	-1	100.0	300.0	[]	429	
stdHeb	STRING	-1	-1.0	-1.0	[]	4	
popyear	NUMBER	-1	1108.0	2011.0	[]	53	
image3	NUMBER	may,	-1.0	-1.0	[]	1	
imgsize	OTHER	px,	-1.0	-1.0	[]	166	

