datebirth	NUMBER	|,	-1.0	-1.0	[]	4	
city	STRING	-1	-1.0	-1.0	[child]	4	
catpion	OTHER	stori,th pa,}},&nbsp,]]),px]],visit,: the,while,cover,- ),,meter,pictu,th ko,in [[,vinyl,th in,train,st re,film,=shin,film),th,,th an,at th,),.,namda,th [[,photo,,,augus,s,perfo,octob,ogn a,nd ko,avlb|,th ce,).,th-ce,novem,	-1.0	-1.0	[caption]	558	
longs	NUMBER	-1	38.0	219.0	[longm, lats]	8	
spouse	OTHER	-1	-1.0	-1.0	[]	0	
rrgye	OTHER	,th pa,.png,-an.h,banwo,-d-,gi-du,a.jpg,}}},.jpg,(loc),by f.,mwe m,|}}},-yun.,ki.jp,cover,.gif,_,인 시위에,;dong,.jpg},&,vinal,b.jpg,a,%,gi-we,(,.,,,-,, unh,).jpg,danko,-hube,_yukh,gi-gi,-kore,	-1.0	-1.0	[rr2, mrgye, rra, rrb]	739	
border	OTHER	-1	-1.0	-1.0	[]	0	
capion	STRING	-1	-1.0	-1.0	[]	1	
hanjaborn	OTHER	-1	-1.0	-1.0	[hangulborn]	259	
birth_date	NUMBER	|,	-1.0	-1.0	[]	1	
parent	OTHER	-1	-1.0	-1.0	[]	1	
rrborn	STRING	-1	-1.0	-1.0	[mrborn]	262	
imgcaption	STRING	-1	-1.0	-1.0	[]	2	
homepage	OTHER	-1	-1.0	-1.0	[]	1	
faculty	NUMBER	(,	-1.0	-1.0	[]	2	
simpchi	OTHER	-1	-1.0	-1.0	[]	1	
born	NUMBER	|,	-1.0	-1.0	[Born]	2	
context2	STRING	-1	-1.0	-1.0	[context]	307	
title	OTHER	),korea,	-1.0	-1.0	[site, City, state]	257	
moto	OTHER	-1	-1.0	-1.0	[]	2	
wikt	OTHER	cheon,=los,	-1.0	-1.0	[text]	37	
tablewidth	NUMBER	}},em,	175.0	330.0	[]	79	
latNS	STRING	-1	-1.0	-1.0	[]	1	
othername2	OTHER	|}}},}}},	-1.0	-1.0	[othername1]	30	
deathplace	OTHER	|,	-1.0	-1.0	[deathdate, birthplace]	7	
background	OTHER	-1	-1.0	-1.0	[]	0	
President	STRING	-1	-1.0	-1.0	[]	1	
fontcolor	OTHER	-1	-1.0	-1.0	[]	2	
rrph	STRING	;i mi,;resi,}}},-ho,ho gw,ho,;ng s,;ng p,ho gy,|}}},;kch',hoe s,-nyeo,;rup},; ch&,ho ky,ho kw,;mun,/ nod,taeha,daeha,(gusi,;}},;m hy,;ng,;n,;l}},-ho /,;ngj&,;ng}},;p}},;ng k,;ngs&,-nyŏn,	-1.0	-1.0	[rr1, rrho, rrja]	6631	
Admin	NUMBER	(,	-1.0	-1.0	[]	1	
static_image	NUMBER	.jpg|,	-1.0	-1.0	[]	1	
rrstage	OTHER	;mun,	-1.0	-1.0	[mrstage]	12	
pinyin	STRING	-1	-1.0	-1.0	[]	1	
occupation	OTHER	-1	-1.0	-1.0	[]	4	
logowidth	NUMBER	px,	-1.0	-1.0	[]	2	
width	NUMBER	px,	150.0	150.0	[]	14	
country	OTHER	-1	-1.0	-1.0	[Country]	2	
picture	OTHER	-1	-1.0	-1.0	[]	1	
characters	OTHER	-1	-1.0	-1.0	[]	0	
Type	OTHER	-1	-1.0	-1.0	[]	1	
tradchi	OTHER	-1	-1.0	-1.0	[]	1	
hanjastage	OTHER	-1	-1.0	-1.0	[hangulstage]	10	
hanjaph	OTHER	대학,대헌장기념,호분,}}},号,차 한일협,중학교,|}}},공화국,품사,年世界博覽,호 교화소,호 / 노,(nort,호 관리소,년 세계,品詞,호교화소,호,회 세계잼,) 품새,號,	-1.0	-1.0	[hangulph, hanjaja]	6365	
longEW	STRING	d,c,dcc,	-1.0	-1.0	[logo]	80	
name	STRING	-1	-1.0	-1.0	[]	6	
profile	NUMBER	/,	-1.0	-1.0	[]	1	
lang4	OTHER	-1	-1.0	-1.0	[lang2]	2	
Postgraduates	NUMBER	,,	-1.0	-1.0	[]	1	
Undergraduates	NUMBER	,,	-1.0	-1.0	[]	1	
students	NUMBER	(,	-1.0	-1.0	[]	1	
Website	STRING	-1	-1.0	-1.0	[]	1	
website	OTHER	-1	-1.0	-1.0	[]	5	
Established	NUMBER	-1	1934.0	1962.0	[]	2	
English	STRING	-1	-1.0	-1.0	[]	1	
yearsactive	OTHER	-1	-1.0	-1.0	[]	0	
imgwith	OTHER	px,	-1.0	-1.0	[imgalt, imgwidth]	94	

