location	NUMBER	is lo,is at,b (fo,. the,from,prior,u car,rocke,, a [,]] fr,m bei,in la,|dnep,]] ro,up un,b in,with,|tv,|st-,b on,launc,.,/,,,(rock,]] at,. pad,°,f]] w,|,]] is,at lc,	-1.0	-1.0	[caption]	93	
inclination	NUMBER	° –,°-,°–,° -,.,-,	-1.0	-1.0	[]	24	
tlaunches	OTHER	(,	-1.0	-1.0	[]	47	
rockets2	OTHER	tomah,b atl,mace],i]],a sem,m]] [,bomar,]] [[,]],goose,	-1.0	-1.0	[rockets]	22	
paddetails	OTHER	-1	-1.0	-1.0	[]	61	
short	STRING	(sls),, elv,/,	-1.0	-1.0	[]	66	
pad2	NUMBER	f,janua,may,]],,april,b,june,a,decem,/,-,march,-xy,septe,octob,july,febru,b),	-1.0	-1.0	[last, last2]	42	
launches2	NUMBER	-1	1.0	310.0	[launches]	20	
name	STRING	(leso,(vosk,(chus,/ ens,{{now,(radu,/,	-1.0	-1.0	[]	73	
pads	OTHER	a),/,(incl,	-1.0	-1.0	[pad1]	76	
site	OTHER	px,-,	-1.0	-1.0	[imsize]	77	
image	NUMBER	with,u lau,prela,_laun,.jpg,launc,,,-,-open,c-,rocke,at ga,await,at la,p roc,metop,- lun,- gpn,	-1.0	-1.0	[]	41	
unknown	OTHER	-1	-1.0	-1.0	[]	4	
first2	NUMBER	]],,march,-xy,june,decem,july,-,novem,	-1.0	-1.0	[]	8	
operator	OTHER	-1	-1.0	-1.0	[]	69	
status2	STRING	-1	-1.0	-1.0	[status]	22	
imgsize	NUMBER	-1	250.0	250.0	[]	1	

