Wins	OTHER	({{,([[,	-1.0	-1.0	[]	70	
birth_date	NUMBER	|,	-1.0	-1.0	[]	1	
Ethnicity	OTHER	-1	-1.0	-1.0	[]	1	
Finish	NUMBER	st ({,st  (,st ([,th ({,th ([,rd ({,nd ([,th ov,th,rd  (,nd  (,nd gt,th  (,	-1.0	-1.0	[]	71	
Years	NUMBER	,–,hlm|,&ndas,,,-,	-1.0	-1.0	[]	71	
caption	NUMBER	[[,,with,petit,, as,.,	-1.0	-1.0	[Caption]	14	
birth_place	OTHER	-1	-1.0	-1.0	[]	1	
Name	STRING	-1	-1.0	-1.0	[]	49	
nationality	OTHER	}} [[,	-1.0	-1.0	[Nationality]	43	
updated	OTHER	-1	-1.0	-1.0	[]	1	
name	OTHER	wec f,super,d,crop.,.jpg,romai,m mot,-,curit,	-1.0	-1.0	[image, Teams]	37	

