logo	NUMBER	.svg|,.jpg|,.png|,	-1.0	-1.0	[]	3	
requirement	OTHER	-1	-1.0	-1.0	[]	0	
replaces	OTHER	-1	-1.0	-1.0	[]	65	
ballots	NUMBER	-1	1.0	6.0	[]	59	
entryfee	OTHER	(depo,,,	-1.0	-1.0	[]	32	
location	OTHER	other,[[yor,st ba,	-1.0	-1.0	[]	55	
numcands	NUMBER	(+ [[,	1.0	11.0	[]	62	
winner	OTHER	-1	-1.0	-1.0	[]	61	
date	NUMBER	–,−,– dec,– aug,-may,|,- may,,,	-1.0	-1.0	[]	65	
party	STRING	-1	-1.0	-1.0	[]	65	
colour	OTHER	-1	-1.0	-1.0	[]	65	
fontcolour	STRING	-1	-1.0	-1.0	[]	6	
spendcap	OTHER	milli,.,,,	-1.0	-1.0	[]	43	
year	NUMBER	-1	1920.0	2013.0	[]	65	

