logo_width	NUMBER	px,	-1.0	-1.0	[]	4	
logo	STRING	-1	-1.0	-1.0	[]	4	
president	STRING	-1	-1.0	-1.0	[]	4	
phone	OTHER	-1	-1.0	-1.0	[]	0	
fax	OTHER	-1	-1.0	-1.0	[]	0	
email	OTHER	-1	-1.0	-1.0	[]	0	
league_name	STRING	-1	-1.0	-1.0	[]	4	
address	NUMBER	estra,nd fl,west,	-1.0	-1.0	[]	3	
website	OTHER	-1	-1.0	-1.0	[]	5	
native_name	STRING	-1	-1.0	-1.0	[]	4	
logo_caption	OTHER	-1	-1.0	-1.0	[]	0	
members	OTHER	as of,,,	-1.0	-1.0	[]	4	

