length_miles	OTHER	-1	-1.0	-1.0	[]	0	
length_km	NUMBER	-1	0.12	0.4	[]	3	
terminals	NUMBER	-1	2.0	12.0	[]	7	
website	STRING	-1	-1.0	-1.0	[]	11	
transit_type	STRING	-1	-1.0	-1.0	[]	28	
image	OTHER	d,.from,.jpg,	-1.0	-1.0	[]	28	
image_caption	STRING	-1	-1.0	-1.0	[]	21	
piers_served	OTHER	-1	-1.0	-1.0	[]	4	
vessels	NUMBER	-1	1.0	13.0	[]	8	
operator	OTHER	-1	-1.0	-1.0	[]	30	
title	STRING	-1	-1.0	-1.0	[]	30	
ridership	OTHER	-1	-1.0	-1.0	[]	0	
image_size	OTHER	-1	-1.0	-1.0	[]	0	
began_operation	OTHER	|,	-1.0	-1.0	[]	3	
owner	OTHER	-1	-1.0	-1.0	[]	27	
lines	NUMBER	-1	1.0	4.0	[]	6	
ended_operation	OTHER	-1	-1.0	-1.0	[]	0	

