Name	STRING	-1	-1.0	-1.0	[LuxName]	2	
Creation	STRING	-1	-1.0	-1.0	[]	1	
Abolition	NUMBER	janua,	-1.0	-1.0	[]	1	
District	STRING	-1	-1.0	-1.0	[]	1	
Canton	STRING	-1	-1.0	-1.0	[]	1	
Currently	STRING	-1	-1.0	-1.0	[]	1	

