genre	OTHER	-1	-1.0	-1.0	[]	10	
last	OTHER	-1	-1.0	-1.0	[alt, akt]	44	
subcat	STRING	-1	-1.0	-1.0	[altcat]	59	
addpubcat1	STRING	-1	-1.0	-1.0	[addpubcat]	38	
multigenre	STRING	-1	-1.0	-1.0	[]	24	
publisher_en	OTHER	-1	-1.0	-1.0	[publisher]	128	
related	OTHER	-1	-1.0	-1.0	[]	0	
illustrator	OTHER	-1	-1.0	-1.0	[]	22	
Vampire	STRING	-1	-1.0	-1.0	[]	1	
volumes_list	OTHER	-1	-1.0	-1.0	[]	1	
School	STRING	-1	-1.0	-1.0	[]	1	
publisher_other	OTHER	-1	-1.0	-1.0	[]	31	
image	NUMBER	.png,cover,thboy,.gif,.jpg,th ca,night,volum,eng.j,_mahw,	-1.0	-1.0	[]	61	
content	OTHER	-1	-1.0	-1.0	[]	0	
Humor	STRING	-1	-1.0	-1.0	[Horror]	23	
scifi	STRING	-1	-1.0	-1.0	[SciFi]	2	
romanized	STRING	-1	-1.0	-1.0	[]	33	
ko_hangul	OTHER	-케이투-,	-1.0	-1.0	[hangul]	61	
sort	STRING	th bo,th ca,	-1.0	-1.0	[ko, Sport, MArts]	151	
volumes	NUMBER	+ (on,-- hi,	1.0	43.0	[]	73	
magazine	OTHER	-,	-1.0	-1.0	[]	35	
author	OTHER	)'' [,	-1.0	-1.0	[]	76	
title	STRING	-1	-1.0	-1.0	[]	1	
Action	STRING	-1	-1.0	-1.0	[]	1	
Fantasy	STRING	-1	-1.0	-1.0	[]	27	
name	STRING	th bo,	-1.0	-1.0	[Crime]	42	
chapter_list	OTHER	-1	-1.0	-1.0	[]	5	
title_small	OTHER	-1	-1.0	-1.0	[]	0	
Romance	STRING	-1	-1.0	-1.0	[]	28	
Magic	STRING	-1	-1.0	-1.0	[]	3	
imagesize	NUMBER	-1	200.0	230.0	[]	15	
caption	NUMBER	-->,|||ar,cover,(medi,th bo,(yen,||,th ca,as re,of wi,.,(toky,	-1.0	-1.0	[]	63	
Historical	STRING	-1	-1.0	-1.0	[]	3	
demographic	OTHER	-1	-1.0	-1.0	[]	2	
Anthro	STRING	-1	-1.0	-1.0	[]	1	
Western	STRING	-1	-1.0	-1.0	[Mystery]	2	
Adventure	STRING	-1	-1.0	-1.0	[]	23	
Psych	STRING	-1	-1.0	-1.0	[Myth]	3	
first	NUMBER	augus,-ongo,	1994.0	2009.0	[]	63	

