flagbearer	OTHER	-1	-1.0	-1.0	[]	0	
bronze	NUMBER	-1	6.0	33.0	[]	10	
total	NUMBER	-1	15.0	127.0	[]	4	
games	NUMBER	medit,	-1.0	-1.0	[]	10	
rank	NUMBER	-1	1.0	6.0	[]	11	
competitors	OTHER	-1	-1.0	-1.0	[]	0	
silver	NUMBER	-1	5.0	38.0	[]	10	
sports	OTHER	-1	-1.0	-1.0	[]	0	
officials	OTHER	-1	-1.0	-1.0	[]	0	
gold	NUMBER	-1	3.0	56.0	[]	10	

