flagbearer	OTHER	-1	-1.0	-1.0	[]	0	
bronze	NUMBER	-1	56.0	63.0	[]	2	
total	NUMBER	-1	153.0	176.0	[]	2	
games	NUMBER	medit,	-1.0	-1.0	[]	2	
rank	NUMBER	-1	1.0	1.0	[]	2	
competitors	OTHER	-1	-1.0	-1.0	[]	0	
silver	NUMBER	-1	40.0	49.0	[]	2	
sports	OTHER	-1	-1.0	-1.0	[]	0	
officials	OTHER	-1	-1.0	-1.0	[]	0	
gold	NUMBER	-1	57.0	64.0	[]	2	

