flagbearer	OTHER	-1	-1.0	-1.0	[]	0	
bronze	NUMBER	-1	9.0	30.0	[]	2	
total	NUMBER	-1	27.0	74.0	[]	2	
games	NUMBER	medit,	-1.0	-1.0	[]	2	
rank	NUMBER	-1	2.0	5.0	[]	2	
competitors	OTHER	-1	-1.0	-1.0	[]	0	
silver	NUMBER	-1	13.0	21.0	[]	2	
sports	OTHER	-1	-1.0	-1.0	[]	0	
officials	OTHER	-1	-1.0	-1.0	[]	0	
gold	NUMBER	-1	5.0	23.0	[]	2	

