flagbearer	OTHER	-1	-1.0	-1.0	[]	0	
bronze	NUMBER	-1	39.0	46.0	[]	2	
total	NUMBER	-1	53.0	140.0	[]	2	
games	NUMBER	medit,	-1.0	-1.0	[]	2	
rank	NUMBER	-1	2.0	2.0	[]	2	
competitors	OTHER	-1	-1.0	-1.0	[]	0	
silver	NUMBER	-1	51.0	53.0	[]	2	
sports	OTHER	-1	-1.0	-1.0	[]	0	
officials	OTHER	-1	-1.0	-1.0	[]	0	
gold	NUMBER	-1	48.0	56.0	[]	2	

