president	OTHER	-1	-1.0	-1.0	[]	0	
fightsong	STRING	-1	-1.0	-1.0	[]	1	
type	OTHER	-1	-1.0	-1.0	[free, state]	27	
Hospital_Director	STRING	-1	-1.0	-1.0	[]	1	
city	OTHER	-1	-1.0	-1.0	[]	20	
chancellor	STRING	-1	-1.0	-1.0	[]	2	
alumni_website	OTHER	-1	-1.0	-1.0	[]	11	
image_name	STRING	-1	-1.0	-1.0	[]	1	
principal	STRING	-1	-1.0	-1.0	[]	3	
image_size	NUMBER	px,	-1.0	-1.0	[]	1	
dean	STRING	-1	-1.0	-1.0	[]	6	
province	OTHER	-1	-1.0	-1.0	[]	3	
head	OTHER	),	-1.0	-1.0	[]	3	
affiliations	OTHER	-1	-1.0	-1.0	[]	9	
nickname	OTHER	-1	-1.0	-1.0	[]	3	
coor	NUMBER	|,.,	-1.0	-1.0	[]	2	
colors	OTHER	-1	-1.0	-1.0	[]	0	
image	OTHER	)]],px]],	-1.0	-1.0	[]	8	
rector	OTHER	-1	-1.0	-1.0	[director]	3	
alumni	OTHER	,,	-1.0	-1.0	[]	2	
footnotes	OTHER	-1	-1.0	-1.0	[]	0	
colours	STRING	-1	-1.0	-1.0	[]	1	
country	OTHER	-1	-1.0	-1.0	[]	19	
endowment	OTHER	-1	-1.0	-1.0	[]	0	
beds	NUMBER	-1	400.0	1074.0	[]	3	
motto	OTHER	px]],	-1.0	-1.0	[logo]	13	
management	STRING	-1	-1.0	-1.0	[]	4	
faculty	OTHER	-1	-1.0	-1.0	[faculties]	2	
tagline	STRING	-1	-1.0	-1.0	[]	1	
campus	OTHER	|acre,.,	-1.0	-1.0	[]	11	
mascot	OTHER	-1	-1.0	-1.0	[]	0	
department	OTHER	-1	-1.0	-1.0	[]	0	
vp	STRING	-1	-1.0	-1.0	[]	1	
staff	NUMBER	-1	160.0	1200.0	[]	3	
vice_chancellor	STRING	-1	-1.0	-1.0	[]	1	
name	STRING	-1	-1.0	-1.0	[]	20	
ds	OTHER	-1	-1.0	-1.0	[]	0	
head_label	STRING	-1	-1.0	-1.0	[]	3	
free_label	OTHER	-1	-1.0	-1.0	[]	0	
postgrad	OTHER	per y,	-1.0	-1.0	[]	7	
students	OTHER	,,	-1.0	-1.0	[]	4	
university	OTHER	-1	-1.0	-1.0	[]	9	
undergrad	OTHER	per y,	-1.0	-1.0	[]	7	
website	OTHER	-1	-1.0	-1.0	[]	17	
provost	OTHER	-1	-1.0	-1.0	[profess]	0	
established	OTHER	th ma,augus,}},|,,,	-1.0	-1.0	[]	20	
caption	OTHER	-1	-1.0	-1.0	[]	0	
doctoral	NUMBER	-1	3.0	3.0	[]	1	
publictransit	OTHER	-1	-1.0	-1.0	[]	0	
superspeciality	NUMBER	per y,	-1.0	-1.0	[]	1	
address	OTHER	harri,schoe,	-1.0	-1.0	[]	10	
native_name	OTHER	-1	-1.0	-1.0	[latin_name]	0	
directorate	STRING	-1	-1.0	-1.0	[]	2	
telephone	NUMBER	,) (,-,	9.17442424057E11	9.17442424057E11	[]	9	

