casualties3	NUMBER	–,	-1.0	-1.0	[]	1	
casualties2	OTHER	-1	-1.0	-1.0	[casualties1]	0	
result	STRING	-1	-1.0	-1.0	[]	1	
combatant2	NUMBER	).svg,	-1.0	-1.0	[combatant1]	2	
partof	OTHER	-1	-1.0	-1.0	[]	1	
image	NUMBER	–,morda,	-1.0	-1.0	[date]	2	
caption	STRING	-1	-1.0	-1.0	[]	1	
size	NUMBER	-1	200.0	200.0	[]	1	
commander2	NUMBER	}}&nb,	-1.0	-1.0	[commander1]	2	
conflict	NUMBER	irani,	-1.0	-1.0	[]	1	
place	OTHER	-1	-1.0	-1.0	[]	1	

