image	NUMBER	px]],px|ri,	-1.0	-1.0	[]	59	
caption	STRING	-1	-1.0	-1.0	[]	60	
type	STRING	-1	-1.0	-1.0	[name]	121	
abbreviation	STRING	-1	-1.0	-1.0	[]	60	
specialty	STRING	" gun,	-1.0	-1.0	[]	61	
issued_by	OTHER	-1	-1.0	-1.0	[]	61	

