office	OTHER	-1	-1.0	-1.0	[]	1	
religion	OTHER	-1	-1.0	-1.0	[]	1	
nationality	OTHER	-1	-1.0	-1.0	[]	1	
term_end	NUMBER	-1	2012.0	2012.0	[]	1	
name	STRING	-1	-1.0	-1.0	[]	1	
constituency	STRING	-1	-1.0	-1.0	[]	1	
term_start	NUMBER	-1	2007.0	2007.0	[]	1	
party	OTHER	-1	-1.0	-1.0	[]	1	

