time	OTHER	-1	-1.0	-1.0	[]	0	
location	OTHER	-1	-1.0	-1.0	[caption]	6	
first_round	NUMBER	-1	38.0	60.0	[]	6	
image	NUMBER	–,mlb d,&ndas,,,	1993.0	1993.0	[date]	9	
imagesize	NUMBER	-1	150.0	150.0	[]	1	
year	NUMBER	-1	1992.0	2012.0	[]	7	
overall	OTHER	,,	-1.0	-1.0	[]	6	
first	OTHER	-1	-1.0	-1.0	[]	7	
network	OTHER	-1	-1.0	-1.0	[]	5	

