time	NUMBER	super,.png,:,-supe,	-1.0	-1.0	[image]	13	
location	OTHER	-1	-1.0	-1.0	[caption]	12	
imagesize	NUMBER	px,	-1.0	-1.0	[]	1	
fewest	NUMBER	selec,teams,	-1.0	-1.0	[]	9	
most	NUMBER	selec,teams,	-1.0	-1.0	[]	10	
year	NUMBER	-1	2000.0	2014.0	[]	15	
date	OTHER	,,	-1.0	-1.0	[]	14	
overall	NUMBER	-1	38.0	72.0	[]	16	
first	OTHER	-1	-1.0	-1.0	[]	13	
network	OTHER	]],	-1.0	-1.0	[]	11	

