logo_width	NUMBER	px,	-1.0	-1.0	[]	1	
logo	STRING	-1	-1.0	-1.0	[]	2	
users	OTHER	-1	-1.0	-1.0	[]	4	
standard	OTHER	-1	-1.0	-1.0	[]	5	
website	OTHER	www.v,	-1.0	-1.0	[]	6	
nativename	STRING	-1	-1.0	-1.0	[]	2	
type	OTHER	-1	-1.0	-1.0	[]	5	
operator	OTHER	-1	-1.0	-1.0	[]	2	
area	OTHER	-1	-1.0	-1.0	[]	5	
manufacturer	OTHER	-1	-1.0	-1.0	[]	3	
name	STRING	-1	-1.0	-1.0	[]	5	
owner	OTHER	-1	-1.0	-1.0	[opened]	9	
closed	NUMBER	-1	2007.0	2007.0	[]	1	

