Atom_direction	NUMBER	-1	3.0	9.0	[]	7	
Image_File	NUMBER	d-bal,e,	-1.0	-1.0	[]	9	
Examples	NUMBER	,|pf,),- ]],]],]], [,	-1.0	-1.0	[]	6	
mu	OTHER	-1	-1.0	-1.0	[]	8	
Symmetry_group	NUMBER	v ]],h ]],	-1.0	-1.0	[]	3	
Electron_direction	NUMBER	-1	4.0	9.0	[]	7	
Bond_angle	NUMBER	°,,°,	-1.0	-1.0	[]	6	

