result	STRING	-1	-1.0	-1.0	[]	19	
logo	NUMBER	mosco,	-1.0	-1.0	[]	15	
home	STRING	-1	-1.0	-1.0	[]	19	
logowidth	NUMBER	px,	-1.0	-1.0	[]	15	
location	OTHER	-1	-1.0	-1.0	[]	18	
awaycaptain	OTHER	-1	-1.0	-1.0	[]	9	
venue	OTHER	-1	-1.0	-1.0	[]	18	
awayscore	NUMBER	-1	5.0	16.0	[]	18	
homecaptain	OTHER	-1	-1.0	-1.0	[]	9	
away	STRING	-1	-1.0	-1.0	[]	19	
homescore	NUMBER	-1	1.0	16.0	[]	18	
dates	NUMBER	–,	-1.0	-1.0	[]	18	
year	NUMBER	-1	1994.0	2011.0	[]	18	
MVP	OTHER	-1	-1.0	-1.0	[]	9	

