apprehended	OTHER	septe,|,,,	-1.0	-1.0	[]	13	
beginyear	NUMBER	|,,,	1880.0	1997.0	[]	10	
conviction	OTHER	count,	-1.0	-1.0	[]	11	
endyear	OTHER	(susp,|,,,	-1.0	-1.0	[]	10	
children	OTHER	-1	-1.0	-1.0	[]	1	
states	OTHER	-1	-1.0	-1.0	[mater]	10	
sentence	OTHER	life,years,x lif,),	-1.0	-1.0	[]	8	
religion	OTHER	-1	-1.0	-1.0	[]	0	
conviction_status	OTHER	-1	-1.0	-1.0	[]	0	
death_place	OTHER	-1	-1.0	-1.0	[birth_place]	78	
time	NUMBER	–,&ndas,augus,may,decem,:,|,.,/,,,novem,	-1.0	-1.0	[date]	55	
image_name	OTHER	-1	-1.0	-1.0	[]	0	
image_size	NUMBER	px,	250.0	250.0	[]	11	
locations	OTHER	-1	-1.0	-1.0	[]	42	
spouse	OTHER	–,	-1.0	-1.0	[cause]	42	
name	STRING	.jpg,	-1.0	-1.0	[alt, image]	108	
fatalities	OTHER	(toge,alleg,) eli,+,; bul,(incl,inclu,	-1.0	-1.0	[]	44	
weapons	OTHER	pisto,,]],,fs|be,]]),long,[[ste,]],]], [,[[car,[[cal,]] ([,]] [[,[[rif,|.,carbi,|winc,mm|,speci,.,/,mm [[,mm]],gauge,fs]],|remi,x,	-1.0	-1.0	[]	45	
penalty	OTHER	concu,[[lif,years,x [[l,	-1.0	-1.0	[]	22	
targets	OTHER	–,-,	-1.0	-1.0	[parents]	34	
death_date	NUMBER	janua,may,}},octob,decem,|,,,novem,	1829.0	1961.0	[birth_date]	92	
imprisoned	OTHER	-1	-1.0	-1.0	[]	4	
occupation	OTHER	–,	-1.0	-1.0	[]	21	
victims	OTHER	(late,alleg,+,; con,,,murde,-,	-1.0	-1.0	[]	13	
image_caption	OTHER	-1	-1.0	-1.0	[]	0	
caption	STRING	by th,mug s,.,	-1.0	-1.0	[]	21	
siblings	STRING	-1	-1.0	-1.0	[]	1	
country	OTHER	-1	-1.0	-1.0	[]	14	
motve	OTHER	-1	-1.0	-1.0	[motive]	9	
nationality	STRING	-1	-1.0	-1.0	[]	1	
injuries	NUMBER	(toge,alleg,	0.0	211.0	[]	37	
birthname	STRING	-1	-1.0	-1.0	[birth_name]	41	

