genre	OTHER	-1	-1.0	-1.0	[]	3	
workplaces	OTHER	-1	-1.0	-1.0	[]	1	
occupation	OTHER	-1	-1.0	-1.0	[]	6	
birth_date	NUMBER	|,	-1.0	-1.0	[]	4	
website	OTHER	-1	-1.0	-1.0	[]	1	
origin	OTHER	-1	-1.0	-1.0	[]	1	
imagesize	OTHER	-1	-1.0	-1.0	[]	0	
image	OTHER	.jpg,	-1.0	-1.0	[]	2	
caption	DATE	-1	-1.0	-1.0	[]	1	
label	OTHER	-1	-1.0	-1.0	[]	2	
influences	OTHER	-1	-1.0	-1.0	[]	1	
associated_acts	OTHER	-1	-1.0	-1.0	[]	2	
instrument	OTHER	-1	-1.0	-1.0	[]	2	
years_active	NUMBER	-pres,–pres,	-1.0	-1.0	[]	4	
alma_mater	OTHER	-1	-1.0	-1.0	[]	1	
known_for	STRING	-1	-1.0	-1.0	[]	1	
death_place	OTHER	-1	-1.0	-1.0	[death_date, birth_place]	5	
nationality	OTHER	-1	-1.0	-1.0	[]	1	
image_size	NUMBER	-1	200.0	200.0	[]	1	
background	STRING	-1	-1.0	-1.0	[]	6	
name	STRING	-1	-1.0	-1.0	[]	6	
birthname	STRING	-1	-1.0	-1.0	[]	1	

