series	OTHER	-1	-1.0	-1.0	[]	11	
home_quarter4	NUMBER	-1	0.0	23.0	[home_quarter2, home_quarter3, home_quarter1]	44	
visitor_total	NUMBER	-1	0.0	31.0	[]	11	
network	OTHER	-1	-1.0	-1.0	[]	0	
city	SET_OF_STRINGS	-1	-1.0	-1.0	[]	11	
home_OT2	NUMBER	-1	2.0	6.0	[home_OT1]	2	
home_OT4	OTHER	-1	-1.0	-1.0	[home_OT3]	0	
anthem	OTHER	-1	-1.0	-1.0	[]	0	
name	NUMBER	|team,sioux,,,naia,	-1.0	-1.0	[home]	32	
visitor_quarter4	NUMBER	-1	0.0	14.0	[visitor_quarter3]	44	
announcers	OTHER	-1	-1.0	-1.0	[]	0	
home_total	NUMBER	-1	15.0	49.0	[]	11	
attendance	NUMBER	,,	-1.0	-1.0	[]	3	
officials	STRING	-1	-1.0	-1.0	[]	3	
image	OTHER	-1	-1.0	-1.0	[]	0	
next_year	NUMBER	naia,	-1.0	-1.0	[]	12	
visitor	NUMBER	|team,sioux,	-1.0	-1.0	[]	11	
prev_year	NUMBER	naia,	-1.0	-1.0	[]	11	
MOOP	STRING	-1	-1.0	-1.0	[MODP]	22	
stadium	STRING	-1	-1.0	-1.0	[]	11	
visitor_OT2	NUMBER	-1	0.0	6.0	[visitor_OT1]	2	
visitor_OT4	OTHER	-1	-1.0	-1.0	[visitor_OT3]	0	

