total	OTHER	-1	-1.0	-1.0	[motto, title]	1	
international_suppliers	OTHER	-1	-1.0	-1.0	[]	0	
slogan	OTHER	-1	-1.0	-1.0	[]	1	
domestic_suppliers	OTHER	hong,}} [[,th ar,px]],commu,|bcl],	-1.0	-1.0	[]	48	
minister_title	OTHER	-1	-1.0	-1.0	[]	113	
branches	OTHER	px|in,- pre,px|he,px]],px|fi,px|bo,px|co,–,px|un,px|es,px|]],px|ai,.png|,px]][,	-1.0	-1.0	[]	170	
deputy_commander	STRING	-1	-1.0	-1.0	[]	1	
form	OTHER	-1	-1.0	-1.0	[Army]	1	
nickname	STRING	-1	-1.0	-1.0	[]	2	
deputy_minister	STRING	-1	-1.0	-1.0	[]	2	
paramiliary	OTHER	-1	-1.0	-1.0	[]	1	
engagements	OTHER	-1	-1.0	-1.0	[]	0	
minister	OTHER	-,	-1.0	-1.0	[]	128	
image_map	STRING	-1	-1.0	-1.0	[image_coat, image_flag]	3	
manpower_date	NUMBER	to,–,&ndas,est.,est,(volu,years,-,	16.0	2011.0	[manpower_age, manpower_data]	167	
budget	NUMBER	milli,.,,,	-1.0	-1.0	[]	16	
allegiance	OTHER	-1	-1.0	-1.0	[]	3	
current_form	OTHER	janua,(armé,april,(adf,decem,,,and,	-1.0	-1.0	[]	44	
map_caption2	STRING	-1	-1.0	-1.0	[map_caption]	2	
articles	OTHER	-1	-1.0	-1.0	[]	3	
established	NUMBER	,,	-1.0	-1.0	[estabilished]	2	
imports	OTHER	m (us,bln (,milli,.,,,	-1.0	-1.0	[exports]	24	
history	OTHER	invas,mauri,.e,arab–,etat|,-ongo,-,–pres,guine,–,gabon,)]] [,arab-,|,]] [[,	-1.0	-1.0	[histories]	114	
domestic_foreign	OTHER	-1	-1.0	-1.0	[]	0	
reserves	NUMBER	,([[ic,(,,,	0.0	6000.0	[reserve]	89	
available_f	NUMBER	–,&thin,,,-,	-1.0	-1.0	[available]	161	
image_map2	NUMBER	.png,	-1.0	-1.0	[]	1	
state_minister3_title	STRING	-1	-1.0	-1.0	[state_minister2_title]	3	
amount	NUMBER	–,billi,m ([[,milli,.,,,-,	-1.0	-1.0	[]	133	
founded	OTHER	([[ar,may,(as t,april,decem,(as m,,,-,–pres,march,augus,s,octob,th ce,novem,	-1.0	-1.0	[]	112	
state_minister1	STRING	-1	-1.0	-1.0	[State_minister3]	3	
death_place	OTHER	-1	-1.0	-1.0	[birth_place]	2	
paramilitary	NUMBER	,,	-1.0	-1.0	[]	2	
conscription	OTHER	-mont,to,}},or,),,,-,–,month,; all,year,july,years,	-1.0	-1.0	[]	78	
chief	OTHER	–,-star,eu he,}},- ),-,	-1.0	-1.0	[]	156	
death_date	NUMBER	or,bc,	-1.0	-1.0	[birth_date]	2	
commander_title	OTHER	-1	-1.0	-1.0	[]	97	
Feast	NUMBER	may,,	-1.0	-1.0	[]	1	
flying_hours	OTHER	-1	-1.0	-1.0	[]	0	
chief_of_defence_staff	OTHER	-1	-1.0	-1.0	[]	0	
chief_title	OTHER	-1	-1.0	-1.0	[]	76	
period	OTHER	-1	-1.0	-1.0	[]	0	
percent_GDP	NUMBER	% (fy,% of,% (,%,(,),the t,.,,,	0.79	4.1	[]	156	
country	STRING	membe,	-1.0	-1.0	[]	151	
fit_f	NUMBER	–,&thin,,,-,	-1.0	-1.0	[fit]	164	
size	NUMBER	,,	-1.0	-1.0	[]	3	
ranks	OTHER	to,and o,+,(,.,rd,th,-,–,of,nd,(volu,years,st,for v,	-1.0	-1.0	[ranked]	282	
active	NUMBER	–,,+,(,),&thin,,,-,	120.0	35000.0	[]	159	
battles	OTHER	-,	-1.0	-1.0	[]	3	
deputy_minister_title	STRING	-1	-1.0	-1.0	[]	1	
motto_title	OTHER	-1	-1.0	-1.0	[]	1	
deployed	OTHER	(as,{{fla,anti-,natio,+,(,,,instr,	-1.0	-1.0	[]	30	
reaching_f	NUMBER	<!--,&thin,,,	507.0	507.0	[reaching]	140	
wars	NUMBER	invas,-,	-1.0	-1.0	[dates]	3	
caption2	STRING	]] in,–,) pat,[[afg,, on,th an,.,-,	-1.0	-1.0	[caption]	117	
foreign_suppliers	OTHER	}} [[,–pres,	-1.0	-1.0	[]	94	
name	STRING	px]],	-1.0	-1.0	[]	163	
deputy_commander_title	STRING	-1	-1.0	-1.0	[]	1	
population	OTHER	-1	-1.0	-1.0	[]	0	
chief_of_staff	STRING	-1	-1.0	-1.0	[]	1	
disbanded	OTHER	april,,,	-1.0	-1.0	[]	13	
reserve_force	NUMBER	,,	-1.0	-1.0	[]	1	
suppliers	OTHER	-1	-1.0	-1.0	[]	0	
headquarters	OTHER	de se,, [[a,, kam,	-1.0	-1.0	[headquarter]	109	
image2	NUMBER	to,px|se,px]],px|fl,).svg,px|co,d.png,.svg|,offlo,px|un,px|ba,th in,px| s,.jpg|,afgha,px|th,px| ],znak,px|bo,px|em,px|ts,px|tr,).jpg,px|]],px|ro,px|ce,px]][,	-1.0	-1.0	[image]	170	
commander	OTHER	–,- ),),-,.shtm,	-1.0	-1.0	[]	118	
color	OTHER	ccff,ff,	-1.0	-1.0	[]	3	
native_name	OTHER	-1	-1.0	-1.0	[]	95	
service	NUMBER	c,	-1.0	-1.0	[]	1	

