pattern_b2	STRING	-1	-1.0	-1.0	[pattern_b1]	16	
manager	STRING	-1	-1.0	-1.0	[]	1	
pattern_sk2	OTHER	-1	-1.0	-1.0	[pattern_sk1]	0	
loss	OTHER	rd ([,st ([,th (,th ([,commo,	-1.0	-1.0	[best, apps]	26	
coaches	STRING	-1	-1.0	-1.0	[]	1	
recent	NUMBER	th ([,st,rd,th,	11.0	12.0	[]	15	
kitlabel2	STRING	-1	-1.0	-1.0	[kitlabel1]	11	
rank	NUMBER	&ndas,),th,	1.0	25.0	[game, caps]	28	
scorer	OTHER	-1	-1.0	-1.0	[]	0	
skirt1	OTHER	cefa,bbee,cc,	-1.0	-1.0	[]	21	
skirt2	STRING	e,	-1.0	-1.0	[]	9	
nickname	STRING	-1	-1.0	-1.0	[]	9	
association	OTHER	-1	-1.0	-1.0	[]	23	
coach	OTHER	-1	-1.0	-1.0	[]	2	
imagesize	NUMBER	px,	-1.0	-1.0	[]	8	
image	OTHER	.svg,.jpg,	-1.0	-1.0	[]	9	
caption	OTHER	-1	-1.0	-1.0	[captain, captains]	4	
win	OTHER	-1	-1.0	-1.0	[]	0	
confederation	OTHER	-1	-1.0	-1.0	[]	23	
body1	OTHER	cefa,bbee,cc,	-1.0	-1.0	[]	21	
filetype_b2	STRING	-1	-1.0	-1.0	[filetype_b1]	3	
prev	NUMBER	-1	1998.0	2007.0	[]	6	
country	STRING	-1	-1.0	-1.0	[]	23	
body2	STRING	e,	-1.0	-1.0	[]	9	
titles	NUMBER	-1	10.0	10.0	[]	1	
debut	NUMBER	-1	1998.0	2010.0	[]	2	

