logo	STRING	-1	-1.0	-1.0	[code]	37	
president	OTHER	-1	-1.0	-1.0	[]	15	
title	STRING	-1	-1.0	-1.0	[]	23	
recognized	NUMBER	-1	1989.0	2006.0	[]	6	
created	OTHER	may,febru,,,	-1.0	-1.0	[]	12	
association	STRING	-1	-1.0	-1.0	[]	22	
website	OTHER	paral,	-1.0	-1.0	[]	23	
headquarters	OTHER	-1	-1.0	-1.0	[]	10	
general	STRING	-1	-1.0	-1.0	[]	10	
size	NUMBER	px,	-1.0	-1.0	[]	13	
country	STRING	-1	-1.0	-1.0	[]	23	

