ballots	NUMBER	-1	1.0	53.0	[]	21	
vicepresidenttotals	OTHER	% (ac,% ([[,(,,,	-1.0	-1.0	[]	20	
totaldelegates	OTHER	,,	-1.0	-1.0	[]	23	
presidential_nominee_state	OTHER	-1	-1.0	-1.0	[]	66	
votesneeded	OTHER	,,	-1.0	-1.0	[]	22	
vice_presidential_nominee	OTHER	-1	-1.0	-1.0	[]	95	
presidenttotals	NUMBER	[[wil,(,.,,,	-1.0	-1.0	[]	25	
election_year	NUMBER	-1	1836.0	1992.0	[]	5	
city2	OTHER	,,	-1.0	-1.0	[city]	96	
party	STRING	-1	-1.0	-1.0	[]	95	
image_size	OTHER	px,	-1.0	-1.0	[]	18	
vice_presidential_nominee_state	OTHER	-1	-1.0	-1.0	[]	66	
previous_year	NUMBER	-1	1832.0	2008.0	[]	90	
date2	NUMBER	&ndas,– sep,-july,– jun,–may,– jul,- aug,-june,– may,-augu,- may,-dece,,,–july,- jul,-,- jun,–,- sep,-sept,– aug,–june,-may,	-1.0	-1.0	[date]	94	
logo_size	NUMBER	px,	-1.0	-1.0	[]	2	
year	NUMBER	-1	1832.0	2012.0	[]	95	
presidential_nominee	OTHER	-1	-1.0	-1.0	[]	95	
candidates	OTHER	-1	-1.0	-1.0	[]	1	
logo	NUMBER	democ,.svg,repub,liber,	-1.0	-1.0	[]	5	
last_year	STRING	-1	-1.0	-1.0	[first_year]	4	
keynote_speaker	OTHER	-1	-1.0	-1.0	[]	14	
othercandidates	OTHER	-1	-1.0	-1.0	[]	19	
venue2	STRING	-1	-1.0	-1.0	[]	1	
caption	STRING	-1	-1.0	-1.0	[]	90	
next_year	NUMBER	-1	1835.0	2016.0	[]	92	
venue	OTHER	–,&ndas,)|mad,	-1.0	-1.0	[]	84	
speakers	OTHER	-1	-1.0	-1.0	[]	7	
only_year	STRING	-1	-1.0	-1.0	[]	1	
chair	OTHER	-1	-1.0	-1.0	[]	14	
notable_speakers	OTHER	-1	-1.0	-1.0	[]	2	
image_size2	NUMBER	px,	71.0	175.0	[image_size1, image_siz1e]	87	
image2	OTHER	.png,-rest,.jpg,_albe,_adla,_levi,_harr,, nh.,dick,.gif,_,_henr,-rich,-crop,g,,_,_offi,_char,_geor,-,rally,_h_hu,portr,_schu,_lbj,_crop,	-1.0	-1.0	[image]	175	

