pattern_ra3	STRING	away,a,h,	-1.0	-1.0	[pattern_ra2]	143	
socks3	STRING	dd,ff,c,a,cd,	-1.0	-1.0	[socks2, socks1, shorts3]	166	
type	STRING	-1	-1.0	-1.0	[Name]	101	
pattern_so2	NUMBER	away,_stri,a,	-1.0	-1.0	[pattern_b3]	4	
pattern_so1	OTHER	away,_stri,a,_away,third,h,	-1.0	-1.0	[pattern_la1, pattern_sh1, pattern_sh2]	95	
shorts2	OTHER	f,dd,cb,cefa,b,c,ff,a,ab,aaff,bc,cd,	-1.0	-1.0	[shorts1]	184	
updated	OTHER	may,march,janua,octob,decem,july,febru,	-1.0	-1.0	[]	39	
Director	OTHER	-1	-1.0	-1.0	[]	1	
Badge	STRING	-1	-1.0	-1.0	[]	70	
Sponsor	OTHER	-1	-1.0	-1.0	[]	0	
Confederation	OTHER	-1	-1.0	-1.0	[]	2	
leftarm3	STRING	-1	-1.0	-1.0	[]	1	
leftarm2	OTHER	f,dd,e,cefa,b,c,ff,a,aaff,bc,cd,	-1.0	-1.0	[leftarm1]	184	
Ranking	NUMBER	-1	5.0	64.0	[]	22	
country	STRING	-1	-1.0	-1.0	[]	51	
apps	NUMBER	-1	1.0	20.0	[]	93	
rightarm2	OTHER	f,dd,e,cefa,b,c,ff,a,aaff,bc,cd,	-1.0	-1.0	[rightarm1]	184	
rightarm3	STRING	-1	-1.0	-1.0	[]	1	
Association	OTHER	-1	-1.0	-1.0	[]	91	
name	OTHER	'',),	-1.0	-1.0	[caps]	127	
best	NUMBER	th ,,th,,ameri,nd in,nd,,rd,th [[,th, (,,,th,asian,rd in,s tou,rd, [,rd,,st,,times,nd,th in,rd pl,rd''',nd, [,th, [,st, [,	-1.0	-1.0	[]	98	
Badge_size	NUMBER	px,%,	-1.0	-1.0	[]	30	
Captain	OTHER	-1	-1.0	-1.0	[]	5	
Nicknames	OTHER	-1	-1.0	-1.0	[Nickname]	30	
Points	NUMBER	-1	2.0	171.0	[]	17	
body2	OTHER	f,dd,e,cefa,b,c,ff,a,aaff,bc,cd,	-1.0	-1.0	[body1]	184	
goals	OTHER	'',– ),),,,	-1.0	-1.0	[coach]	111	
body3	STRING	-1	-1.0	-1.0	[]	1	
first	OTHER	s tou,_asia,ameri,ocean,europ,asian,	-1.0	-1.0	[]	93	

