honors	OTHER	c,	-1.0	-1.0	[color]	2	
college	OTHER	–,&ndas,ers m,−,—,) [[n,-,	-1.0	-1.0	[]	2393	
University	OTHER	-1	-1.0	-1.0	[]	1	
spouse	STRING	-1	-1.0	-1.0	[]	1	
event	OTHER	-1	-1.0	-1.0	[]	0	
salary	OTHER	,,	-1.0	-1.0	[]	3	
stat5value	NUMBER	(,{{ref,,,	0.0	2658.0	[stat1value, stat2value, stat3value]	3393	
debut_year	NUMBER	-1	1976.0	1976.0	[]	1	
nickname	OTHER	aladi,	-1.0	-1.0	[]	45	
image_caption	STRING	-1	-1.0	-1.0	[]	1	
years9	OTHER	,&ndas,up jo,|gree,–{{nb,,,-,–pres,–,ethni,-pres,|end},liga|,|star,ers,|cypr,|full,	-1.0	-1.0	[team9, team19, years11, years10, years19, years17, years16, years15, years14, years13]	962	
years8	NUMBER	&ndas,}},{{,–[[,wnba,–,ethni,) [[r,|baa=,-pres,([[,|star,–?,.e,),–{{nb,,,ers (,)  [[,-,–pres,, [[,ers]],;,|end},|full,	1947.0	2012.0	[years5, years7, years6]	9268	
nba_historical_profile	STRING	-1	-1.0	-1.0	[]	3	
HOF_coach	STRING	-1	-1.0	-1.0	[]	9	
medaltemplates	OTHER	-1	-1.0	-1.0	[medal_templates]	307	
league_link	STRING	-1	-1.0	-1.0	[]	3	
draftyear	NUMBER	|,-,	1941.0	2012.0	[debutyear, draft_year]	2264	
College	STRING	-1	-1.0	-1.0	[]	1	
higschool	STRING	-1	-1.0	-1.0	[]	1	
height_in	NUMBER	',+,ft,.,|in=,	0.0	11.0	[height, height_ft]	5070	
weight_lbs	NUMBER	kg,[[ree,	35.0	325.0	[weight_kg, weight_lb, weight_]	2503	
death_place	OTHER	px]],	-1.0	-1.0	[birth_place]	2494	
historical_profile	STRING	-1	-1.0	-1.0	[]	5	
conference	OTHER	-1	-1.0	-1.0	[]	4	
death_date	NUMBER	(aged,}},|,/,,,(decl,(age,	1946.0	1982.0	[birth_date]	2907	
width	OTHER	kg,px,nba p,	-1.0	-1.0	[]	153	
tournaments	OTHER	-1	-1.0	-1.0	[]	0	
coach_end	NUMBER	-1	2005.0	2012.0	[]	3	
size	NUMBER	px,],	-1.0	-1.0	[age]	3	
country	NUMBER	–,	-1.0	-1.0	[]	1	
death_cause	OTHER	-1	-1.0	-1.0	[]	1	
awards	OTHER	[[mac,award,: ''[,footh,: all,ncaa,nomin,-time,[[big,nba f,) cba,[[lig,),x [[l,,,-,a pen,× [[b,x cba,big,nba a,all-d,× [[n,) nab,× [[l,) lnb,texas,)}},confe,d-lea,big e,–,ohio,times,cba [,) [[l,c-usa,[[atl,), pb,[[nai,[[phi,: ind,pac-,), ac,''' c,) big,[[con,wac p,|end},mcdon,new j,world,troca,	-1.0	-1.0	[]	242	
nicknames	SET_OF_STRINGS	-1	-1.0	-1.0	[]	1	
weight	NUMBER	|lb|k,[[pou,lb,lbs,	1.98	160.0	[height_m]	18	
HOF_player	STRING	-1	-1.0	-1.0	[]	104	
weight_footnote	NUMBER	|a|a},	-1.0	-1.0	[height_footnote]	2	
carrer_end	OTHER	-1	-1.0	-1.0	[]	0	
FIBA_HOF_player	OTHER	-1	-1.0	-1.0	[]	6	
former_teams	NUMBER	&ndas,) [[c,dudel,) [[b,[[dex,(pre-,–[[,),/,)  [[,-,–,ers]],) hut,) [[t,) [[p,;,|star,)   [,) [[i,) [[g,	-1.0	-1.0	[]	180	
profile	OTHER	-1	-1.0	-1.0	[]	245	
tournament_list	NUMBER	natio,x acc,	-1.0	-1.0	[]	2	
imagesize	NUMBER	px,	-1.0	-1.0	[]	3	
photo	OTHER	-1	-1.0	-1.0	[]	0	
highlights	NUMBER	x aba,[[hag,× all,aba a,[[jor,x [[c,x [[a,ncaa,aba p,x [[e,champ,}}),|star,-time,x kev,x [[r,nba f,honor,]] ch,rd al,[[min,× kml,),× cha,x [[l,third,×   h,nba p,,,-,men's,all-r,× [[a,summe,× [[b,[[lis,fiba,|}}),× [[c,years,× [[e,all-o,nba a,× [[h,× [[o,× [[n,× est,× [[m,× [[l,× [[k,× fir,× [[w,confe,[[wes,×[[ko,× [[s,× [[r,–,baske,) [[n,|ocea,[[atl,in ba,retir,&time,[[phi,baa f,conse,point,_nba_,great,× con,|end},× pba,[[pac,|,× aba,[[mou,x,	-1.0	-1.0	[]	1368	
alttext	STRING	-1	-1.0	-1.0	[]	1	
team8	OTHER	|zara,–,baske,ethni,stock,]] ([,-pres,liga|,st]]),|cypr,'s]],nd]]),lever,calen,bc|ae,bc|la,up jo,]] (i,|gree,natio,|natw,|aba],),ers (,ers|r,–pres,-,ers]],canar,|malt,ers,	-1.0	-1.0	[team7]	9424	
draft	OTHER	th ro,nba d,, pic,st ro,rd ov,th pi,rd ro,th ov,st ov,nd ov,nd ro,th,	-1.0	-1.0	[]	157	
stat4value	OTHER	(,,,	-1.0	-1.0	[]	7	
school	OTHER	-1	-1.0	-1.0	[]	7	
coach_start	NUMBER	-1	1962.0	2012.0	[]	10	
image_size	OTHER	px,	-1.0	-1.0	[]	27	
fullname	STRING	-1	-1.0	-1.0	[]	1	
numer	OTHER	,,	-1.0	-1.0	[number]	2083	
stats_league	STRING	-1	-1.0	-1.0	[]	656	
start	NUMBER	-1	2009.0	2012.0	[]	17	
carrer_start	NUMBER	–,(inte,in ba,}},|star,/,-,	1937.0	2012.0	[career_start]	2237	
position	OTHER	and,	-1.0	-1.0	[]	2548	
highschool	OTHER	_buff,),	-1.0	-1.0	[high_school]	2056	
career_end	NUMBER	–,|end},(,?,/,-,	1946.0	2012.0	[]	1678	
finalyear	NUMBER	-,	1947.0	2011.0	[final_year]	108	
CBBASKHOF_year	NUMBER	-1	2006.0	2012.0	[]	9	
championship_list	NUMBER	–,x [[a,	-1.0	-1.0	[]	3	
caption	OTHER	to,playi,&ndas,visit,''mic,race,playo,game,,as co,[[tri,ncaa,ers i,, sho,autog,nba d,nba f,at a,) dep,'',as he,befor,),.,nba p,as a,, [[p,,,-,ucla,prese,cm,summe,fiba,monti,febru,media,wolve,as an,–,[[tim,, pla,[[nik,, wea,''cor,big t,unite,with,janua,bob m,at th,game,pt sh,of th,s,ers,	-1.0	-1.0	[]	423	
nationality_2	OTHER	-1	-1.0	-1.0	[nationality]	2403	
birth_name	STRING	-1	-1.0	-1.0	[]	1	
jersey	NUMBER	,,	-1.0	-1.0	[]	1	
fontcolor	OTHER	-1	-1.0	-1.0	[]	2	
Birthday	NUMBER	]],,	-1.0	-1.0	[]	1	
team_link	STRING	ers]],	-1.0	-1.0	[]	21	
occupation	OTHER	-1	-1.0	-1.0	[]	1	
drafttteam	OTHER	–,ers]],ers,-,	-1.0	-1.0	[draftteam]	2004	
letter	STRING	-1	-1.0	-1.0	[]	1693	
status	OTHER	-1	-1.0	-1.0	[]	0	
class	STRING	-1	-1.0	-1.0	[]	2	
team	STRING	d,ers,	-1.0	-1.0	[nba]	4669	
league	OTHER	,-tc-t,.png,crop.,a.jpg,.jpg,jason,royce,]],ers v,–,of,ethni,ncaa,celti,.jpeg,|cypr,_lipo,ed da,nit c,- feb,_kyle,_shan,domin,russi,natio,nba l,(,.,,,shank,h,-,eddie,prese,-)|ab,).jpg,-n-qf,chalm,david,cropp,-)|am,las v,	-1.0	-1.0	[image]	1220	
draftround	NUMBER	nba d,st ov,]],th,	1.0	1948.0	[draftrank, draft_round]	2007	
HOF	OTHER	-1	-1.0	-1.0	[HOE]	17	
stat5label	OTHER	-pt f,p%]],-poin,–poin,	-1.0	-1.0	[stat4label]	3415	
championships	STRING	-1	-1.0	-1.0	[]	3	
foot_size	NUMBER	}},	-1.0	-1.0	[]	1	
major	STRING	-1	-1.0	-1.0	[]	1	
nba_profile	STRING	-1	-1.0	-1.0	[]	69	
alias	OTHER	-1	-1.0	-1.0	[]	2	
website	OTHER	-1	-1.0	-1.0	[]	1	
coach	NUMBER	–,&ndas,{{,–[[,[[nel,),-,	-1.0	-1.0	[]	40	
draft_pick	NUMBER	st]],th,	1.0	204.0	[]	1876	
sport	OTHER	-1	-1.0	-1.0	[]	4	
career_highlights	OTHER	) [[m,nba a,	-1.0	-1.0	[]	3	
current_teams	OTHER	-1	-1.0	-1.0	[]	1	
motherteam	OTHER	-1	-1.0	-1.0	[]	1	

