ladder	NUMBER	st'',rd'',nd (a,th''',th'',th,	-1.0	-1.0	[]	15	
finals	STRING	st'',	-1.0	-1.0	[]	18	
arena	OTHER	,,	-1.0	-1.0	[]	20	
coach	OTHER	-1	-1.0	-1.0	[]	20	
prevseason	NUMBER	–,-,	-1.0	-1.0	[]	20	
nextseason	NUMBER	–,singa,-,	-1.0	-1.0	[]	20	
losses	NUMBER	-1	2.0	20.0	[]	15	
team	OTHER	ers]],	-1.0	-1.0	[]	20	
wins	NUMBER	-1	1.0	22.0	[]	15	
captain	OTHER	-1	-1.0	-1.0	[]	14	

