pattern_ra2	OTHER	-1	-1.0	-1.0	[pattern_b1, pattern_la2, pattern_la1, pattern_ra1]	0	
pattern_b2	STRING	-1	-1.0	-1.0	[]	5	
fontcolor	STRING	-1	-1.0	-1.0	[]	5	
socks2	NUMBER	-1	500000.0	500000.0	[shorts2]	10	
StadiumArena	OTHER	-1	-1.0	-1.0	[]	5	
socks1	STRING	-1	-1.0	-1.0	[shorts1]	10	
Champion	NUMBER	tourn,champ,	-1.0	-1.0	[]	2	
ImageSize	NUMBER	px,	-1.0	-1.0	[]	5	
BowlTourney	STRING	-1	-1.0	-1.0	[]	4	
Image	STRING	-1	-1.0	-1.0	[]	5	
year	NUMBER	th,	2008.0	500000.0	[Year, hex1]	20	
Conference	NUMBER	confe,	-1.0	-1.0	[]	5	
HeadCoach	OTHER	-1	-1.0	-1.0	[]	5	
FinalRank	NUMBER	( [[n,	-1.0	-1.0	[]	4	
color3	OTHER	-1	-1.0	-1.0	[]	0	
hex3	OTHER	-1	-1.0	-1.0	[]	0	
hex2	STRING	-1	-1.0	-1.0	[Team]	10	
leftarm2	NUMBER	-1	500000.0	500000.0	[]	5	
leftarm1	STRING	-1	-1.0	-1.0	[]	5	
ConfRecord	NUMBER	–,-,	-1.0	-1.0	[]	5	
Uniform	OTHER	-1	-1.0	-1.0	[]	0	
ShortConference	OTHER	-1	-1.0	-1.0	[]	0	
body1	STRING	-1	-1.0	-1.0	[Mode]	10	
body2	NUMBER	-1	500000.0	500000.0	[]	5	
Record	NUMBER	–,-,	-1.0	-1.0	[]	5	
BowlTourneyResult	OTHER	nd ro,	-1.0	-1.0	[]	4	
color2	STRING	-1	-1.0	-1.0	[color1]	10	
rightarm2	NUMBER	-1	500000.0	500000.0	[]	5	
rightarm1	STRING	-1	-1.0	-1.0	[]	5	

