Caption	NUMBER	ncaa,	-1.0	-1.0	[]	1	
Stadium	OTHER	-1	-1.0	-1.0	[]	3	
TitleCount	NUMBER	nd,st,rd,	-1.0	-1.0	[]	3	
GameCount	NUMBER	th,	-1.0	-1.0	[]	3	
Location	OTHER	-1	-1.0	-1.0	[]	3	
RunnerUp	OTHER	-1	-1.0	-1.0	[]	3	
Champions	OTHER	-1	-1.0	-1.0	[]	3	
Attendance	OTHER	,,	-1.0	-1.0	[]	4	
Year	NUMBER	-1	24.0	2009.0	[Teams]	6	
ImageSize	NUMBER	px,	-1.0	-1.0	[]	1	
Semifinal2	OTHER	-1	-1.0	-1.0	[Semifinal1]	6	
Image	NUMBER	div,	-1.0	-1.0	[]	1	
Division	OTHER	-1	-1.0	-1.0	[]	3	

