Caption	OTHER	wcha,ecac,cha m,ccha,	-1.0	-1.0	[]	18	
Dates	NUMBER	–,	-1.0	-1.0	[]	39	
TitleCount	NUMBER	nd,st,rd,th,	1.0	15.0	[]	37	
Image_Size	OTHER	-1	-1.0	-1.0	[]	0	
nextseason_year	NUMBER	-1	1973.0	2013.0	[]	39	
Champions	OTHER	–,	-1.0	-1.0	[]	37	
Attendance	OTHER	-1	-1.0	-1.0	[]	0	
nextseason_link	NUMBER	atlan,wcha,ecac,cha m,hocke,ccha,	-1.0	-1.0	[]	40	
CoachCount	NUMBER	nd,st,rd,th,	1.0	3.0	[]	35	
Year	NUMBER	-1	3.0	2012.0	[Teams]	80	
ImageSize	NUMBER	px,	-1.0	-1.0	[]	19	
Coach	OTHER	)|jef,	-1.0	-1.0	[]	35	
Image	OTHER	cha t,.png,ecac,ccha,	-1.0	-1.0	[]	14	
prevseason_link	NUMBER	atlan,wcha,ecac,cha m,hocke,ccha,	-1.0	-1.0	[]	38	
Gender	STRING	-1	-1.0	-1.0	[]	39	
MVPTeam	STRING	-1	-1.0	-1.0	[]	30	
FinalCity	OTHER	-1	-1.0	-1.0	[]	40	
Conference	STRING	-1	-1.0	-1.0	[]	40	
FinalArena	OTHER	kggo,	-1.0	-1.0	[]	40	
MVP	OTHER	-1	-1.0	-1.0	[]	30	
prevseason_year	NUMBER	-1	1972.0	2011.0	[]	38	

