2Rank	OTHER	-1	-1.0	-1.0	[1Rank]	2	
prevseason	OTHER	-1	-1.0	-1.0	[]	0	
Champion	OTHER	-1	-1.0	-1.0	[]	0	
NeutralRecord	NUMBER	&ndas,	-1.0	-1.0	[]	1	
ImageSize	OTHER	-1	-1.0	-1.0	[]	0	
Image	STRING	-1	-1.0	-1.0	[]	1	
RoadRecord	NUMBER	&ndas,	-1.0	-1.0	[HomeRecord]	2	
ConferenceRank	NUMBER	th,	-1.0	-1.0	[]	1	
AsstCoaches	OTHER	-1	-1.0	-1.0	[]	0	
Conference	STRING	-1	-1.0	-1.0	[]	1	
labelstyle	OTHER	-1	-1.0	-1.0	[]	1	
HeadCoach	OTHER	-1	-1.0	-1.0	[]	1	
headerstyle	OTHER	-1	-1.0	-1.0	[]	0	
NCAATourneyResult	NUMBER	&ndas,	-1.0	-1.0	[]	1	
Season	NUMBER	–,	-1.0	-1.0	[]	1	
Captain	OTHER	-1	-1.0	-1.0	[AltCaptain]	2	
Team	STRING	-1	-1.0	-1.0	[Sex]	4	
ShortConference	STRING	-1	-1.0	-1.0	[]	1	
NCAATourney	NUMBER	ncaa,	-1.0	-1.0	[]	1	
Record	NUMBER	&ndas,	-1.0	-1.0	[]	1	
Arena	OTHER	-1	-1.0	-1.0	[]	1	
nextseason	OTHER	-1	-1.0	-1.0	[]	0	

