region	OTHER	-1	-1.0	-1.0	[]	76	
image_skyline	OTHER	.jpg,	-1.0	-1.0	[]	12	
pop_year	NUMBER	-1	2001.0	2011.0	[]	75	
density	STRING	-1	-1.0	-1.0	[]	75	
website	OTHER	-1	-1.0	-1.0	[]	71	
map_caption	STRING	-1	-1.0	-1.0	[]	1	
established	NUMBER	-1	1962.0	1962.0	[]	1	
image_caption	OTHER	-1	-1.0	-1.0	[]	12	
caption	STRING	-1	-1.0	-1.0	[]	56	
seat_type	STRING	-1	-1.0	-1.0	[]	69	
Municipality	NUMBER	-1	0.0	-1.0	[]	1	
languages	OTHER	-1	-1.0	-1.0	[]	26	
area	NUMBER	-1	63.3	7889.0	[]	75	
VDCs	NUMBER	-1	79.0	79.0	[]	1	
seat	OTHER	-1	-1.0	-1.0	[]	69	
native_name	OTHER	-1	-1.0	-1.0	[]	8	
map	STRING	-1	-1.0	-1.0	[VDC]	77	
Headquarter	STRING	-1	-1.0	-1.0	[]	1	
district	STRING	-1	-1.0	-1.0	[]	75	
zone	OTHER	-1	-1.0	-1.0	[]	76	
population	NUMBER	,,	9587.0	1081845.0	[]	75	

