Republican	NUMBER	-1	8.0	33.9	[]	11	
assembly	OTHER	-1	-1.0	-1.0	[]	18	
Independent	NUMBER	-1	47.6	62.7	[]	11	
white	NUMBER	,,	46.5	94.7	[]	18	
party	STRING	-1	-1.0	-1.0	[]	18	
race	NUMBER	th le,st le,nd le,rd le,,,	1.2	30.1	[image, black]	67	
hispanic	NUMBER	-1	3.2	54.2	[]	18	
senate	OTHER	-1	-1.0	-1.0	[]	18	
asian	NUMBER	-1	1.9	20.4	[]	18	
islander	NUMBER	-1	0.0	0.1	[]	18	
residence	OTHER	-1	-1.0	-1.0	[]	0	
american	NUMBER	-1	0.1	0.9	[]	18	
registered	OTHER	,,	-1.0	-1.0	[]	18	
year	OTHER	unite,	-1.0	-1.0	[]	18	
district	NUMBER	-1	4.0	39.0	[]	18	
Democratic	NUMBER	-1	9.9	40.5	[]	11	
population	NUMBER	,,	-1.0	-1.0	[]	18	

