president	STRING	-1	-1.0	-1.0	[]	7	
generalmanager	STRING	-1	-1.0	-1.0	[]	3	
competitors	OTHER	-1	-1.0	-1.0	[]	1	
college	STRING	-1	-1.0	-1.0	[]	1	
sportschief	STRING	-1	-1.0	-1.0	[artschief]	2	
production	STRING	-1	-1.0	-1.0	[]	2	
politics	STRING	-1	-1.0	-1.0	[Political]	7	
free	STRING	-1	-1.0	-1.0	[Fate]	2	
assistant	STRING	-1	-1.0	-1.0	[]	1	
designers	STRING	-1	-1.0	-1.0	[designer, design]	4	
Frequency	NUMBER	.,	-1.0	-1.0	[]	1	
nickname	OTHER	-1	-1.0	-1.0	[]	2	
image	NUMBER	.jpg],,_oct_,-aug,as sa,th-lo,malay,px|am,gaspo,]],px|sp,.svg|,cover,px|st,page,heure,abc f,px|ss,, cov,_fron,; dem,liber,-edit,oldhe,.jpg|,-bubo,b.jpg,px|te,-side,yeara,px|th,.,,,-,).jpe,).jpg,feb,px|al,w.jpg,years,px||t,px|ab,febru,novem,lagaz,publi,wiene,st da,px|cu,.gif|,px|lo,px|co,px|le,maj,px|'',dec,px|la,-sept,px|di,guard,px|ye,lunio,.jpeg,_,ilgio,px|yo,ilgaz,px|da,ilsol,janua,may,apr,thmay,a,n,_marc,jun,front,.gif],bosto,px|ri,px|bo,l'uni,px|e-,masth,of te,p,octob,px|ce,x,penns,, tab,a.jpg,px|sü,sept.,corse,duke.,th,march,px.pn,in ph,px|we,jan,july,lipie,previ,st an,minut,_cove,ilfir,px|el,_janu,thoct,px|pa,oct,.tif|,px|]],quebe,_jan_,svibn,_titl,px|va,nd se,px|ma,june,px|he,vestm,fp.jp,sata,issue,px]],lr.jp,decem,-fron,rd,px|ho,septe,page.,-jun-,messa,a -,hydre,.png],sata.,,_,april,px|ne,metro,px|"f,mmsco,px|gr,xx.gi,elmun,copy.,-mar-,px|vo,augus,-sq-s,-jan-,lorie,px|fr,sep,edoua,.png|,px]][,la na,	-1.0	-1.0	[Name]	1688	
number	NUMBER	-,	-1.0	-1.0	[]	1	
papers	OTHER	publi,mm me,}},nd ce,(c)(,&nbsp,&sk=p,house,]],) lté,–,-) [[,)'',?ref=,crb,ore]],],-pres,prent,%) pu,.com,commu,), da,%, [[,%) ca,- plm,%),to pr,),hour,.,);  c,%), s,,,-,%), [,%) [[,. mai,%), f,-janu,found,	-1.0	-1.0	[owners, page, epaper, paper]	3420	
image_caption	STRING	-1	-1.0	-1.0	[]	2	
Country	NUMBER	px|bo,	-1.0	-1.0	[]	1	
Facebook	STRING	-1	-1.0	-1.0	[]	1	
box_width	NUMBER	px,	-1.0	-1.0	[]	1	
monikaa	OTHER	-1	-1.0	-1.0	[]	1	
ojooi	OTHER	-1	-1.0	-1.0	[]	1	
intrigueeditor	STRING	-1	-1.0	-1.0	[]	1	
sister_publications	OTHER	-1	-1.0	-1.0	[]	10	
advertising	OTHER	-1	-1.0	-1.0	[]	2	
accessdate	OTHER	-1	-1.0	-1.0	[]	0	
lation	NUMBER	,,	-1.0	-1.0	[]	1	
alexa	NUMBER	({{as,	-1.0	-1.0	[]	1	
vp	STRING	-1	-1.0	-1.0	[App, url, Reps, MD]	5	
sportseditor	STRING	-1	-1.0	-1.0	[artseditor]	82	
venueschief	STRING	-1	-1.0	-1.0	[]	1	
predecessor	NUMBER	)'',,	-1.0	-1.0	[]	1	
Audience	STRING	-1	-1.0	-1.0	[]	1	
relaunched	OTHER	?,,,	-1.0	-1.0	[]	7	
Image	STRING	-1	-1.0	-1.0	[]	2	
foundation	OTHER	,''ren,&ndas,(appr,(orig,''cha,(merg,(thro,]],as né,by ma,; pre,, [[d,(syri,&,. it,or,under,(,.,(clai,/,as a,,,(with,-,||}},: ''t,scran,(in,(dail,(jeru,years,febru,?,(east,mars,,novem,; cur,(as t,(as o,in ca,}},by [[,(revi,(as m,(as ",st,,in [[,-pres,({{ag,(''st,}}, a,''jou,(as w,) / c,th de,(from,, tha,may,janua,by sh,[[wor,(''se,(as ',(heri,(''[[,|mont,(as e,(as d,the d,(as b,'s,som b,s,(disc,octob,|,by t.,(in [,, alt,by,''gaz,th,, fro,''fre,(publ,march,}} (a,|febr,july,jan,th au,th,,th ja,and,]] ({,(rees,, [[,|df=y,oct,|may|,''the,, as,indep,; cea,as '',a.d.,nd of,}}&nb,, (ch,june,as th,as pä,decem,|}},, by,s, as,rd,,as la,septe,by me,sept,; kre,. apr,(''no,by u,, wit,april,|||df,(''wa,(nels,{{cit,stude,augus,(succ,, new,	-1.0	-1.0	[Foundation]	3916	
universitynewseditor	STRING	-1	-1.0	-1.0	[]	1	
Content	STRING	-1	-1.0	-1.0	[]	1	
designeditor	STRING	-1	-1.0	-1.0	[]	1	
Subject	STRING	-1	-1.0	-1.0	[]	1	
news	STRING	px|jo,,espor,px|sa,px|sm,|reas,px|so,.svg|,px|st,heure,;naya,px|we,logo.,days',.com,px|wi,.jpg|,px|ea,px|pe,minut,px|pi,'',px|ph,px|el,px|th,),.,px|il,,,-,dney,px|]],px|du,px|al,px|po,px|ty,as '',nënto,sata,px]],;euro,.gif|,ore.p,px|lo,px|za,px|co,px|le,px|'',px|la,th st,px]]<,px|yo,wordm,newsp,-chas,min,] mag,px|ku,d,px|ne,px|kn,px|bo,px|ri,h,px|ka,px|fr,px|ci,px|ce,th ho,	-1.0	-1.0	[name]	4566	
assoceditors	STRING	]],-,	-1.0	-1.0	[assoceditor]	78	
pressman	STRING	-1	-1.0	-1.0	[]	1	
interneteditor	OTHER	-1	-1.0	-1.0	[]	0	
featureseditor	STRING	-1	-1.0	-1.0	[]	3	
President	OTHER	-1	-1.0	-1.0	[]	1	
Language	STRING	-1	-1.0	-1.0	[]	8	
writers	STRING	-1	-1.0	-1.0	[printer, writer, Editors]	5	
newspapers	OTHER	–,minut,''bün,heure,|viaţ,),,,	-1.0	-1.0	[newspaper]	299	
fachgebiet	OTHER	-1	-1.0	-1.0	[]	0	
area_served	OTHER	-1	-1.0	-1.0	[]	3	
citynewseditor	STRING	-1	-1.0	-1.0	[]	1	
publishers	STRING	&ndas,sata,&nbsp,e z b,),hour,;  ga,,,. in,-,–,–apri,s - p,, d.o,-janu,|,	-1.0	-1.0	[Publisher, publisher]	2165	
successor	OTHER	-1	-1.0	-1.0	[]	1	
managingeditor	OTHER	-1	-1.0	-1.0	[manageditor]	2	
opeditor	STRING	-1	-1.0	-1.0	[copyeditor, maneditor, neseditor]	158	
deputynewseditor	STRING	-1	-1.0	-1.0	[]	1	
sports	OTHER	-1	-1.0	-1.0	[]	0	
familyeditor	STRING	-1	-1.0	-1.0	[]	1	
editingdirector	STRING	-1	-1.0	-1.0	[]	1	
dissolved	STRING	-1	-1.0	-1.0	[]	1	
province	OTHER	/yr,for,¢ wee,an is,]],free,/mo.,monda,[[kor,[[cen,p mon,yearl,or,(,; sun,[[yen,baisa,.,,,-,yuan,sheke,rupee,/ us$,[[ven,[[jap,¢ at,cents,¢ (fr,hrn (,[[cro,[[ira,weekd,/dail,% fre,c,year,,[[tha,pages,weekl,p]],lari,[[pai,year:,yen,/€,p whe,p,to,[new,tl,[[bah,ltl,/year,/-,annua,[[nor,euro,¢ ($,per a,& sun,¢ (we,a yea,(in i,inr,subsc,¢,per c,zł (,km,per i,[[ser,[[bri,[[swe,per s,rs,[[rom,[[sou,per y,afriq,￠ sun,/yr (,for a,,-,/day,,for n,[[flo,(usd,(mond,[[tur,-cent,[[rmb,(satu,mxp,,raja,¢ dai,daily,/= &,taka,(week,[[pen,prk,¢ (in,pr,kč,	-1.0	-1.0	[price]	990	
sundays	NUMBER	(indi,.,	-1.0	-1.0	[]	8	
zdb	NUMBER	s-,decem,-,	-1.0	-1.0	[v]	3	
size	NUMBER	px,	-1.0	-1.0	[]	1	
country	OTHER	-1	-1.0	-1.0	[]	11	
architect	OTHER	-1	-1.0	-1.0	[]	1	
readership	NUMBER	,,	-1.0	-1.0	[]	6	
email	OTHER	-1	-1.0	-1.0	[]	2	
Founded	NUMBER	due t,	2007.0	2007.0	[Ended]	2	
latin_name	STRING	-1	-1.0	-1.0	[]	1	
Founder	STRING	-1	-1.0	-1.0	[]	1	
weblog	OTHER	commu,	-1.0	-1.0	[web]	28	
Office	NUMBER	th &,nd fl,	-1.0	-1.0	[]	2	
nighteditor	STRING	-1	-1.0	-1.0	[]	1	
room	STRING	-1	-1.0	-1.0	[]	1	
webmaster	STRING	-1	-1.0	-1.0	[]	1	
webeditor	OTHER	&ndas,janua,- pre,}},-',-?) l,),/,,,-),|reas,-,–,)   b,oct,)  ch,-pres,o. he,) [[j,th ed,cody,	-1.0	-1.0	[editor]	2612	
frequency	STRING	-1	-1.0	-1.0	[]	11	
photography	STRING	-1	-1.0	-1.0	[photographer]	2	
addresss	NUMBER	scurr,portl,cassv,west,	-1.0	-1.0	[Address, address]	6	
founders	OTHER	june,}},(maga,(,),,,-,octob,july,|,нание,th de,th fe,	-1.0	-1.0	[founder]	279	
campuseditor	STRING	-1	-1.0	-1.0	[]	3	
circulation	NUMBER	,(janu,(as o,}},&nbsp,(sund,milli,({{as,(augu,lacs,paid,''',(per,newsp,/mont,with,per m,weekl,(,(pre-,.,daily,,,e. gr,-,lakhs,thous,(in,:,(june,(tota,	1.2	1.1378014E7	[Circulation]	2191	
Manager	OTHER	-1	-1.0	-1.0	[]	4	
artist	OTHER	-1	-1.0	-1.0	[]	3	
Company	STRING	-1	-1.0	-1.0	[]	1	
Artist	STRING	-1	-1.0	-1.0	[]	1	
formation	NUMBER	septe,	-1.0	-1.0	[]	1	
metrochief	STRING	-1	-1.0	-1.0	[]	1	
ISSu	OTHER	-1	-1.0	-1.0	[]	0	
aandeeditor	STRING	-1	-1.0	-1.0	[]	1	
metroeditor	STRING	-1	-1.0	-1.0	[]	1	
USPS	NUMBER	–,,-,	980.3203	6.1245308E7	[ISSN]	715	
headquarters	OTHER	,st. d,lorna,st. c,st. j,kokea,huron,sacra,howar,spoka,st. l,[[dud,memor,st. p,olive,s. br,st. a,s. bu,sir s,[[gor,&,[[kob,e. pr,, dun,evans,(,),.,[[int,/,,,-,e. pi,-a br,e. pe,[[wil,cherr,[[kno,e. pa,partr,morai,carli,execu,queen,,  d-,progr,john,virgi,carlt,e. se,times,nw si,gpo i,coope,saraj,o. he,e. sa,picke,e,c,marga,n,portl,j,w,of th,[[são,s,groot,bis r,l'aca,|,linco,debuy,y,s. fo,belvé,[[gro,marcy,s. fi,&nbsp,[[nor,yonge,bisho,carne,tallu,sarge,vikin,bank,s. ei,beale,dutto,comme,maple,[[bri,e. th,[[rot,hope,balle,, bud,texas,dill,[[bru,/a dr,e. wa,twin,,   f,[[ind,scurr,creek,locus,½ n.,derst,s. cl,meado,prolo,manat,se ba,gray,s. ce,madhy,de-,main,pavon,e. va,, rue,madis,logts,[[tuc,royal,s. co,twent,amste,capit,carre,&ndas,[[bue,lower,[[buc,brock,westw,h str,sw as,jacks,situs,s. ka,, gre,dunha,durfe,blend,sixth,liber,hill,broug,s. ja,dairy,nd st,e. gr,greha,alame,weave,weste,tangl,westc,w. se,e. ha,bondg,[[izh,milne,broad,mahan,& rou,kings,holt,s. hi,frues,{{aus,robb,depot,frede,garre,louis,water,russe,, pra,paxto,green,star,[[woo,, nas,easte,landi,, cam,e. je,f, ha,e pen,[[por,b [[w,, sak,s. oa,e. me,trumb,e. ma,eight,schoo,[[ist,lewis,e. mi,p. st,w. vi,, sar,e. mo,s. ne,e. la,[[new,cedar,michi,,  ka,wabas,beatr,w. wi,dunca,mahal,[[iri,w. wa,s. mi,s. ma,w. st,goodw,maril,phili,b mor,chest,sing-,excha,pocas,kapi{,super,{{usa,, gla,w. te,ledya,/f, k,balti,s. li,east,kazi,/f, s,s. la,domin,sw br,brook,bloom,e. ni,earl,kuenz,e. no,s. ki,marke,se je,bisca,[[far,w mai,aubur,[[par,, sec,mcgil,, [[w,, [[t,, [[u,jones,[[has,, [[z,[[dek,, [[y,er ma,klond,[[han,crens,s. ri,b, [[,, [[e,, [[d,, [[g,s. ro,pinel,, [[f,, [[i,, [[k,. s.,vinzo,under,, [[m,, [[l,jalan,, [[o,, [[n,n. th,, [[p,, [[s,, [[r,missi,cranb,n. ta,, uni,, cha,n. st,, mid,, [[a,, [[b,calle,hasle,, [[c,[[tah,tenne,niaga,colum,e mcl,armor,n. wi,n. wh,n bri,s. or,–,walnu,n. wa,conz,chast,pico,[[ral,s. pr,trott,los a,b  ro,young,nowat,sevil,panam,buffa,[[pam,mount,south,darli,tvers,[[bam,[[bah,footh,[[day,mcelr,fourt,, ale,[[hen,champ,[[dal,chamb,calif,mccle,fairf,skjåk,midla,[[lei,, [[ñ,s. wa,lacey,cresc,, ell,bell,cresw,a cam,s.e.,s. we,foste,techn,chowr,oak r,katuk,fitzr,}}}},hicko,nelso,orisk,thoma,[[us,, sha,furni,budap,altam,chann,seven,ferry,julia,-let,high,chanc,curve,georg,b sar,n. lo,]],chun,opeon,ridge,ander,estat,n. mi,parks,e [[w,fargo,karwa,huixi,n. ma,pine,[[bel,[[ben,hawth,se th,a ren,cente,n. le,jinta,quinc,n. li,[[lis,alfre,packh,summi,kuren,n. la,publi,a,,centr,centu,fab a,a/,star-,n. oa,maxon,[[gym,parke,post,fifth,[[oxf,n. mo,red h,ch-,the m,lawre,radio,pacif,canis,pirie,[[dil,golia,the p,oxnar,ontar,beach,cowel,kelly,hunti,van n,széll,tenth,q str,n. or,, urb,strin,ninth,n i h,/d [[,sierr,[[res,state,turnp,north,corpo,upper,baldw,susse,n. qu,ridde,fox r,[[lou,saffo,n. re,[[low,n. ro,hamil,first,river,[[st.,arch,fish,mildr,storr,lord,arlin,h/,rio r,n.e.,firs,black,dalho,dafoe,, ave,macke,u.s.,mt. a,lyon,n. ke,. jul,albio,mt. v,sw wa,warre,[[que,boule,hermo,[[sto,sylva,ocean,berry,bayne,[[suk,ogden,highw,hwy.,;rue,, a-,avenu,e uni,g str,railr,n. el,stone,brisb,dock,[[jou,warwi,pyle,mihai,stamf,light,e str,, d-,milam,n. fi,, d.,merti,n. fr,i str,archb,e.,el ca,n. ge,wall,[[sou,n. ch,[[cof,[[spa,[[ant,s mol,n. co,colon,[[vit,g st.,alban,clayt,[[spr,, app,hardi,holyr,ventu,pryor,mento,gulle,indus,[[cou,color,eye s,[[con,n. ea,galt,stanf,wyomi,gover,th fl,a cha,mccol,cours,rarit,court,ville,taylo,dougl,mills,yanke,villa,dough,selig,vauxh,-c or,hears,heral,bermo,- par,n. ca,n. br,remou,third,s mai,adams,trans,[[fla,cuthb,n. be,outwa,winds,johns,waymo,scott,n.,ote.,, mad,bluef,casta,, qua,blueb,buck,ste-c,a mai,iga r,silve,c str,, kar,barra,fento,/a,ro,th co,macqu,a for,massa,norfo,bluff,crawf,, hor,colle,route,barro,, mar,ellio,-a,count,ellis,wales,campb,[[mar,[[mas,gildr,cunar,[[mak,chad,[[mai,campu,washi,sanso,colem,von k,lamar,/ix,,mosco,n mai,big h,mccul,gilbe,steve,turtl,santa,l str,murph,princ,senec,big t,seave,so.sa,fount,stude,mainw,[[o h,busin,lorai,wood,arrow,nd &,e. az,elm s,us hi,e lan,unive,hanna,petah,haroo,wilts,e. al,elm a,w. ha,us hw,dunmo,place,w har,e. ca,anaca,[[mem,feder,[[san,[[mer,w. gr,e. ce,quezo,adler,bruns,e. br,napie,e. bl,ganne,, tej,shade,e. bu,civic,frank,cohan,holly,wheel,sprin,jayan,a ave,delma,edmon,franc,d, [[,mymen,wilsh,bay s,w.,park,news,smith,front,seymo,sw je,warde,belmo,w. in,colbo,daton,wilso,fallo,to,e. fi,kuhio,camin,victo,w. ma,w. le,, vid,, jal,e. ev,fremo,espla,logis,rd ba,sw,cypre,bucki,white,kinoo,lake,whitf,a, ja,whiti,w. la,james,popla,nw ce,monit,miron,palo,w. ki,bethe,whitt,, pil,indep,[[mia,prafu,e. fo,[[mic,abul,penn,, bai,suvor,sw me,, bah,px]],dalry,decem,porfi,zenit,e. co,bever,bridg,[[sai,w. no,a sha,unite,mcdou,pries,s.,fortu,marti,inter,richa,e gra,mendo,e. du,, j.b,catar,-a,,b dal,pione,sylac,hende,dubli,templ,city,willi,picca,jeffe,sulli,w lin,, uc,fort,fair,[[clu,macar,, dr.,davie,st fl,cathe,wynda,nd fl,lenox,malbo,w. be,grgur,w. ba,baxte,king,. [[q,w. bu,shamr,molto,, tom,union,india,w. bo,th st,teich,k str,ford,rosme,w. ad,new s,old g,[[u.s,, lon,rue j,so. m,snell,rue c,[[ula,nw qu,rue b,saint,rue e,new y,rue d,old t,old s,silex,new c,. mar,kasth,rue s,new h,shop,clark,granv,churc,race,mctav,logan,usher,grand,st al,, par,renfi,nakhi,secon,[[kin,w. ca,[[nuk,c   b,monas,[[che,d cam,morph,benne,[[war,w. cl,th ro,bremn,w. co,, blo,[[uni,oklah,m, '',west,crown,w. fi,galla,dr. m,bicto,pikes,woodl,w. fo,york,sherb,shipl,josep,[[mon,morri,congr,bienv,camar,sepul,lechw,w. er,, bl.,rever,nw ma,cambr,[[mou,anne,	-1.0	-1.0	[Headquarters]	4121	
featureeditor	OTHER	-1	-1.0	-1.0	[]	0	
native_name	OTHER	-1	-1.0	-1.0	[]	6	
artdirector	STRING	-1	-1.0	-1.0	[]	1	
digitaleditor	STRING	-1	-1.0	-1.0	[]	1	
employees	NUMBER	,,	25.0	25.0	[Employees]	2	
person	OTHER	,th ma,jan.,=|log,st. l,deseg,, rep,''gaz,, fro,th,. con,oktob,cover,march,w|,, cov,on,th-ye,july,secon,th is,",-july,!,th,,th an,(,),.,/,frebr,,,-,of '',editi,) by,:,years,th ed,febru,novem,publi,'s ed,]],,, no.,june,№,issue,decem,chant,, whe,–,bluep,''stü,'' ap,dec,st,,passo,septe,- chr,secti,, apr,th of,logo,may,janua,with,april,s.,front,(febr,augus,of th,masth,s,, iss,octob,-may,''geo,. dra,|,).,	-1.0	-1.0	[patron]	1238	
manager	STRING	-1	-1.0	-1.0	[]	20	
Chairman	STRING	-1	-1.0	-1.0	[]	1	
editors	OTHER	diffe,	-1.0	-1.0	[Editions]	23	
chiefhreditor	OTHER	and a,),s),-,	-1.0	-1.0	[chiefeditor]	400	
reporter	STRING	-1	-1.0	-1.0	[Reporter]	5	
languages	OTHER	&ndas,other,langu,	-1.0	-1.0	[language]	2292	
slogan	OTHER	.jpg],,px|hi,px|ma,px|se,px]],px|cu,.gif|,).svg,px|lo,px|bi,px|dn,.svg|,px| {,px|st,px|la,px|di,px|ha,logo.,hlogo,_logo,px|mi,px|ec,.jpg|,px|ko,px|na,px|el,px|th,px|ri,px|bo,-,px|]],px|al,).gif,x]],:,px|ce,.png|,x,	-1.0	-1.0	[logo]	447	
cover	OTHER	.,	-1.0	-1.0	[Movies, colors, cost, chief]	43	
firstdate	NUMBER	,,	1924.0	1924.0	[finaldate]	2	
businessmanager	STRING	-1	-1.0	-1.0	[]	1	
image_name	STRING	-1	-1.0	-1.0	[]	1	
image_size	NUMBER	px,	-1.0	-1.0	[]	1	
newseditors	OTHER	-1	-1.0	-1.0	[]	0	
focus	STRING	-1	-1.0	-1.0	[]	1	
industry	OTHER	-1	-1.0	-1.0	[]	1	
onlineeditor	STRING	-1	-1.0	-1.0	[]	2	
OCLC	NUMBER	-1	1.0787057E7	2.34713902E8	[]	7	
information	OTHER	),	-1.0	-1.0	[]	4	
final	NUMBER	-1	2008.0	2008.0	[]	1	
services	NUMBER	(,	-1.0	-1.0	[]	1	
groupeditor	OTHER	-1	-1.0	-1.0	[]	0	
director	OTHER	-,	-1.0	-1.0	[Director]	26	
board	STRING	-1	-1.0	-1.0	[]	1	
distribution	NUMBER	,,	-1.0	-1.0	[]	1	
category	OTHER	-1	-1.0	-1.0	[]	3	
publications	OTHER	,to,(in [,june,centu,}},merge,(orig,decem,, rev,(merg,''mer,march,|janu,septe,july,(?),''(as,janua,may,(irgu,april,),,,-,augus,s,(cont,octob,s, th,|,(prin,(succ,?,febru,novem,|june,	-1.0	-1.0	[publication]	459	
closure	DATE	-1	-1.0	-1.0	[]	1	
motto	OTHER	-1	-1.0	-1.0	[]	6	
years	NUMBER	km ra,&mdas,,,	1945.0	1945.0	[year]	4	
total_circulation	NUMBER	,,	-1.0	-1.0	[]	2	
position	OTHER	us,north,	-1.0	-1.0	[location]	61	
development	STRING	-1	-1.0	-1.0	[developer]	2	
Gannett	NUMBER	-1	1977.0	1977.0	[]	1	
emeritus	STRING	-1	-1.0	-1.0	[]	3	
allegiance	OTHER	-1	-1.0	-1.0	[]	4	
sister_newspapers	OTHER	-1	-1.0	-1.0	[]	12	
deputyeditor	STRING	-1	-1.0	-1.0	[]	1	
title	STRING	-1	-1.0	-1.0	[]	6	
execeditor	STRING	-1	-1.0	-1.0	[]	1	
logocaption	OTHER	-1	-1.0	-1.0	[]	1	
alingment	OTHER	-1	-1.0	-1.0	[alignment]	5	
published	OTHER	-,	-1.0	-1.0	[copublisher]	4	
Cartoonist	STRING	-1	-1.0	-1.0	[]	1	
dayside	STRING	-1	-1.0	-1.0	[]	1	
editorial	STRING	-1	-1.0	-1.0	[]	1	
established	NUMBER	-1	1950.0	1950.0	[]	1	
photoeditor	STRING	-1	-1.0	-1.0	[photodiaeditor]	44	
CODEN	OTHER	-1	-1.0	-1.0	[]	1	
executiveeditor	STRING	-1	-1.0	-1.0	[excutivefeditor]	3	
editor_title	STRING	-1	-1.0	-1.0	[]	1	
stype	STRING	-1	-1.0	-1.0	[]	1	
newseditor	STRING	-1	-1.0	-1.0	[feateditor]	59	
chairperson	OTHER	-1	-1.0	-1.0	[]	1	
externallinkseditor	NUMBER	]],	-1.0	-1.0	[]	1	
ceased_publication	OTHER	-1	-1.0	-1.0	[]	0	
telephone	NUMBER	,	-1.0	-1.0	[]	1	
circulation_year	NUMBER	-1	2011.0	2011.0	[]	2	
closing	NUMBER	,,	1840.0	1840.0	[closed]	2	
Press	NUMBER	-,	-1.0	-1.0	[]	1	
phone	NUMBER	),-,	-1.0	-1.0	[Phone]	2	
last	OTHER	front,-,	-1.0	-1.0	[land, elect, issn]	15	
type	OTHER	&ndas,), se,-july,-days,pages,issue,days;,s),),/,,,), we,-,–,|mtro,rd we,editi,days,times,},th ce,	-1.0	-1.0	[]	4241	
currenteditor	STRING	-1	-1.0	-1.0	[]	1	
twitter	OTHER	-1	-1.0	-1.0	[titles, sister]	5	
obituaries	STRING	-1	-1.0	-1.0	[]	1	
nightside	STRING	-1	-1.0	-1.0	[]	1	
facebook	OTHER	-1	-1.0	-1.0	[]	0	
legaladvisor	STRING	-1	-1.0	-1.0	[]	1	
longitude	NUMBER	-1	-1.4076	54.9004	[latitude]	2	
Opinion	STRING	-1	-1.0	-1.0	[]	1	
work	OTHER	-1	-1.0	-1.0	[]	0	
status	STRING	-1	-1.0	-1.0	[]	2	
link2	OTHER	-1	-1.0	-1.0	[]	0	
link1	STRING	-1	-1.0	-1.0	[]	1	
format	OTHER	folde,&ndas,june,colum,paper,{{fra," x,|a,]],pp ma,page,|x|,col.,cm x,]] pe,×,previ," [[b,janua,, ful,pages,inche,]] an,),(pape,.,/,,,-,mm x,pp. f,octob,|,x,	-1.0	-1.0	[Format]	3308	
auflage_zahl	NUMBER	|verk,	-1.0	-1.0	[]	1	
dirinteractive	STRING	-1	-1.0	-1.0	[]	2	
senioreditors	STRING	-1	-1.0	-1.0	[]	1	
company	OTHER	-1	-1.0	-1.0	[]	2	
issues	NUMBER	,,	-1.0	-1.0	[]	1	
Launched	DATE	-1	-1.0	-1.0	[]	1	
Slogan	STRING	-1	-1.0	-1.0	[]	5	
campus	OTHER	-1	-1.0	-1.0	[]	1	
tagline	STRING	-1	-1.0	-1.0	[Online]	3	
chairman	OTHER	-1	-1.0	-1.0	[]	5	
onlinemanagingeditor	STRING	-1	-1.0	-1.0	[]	1	
oclc	NUMBER	;,	1038241.0	8.06845559E8	[]	392	
weekdays	NUMBER	(mumb,([[in,.,	-1.0	-1.0	[]	10	
magazine	OTHER	-1	-1.0	-1.0	[]	0	
campuschief	STRING	-1	-1.0	-1.0	[]	1	
staff	OTHER	(news,(as o,news,appro,+,(wint,emplo,/,,,{{fac,}} ha,-,journ,globa,	-1.0	-1.0	[]	162	
officer	OTHER	-1	-1.0	-1.0	[]	0	
deputysportseditor	STRING	-1	-1.0	-1.0	[]	1	
auflage_quelle	NUMBER	|er}},	-1.0	-1.0	[]	1	
ideology	OTHER	-1	-1.0	-1.0	[]	0	
printers	OTHER	-1	-1.0	-1.0	[centers]	4	
Gallery	OTHER	-1	-1.0	-1.0	[]	1	
Chief	STRING	-1	-1.0	-1.0	[]	8	
Owner	STRING	-1	-1.0	-1.0	[]	1	
students	OTHER	-1	-1.0	-1.0	[]	0	
seniorstaff	STRING	-1	-1.0	-1.0	[]	2	
political	OTHER	–,unite,)|com,&ndas,}},/feb/,],),s),)   [,.  be,-,	-1.0	-1.0	[]	891	
website	OTHER	.de/},min.c,up.co,|reas,faceb,&pub=,heure,/home,momsa,.com,days.,/ cur,minut,.youm,-appl,.htm,.ru/?,=http,.net/,),al%,.,/,,,nov,bca.c,indep,st.co,/ off,.cana,.cat,next.,.pl/},d.com,.ru/g,hrs.c,.co.u,chasa,/http,.ru/,=www.,],=xhx,thhou,sata.,dvt.c,/ www,.es/,&item,&comm,&page,.php,.com/,.com.,woods,.ee w,.lu/,www.c,ore.c,.time,&lang,	-1.0	-1.0	[]	4508	
Website	STRING	-1	-1.0	-1.0	[]	1	
key_people	OTHER	-1	-1.0	-1.0	[]	3	
contentmanager	STRING	-1	-1.0	-1.0	[]	1	
advisor	STRING	-1	-1.0	-1.0	[advisers]	9	
managingeditordesign	STRING	-1	-1.0	-1.0	[]	16	

