parish_name	OTHER	-1	-1.0	-1.0	[parish_map]	0	
derivation	OTHER	-1	-1.0	-1.0	[]	0	
number_of_townlands	OTHER	-1	-1.0	-1.0	[]	0	
county	OTHER	-1	-1.0	-1.0	[]	0	
settlements	OTHER	-1	-1.0	-1.0	[]	1	
derive_lang	OTHER	-1	-1.0	-1.0	[]	0	
meaning	OTHER	-1	-1.0	-1.0	[]	0	
barony	OTHER	-1	-1.0	-1.0	[]	0	

