position	OTHER	st),th ou,th,	-1.0	-1.0	[]	7	
emblem	STRING	),	-1.0	-1.0	[]	10	
loss	OTHER	,-,	-1.0	-1.0	[for]	9	
ground	STRING	-1	-1.0	-1.0	[]	10	
captain	STRING	-1	-1.0	-1.0	[]	6	
founded	OTHER	(as c,(coor,(as w,	-1.0	-1.0	[]	8	
capacity	NUMBER	[http,,,	5000.0	5000.0	[]	7	
minors	OTHER	(colt,(,	-1.0	-1.0	[]	4	
fullname	STRING	-1	-1.0	-1.0	[]	10	
website	STRING	-1	-1.0	-1.0	[]	1	
coach	OTHER	-1	-1.0	-1.0	[]	8	
maker	OTHER	.jpg|,px]],px |t,.png|,	-1.0	-1.0	[image]	11	
sport	OTHER	&,,,	-1.0	-1.0	[spoons]	14	
win	NUMBER	,-,	-1.0	-1.0	[]	6	
league	OTHER	-1	-1.0	-1.0	[]	9	
sponsor	STRING	-1	-1.0	-1.0	[]	4	
url	OTHER	-1	-1.0	-1.0	[ceo]	9	
colours	OTHER	-1	-1.0	-1.0	[]	10	
premierships	OTHER	(,,,	-1.0	-1.0	[]	8	
season	NUMBER	-1	1998.0	2011.0	[]	7	
runners	NUMBER	(,,,	-1.0	-1.0	[]	8	
clubname	STRING	-1	-1.0	-1.0	[]	10	

