constant	OTHER	-1	-1.0	-1.0	[]	2	
image_size	OTHER	-1	-1.0	-1.0	[]	0	
rare	OTHER	-1	-1.0	-1.0	[alt]	3	
name	STRING	-1	-1.0	-1.0	[]	2	
volume	NUMBER	- [[w,- [[v,	-1.0	-1.0	[]	2	
image	NUMBER	.jpg,	-1.0	-1.0	[]	1	
caption	STRING	-1	-1.0	-1.0	[]	1	
fullname	OTHER	-1	-1.0	-1.0	[]	2	

