flagbearer	OTHER	-1	-1.0	-1.0	[]	2	
bronze	NUMBER	-1	0.0	-1.0	[]	1	
total	NUMBER	-1	1.0	1.0	[]	1	
games	NUMBER	summe,	-1.0	-1.0	[]	7	
rank	NUMBER	-1	28.0	28.0	[]	1	
competitors	OTHER	(,	-1.0	-1.0	[]	7	
silver	NUMBER	-1	1.0	1.0	[]	1	
sports	NUMBER	-1	2.0	4.0	[]	7	
officials	OTHER	-1	-1.0	-1.0	[]	6	
gold	NUMBER	-1	0.0	-1.0	[]	1	

