bronze	NUMBER	-1	0.0	-1.0	[]	1	
total	NUMBER	-1	0.0	-1.0	[]	1	
flagbearer	OTHER	-1	-1.0	-1.0	[]	5	
games	NUMBER	summe,	-1.0	-1.0	[]	8	
rank	OTHER	-1	-1.0	-1.0	[]	0	
competitors	OTHER	''',(,	-1.0	-1.0	[]	5	
sports	OTHER	''',	-1.0	-1.0	[]	4	
officials	OTHER	-1	-1.0	-1.0	[]	6	

