bronze	NUMBER	-1	0.0	-1.0	[]	2	
total	NUMBER	-1	2.0	2.0	[]	2	
flagbearer	OTHER	-1	-1.0	-1.0	[]	5	
games	NUMBER	summe,	-1.0	-1.0	[]	6	
rank	OTHER	-1	-1.0	-1.0	[]	4	
silver	NUMBER	-1	2.0	2.0	[]	2	
competitors	OTHER	''',(,	-1.0	-1.0	[]	6	
sports	OTHER	''',	-1.0	-1.0	[]	4	
Mission	OTHER	-1	-1.0	-1.0	[]	0	
gold	NUMBER	-1	0.0	-1.0	[]	2	

