flagbearer	OTHER	}} {{,	-1.0	-1.0	[]	38	
bronze	NUMBER	-1	0.0	185.0	[]	45	
total	NUMBER	-1	0.0	550.0	[]	44	
games	NUMBER	summe,winte,	-1.0	-1.0	[]	49	
rank	NUMBER	-1	2.0	16.0	[]	44	
flagcaption	STRING	-1	-1.0	-1.0	[]	1	
competitors	NUMBER	''',(all,(men),(,	1.0	114.0	[]	47	
silver	NUMBER	-1	0.0	166.0	[]	45	
officials	OTHER	-1	-1.0	-1.0	[]	0	
sports	NUMBER	''',	1.0	30.0	[]	45	
gold	NUMBER	-1	0.0	199.0	[]	45	

