bronze	NUMBER	-1	1.0	2.0	[]	4	
total	NUMBER	-1	2.0	2.0	[]	3	
flagbearer	OTHER	-1	-1.0	-1.0	[]	10	
games	NUMBER	summe,winte,	-1.0	-1.0	[]	10	
rank	NUMBER	-1	58.0	80.0	[]	5	
silver	NUMBER	-1	1.0	1.0	[]	2	
competitors	NUMBER	''',(,	7.0	7.0	[]	10	
sports	NUMBER	''',	1.0	10.0	[]	10	
officials	OTHER	-1	-1.0	-1.0	[]	5	
gold	NUMBER	-1	0.0	-1.0	[]	2	

