bronze	OTHER	-1	-1.0	-1.0	[]	0	
total	OTHER	-1	-1.0	-1.0	[]	0	
flagbearer	OTHER	-1	-1.0	-1.0	[]	5	
games	NUMBER	summe,	-1.0	-1.0	[]	11	
rank	OTHER	-1	-1.0	-1.0	[]	1	
silver	OTHER	-1	-1.0	-1.0	[]	0	
competitors	OTHER	''',(,	-1.0	-1.0	[]	5	
sports	OTHER	''',	-1.0	-1.0	[]	4	
officials	OTHER	-1	-1.0	-1.0	[]	9	
gold	OTHER	-1	-1.0	-1.0	[]	0	

