bronze	NUMBER	-1	0.0	1.0	[]	2	
total	NUMBER	-1	1.0	1.0	[]	2	
flagbearer	OTHER	-1	-1.0	-1.0	[]	1	
games	NUMBER	summe,winte,	-1.0	-1.0	[]	10	
rank	NUMBER	-1	32.0	42.0	[]	2	
silver	NUMBER	-1	0.0	1.0	[]	2	
competitors	OTHER	(men),	-1.0	-1.0	[]	4	
sports	NUMBER	-1	1.0	8.0	[]	4	
officials	OTHER	-1	-1.0	-1.0	[]	8	
gold	NUMBER	-1	0.0	-1.0	[]	2	

