bronze	OTHER	-1	-1.0	-1.0	[]	0	
total	OTHER	-1	-1.0	-1.0	[]	0	
flagbearer	OTHER	-1	-1.0	-1.0	[]	8	
games	NUMBER	summe,	-1.0	-1.0	[]	8	
rank	OTHER	-1	-1.0	-1.0	[]	1	
silver	OTHER	-1	-1.0	-1.0	[]	0	
competitors	OTHER	''',	-1.0	-1.0	[]	8	
officials	OTHER	-1	-1.0	-1.0	[]	1	
sports	OTHER	''',	-1.0	-1.0	[]	8	
gold	OTHER	-1	-1.0	-1.0	[]	0	

