flagbearer	OTHER	-1	-1.0	-1.0	[]	11	
bronze	NUMBER	-1	0.0	4.0	[]	16	
total	NUMBER	-1	1.0	12.0	[]	16	
games	NUMBER	summe,winte,	-1.0	-1.0	[]	36	
rank	NUMBER	-1	6.0	40.0	[]	17	
flagcaption	STRING	-1	-1.0	-1.0	[]	2	
competitors	OTHER	''',(man),(men),(,	-1.0	-1.0	[]	25	
silver	NUMBER	-1	0.0	4.0	[]	16	
sports	NUMBER	''',	1.0	10.0	[]	25	
officials	OTHER	-1	-1.0	-1.0	[]	17	
gold	NUMBER	-1	0.0	7.0	[]	16	

