flagbearer	OTHER	-1	-1.0	-1.0	[]	10	
bronze	NUMBER	-1	0.0	6.0	[]	5	
total	NUMBER	-1	2.0	7.0	[]	5	
games	NUMBER	summe,winte,	-1.0	-1.0	[]	10	
rank	NUMBER	-1	27.0	68.0	[]	6	
competitors	OTHER	''',(,	-1.0	-1.0	[]	10	
silver	NUMBER	-1	0.0	3.0	[]	4	
sports	NUMBER	''',	2.0	13.0	[]	10	
officials	OTHER	-1	-1.0	-1.0	[]	4	
Mission	OTHER	-1	-1.0	-1.0	[]	0	
gold	NUMBER	-1	0.0	3.0	[]	5	

