bronze	OTHER	-1	-1.0	-1.0	[]	0	
flagbearer	OTHER	-1	-1.0	-1.0	[]	9	
games	NUMBER	summe,winte,	-1.0	-1.0	[]	14	
rank	NUMBER	-1	69.0	69.0	[]	1	
silver	NUMBER	-1	1.0	1.0	[]	1	
competitors	NUMBER	''',(,	11.0	21.0	[]	11	
sports	NUMBER	''',	2.0	11.0	[]	11	
officials	OTHER	-1	-1.0	-1.0	[]	13	
Mission	OTHER	-1	-1.0	-1.0	[]	0	
gold	OTHER	-1	-1.0	-1.0	[]	0	

