bronze	NUMBER	-1	0.0	-1.0	[]	1	
total	NUMBER	-1	0.0	-1.0	[]	1	
flagbearer	OTHER	-1	-1.0	-1.0	[]	7	
games	NUMBER	summe,	-1.0	-1.0	[]	7	
rank	OTHER	-1	-1.0	-1.0	[]	1	
silver	OTHER	-1	-1.0	-1.0	[]	0	
competitors	NUMBER	''',(,	6.0	6.0	[]	5	
sports	OTHER	''',	-1.0	-1.0	[]	5	
gold	OTHER	-1	-1.0	-1.0	[]	0	

