flagbearer	OTHER	-1	-1.0	-1.0	[]	12	
bronze	NUMBER	-1	0.0	5.0	[]	11	
total	NUMBER	-1	1.0	9.0	[]	9	
games	NUMBER	summe,winte,	-1.0	-1.0	[]	17	
rank	NUMBER	-1	13.0	60.0	[]	12	
competitors	OTHER	(wome,''',(,	-1.0	-1.0	[]	17	
silver	NUMBER	-1	0.0	4.0	[]	10	
officials	OTHER	-1	-1.0	-1.0	[]	2	
sports	NUMBER	''',	1.0	12.0	[]	17	
Mission	OTHER	-1	-1.0	-1.0	[]	0	
gold	NUMBER	-1	0.0	4.0	[]	11	

