flagbearer	OTHER	-1	-1.0	-1.0	[]	10	
bronze	NUMBER	-1	0.0	7.0	[]	7	
total	NUMBER	-1	1.0	12.0	[]	7	
games	NUMBER	summe,winte,	-1.0	-1.0	[]	10	
rank	NUMBER	-1	12.0	40.0	[]	8	
competitors	OTHER	''',(,	-1.0	-1.0	[]	9	
silver	NUMBER	-1	0.0	4.0	[]	8	
sports	OTHER	''',	-1.0	-1.0	[]	9	
officials	OTHER	-1	-1.0	-1.0	[]	2	
Mission	OTHER	-1	-1.0	-1.0	[]	0	
gold	NUMBER	-1	0.0	7.0	[]	7	

