bronze	NUMBER	-1	2.0	2.0	[]	1	
total	NUMBER	-1	2.0	2.0	[]	1	
flagbearer	OTHER	-1	-1.0	-1.0	[]	7	
games	NUMBER	summe,	-1.0	-1.0	[]	16	
rank	OTHER	-1	-1.0	-1.0	[]	3	
silver	NUMBER	-1	0.0	-1.0	[]	1	
competitors	NUMBER	''',(,	7.0	7.0	[]	8	
sports	OTHER	''',	-1.0	-1.0	[]	8	
officials	OTHER	-1	-1.0	-1.0	[]	13	
gold	NUMBER	-1	0.0	1.0	[]	2	

