next_concert	OTHER	th,,,,	-1.0	-1.0	[]	4	
conductor	OTHER	-1	-1.0	-1.0	[]	4	
album	OTHER	-1	-1.0	-1.0	[]	3	
guests	OTHER	-1	-1.0	-1.0	[]	3	
image	STRING	-1	-1.0	-1.0	[]	3	
orchestra	OTHER	-1	-1.0	-1.0	[]	4	
venue	OTHER	-1	-1.0	-1.0	[]	4	
date	NUMBER	–,rd,,,,	-1.0	-1.0	[]	4	
last_concert	NUMBER	,,	-1.0	-1.0	[]	3	
this_concert	NUMBER	,,	-1.0	-1.0	[]	3	
arranger	OTHER	-1	-1.0	-1.0	[]	3	
composer	OTHER	)|ken,	-1.0	-1.0	[]	4	
concert_name	STRING	-1	-1.0	-1.0	[]	4	
producer	OTHER	-1	-1.0	-1.0	[]	3	
support_act	OTHER	-1	-1.0	-1.0	[]	3	
choir	OTHER	-1	-1.0	-1.0	[]	3	

