university	STRING	-1	-1.0	-1.0	[]	1	
name_Latin	OTHER	-1	-1.0	-1.0	[]	0	
s_captain	STRING	-1	-1.0	-1.0	[]	2	
location	NUMBER	|,.,	-1.0	-1.0	[]	2	
established	OTHER	(form,	-1.0	-1.0	[]	2	
caption	OTHER	-1	-1.0	-1.0	[]	0	
sister_college	OTHER	-1	-1.0	-1.0	[]	0	
homepage	OTHER	-1	-1.0	-1.0	[]	2	
head_name	STRING	-1	-1.0	-1.0	[]	2	
colours	NUMBER	|#,|red},	-1.0	-1.0	[]	2	
picture	NUMBER	px|]],px]],	-1.0	-1.0	[]	2	
primary_colour	OTHER	-1	-1.0	-1.0	[]	2	
captain_of_coxes	OTHER	-1	-1.0	-1.0	[]	0	
name	STRING	-1	-1.0	-1.0	[]	2	
President	STRING	-1	-1.0	-1.0	[]	1	
old_names	OTHER	-1	-1.0	-1.0	[]	0	
motto	OTHER	-1	-1.0	-1.0	[]	0	
head	STRING	-1	-1.0	-1.0	[]	2	
shield	OTHER	-1	-1.0	-1.0	[]	1	
s_headship	OTHER	-1	-1.0	-1.0	[]	0	
members	OTHER	-1	-1.0	-1.0	[]	0	

