oldcode	STRING	-1	-1.0	-1.0	[]	1	
flagbearer	OTHER	-1	-1.0	-1.0	[]	3	
bronze	NUMBER	-1	0.0	1.0	[]	5	
total	NUMBER	-1	0.0	2.0	[]	5	
games	NUMBER	pan a,	-1.0	-1.0	[]	5	
rank	NUMBER	-1	17.0	28.0	[]	5	
flagcaption	STRING	-1	-1.0	-1.0	[]	1	
competitors	NUMBER	-1	11.0	45.0	[]	2	
silver	NUMBER	-1	0.0	-1.0	[]	4	
sports	NUMBER	-1	6.0	7.0	[]	2	
gold	NUMBER	-1	0.0	1.0	[]	5	
othername	STRING	-1	-1.0	-1.0	[]	1	

