flagbearer	OTHER	-1	-1.0	-1.0	[]	2	
bronze	NUMBER	-1	1.0	2.0	[]	2	
total	NUMBER	-1	1.0	1.0	[]	2	
games	NUMBER	pan a,	-1.0	-1.0	[]	3	
rank	OTHER	-1	-1.0	-1.0	[]	3	
competitors	NUMBER	-1	4.0	14.0	[]	2	
silver	OTHER	-1	-1.0	-1.0	[]	0	
sports	NUMBER	-1	3.0	3.0	[]	1	
officials	OTHER	-1	-1.0	-1.0	[]	0	
gold	OTHER	-1	-1.0	-1.0	[]	0	

