flagbearer	OTHER	)|sil,	-1.0	-1.0	[]	2	
bronze	NUMBER	-1	17.0	35.0	[]	6	
total	NUMBER	-1	38.0	70.0	[]	5	
games	NUMBER	pan a,	-1.0	-1.0	[]	6	
rank	NUMBER	-1	6.0	8.0	[]	6	
competitors	NUMBER	-1	382.0	388.0	[]	2	
silver	NUMBER	-1	14.0	27.0	[]	6	
sports	NUMBER	-1	31.0	31.0	[]	1	
gold	NUMBER	-1	4.0	16.0	[]	6	

