flagbearer	OTHER	-1	-1.0	-1.0	[]	2	
bronze	NUMBER	-1	2.0	6.0	[]	5	
total	NUMBER	-1	4.0	8.0	[]	4	
games	NUMBER	pan a,	-1.0	-1.0	[]	5	
rank	NUMBER	-1	10.0	16.0	[]	5	
competitors	NUMBER	-1	139.0	164.0	[]	2	
silver	NUMBER	-1	1.0	3.0	[]	4	
sports	NUMBER	-1	28.0	28.0	[]	1	
officials	OTHER	-1	-1.0	-1.0	[]	0	
gold	NUMBER	-1	0.0	7.0	[]	5	

