bronze	NUMBER	-1	3.0	13.0	[]	7	
total	NUMBER	-1	29.0	30.0	[]	2	
flagbearer	OTHER	-1	-1.0	-1.0	[]	2	
games	NUMBER	summe,winte,	-1.0	-1.0	[]	12	
rank	OTHER	-1	-1.0	-1.0	[]	12	
silver	NUMBER	-1	3.0	13.0	[]	7	
competitors	NUMBER	(,	1.0	62.0	[]	10	
sports	NUMBER	-1	1.0	7.0	[]	6	
officials	NUMBER	-1	45.0	45.0	[]	1	
gold	NUMBER	-1	6.0	21.0	[]	7	

