flagbearer	OTHER	-1	-1.0	-1.0	[]	1	
bronze	NUMBER	-1	3.0	9.0	[]	4	
total	NUMBER	-1	15.0	19.0	[]	2	
games	NUMBER	summe,	-1.0	-1.0	[]	6	
rank	NUMBER	-1	25.0	56.0	[]	6	
competitors	NUMBER	-1	8.0	33.0	[]	6	
silver	NUMBER	-1	2.0	6.0	[]	4	
sports	NUMBER	-1	2.0	4.0	[]	6	
officials	OTHER	-1	-1.0	-1.0	[]	0	
gold	NUMBER	-1	2.0	6.0	[]	5	

