flagbearer	OTHER	-1	-1.0	-1.0	[]	1	
bronze	NUMBER	-1	1.0	3.0	[]	3	
total	NUMBER	-1	9.0	9.0	[]	1	
games	NUMBER	summe,	-1.0	-1.0	[]	6	
rank	OTHER	-1	-1.0	-1.0	[]	6	
competitors	NUMBER	(,	4.0	16.0	[]	5	
silver	NUMBER	-1	1.0	3.0	[]	3	
sports	NUMBER	-1	1.0	4.0	[]	2	
officials	OTHER	-1	-1.0	-1.0	[]	0	
gold	NUMBER	-1	1.0	5.0	[]	4	

