bronze	OTHER	-1	-1.0	-1.0	[]	0	
total	OTHER	-1	-1.0	-1.0	[]	0	
flagbearer	OTHER	-1	-1.0	-1.0	[]	1	
games	NUMBER	summe,	-1.0	-1.0	[]	4	
rank	OTHER	-1	-1.0	-1.0	[]	4	
silver	OTHER	-1	-1.0	-1.0	[]	0	
competitors	NUMBER	-1	2.0	11.0	[]	4	
sports	NUMBER	-1	3.0	4.0	[]	3	
officials	OTHER	-1	-1.0	-1.0	[]	0	
gold	OTHER	-1	-1.0	-1.0	[]	0	

