bronze	NUMBER	-1	0.0	-1.0	[]	2	
total	OTHER	-1	-1.0	-1.0	[]	0	
flagbearer	OTHER	-1	-1.0	-1.0	[]	0	
games	NUMBER	summe,	-1.0	-1.0	[]	6	
rank	OTHER	-1	-1.0	-1.0	[]	6	
silver	NUMBER	-1	0.0	-1.0	[]	2	
competitors	NUMBER	-1	2.0	4.0	[]	4	
sports	NUMBER	-1	1.0	2.0	[]	2	
officials	OTHER	-1	-1.0	-1.0	[]	0	
gold	NUMBER	-1	0.0	-1.0	[]	2	

