flagbearer	OTHER	-1	-1.0	-1.0	[]	0	
bronze	NUMBER	-1	2.0	7.0	[]	3	
total	NUMBER	-1	8.0	13.0	[]	2	
games	NUMBER	summe,	-1.0	-1.0	[]	4	
rank	OTHER	-1	-1.0	-1.0	[]	4	
competitors	OTHER	''',	-1.0	-1.0	[]	4	
silver	NUMBER	-1	2.0	6.0	[]	3	
sports	NUMBER	''',	-1.0	-1.0	[]	1	
officials	OTHER	-1	-1.0	-1.0	[]	0	
gold	NUMBER	-1	1.0	4.0	[]	3	

