flagbearer	OTHER	-1	-1.0	-1.0	[]	0	
bronze	NUMBER	-1	0.0	-1.0	[]	1	
total	NUMBER	-1	0.0	1.0	[]	3	
games	NUMBER	summe,	-1.0	-1.0	[]	5	
rank	OTHER	-1	-1.0	-1.0	[]	5	
competitors	NUMBER	-1	2.0	9.0	[]	2	
silver	NUMBER	-1	0.0	1.0	[]	4	
sports	NUMBER	-1	1.0	1.0	[]	1	
officials	OTHER	-1	-1.0	-1.0	[]	0	
gold	NUMBER	-1	0.0	-1.0	[]	1	

