flagbearer	OTHER	-1	-1.0	-1.0	[]	1	
bronze	NUMBER	-1	1.0	5.0	[]	5	
total	NUMBER	-1	11.0	21.0	[]	4	
games	NUMBER	summe,	-1.0	-1.0	[]	7	
rank	OTHER	-1	-1.0	-1.0	[]	7	
competitors	OTHER	(,	-1.0	-1.0	[]	5	
silver	NUMBER	-1	4.0	9.0	[]	4	
sports	OTHER	-1	-1.0	-1.0	[]	0	
officials	OTHER	-1	-1.0	-1.0	[]	0	
gold	NUMBER	-1	6.0	9.0	[]	4	

