flagbearer	OTHER	-1	-1.0	-1.0	[]	0	
bronze	NUMBER	-1	0.0	1.0	[]	2	
total	NUMBER	-1	1.0	1.0	[]	1	
games	NUMBER	summe,	-1.0	-1.0	[]	4	
rank	OTHER	-1	-1.0	-1.0	[]	4	
competitors	NUMBER	-1	2.0	5.0	[]	3	
silver	NUMBER	-1	0.0	-1.0	[]	2	
sports	NUMBER	-1	2.0	2.0	[]	1	
officials	OTHER	-1	-1.0	-1.0	[]	0	
gold	NUMBER	-1	0.0	-1.0	[]	2	

