flagbearer	OTHER	-1	-1.0	-1.0	[]	3	
bronze	NUMBER	-1	1.0	17.0	[]	9	
total	NUMBER	-1	6.0	14.0	[]	3	
games	NUMBER	summe,winte,	-1.0	-1.0	[]	12	
rank	OTHER	-1	-1.0	-1.0	[]	12	
competitors	NUMBER	(,	19.0	44.0	[]	8	
silver	NUMBER	-1	1.0	16.0	[]	9	
sports	NUMBER	-1	2.0	9.0	[]	4	
officials	STRING	-1	-1.0	-1.0	[]	1	
gold	NUMBER	-1	2.0	17.0	[]	9	

