total	NUMBER	-1	1.0	1.0	[]	1	
bronze	NUMBER	-1	0.0	1.0	[]	2	
flagbearer	OTHER	-1	-1.0	-1.0	[]	0	
games	NUMBER	summe,	-1.0	-1.0	[]	7	
rank	OTHER	-1	-1.0	-1.0	[]	7	
silver	NUMBER	-1	0.0	1.0	[]	3	
competitors	NUMBER	-1	4.0	12.0	[]	7	
sports	NUMBER	-1	3.0	4.0	[]	2	
officials	OTHER	-1	-1.0	-1.0	[]	0	
gold	NUMBER	-1	0.0	1.0	[]	3	

