See_Also	OTHER	-1	-1.0	-1.0	[]	21	
Characteristics	OTHER	onwar,milli,conve,	-1.0	-1.0	[]	15	
Short	STRING	-1	-1.0	-1.0	[]	3	
Origin	OTHER	) },),	-1.0	-1.0	[]	11	
Image_Name	OTHER	.png,.jpeg,-,	-1.0	-1.0	[]	10	
Usage	STRING	-1	-1.0	-1.0	[Name]	45	
Additional_Names	STRING	-1	-1.0	-1.0	[]	5	
Image_Caption	STRING	[[oil,	-1.0	-1.0	[]	10	
Extra_Column	STRING	-1	-1.0	-1.0	[]	10	
Extra_column	OTHER	-1	-1.0	-1.0	[]	0	
Extra_Title	STRING	-1	-1.0	-1.0	[]	10	
Definition	STRING	.,and,	-1.0	-1.0	[]	21	

