bronze	NUMBER	-1	5.0	10.0	[]	3	
total	NUMBER	-1	6.0	6.0	[]	1	
flagbearer	OTHER	-1	-1.0	-1.0	[]	1	
games	NUMBER	summe,winte,	-1.0	-1.0	[]	8	
rank	OTHER	-1	-1.0	-1.0	[]	8	
silver	NUMBER	-1	6.0	8.0	[]	2	
competitors	NUMBER	(,	2.0	37.0	[]	5	
sports	NUMBER	-1	1.0	1.0	[]	2	
officials	OTHER	-1	-1.0	-1.0	[]	0	
gold	NUMBER	-1	1.0	2.0	[]	3	

