total	OTHER	-1	-1.0	-1.0	[]	0	
bronze	NUMBER	-1	0.0	1.0	[]	2	
flagbearer	OTHER	-1	-1.0	-1.0	[]	0	
games	NUMBER	summe,	-1.0	-1.0	[]	4	
rank	OTHER	-1	-1.0	-1.0	[]	4	
silver	NUMBER	-1	0.0	-1.0	[]	2	
competitors	NUMBER	-1	1.0	2.0	[]	3	
sports	NUMBER	-1	1.0	1.0	[]	2	
officials	OTHER	-1	-1.0	-1.0	[]	0	
gold	NUMBER	-1	0.0	-1.0	[]	2	

