flagbearer	OTHER	-1	-1.0	-1.0	[]	1	
bronze	OTHER	-1	-1.0	-1.0	[]	0	
total	OTHER	-1	-1.0	-1.0	[]	0	
games	NUMBER	summe,	-1.0	-1.0	[]	1	
rank	OTHER	-1	-1.0	-1.0	[]	1	
competitors	NUMBER	-1	1.0	1.0	[]	1	
silver	OTHER	-1	-1.0	-1.0	[]	0	
sports	NUMBER	-1	1.0	1.0	[]	1	
officials	NUMBER	-1	9.0	9.0	[]	1	
gold	OTHER	-1	-1.0	-1.0	[]	0	

