bronze	NUMBER	-1	4.0	17.0	[]	10	
total	NUMBER	-1	20.0	34.0	[]	3	
flagbearer	OTHER	-1	-1.0	-1.0	[]	2	
games	NUMBER	summe,winte,	-1.0	-1.0	[]	13	
rank	OTHER	-1	-1.0	-1.0	[]	13	
silver	NUMBER	-1	1.0	16.0	[]	10	
competitors	NUMBER	(,	1.0	81.0	[]	6	
sports	NUMBER	-1	1.0	21.0	[]	3	
officials	OTHER	-1	-1.0	-1.0	[]	0	
gold	NUMBER	-1	0.0	20.0	[]	10	

