total	OTHER	-1	-1.0	-1.0	[]	0	
bronze	NUMBER	-1	0.0	-1.0	[]	1	
flagbearer	OTHER	-1	-1.0	-1.0	[]	1	
games	NUMBER	summe,winte,	-1.0	-1.0	[]	7	
rank	OTHER	-1	-1.0	-1.0	[]	7	
silver	NUMBER	-1	0.0	-1.0	[]	1	
competitors	NUMBER	-1	1.0	13.0	[]	7	
sports	NUMBER	-1	1.0	3.0	[]	4	
officials	OTHER	-1	-1.0	-1.0	[]	0	
gold	NUMBER	-1	0.0	-1.0	[]	1	

