bronze	OTHER	-1	-1.0	-1.0	[]	0	
flagbearer	STRING	-1	-1.0	-1.0	[]	1	
games	NUMBER	summe,	-1.0	-1.0	[]	3	
rank	OTHER	-1	-1.0	-1.0	[]	3	
silver	OTHER	-1	-1.0	-1.0	[]	0	
competitors	NUMBER	-1	1.0	3.0	[]	3	
sports	NUMBER	-1	1.0	2.0	[]	2	
officials	OTHER	-1	-1.0	-1.0	[]	0	
gold	OTHER	-1	-1.0	-1.0	[]	0	

