champion	OTHER	ers]],st ti,	-1.0	-1.0	[caption]	85	
prevconf_year	NUMBER	,–,-,	1980.0	2011.0	[]	72	
logo	NUMBER	.png,pba f,.jpg,pba d,philc,	-1.0	-1.0	[]	13	
text	OTHER	-1	-1.0	-1.0	[]	0	
best_import	OTHER	ers|a,	-1.0	-1.0	[]	45	
nextconf_year	OTHER	,–,-,	-1.0	-1.0	[]	88	
attendance	OTHER	-1	-1.0	-1.0	[]	0	
pixels	NUMBER	px,	-1.0	-1.0	[]	21	
conference_name	STRING	-1	-1.0	-1.0	[]	87	
up	OTHER	ers]],-up b,expre,]]),|c/s,]]),,]],]] -,	-1.0	-1.0	[TV]	172	
title	OTHER	-1	-1.0	-1.0	[]	0	
duration	NUMBER	- nov,- feb,– nov,- oct,- dec,– dec,- aug,– jul,– may,- may,,,- jul,- jun,- sep,– aug,	-1.0	-1.0	[]	87	
finals_mvp	OTHER	-1	-1.0	-1.0	[]	28	
color	OTHER	-1	-1.0	-1.0	[]	0	
prevconf_link	NUMBER	–,pba p,pba o,pba i,pba f,pba t,pba g,pba r,pba a,pba d,pba c,-,	-1.0	-1.0	[]	72	
year	NUMBER	–,-,	1982.0	2012.0	[]	87	
best_player	OTHER	-1	-1.0	-1.0	[]	30	
nextconf_link	NUMBER	pba s,pba t,pba r,-,–,pba p,pba o,pba i,pba f,pba g,pba a,pba d,pba c,	-1.0	-1.0	[]	75	

