television	OTHER	]],	-1.0	-1.0	[]	2	
manager	STRING	-1	-1.0	-1.0	[]	1	
prevseason	OTHER	,hills,formu,shell,diet,gilbe,prest,st. g,tonde,]],batan,alask,–,u-tex,n-ric,beer,puref,gold,pepsi,añejo,fedex,tivol,crisp,toyot,mobil,san m,tandu,pop c,-,magno,great,sunki,walk,swift,gineb,gordo,	-1.0	-1.0	[]	218	
coaches	STRING	-1	-1.0	-1.0	[]	1	
misc	OTHER	-1	-1.0	-1.0	[]	0	
no_prevseason	NUMBER	-1	1.0	1.0	[]	8	
pol_team	NUMBER	-1	1.0	10.0	[]	146	
3c	NUMBER	-1	1.0	1.0	[]	115	
nextseason	OTHER	,hills,shell,formu,diet,gilbe,prest,tonde,alask,–,n-ric,u-tex,manil,puref,gold,pepsi,talk,añejo,fedex,tivol,crisp,galer,toyot,mobil,san m,tandu,pop c,-,sta.,magno,sunki,great,baran,walk,swift,gineb,gordo,	-1.0	-1.0	[]	247	
losses	NUMBER	),/,	0.0	15.0	[]	247	
playoffs	STRING	&ndas,th se,pba f,pba g,-,	-1.0	-1.0	[]	247	
radio	OTHER	]],	-1.0	-1.0	[]	2	
PBAyear	OTHER	–,-,	-1.0	-1.0	[]	247	
place	OTHER	nd (t,st /,th (t,rd (t,),- may,rd,)  [[,th,st co,nd,pba f,nd /,pba g,st,st se,	-1.0	-1.0	[coach, name]	741	
owners	STRING	, inc,capit,	-1.0	-1.0	[]	105	
team2	STRING	rhum,-up u,s,expre,ers,-,	-1.0	-1.0	[team]	323	
wins	NUMBER	),/,	0.0	20.0	[]	247	

