image_size	NUMBER	px,	-1.0	-1.0	[]	1	
descendant	OTHER	-1	-1.0	-1.0	[]	1	
name	STRING	-1	-1.0	-1.0	[]	8	
image	OTHER	.jpg,-,	-1.0	-1.0	[]	8	
caption	OTHER	bc).,.,-,	-1.0	-1.0	[]	8	
era	OTHER	years,th-ce,	-1.0	-1.0	[]	8	
types	STRING	-1	-1.0	-1.0	[]	1	
ancestor	OTHER	-1	-1.0	-1.0	[]	3	
medium	STRING	-1	-1.0	-1.0	[]	2	
culture	OTHER	-1	-1.0	-1.0	[]	6	

