locator_image	STRING	-1	-1.0	-1.0	[]	1	
name	STRING	-1	-1.0	-1.0	[image]	2	
width	NUMBER	px,	-1.0	-1.0	[]	1	
caption	NUMBER	),	-1.0	-1.0	[]	1	
area_sqmi	NUMBER	-1	1.222	1.222	[]	1	
population2010	NUMBER	-1	10408.0	11471.0	[population2000]	3	

