region	STRING	-1	-1.0	-1.0	[]	2	
sjem	OTHER	-1	-1.0	-1.0	[]	2	
type	STRING	-1	-1.0	-1.0	[name]	4	
nativename	OTHER	-1	-1.0	-1.0	[]	2	
map_year	NUMBER	-1	2007.0	2007.0	[]	2	
caption2	OTHER	-1	-1.0	-1.0	[caption]	0	
sjemdistrict	NUMBER	-1	24.0	24.0	[]	2	
senatdistrict	NUMBER	-1	23.0	23.0	[]	2	
year	OTHER	-1	-1.0	-1.0	[senat]	2	
national	OTHER	-1	-1.0	-1.0	[]	0	
map_size	NUMBER	px,	-1.0	-1.0	[]	2	
parliament	STRING	-1	-1.0	-1.0	[]	2	
european	OTHER	-1	-1.0	-1.0	[]	2	
county	OTHER	-1	-1.0	-1.0	[]	2	
cities	OTHER	-1	-1.0	-1.0	[]	2	
map2	OTHER	-1	-1.0	-1.0	[image2]	0	
map1	NUMBER	.svg,	-1.0	-1.0	[]	2	
abolished	OTHER	-1	-1.0	-1.0	[]	0	
westminster	OTHER	-1	-1.0	-1.0	[]	0	
map_entity	STRING	-1	-1.0	-1.0	[]	2	

