appearancedate	NUMBER	,,-,	-1.0	-1.0	[]	10	
weight	NUMBER	|ft|,|lb|k,',lb (,|lbs|,ft,|in=,	22.0	26.0	[waist, height]	31	
bust	OTHER	dd,b,c,[[bra,	-1.0	-1.0	[alt]	11	
imdb	NUMBER	-1	236928.0	236928.0	[]	1	
id	STRING	-1	-1.0	-1.0	[iafd]	5	
haircolor	STRING	-1	-1.0	-1.0	[]	12	
image_size	NUMBER	px,	-1.0	-1.0	[]	1	
name	STRING	-1	-1.0	-1.0	[image]	15	
gender	STRING	-1	-1.0	-1.0	[]	1	
year	OTHER	-1	-1.0	-1.0	[]	5	
eyecolor	STRING	-1	-1.0	-1.0	[]	11	
birth_date	NUMBER	|,-,	-1.0	-1.0	[]	9	
alias	OTHER	-1	-1.0	-1.0	[]	0	
naturalbust	STRING	-1	-1.0	-1.0	[]	6	
films	OTHER	-1	-1.0	-1.0	[]	0	
birth_place	OTHER	,,	-1.0	-1.0	[]	12	
hips	NUMBER	-1	32.0	38.0	[]	11	
homepage	OTHER	-1	-1.0	-1.0	[]	0	
month	DATE	-1	-1.0	-1.0	[]	3	
day	NUMBER	-,	-1.0	-1.0	[]	3	
ethnicity	OTHER	-1	-1.0	-1.0	[]	8	

