Status	STRING	-1	-1.0	-1.0	[]	2	
Homeworld	STRING	-1	-1.0	-1.0	[]	2	
appearance	OTHER	(''po,	-1.0	-1.0	[]	2	
Zords	STRING	-1	-1.0	-1.0	[]	2	
image_size	NUMBER	px,	-1.0	-1.0	[]	1	
name	STRING	-1	-1.0	-1.0	[image]	3	
Series	OTHER	-1	-1.0	-1.0	[]	2	
by	OTHER	-1	-1.0	-1.0	[]	2	
Title	STRING	-1	-1.0	-1.0	[]	1	
Color	OTHER	-1	-1.0	-1.0	[]	0	

