Channel	STRING	-1	-1.0	-1.0	[]	1	
influences	OTHER	-1	-1.0	-1.0	[influenced]	0	
religion	STRING	-1	-1.0	-1.0	[]	1	
spouse	OTHER	–,),	-1.0	-1.0	[]	7	
partner	OTHER	–,–pres,	-1.0	-1.0	[parents]	10	
salary	OTHER	-1	-1.0	-1.0	[]	0	
Awards	STRING	-1	-1.0	-1.0	[]	1	
signature	STRING	-1	-1.0	-1.0	[]	1	
home_town	SET_OF_STRINGS	-1	-1.0	-1.0	[]	1	
Sundays	NUMBER	:,	-1.0	-1.0	[]	1	
nickname	OTHER	-1	-1.0	-1.0	[]	0	
data5	STRING	-1	-1.0	-1.0	[]	1	
Incarcerated	STRING	-1	-1.0	-1.0	[]	1	
shows	STRING	-1	-1.0	-1.0	[show3]	4	
homepage	OTHER	-1	-1.0	-1.0	[]	2	
Newspaper	OTHER	-1	-1.0	-1.0	[]	0	
F	NUMBER	&ndas,	-1.0	-1.0	[]	1	
sagawards	OTHER	-1	-1.0	-1.0	[awards]	2	
subject	OTHER	-1	-1.0	-1.0	[]	0	
credits	OTHER	-1	-1.0	-1.0	[]	0	
title	OTHER	hits,,	-1.0	-1.0	[style]	227	
web	OTHER	&nid=,,lgly,- joh,aai.h,wcfl.,fm.ie,/defa,abc m,more,?ref=,&spid,kex.c,secon,wkqz,npr b,jlwqd,] [ht,/,,,-,fm/da,).jpg,edite,theti,/show,.webb,five.,thebu,.png,.jpg,''spo,fm.co,/rory,s nbc,zzfht,septe,wkp,],/chri,dq,_big_,anive,fm/je,&item,d,vhhn,pat c,/peop,bob w,myspa,.php,.com/,.com.,offic,p,cropp,nbc.j,am-,wiilr,	-1.0	-1.0	[on, imdb]	457	
Began	NUMBER	,,	-1.0	-1.0	[]	1	
medium	OTHER	-1	-1.0	-1.0	[]	1	
works	OTHER	-1	-1.0	-1.0	[]	2	
goldenglobeawards	OTHER	-1	-1.0	-1.0	[]	1	
residence	STRING	-1	-1.0	-1.0	[]	1	
background	STRING	-1	-1.0	-1.0	[]	1	
ethnicity	OTHER	-1	-1.0	-1.0	[]	0	
notable_work	NUMBER	-,	-1.0	-1.0	[]	1	
genre	OTHER	-1	-1.0	-1.0	[agent]	2	
birth_name	STRING	}},	-1.0	-1.0	[]	195	
deathcause	OTHER	-1	-1.0	-1.0	[death_cause]	1	
known_for	NUMBER	-,	-1.0	-1.0	[]	1	
death_place	OTHER	px]],,,	-1.0	-1.0	[birth_place]	390	
height	NUMBER	-1	11.0	11.0	[]	1	
domesticpartner	OTHER	-1	-1.0	-1.0	[]	0	
family	OTHER	-1	-1.0	-1.0	[]	0	
label5	STRING	-1	-1.0	-1.0	[]	1	
other_names	OTHER	-1	-1.0	-1.0	[]	0	
death_date	NUMBER	(aged,janua,may,april,}},june,or,/,,,-,march,augus,octob,july,|,s or,novem,	1893.0	1979.0	[birth_date]	402	
occupation	STRING	-1	-1.0	-1.0	[occcupation]	10	
status	OTHER	]] &,pr]],abc s,stone,]] /,]],]], [,wisn,)]],q]],abc m,(mala,[[tri,wiil,th ye,]] to,meteo,abc a,live,(aber,, chi,and s,th an,),.,,,+ aff,am, [,fm|b,, pic,[[bro,[[kex,, sep,fm]],roads,, [[c,) [[a,(isra,june,docum,[[wwc,am po,–,live],-am p,(lase,-pres,- chi,chica,am, m,tv]],music,) wne,am sp,(new,five,april,canad,(tv c,wnab,ix,'s bi,am wj,]] in,sm]],am,octob,day f,[[opi,	-1.0	-1.0	[station]	424	
podcast	OTHER	-1	-1.0	-1.0	[]	1	
Number	NUMBER	-,	-1.0	-1.0	[]	1	
prevshow	OTHER	–,&ndas,uw]]),londo,count,news],.,p.m.,]] [[,]],]], [,-,	-1.0	-1.0	[]	82	
width	NUMBER	-1	175.0	175.0	[]	1	
networth	OTHER	]],]] [[,	-1.0	-1.0	[network3]	103	
alma_mater	OTHER	-1	-1.0	-1.0	[]	3	
resting_place	OTHER	-1	-1.0	-1.0	[]	1	
country	OTHER	-1	-1.0	-1.0	[]	337	
company	STRING	-1	-1.0	-1.0	[]	1	
active	OTHER	-1	-1.0	-1.0	[]	0	
relatives	OTHER	-1	-1.0	-1.0	[]	0	
birthname	OTHER	-1	-1.0	-1.0	[]	0	
station3	NUMBER	.,]],fm]],	-1.0	-1.0	[]	3	
employer	OTHER	-1	-1.0	-1.0	[]	0	
station2	OTHER	and s,]] (,(neth,stati,.,]],am [[,abc p,live],abc m,(lase,fm]],wcco],	-1.0	-1.0	[]	55	
children	OTHER	child,}},sons,sons,,|,febru,	-1.0	-1.0	[]	51	
timeslot3	NUMBER	&ndas,&nbsp,pm we,pm et,a.m.,.,am (s,p.m.,pm –,pm to,-,–,am -,pm -,am –,pm-,am,pm,:,am–,p, su,am-,am to,	-1.0	-1.0	[timeslot2]	251	
education	OTHER	-1	-1.0	-1.0	[]	1	
blog	STRING	-1	-1.0	-1.0	[]	1	
honorific_suffix	OTHER	-1	-1.0	-1.0	[honorific_prefix]	2	
name	STRING	-1	-1.0	-1.0	[Crime, nam]	407	
slot	NUMBER	px,,,-,	-1.0	-1.0	[size]	4	
home_station	OTHER	-1	-1.0	-1.0	[]	0	
alias	STRING	-1	-1.0	-1.0	[]	16	
website	OTHER	music,_brea,/show,/alt/,.com.,-,	-1.0	-1.0	[]	72	
emmyawards	OTHER	-1	-1.0	-1.0	[]	0	
origin	OTHER	-1	-1.0	-1.0	[]	1	
imagesize	NUMBER	px,x,	150.0	200.0	[image_size]	132	
show2	OTHER	music,five,'',club',: huw,''spo,]],shows,-),-,break,)|tod,it.co,'' '',s]]'',-pres,night,austr,live,	-1.0	-1.0	[show, show1]	347	
nationality	STRING	-1	-1.0	-1.0	[]	12	
realname	STRING	-1	-1.0	-1.0	[]	1	
yearsactive	NUMBER	- pre,-pres,– pre,–pres,	1997.0	1997.0	[years_active]	10	

