successor	OTHER	rd du,	-1.0	-1.0	[succession]	21	
issue	STRING	-1	-1.0	-1.0	[]	2	
children	OTHER	)|pri,),) sah,	-1.0	-1.0	[]	17	
from	NUMBER	janua,may,april,june,decem,(culm,,,-,march,rd du,augus,-  pr,octob,july,febru,novem,	1490.0	1980.0	[]	37	
king	OTHER	-1	-1.0	-1.0	[]	39	
until	NUMBER	janua,june,novem,	-1.0	-1.0	[]	3	
regent	OTHER	-1	-1.0	-1.0	[]	2	
predecessor	OTHER	rd du,) [[m,	-1.0	-1.0	[]	29	
religion	OTHER	-1	-1.0	-1.0	[]	3	
known_for	OTHER	-1	-1.0	-1.0	[]	1	
death_place	OTHER	–,	-1.0	-1.0	[birth_place]	55	
apparent	OTHER	-1	-1.0	-1.0	[]	1	
image_size	NUMBER	px,	-1.0	-1.0	[]	1	
type1	STRING	st ea,	-1.0	-1.0	[type]	45	
spouse	OTHER	–,),-,	-1.0	-1.0	[house]	64	
year	NUMBER	¹,septe,, [[b,novem,	1800.0	1975.0	[]	36	
death_date	NUMBER	janua,april,june,}},decem,,,july|,augus,march,octob,july,|,febru,novem,	1462.0	1918.0	[birth_date]	65	
regnal	STRING	-1	-1.0	-1.0	[]	8	
reign1	NUMBER	febru,novem,	-1.0	-1.0	[reign]	2	
image	OTHER	st ea,.jpg,stoff,	-1.0	-1.0	[]	22	
caption	STRING	-1	-1.0	-1.0	[]	1	
siblings	NUMBER	rd du,	-1.0	-1.0	[]	1	
alma_mater	OTHER	-1	-1.0	-1.0	[]	1	
footnotes	OTHER	; sov,self,	-1.0	-1.0	[]	32	
relationship	STRING	st du,	-1.0	-1.0	[]	39	
throne	OTHER	-,	-1.0	-1.0	[]	40	
residence	OTHER	-1	-1.0	-1.0	[]	1	
mother	OTHER	–,nd du,th co,-,	-1.0	-1.0	[father]	83	
titles	OTHER	-1	-1.0	-1.0	[title]	34	

