doors	NUMBER	.,,,	-1.0	-1.0	[coords]	2	
location	OTHER	,|km}},count,[[spa,broad,_(ala,north,]],stenh,–,glen,aeria,disco,, des,in vi,priso,{{spa,[[gou,[[inn,.,/,snyde,corre,and,marti,james,[[tex,great,e.,, hồ,mcmul,south,|,).,th ce,km ea,west,x,	-1.0	-1.0	[caption]	798	
governor	STRING	to,-,	-1.0	-1.0	[]	160	
by	STRING	-1	-1.0	-1.0	[]	1	
Acreage	NUMBER	-1	100.0	100.0	[]	1	
overcrowding_rate	NUMBER	%,	-1.0	-1.0	[]	1	
opened	OTHER	,}},june,(orig,]],march,(swcc,septe,july,jan,''(,(comp,janua,may,(stat,april,st ju,(secu,(,),/,,,(as e,augus,(dill,'s,s,(curr,(civi,(nncc,|,febru,, reb,th ce,novem,	-1.0	-1.0	[]	556	
managed_by	OTHER	&ndas,{{nda,{{spa,s.com,s. th,s]],s|g,),-,	-1.0	-1.0	[]	663	
symbol	NUMBER	px]],	-1.0	-1.0	[]	1	
renovated	NUMBER	-1	1998.0	1998.0	[]	1	
status	STRING	-1	-1.0	-1.0	[]	514	
image	NUMBER	,px|fc,fci_p,px|ma,sprin,px]],px|an,px|hm,]],px|a,in ja,th av,th oc,.jpg|,px|ea,px|lå,under,px|el,px|th,jail,px|ri,px|en,-,px|ae,).jpg,px|]],px|al,px|fr,bus.j,px|pl,px|ce,.png|,px|pr,x,	-1.0	-1.0	[]	401	
populationdate	OTHER	(acco,janua,march,jan,,}},july,febru,/,,,novem,-,	-1.0	-1.0	[]	228	
director	OTHER	–,)  [[,	-1.0	-1.0	[]	222	
postcode	OTHER	,-,	-1.0	-1.0	[]	3	
embedded	NUMBER	=cali,=cana,	-1.0	-1.0	[]	2	
nrhp	OTHER	-1	-1.0	-1.0	[]	1	
email	OTHER	-1	-1.0	-1.0	[]	0	
county	OTHER	-1	-1.0	-1.0	[city, country]	15	
Security_Level	STRING	-1	-1.0	-1.0	[]	1	
warden	OTHER	-1	-1.0	-1.0	[]	139	
state	OTHER	-1	-1.0	-1.0	[]	4	
prison_name	STRING	-1	-1.0	-1.0	[]	719	
security	STRING	-1	-1.0	-1.0	[]	5	
Warden	STRING	-1	-1.0	-1.0	[]	2	
reopened	NUMBER	-1	2012.0	2012.0	[]	1	
former_name	STRING	{{spa,	-1.0	-1.0	[]	15	
blank_info	OTHER	-1	-1.0	-1.0	[]	0	
prisoners	OTHER	[[umm,april,octob,,,	-1.0	-1.0	[]	138	
name	STRING	-1	-1.0	-1.0	[]	4	
capacity	OTHER	femal,(high,(janu,(marc,; far,singl,, plu,appro,(jmcc,(augu,(swcc,(male,(d-ty,(juve,(sept,- act,[http,but h,+,males,(,(hist,(dec.,(with,,,(hous,(est.,(febr,{{cit,; min,lbh;,(as a,(full,(dece,as of,(may,(june,(at p,	-1.0	-1.0	[]	342	
closed	OTHER	janua,april,}},,,-,march,septe,s;,(male,octob,july,|,novem,	-1.0	-1.0	[]	109	
long_seconds	NUMBER	-1	20.0	20.0	[lat_seconds]	2	
coordinates	NUMBER	°,|,.,/bors,/ur/c,	-1.0	-1.0	[]	257	
population	OTHER	(febr,femal,(juve,+,males,(,avera,(may,(avg.,,,on oc,	-1.0	-1.0	[]	367	
cameras	NUMBER	-1	366.0	366.0	[]	1	
zip	NUMBER	,%,),acres,,,	10474.0	97310.0	[tel, size]	19	
logo	NUMBER	px]],	-1.0	-1.0	[]	1	
houses	NUMBER	,,	27.0	328.0	[]	7	
long_minutes	NUMBER	-1	17.0	31.0	[lat_minutes]	2	
website	OTHER	.htm},hmp p,/,	-1.0	-1.0	[]	141	
imagesize	NUMBER	px,	-1.0	-1.0	[]	1	
abbreviation	STRING	-1	-1.0	-1.0	[]	1	
long_direction	STRING	-1	-1.0	-1.0	[lat_direction]	2	
long_degrees	NUMBER	-1	18.0	59.0	[lat_degrees]	2	
address	NUMBER	halle,h. ja,state,highw,/,west,	-1.0	-1.0	[]	6	
classification	OTHER	(corr,.aspx,(medi,(supe,&nbsp,),(mini,/,	-1.0	-1.0	[]	619	
Superintendent	STRING	-1	-1.0	-1.0	[]	3	

