network	OTHER	s|nbc,s|abc,s|cbs,	-1.0	-1.0	[]	66	
different_previous	NUMBER	natio,	-1.0	-1.0	[]	3	
city	OTHER	-1	-1.0	-1.0	[]	68	
share	OTHER	-1	-1.0	-1.0	[home]	71	
anthem	OTHER	-1	-1.0	-1.0	[]	12	
different_title	NUMBER	(janu,(dece,	-1.0	-1.0	[]	4	
coin_toss	OTHER	-1	-1.0	-1.0	[]	7	
home_qtr6	OTHER	-1	-1.0	-1.0	[]	0	
year	NUMBER	-1	1939.0	2013.0	[]	68	
home_qtr5	NUMBER	-1	0.0	28.0	[home_qtr4]	274	
MVPteam	OTHER	phila,cleve,houst,kansa,green,miami,dalla,los a,pitts,jacks,san f,new y,san d,detro,atlan,buffa,balti,new o,minne,india,seatt,chica,washi,	-1.0	-1.0	[]	63	
announcers	OTHER	-1	-1.0	-1.0	[]	62	
MVP2	OTHER	-1	-1.0	-1.0	[MVP]	87	
halftime	OTHER	-1	-1.0	-1.0	[]	5	
attendance	NUMBER	,,	-1.0	-1.0	[]	68	
homecoachteam	NUMBER	oakla,houst,green,dalla,los a,tampa,san f,new y,carol,detro,atlan,balti,minne,chica,washi,	-1.0	-1.0	[]	68	
image	NUMBER	.jpg],.jpg|,probo,pro b,nfl p,,,	-1.0	-1.0	[date]	79	
visitor	OTHER	-1	-1.0	-1.0	[]	68	
different_next	NUMBER	natio,pro b,	-1.0	-1.0	[]	5	
visitor_qtr6	OTHER	-1	-1.0	-1.0	[]	0	
Previous	NUMBER	natio,	-1.0	-1.0	[]	1	
referee	OTHER	-1	-1.0	-1.0	[]	45	
stadium	OTHER	-1	-1.0	-1.0	[]	68	
homecoach	OTHER	-1	-1.0	-1.0	[]	68	
visitorcoach	OTHER	-1	-1.0	-1.0	[]	68	
MVP2team	NUMBER	phila,kansa,green,tampa,dalla,los a,st. l,pitts,new y,detro,new e,chica,washi,	-1.0	-1.0	[]	19	
rating	OTHER	.,	-1.0	-1.0	[]	2	
visitor_qtr5	NUMBER	-1	0.0	21.0	[visitor_qtr3, visitor_qtr4]	274	
visitorcoachteam	NUMBER	phila,oakla,cleve,houst,kansa,green,miami,dalla,los a,pitts,jacks,new y,san d,buffa,balti,new o,denve,india,seatt,chica,washi,	-1.0	-1.0	[]	68	

