narchw_titles	OTHER	-1	-1.0	-1.0	[narch_titles]	0	
city	OTHER	-1	-1.0	-1.0	[]	1	
piha_titles	NUMBER	–,	-1.0	-1.0	[]	1	
founded	NUMBER	piha,	-1.0	-1.0	[]	1	
arena	OTHER	-1	-1.0	-1.0	[]	1	
current3	OTHER	-1	-1.0	-1.0	[current2]	0	
conference	OTHER	-1	-1.0	-1.0	[]	1	
pihaml_titles	OTHER	-1	-1.0	-1.0	[aihl_titles]	0	
colors	NUMBER	}},	-1.0	-1.0	[]	1	
reg_season_titles	NUMBER	–,	-1.0	-1.0	[]	1	
rhi_titles	OTHER	-1	-1.0	-1.0	[]	0	
media_affiliates	OTHER	-1	-1.0	-1.0	[]	0	
team	OTHER	-1	-1.0	-1.0	[]	0	
league	OTHER	-1	-1.0	-1.0	[]	1	
affiliates	OTHER	-1	-1.0	-1.0	[]	1	
owner	OTHER	-1	-1.0	-1.0	[]	1	
torhswc_titles	OTHER	-1	-1.0	-1.0	[torhs_titles]	1	
media	OTHER	-1	-1.0	-1.0	[]	0	
text_color	STRING	-1	-1.0	-1.0	[]	1	
bg_color	STRING	-1	-1.0	-1.0	[]	1	
conf_titles	NUMBER	–,	-1.0	-1.0	[]	1	
operated	OTHER	-1	-1.0	-1.0	[]	0	
captain	OTHER	-1	-1.0	-1.0	[]	1	
division	OTHER	-1	-1.0	-1.0	[]	1	
logo	STRING	-1	-1.0	-1.0	[]	1	
logosize	OTHER	-1	-1.0	-1.0	[]	0	
uniform	OTHER	-1	-1.0	-1.0	[]	0	
coach	OTHER	-1	-1.0	-1.0	[]	0	
team_name	STRING	-1	-1.0	-1.0	[]	1	
history	NUMBER	piha,	-1.0	-1.0	[]	1	
name9	OTHER	-1	-1.0	-1.0	[dates9, name6, name7, name8]	0	
division_titles	NUMBER	piha,	-1.0	-1.0	[]	1	
GM	OTHER	-1	-1.0	-1.0	[]	1	

