visitation_year	NUMBER	,,	1988.0	2011.0	[]	11	
location	OTHER	-1	-1.0	-1.0	[]	1	
long	NUMBER	-1	-39.1667	149.95	[lat]	82	
managing_authorities	OTHER	-1	-1.0	-1.0	[]	196	
area	NUMBER	|sqkm,|ha}},squar,hecta,&nbsp,|ha|a,.,,,km²,km,ha,km² o,|km,km² (,|ha|m,|m,|ha|s,	-1.0	-1.0	[]	198	
name	STRING	px|wa,_kalk,email,a.jpg,.jpg,_poun,-,	-1.0	-1.0	[image]	334	
year	OTHER	-1	-1.0	-1.0	[map]	0	
iucn_category	STRING	-1	-1.0	-1.0	[]	191	
coordinates	NUMBER	|,.,	-1.0	-1.0	[]	200	
visitation_num	NUMBER	}},milli,,,	-1.0	-1.0	[]	9	
site	OTHER	-1	-1.0	-1.0	[city]	1	
location_map	STRING	-1	-1.0	-1.0	[]	41	
map_caption	STRING	-1	-1.0	-1.0	[]	1	
established	OTHER	janua,april,june,(regi,decem,(as l,,,augus,st,,septe,octob,july,febru,novem,	-1.0	-1.0	[]	170	
caption	STRING	the p,pound,	-1.0	-1.0	[]	31	
nearest_town_or_city	OTHER	-1	-1.0	-1.0	[]	169	
town_or_city4	OTHER	-1	-1.0	-1.0	[town_or_city3]	3	
locator_y	NUMBER	-1	15.0	273.0	[locator_x]	210	
num	OTHER	-1	-1.0	-1.0	[]	0	
category	OTHER	-1	-1.0	-1.0	[]	0	
authorities	OTHER	-1	-1.0	-1.0	[]	0	
official_site	OTHER	kanan,/ por,/item,blue,green,],oxley,boudd,budaw,www.e,park_,?open,	-1.0	-1.0	[]	202	

