region	OTHER	-1	-1.0	-1.0	[]	1	
area	NUMBER	,,	-1.0	-1.0	[]	1	
coatofarms	NUMBER	px]],	-1.0	-1.0	[]	1	
name	OTHER	-1	-1.0	-1.0	[]	0	
commune	STRING	-1	-1.0	-1.0	[]	1	
map	NUMBER	px|]],	-1.0	-1.0	[]	1	
population_as_of	NUMBER	),	-1.0	-1.0	[]	1	
capital	OTHER	-1	-1.0	-1.0	[]	1	
populationdensity	NUMBER	-1	128.0	128.0	[]	1	
fullname	STRING	-1	-1.0	-1.0	[]	1	
population	NUMBER	,,	-1.0	-1.0	[]	1	

