ra	NUMBER	|,	-1.0	-1.0	[dec]	2	
appmag_v	OTHER	-1	-1.0	-1.0	[]	0	
dist_ly	NUMBER	×,	-1.0	-1.0	[]	1	
epoch	NUMBER	-1	2011.0	2011.0	[]	1	
size_v	OTHER	-1	-1.0	-1.0	[]	0	
image	OTHER	-1	-1.0	-1.0	[]	0	
type	OTHER	-1	-1.0	-1.0	[]	0	
notes	OTHER	-1	-1.0	-1.0	[names]	2	
z	OTHER	-1	-1.0	-1.0	[]	0	

