position	OTHER	=,	-1.0	-1.0	[]	8	
president	OTHER	-1	-1.0	-1.0	[]	9	
successor	OTHER	-1	-1.0	-1.0	[]	0	
membership	OTHER	-1	-1.0	-1.0	[]	0	
name_native	STRING	-1	-1.0	-1.0	[]	15	
predecessor	OTHER	-1	-1.0	-1.0	[]	0	
spokesperson	OTHER	-1	-1.0	-1.0	[]	1	
party_wikicolourid	STRING	-1	-1.0	-1.0	[]	13	
ideology	OTHER	=,	-1.0	-1.0	[]	24	
seats	NUMBER	-1	0.0	54.0	[]	12	
foundation	NUMBER	}},|,,,	-1.0	-1.0	[]	24	
socialpolicy	STRING	-1	-1.0	-1.0	[]	1	
colorcode	OTHER	ebc,cf,	-1.0	-1.0	[]	17	
logo	OTHER	.jpg|,px|ra,px]],px|an,.png|,px|pa,x,	-1.0	-1.0	[]	20	
website	OTHER	-1	-1.0	-1.0	[]	18	
international	OTHER	-1	-1.0	-1.0	[]	0	
merger	OTHER	-,	-1.0	-1.0	[leader, merged]	24	
fiscalpolicy	STRING	-1	-1.0	-1.0	[]	1	
party_name	STRING	-1	-1.0	-1.0	[]	25	
headquarters	NUMBER	rue w,, st-,, rue,, ave,amher,av. p,, che,monkl,rue s,-,	-1.0	-1.0	[]	16	
footnotes	OTHER	-1	-1.0	-1.0	[]	4	
colours	OTHER	-1	-1.0	-1.0	[]	17	
dissolution	NUMBER	}},|,,,	-1.0	-1.0	[]	10	
split	OTHER	-1	-1.0	-1.0	[]	3	

