Caption	STRING	map s,may,	-1.0	-1.0	[]	32	
handle	NUMBER	.,,,	-1.0	-1.0	[]	4	
notableraces	OTHER	) [[c,) [[d,) ame,) bev,)   g,milli,),,,-,–,) [[u,) edd,) [[s,) ash,) [[q,) [[p,–) [[,) [[n,) [[k,) whi,hunte,) [[g,	-1.0	-1.0	[NotableRaces]	92	
location	OTHER	|rout,, wit,morto,park,hemps,),.,katel,race,-,paris,magom,rosec,aylme,	-1.0	-1.0	[Location, caption]	118	
Image	OTHER	,.jpg],.jpg|,may,px]],-unio,.,-,	-1.0	-1.0	[]	50	
name	STRING	th an,	-1.0	-1.0	[Name]	104	
closed	NUMBER	,,	-1.0	-1.0	[]	5	
Prev	OTHER	-1	-1.0	-1.0	[]	10	
Races	OTHER	-1	-1.0	-1.0	[]	2	
coursetype	OTHER	) and,|mi}},	-1.0	-1.0	[CourseType]	83	
coordinates	NUMBER	|,.,	-1.0	-1.0	[Coordinates]	28	
racetype	OTHER	/,	-1.0	-1.0	[RaceType]	19	
Architect	OTHER	-1	-1.0	-1.0	[]	1	
website	STRING	+m,.htm,	-1.0	-1.0	[Website]	79	
Closed	OTHER	}},,,	-1.0	-1.0	[]	7	
attendance	NUMBER	,,	-1.0	-1.0	[]	4	
image	NUMBER	.jpg|,c,px|al,px]],'s.jp,	-1.0	-1.0	[]	20	
Began	NUMBER	-1	2002.0	2002.0	[]	1	
Next	OTHER	-1	-1.0	-1.0	[]	22	
owner	OTHER	e.v.,march,augus,}},in [[,july,|,/,,,-,	-1.0	-1.0	[opened, Owner]	170	
Capacity	NUMBER	,,	-1.0	-1.0	[]	1	
channel	OTHER	-1	-1.0	-1.0	[Channel]	27	

