manager	OTHER	-1	-1.0	-1.0	[]	2	
announcer	OTHER	–,}} -,-,	-1.0	-1.0	[]	64	
rec_date	NUMBER	-1	1986.0	1986.0	[]	1	
guests	OTHER	-1	-1.0	-1.0	[]	0	
editors	OTHER	-,	-1.0	-1.0	[editor]	21	
composer	OTHER	-1	-1.0	-1.0	[]	2	
slogan	OTHER	-1	-1.0	-1.0	[logo]	4	
record_location	OTHER	, gol,) bbc,[[sto,px]],-june,.,]],, lev,, rté,-,–,, [[w,madis,, [[y,chec,,)   [,, mar,live,	-1.0	-1.0	[rec_location]	283	
associate_producer	STRING	-1	-1.0	-1.0	[]	1	
syndicates	OTHER	_blue,) [[c,- jan,+ [[n,fm st,[[npr,+ u.s,.,]],u.s.,]], [,-,only),–,]] me,day f,+ sta,]] [[,fm]],affil,s/cor,mbs]],	-1.0	-1.0	[]	160	
Broadcast_area	STRING	-1	-1.0	-1.0	[]	1	
producers	OTHER	&ndas,}},-',){{br,]],– pre,-,–,) jon,episo,-[[cl,-pres,)  da,	-1.0	-1.0	[producer, Producer]	368	
newsreader	OTHER	-1	-1.0	-1.0	[]	9	
image_caption	OTHER	-1	-1.0	-1.0	[]	0	
Facebook	OTHER	-1	-1.0	-1.0	[]	1	
director	OTHER	–,fm,.,tapes,-,	-1.0	-1.0	[Director, creator]	389	
othertheme	OTHER	janua,(beet,_%,.,/,-,nd ho,fm si,]] by,disco,boys,) ('r,.ogg],(tcha,	-1.0	-1.0	[opentheme]	187	
shows	OTHER	" on,	-1.0	-1.0	[host]	9	
creators	OTHER	-1	-1.0	-1.0	[]	1	
executive_producer	OTHER	-,	-1.0	-1.0	[]	73	
original_run	NUMBER	–,	-1.0	-1.0	[]	1	
bgcolour	OTHER	-1	-1.0	-1.0	[]	0	
language	OTHER	-1	-1.0	-1.0	[]	646	
narrated	OTHER	-1	-1.0	-1.0	[]	31	
television	OTHER	music,seaso,[[fre,. ful,(,]] (,),/,]],-,–,in te,(tv s,-pres,-may,(nbc,,	-1.0	-1.0	[]	61	
stream	NUMBER	mmmli,	-1.0	-1.0	[]	1	
theme_music_composer	OTHER	-1	-1.0	-1.0	[]	1	
Estimated	NUMBER	milli,	-1.0	-1.0	[]	1	
techniques	STRING	-1	-1.0	-1.0	[]	1	
preceded_by	OTHER	-1	-1.0	-1.0	[]	3	
Reach	NUMBER	milli,	-1.0	-1.0	[]	1	
num_series	NUMBER	so fa,seaso,(''ra,(seco,(as o,(engl,+,/,on ra,(plus,(up t,and a,(+,[[lis,+ pil,	1.0	79.0	[]	177	
announcers	STRING	-1	-1.0	-1.0	[Announcer]	2	
intro_gags	STRING	-1	-1.0	-1.0	[]	1	
theme	OTHER	- van,	-1.0	-1.0	[team, endtheme]	47	
exec_producer	STRING	-1	-1.0	-1.0	[]	35	
audio_format	OTHER	]] po,&ndas,- jan,kbps,),]] [[,]],	-1.0	-1.0	[]	253	
web	OTHER	-1	-1.0	-1.0	[by]	1	
sportreader	STRING	-1	-1.0	-1.0	[]	3	
Coordinator	STRING	-1	-1.0	-1.0	[]	1	
managing_editor	STRING	-1	-1.0	-1.0	[]	1	
history	NUMBER	/hist,	-1.0	-1.0	[]	1	
Publicist	STRING	-1	-1.0	-1.0	[]	1	
developer	OTHER	]],	-1.0	-1.0	[]	6	
intern	STRING	-1	-1.0	-1.0	[]	1	
executives_in_charge	STRING	-1	-1.0	-1.0	[executive_in_charge]	3	
senior_engineer	STRING	-1	-1.0	-1.0	[]	1	
writers	STRING	-1	-1.0	-1.0	[]	1	
genre	OTHER	-1	-1.0	-1.0	[Genre]	3	
studio	STRING	-1	-1.0	-1.0	[]	1	
Editor	STRING	-1	-1.0	-1.0	[]	1	
show_name_2	OTHER	-1	-1.0	-1.0	[]	1	
aired	STRING	-1	-1.0	-1.0	[_aired]	2	
list_episodes	OTHER	-1	-1.0	-1.0	[]	0	
related	OTHER	-1	-1.0	-1.0	[reader]	1	
num_episodes	OTHER	to,(as o,progr,(engl,(incl,]],(radi,lesso,and c,([[li,video,so fa,plus,, roc,audio,[http,+,(,/,,,shows,-,on ra,(up t,per s,''the,as of,per w,=,	-1.0	-1.0	[]	261	
twitter	STRING	-1	-1.0	-1.0	[title]	10	
audio_producer	NUMBER	-1	123.0	123.0	[]	1	
image_width	OTHER	-1	-1.0	-1.0	[]	0	
facebook	STRING	-1	-1.0	-1.0	[]	1	
hosts	STRING	-1	-1.0	-1.0	[home, Hosts]	4	
writer	OTHER	qgw,: ep,/feat,qyyb,-live,fm/no,/peac,/defa,hpm,episo,/miri,fm.rt,/spej,/thea,/driv,wqwz,/seas,cjmvk,pxmz,qpq,/dram,hf,pmpic,),act i,/,-,pd,kvs,qxx,/show,/pott,sbpr,mrh,qnwb,krkgt,dv,/futu,lr,psvjk,lv,/come,/r,–,words,],dl,bad s,/ ric,/chri,/eamo,.org/,f,d,e,vhhn,/hi/p,b,c,nlwc|,/theh,wkt,/toda,/them,zbzb|,.php,kpjpm,k,h,/thet,w,s/ind,dayfm,.radi,s,r,offic,p,radio,/oldh,z,.ie/s,fm/ry,count,tp,/mari,qxsb|,jm,qykl,wqx,/home,/arts,på mi,.fm,.com,sk,ky,qmpj],vsnb,wqlv],onlin,vsnc,/moch,hvs t,/tomo,qmmy|,vsng|,.net/,/livi,/news,kqrs.,/live,vsnk,c.btw,cr,.aspx,lk,pm/,pchal,.com},wrq,/hitc,snr,big j,hcr,/worl,/surg,.co.u,lvdrj,/http,wkfp,qnx,qy,]] (e,.rai.,.org,vsxs,music,.ru o,www.m,qrpf,qj,/unbe,qk,.fm w,www.s,qskw,.com/,.com.,/blea,wkgn,/hami,/fact,pfksb,am-,.php?,yrvd,.shtm,	-1.0	-1.0	[write]	842	
other_names	OTHER	- nov,–,break,'',-',-pres,rock,),.,-,	-1.0	-1.0	[]	104	
founder	STRING	-1	-1.0	-1.0	[]	1	
last_aired	OTHER	,th ma,(at [,}},(last,june,(on r,(orig,decem,(as g,(exce,th,in ra,march,rd,,septe,(loca,-pres,may,,july,— feb,th fe,(cbc,janua,may,(at w,- pre,april,th,,- dec,(prev,th se,/,,,–pres,-,, [[,{{cit,augus,s,nov,([[bb,octob,|,th ju,?,febru,novem,	-1.0	-1.0	[first_aired]	1324	
symbol	OTHER	-1	-1.0	-1.0	[]	1	
presenters	OTHER	[[len,) ''e,st su,/peop,|rich,),#rach,/,-),–pres,-,–,-pres,) [[m,	-1.0	-1.0	[presenter]	325	
carriage	NUMBER	stati,	-1.0	-1.0	[]	1	
status	STRING	-1	-1.0	-1.0	[]	2	
station	OTHER	other,count,}},promo,s and,drawi,tax d,=boom,th de,logo,, wit,hours,rock],),]] lo,hour,.,,,and,-,serie,pm ps,flyin,'s pr,s,nd fr,chart,radio,pills,.   f,years,, inc,	-1.0	-1.0	[location]	196	
webcast	OTHER	sec t,/rss.,.html,/iot/,house,/ lat,/amer,&grou,free,npr.o,/ pod,på mi,-matt,onlin,grimm,/ta/r,.net/,kb.m,/grea,&s=,kqrs.,-,.xml,u str,/chum,http:,/ off,/plan,espn,fm/po,/podc,/mill,&rss_,daysu,/rssf,],/from,.feed,igtz,.org/,music,.ru p,/medi,red e,itune,feed],podca,d'arc,a,.com/,/?aut,kste.,dayfm,avenu,/fric,offic,freef,/more,/timc,/medm,world,	-1.0	-1.0	[podcast]	637	
first_run	NUMBER	’s,	-1.0	-1.0	[]	1	
class	OTHER	-1	-1.0	-1.0	[]	0	
num_seasons	NUMBER	+,	-1.0	-1.0	[]	1	
format	OTHER	}},s mus,/chr],-pres,(radi,), da,), we,	-1.0	-1.0	[]	752	
sh	STRING	-1	-1.0	-1.0	[AIM]	2	
script	OTHER	-1	-1.0	-1.0	[]	2	
Design	STRING	-1	-1.0	-1.0	[]	1	
country	OTHER	–,px|in,	-1.0	-1.0	[]	828	
affiliates	OTHER	+,	-1.0	-1.0	[]	3	
email	OTHER	-1	-1.0	-1.0	[]	1	
voices	OTHER	-1	-1.0	-1.0	[video]	3	
picture_format	OTHER	-1	-1.0	-1.0	[]	0	
rem_location	OTHER	-1	-1.0	-1.0	[]	2	
company	STRING	-1	-1.0	-1.0	[]	1	
branding	STRING	-1	-1.0	-1.0	[]	1	
starring	OTHER	to,lb co,) ale,) [[a,-chri,) adr,–,)'',) [[s,|frog,) aly,-pres,), [[,) [[j,newsr,",}} [[,- pre,&mdas,—) [[,– pre,-,and,- mar,mered,''' [,s–,	-1.0	-1.0	[]	485	
show_name	STRING	phone,rd de,count,hit w,}},k wee,footb,oifig,show,break,'s on,drive,pm pi,.com,minut,uk,kqrs,news,'',-,s,day s,stand,p cha,radio,chart,th ce,	-1.0	-1.0	[]	843	
news_crew_leader	STRING	-1	-1.0	-1.0	[]	1	
TV_simulcast	NUMBER	,,	-1.0	-1.0	[]	1	
employer	OTHER	-1	-1.0	-1.0	[]	2	
runtime	NUMBER	to,&ndas,&nbsp,{{fra,hrs (,hrs.,(uk t,pm to,–,min.,pm -,hr.,hrs,min,,mins.,am to,min,minut,or,hours,hour,mins,.,a.m.,p.m.,/,,,h,p.m.-,-,am -,[[hou,pm-,+ hou,hr (i,a.m.-,:,min (,am-,hour,,x,	-1.0	-1.0	[]	772	
frequency	NUMBER	khz,	-1.0	-1.0	[]	1	
episodes	OTHER	-1	-1.0	-1.0	[]	0	
network	OTHER	]],fm]],-,	-1.0	-1.0	[]	12	
oth_location	STRING	-1	-1.0	-1.0	[]	1	
studio_location	STRING	-1	-1.0	-1.0	[]	1	
Manager	STRING	-1	-1.0	-1.0	[]	1	
name	STRING	g,phone,.png,day.p,d in,.jpg,red l,-,logos,uk lo,cover,trans,day s,th_sh,logo.,chart,newsl,_,x,	-1.0	-1.0	[image]	309	
senior_editor	STRING	-1	-1.0	-1.0	[]	8	
distributor	OTHER	-1	-1.0	-1.0	[]	1	
simulcast	OTHER	-1	-1.0	-1.0	[]	1	
members	STRING	-1	-1.0	-1.0	[]	1	
senior_producer	STRING	-1	-1.0	-1.0	[]	2	
music	OTHER	-1	-1.0	-1.0	[]	1	
Stations	NUMBER	local,	-1.0	-1.0	[]	2	
home_station	OTHER	]] (,the t,]],]], [,, [[w,|bbc,and h,(mala,chec,|p,live,[[wlw,(form,- pre,ws|ws,extra,–),]] (s,]] (p,),.,/,|cbc,,,-,netwo,]]''',mmm|t,fm]],/[[si,[[sir,-),–,espn],]] re,live],) [[t,|krla,-pres,mmm]],]] [[,am, l,music,–may,siriu,|radi,) [[w,–pres,]] in,dayfm,avenu,the a,day f,]]  (,mbs]],	-1.0	-1.0	[]	693	
Website	NUMBER	mmmli,	-1.0	-1.0	[]	1	
followed_by	OTHER	-1	-1.0	-1.0	[]	1	
camera	OTHER	-1	-1.0	-1.0	[]	0	
engineer	OTHER	-1	-1.0	-1.0	[]	2	
imagesize	NUMBER	ppx,px,×,x,	75.0	300.0	[image_size]	274	
syndicator	STRING	-1	-1.0	-1.0	[]	1	
Leader	STRING	-1	-1.0	-1.0	[]	1	
sponsor	OTHER	minut,-,	-1.0	-1.0	[]	29	
technical_director	STRING	-1	-1.0	-1.0	[]	1	
online_editor	STRING	-1	-1.0	-1.0	[]	1	
exec_in_charge	OTHER	-1	-1.0	-1.0	[]	0	
rating	OTHER	-1	-1.0	-1.0	[imaging]	1	

