baggage	STRING	-1	-1.0	-1.0	[]	107	
successor	OTHER	-1	-1.0	-1.0	[]	34	
last	OTHER	tier,, ac,(expr,march,(limi,a), a,-tier,july,st an,th fe,nd si,th se,ac,,(''hi,,,-,st oc,febru,th ju,novem,(firs,(''ōz,a-,june,}},betwe,decem,(as l,(semi,–,ac an,septe,st cl,st (,nd cl,th de,two t,may,april,/ dec,(rapi,tier,,serie,s,octob,ac,air c,|,st ma,	-1.0	-1.0	[close, class, first]	698	
stations	NUMBER	-1	10.0	33.0	[]	2	
no	NUMBER	lalla,/,]], [,	-1.0	-1.0	[Loco]	3	
ridership2	NUMBER	per t,milli,daily,third,,,	-1.0	-1.0	[ridership]	49	
logo_filename	OTHER	-1	-1.0	-1.0	[]	0	
formeroperator	OTHER	–,&ndas,{{das,-,	-1.0	-1.0	[]	140	
tracklength	OTHER	-1	-1.0	-1.0	[]	0	
Origin	OTHER	-1	-1.0	-1.0	[]	1	
Primary	OTHER	-1	-1.0	-1.0	[]	1	
type	OTHER	px|cl,}},route,px]],|navb,(paan,),th of,-,	-1.0	-1.0	[open, name, map]	1016	
coaches	OTHER	coach,	-1.0	-1.0	[]	3	
linelength	NUMBER	|mi|k,	-1.0	-1.0	[]	1	
time	NUMBER	hrs,hours,hrs (,	-1.0	-1.0	[]	17	
stock	OTHER	|e,|ht,dc [[,|f,× [[n,]]),dc, p,]],]], [,]] ,,–,-foot,]]/wd,phi]],)|kei,lugga,ph]],elect,cbc r,+,|tvs,]] lo,/,&time,,,-,serie,/n,|mt,dc]],: two,|kiha,	-1.0	-1.0	[start]	624	
mapname	STRING	-1	-1.0	-1.0	[]	1	
image_width	NUMBER	px,.,	250.0	350.0	[]	190	
notrack	OTHER	-1	-1.0	-1.0	[]	0	
logo_width	NUMBER	px,em,	250.0	300.0	[box_width]	111	
engine	OTHER	-1	-1.0	-1.0	[]	0	
status	STRING	-1	-1.0	-1.0	[]	182	
map_caption	OTHER	-1	-1.0	-1.0	[]	0	
image	OTHER	,-yaku,(linc,midor,siman,chuo,shinm,expre,hakuc,on,sioka,ft,+over,limit,max t,and s,kitak,asahi,,,-,).jpg,suzur,asama,nannp,mahar,}},omiya,emu ",leavi,hokue,}} {{,-thro,-seri,b,- mi,a,n,kei a,|al=o,j,serie,v,}}, {,r,south,) is,mm}},tj li,the i,of ke,-shin,minor,&nbsp,-g,ariak,kei,}} (b,inkum,) col,nichi,fujik,huist,-tsug,lilac,atkyo,komac,high-,on th,-saga,kinok,gata.,kusat,in ya,shona,-hika,hamak,.png,) arr,.jpg,-supe,super,passi,at ba,kitag,tokai,for t,hatsu,akebo,eylul,hoppo,augus,views,shios,kiris,dc.jp,in wi,mumba,	-1.0	-1.0	[gauge]	601	
image_caption	STRING	-1	-1.0	-1.0	[]	1	
number	NUMBER	up /,(&uar,dn/,dn,dn /,/,up/,up,	-1.0	-1.0	[]	55	
journeytime	NUMBER	hr,&ndas,minut,hours,hrs.,hour,mins,hrs,,.,h,-,h-,hrs,days,and a,day,,:,min (,hour,,	-1.0	-1.0	[]	253	
system	OTHER	-1	-1.0	-1.0	[states]	6	
routes	NUMBER	-1	1.0	23.0	[Bogies]	2	
map_state	OTHER	-1	-1.0	-1.0	[map_name, map_size]	350	
owners	OTHER	),-,	-1.0	-1.0	[owner]	116	
Sharing	NUMBER	up /,	-1.0	-1.0	[]	2	
catering	STRING	seat,-minu,	-1.0	-1.0	[]	207	
locale	OTHER	-1	-1.0	-1.0	[]	326	
map_filename	OTHER	-1	-1.0	-1.0	[]	0	
frequency	STRING	&ndas,minut,per d,),per h,/,daily,,,retur,-,(week,days,times,train,each,per w,	-1.0	-1.0	[]	312	
sleeping	STRING	|km/h,beds),; (fj,+,-seat,seats,-pers,tcdd,-bert,	-1.0	-1.0	[seating]	359	
character	STRING	-1	-1.0	-1.0	[]	1	
predecessor	OTHER	),	-1.0	-1.0	[]	41	
otherfacilities	STRING	-1	-1.0	-1.0	[]	19	
stops	NUMBER	halts,at [[,([[ro,betwe,(&uar,(,north,(α se,(only,/,	0.0	88.0	[]	220	
title	STRING	-1	-1.0	-1.0	[]	2	
distance	NUMBER	&nbsp,|mi|k,.,/,,,km,km (s,|mi|a,|km|,|mi|,|km|m,km (,|km|a,|mi}},	1399.0	2140.0	[]	303	
startyear	NUMBER	-1	1991.0	1991.0	[]	1	
depot	OTHER	-1	-1.0	-1.0	[]	0	
routenumber	NUMBER	;,,,and,	-1.0	-1.0	[]	5	
logo_size	OTHER	-1	-1.0	-1.0	[]	0	
end	OTHER	hz tr,kv dc,kv,kv,,th st,/,,,kv ac,-,	-1.0	-1.0	[el]	490	
logo	STRING	-1	-1.0	-1.0	[]	12	
observation	STRING	seat,: fou,	-1.0	-1.0	[]	61	
website	OTHER	-1	-1.0	-1.0	[]	13	
speed	NUMBER	km/hr,km/h,|km/h,&nbsp,mph (,[[kil,.,kph.,-,km/h',|mph|,	59.0	59.0	[]	268	
elevation	OTHER	-1	-1.0	-1.0	[]	0	
logo_caption	OTHER	-1	-1.0	-1.0	[]	0	
line_used	OTHER	|km/h,	-1.0	-1.0	[]	70	
caption	OTHER	|e,th-an,) arr,]]s l,about,dr di,]],march,, and,waits,and a,locom,b]],a sit,th of,waiti,]] ha,ph]],elect,at [[,, the,s.,diese,]] le,ac-dm,]] an,enter,befor,]] lo,),]] al,.,,,skyto,-,-car,]] in,|aem-,serie,]] on,, a s,octob,, at,servi," at,	-1.0	-1.0	[]	266	
access	STRING	-1	-1.0	-1.0	[]	16	
entertainment	OTHER	a),and a,tier,ac co,	-1.0	-1.0	[]	28	
operator	OTHER	&ndas,–),),–pres,	-1.0	-1.0	[]	370	
Link	STRING	-1	-1.0	-1.0	[]	1	
color	OTHER	-1	-1.0	-1.0	[]	0	
locomotive	NUMBER	]] of,	-1.0	-1.0	[]	2	
trainnumber	NUMBER	&nbsp,(gall,bbs-n,north,(chic,–,, eas,(sout,&,up /,(west,(,/,,,u,,and,-,up (k,(up),, wes,up (q,south,down,(east,(''ka,(colo,	12906.0	12906.0	[]	200	
autorack	STRING	-1	-1.0	-1.0	[]	21	
Destination	OTHER	-1	-1.0	-1.0	[]	1	

