face_value	NUMBER	-[[pe,cents,c,[[pfe,.,/,,,and,shill,[[cow,[[£sd,½ [[r,[[pen,[[uni,x,	2.0	2.0	[]	20	
country_of_production	OTHER	-1	-1.0	-1.0	[]	20	
number_in_existence	OTHER	(,mint,,,,	-1.0	-1.0	[]	18	
location_of_production	OTHER	-1	-1.0	-1.0	[]	15	
image	NUMBER	c.jpg,.jpg|,und z,px]],cowri,inver,d tyr,dilig,b.png,	-1.0	-1.0	[]	20	
common_name	OTHER	d coi,sh in,c mag,d tyr,and,	-1.0	-1.0	[]	20	
notability	STRING	-1	-1.0	-1.0	[]	1	
caption	OTHER	yello,	-1.0	-1.0	[]	3	
commemorates	OTHER	-1	-1.0	-1.0	[]	1	
date_of_production	OTHER	may,march,augus,septe,octob,july,|,,,novem,	-1.0	-1.0	[]	19	
nature_of_rarity	OTHER	-1	-1.0	-1.0	[]	18	
estimated_value	NUMBER	–,used,.,,,	-1.0	-1.0	[]	19	
perforation	STRING	-1	-1.0	-1.0	[]	1	
depicts	OTHER	-1	-1.0	-1.0	[]	1	

