author	OTHER	-1	-1.0	-1.0	[]	1	
editor	OTHER	-1	-1.0	-1.0	[]	1	
illustrator	OTHER	-1	-1.0	-1.0	[]	1	
isbn	NUMBER	-,	-1.0	-1.0	[]	1	
image	NUMBER	px]],,,	-1.0	-1.0	[date]	2	
type	STRING	-1	-1.0	-1.0	[title]	2	
publisher	OTHER	-1	-1.0	-1.0	[]	1	

