phone	NUMBER	,|,-,	-1.0	-1.0	[]	3	
cuisine	STRING	-1	-1.0	-1.0	[]	2	
type	OTHER	,ca,js,br,bp,bj,bk,kd,xg,be,gx,hg,zz,cx,he,hb,kk,kn,cs,cr,lh,gk,lj,cp,pc,cl,cg,køben,dv,ht,hn,rd,eb,ec,hl,ds,f,d,ev,n,j,tz,ee,na,nd,ac,pt,aa,ab,em,	-1.0	-1.0	[code, state]	700	
slogan	OTHER	s),	-1.0	-1.0	[]	21	
logo_alt	STRING	" bel,	-1.0	-1.0	[]	10	
longs	NUMBER	-1	0.0	122.0	[longm, lats]	150	
propietor	OTHER	-1	-1.0	-1.0	[]	1	
province	OTHER	-1	-1.0	-1.0	[]	4	
longitude	NUMBER	-1	-122.675872	132.461928	[latitude]	71	
logo_width	OTHER	px,	-1.0	-1.0	[]	13	
information	OTHER	:,),am-,, reo,small,-,	-1.0	-1.0	[]	41	
map_caption	STRING	) [[f,th fl,th an,hours,at th,),.,. lou,after,, is,, in,''',th st,kinne,	-1.0	-1.0	[image_caption]	179	
width	OTHER	–,px]],) lon,	-1.0	-1.0	[city]	706	
image	OTHER	,a.jpg,.jpg,.gif,.jpeg,jan,_,-by-f,delft,wine,(,- de,club.,ninth,-,point,oct,).jpg,ap,-la-p,- por,k.jpg,blade,in mi,, mar,	-1.0	-1.0	[Img]	238	
postcode	OTHER	,cb,ca,xl,gc,jn,nz,bs,br,bj,bk,bl,ta,bb,bc,be,da,he,kk,hb,km,-,cs,lh,pg,gk,ch,lb,cc,hp,ht,rb,dh,hx,dn,mk,dr,f,g,d,b,n,j,h,ak,eh,w,al,aj,t,s,el,ek,p,ne,ac,ad,nh,pw,ab,ah,nk,ja,ae,x,	-1.0	-1.0	[]	136	
coordinates_type	STRING	-1	-1.0	-1.0	[]	1	
covers	NUMBER	-1	45.0	45.0	[]	1	
map_width	NUMBER	px,	200.0	300.0	[image_width]	94	
county	OTHER	-1	-1.0	-1.0	[country]	534	
Img_size	OTHER	-1	-1.0	-1.0	[]	0	
Founder	STRING	-1	-1.0	-1.0	[]	1	
owner	OTHER	–,—)  •,}},) [[m,	-1.0	-1.0	[]	173	
language	STRING	-1	-1.0	-1.0	[]	7	
operated	NUMBER	-,	-1.0	-1.0	[]	1	
iso_region	STRING	-1	-1.0	-1.0	[]	17	
locations	OTHER	–,total,ne da,ne gl,hudso,),first,las v,	-1.0	-1.0	[]	41	
longEW	STRING	.jpg,	-1.0	-1.0	[logo]	64	
name	STRING	;s fr,–,point,club,downt,o,north,½ ott,on th,	-1.0	-1.0	[label, alt, Range]	526	
capacity	NUMBER	cover,(walk,+ ins,at mo,+,(,seats,table,(indo,(dinn,,,	0.0	440.0	[]	149	
closed	OTHER	septe,}},|,,,novem,	-1.0	-1.0	[]	41	
coordinates_display	OTHER	.,	-1.0	-1.0	[]	23	
coordinates	NUMBER	|,.,	42.245826	42.245826	[]	44	
latNS	STRING	-1	-1.0	-1.0	[]	25	
zip	NUMBER	,s?,j,]],k,{{fac,-,	1029.0	98121.0	[est]	71	
pushpin_map	STRING	-1	-1.0	-1.0	[]	37	
website	OTHER	&taal,dc.co,&t=we,}},.html,.com/,.co.u,club.,onthe,/http,ndave,/sr,/#|of,offic,.hilt,.com},downt,&lang,½ ott,	-1.0	-1.0	[]	472	
as	OTHER	-1	-1.0	-1.0	[]	0	
established	OTHER	(as s,may,}},decem,(toky,}}{{c,,,-,||}},march,'s,s,in [[,(hk,(curr,|,febru,	-1.0	-1.0	[]	367	
caption	STRING	-1	-1.0	-1.0	[]	3	
map_size	NUMBER	ppx,px,	200.0	300.0	[imagesize]	12	
reservations	STRING	,or mo,—,''mlk,(,),-,	-1.0	-1.0	[]	65	
pushpin_map_caption	STRING	-1	-1.0	-1.0	[]	8	
address	OTHER	,lower,gover,[[tch,th fl,nd &,elm s,n. as,e fra,sw an,iberv,linde,clint,n sec,pier,, bou,[[dec,, [[f,&,coman,[[gou,n. ca,u.s.,third,,,-,bourk,montr,cente,palme,-a [[,[[kni,[[ore,, [[c,shore,sarat,frank,broad,queen,sprin,colum,cotto,ocean,king,beauc,danfo,w. bu,–,delma,n. wa,[[rac,bay a,faneu,th st,belle,[[sec,louis,water,barri,d,bay s,e,park,a,m str,maddo,seymo,woost,highw,massa,[[bou,crawf,old s,denni,, wuc,old r,s,avenu,[[gre,howel,lownd,old l,south,wilso,barro,ranel,se wo,rue s,[[thi,/a,curzo,-a,st st,churc,[[joh,nw co,-l,[[u s,[[not,dauph,camin,earlh,worce,grand,fairm,sw st,kinne,[[pon,th av,secon,sw,, sar,washi,w. va,milam,howe,, qia,boyls,[[new,cedar,[[mul,[[roc,comme,james,decat,[[hou,clerk,[[roy,west,[[,[[déc,/f, [,crown,a [[w,state,montg,peckh,north,[[m-,[[reg,matil,[[cha,upper,a [[c,, ple,n. [[,e. co,bridg,east,[[sai,princ,ledbu,woodb,a edg,brook,[[de,lock,n mil,main,st. s,(does,r. de,madis,royal,[[con,piedm,high,river,	-1.0	-1.0	[]	410	
pushpin_mapsize	NUMBER	-1	260.0	260.0	[]	1	
Img_capt	OTHER	-1	-1.0	-1.0	[]	0	
Address	NUMBER	conan,	-1.0	-1.0	[]	1	
map_alt	STRING	point,.,	-1.0	-1.0	[image_alt]	20	
rating	NUMBER	}} [[,}}  [,}},px]],/,,,}}[[i,}} (,}}  (,stars,}} ([,}} mi,|,chef,px]][,	-1.0	-1.0	[]	243	
telephone	NUMBER	,|(,),.,	-1.0	-1.0	[]	5	

