const	OTHER	–,s,,s,– may,,,-,	-1.0	-1.0	[]	25	
location	OTHER	-chōm,|km|m,	-1.0	-1.0	[]	116	
state	STRING	inter,-trai,	-1.0	-1.0	[name]	120	
type	OTHER	.jpg,,,map.s,	-1.0	-1.0	[map]	187	
tolls	STRING	-1	-1.0	-1.0	[]	1	
coord	NUMBER	|,.,	-1.0	-1.0	[]	81	
map_notes	STRING	-1	-1.0	-1.0	[]	1	
height	NUMBER	|ft|m,.,	-1.0	-1.0	[]	2	
spans	NUMBER	nz.sv,st st,centr,(isra,}},rd st,road,}} be,|njtp,.svg|,|name,motor,) [[l,}} {{,|patp,}} [[,, a,}}  {,|sr|,) inn,-,}} ma,nh,.png|,	2.0	100.0	[roads]	114	
length	NUMBER	|m|ft,	-1.0	-1.0	[]	6	
province	STRING	-1	-1.0	-1.0	[]	1	
road_type	STRING	-1	-1.0	-1.0	[]	20	
other_names	OTHER	}},	-1.0	-1.0	[]	27	
lanes	OTHER	(moja,, [[o,-,x,	-1.0	-1.0	[]	15	
opened	NUMBER	}}reb,augus,}}  (,april,s,septe,}},|,}}{{c,	1953.0	1992.0	[]	43	
contractor	OTHER	-1	-1.0	-1.0	[]	13	
width	NUMBER	|m|ft,	-1.0	-1.0	[]	2	
image	OTHER	nb at,-a,-wb.j,june,no,, az-,s.jpg,.jpg,appro,,,and i,-,bruck,super,hrvat,_head,nboff,sb.jp,mar,cropp,-lane,	-1.0	-1.0	[]	56	
image_caption	OTHER	conne,with,janua,|stat,appro,),north,and i,on th,inter,-trai,westm,in ne,s,, bef,motor,trave,east,westb,via j,) at,	-1.0	-1.0	[]	57	
country	STRING	-,	-1.0	-1.0	[]	112	
maint	OTHER	-1	-1.0	-1.0	[]	49	
image_alt	STRING	-1	-1.0	-1.0	[]	7	
marker_image	OTHER	-1	-1.0	-1.0	[]	0	
header_type	STRING	-1	-1.0	-1.0	[]	6	

