region	OTHER	-1	-1.0	-1.0	[]	545	
location	STRING	]] in,, [[i,]] at,in pe,, nea,|i-,]], b,mm).,|,|rt.,.,, [[s,	-1.0	-1.0	[caption]	142	
type	OTHER	.png,	-1.0	-1.0	[Type, map]	1004	
location_map_text	OTHER	-1	-1.0	-1.0	[]	0	
of	OTHER	[[ann,to,&ndas,}},&nbsp,milli,.,to ~,-,–,|barr,±,|,mya,	-1.0	-1.0	[for]	604	
namedfor	OTHER	, p.,}},;  f.,`,); re,),miles,.,st ba,	-1.0	-1.0	[namedby]	461	
area	OTHER	,|km,|mi|k,|sqft,,,|sqmi,	-1.0	-1.0	[]	16	
extent	OTHER	|km,|km|m,|mi|k,km,	-1.0	-1.0	[]	97	
name	STRING	;assa,;s hi,u,;infr,;albi,;auza,;alet,;octe,;irha,	-1.0	-1.0	[]	982	
thickness	NUMBER	to,to mo,&ndas,|ft|m,m (,}},ft at,feet,m,|cm|i,.,|m|ft,m to,,,-,metre,|to|,meter,—,+/-,ft,m at,	-1.0	-1.0	[]	217	
subunits	OTHER	-1	-1.0	-1.0	[]	145	
lithology	STRING	-1	-1.0	-1.0	[]	1	
coordinates	NUMBER	|,|-,.,	-1.0	-1.0	[]	106	
top_elevation	NUMBER	|m|ft,	-1.0	-1.0	[]	1	
map_caption	OTHER	-1	-1.0	-1.0	[]	956	
imagesize	NUMBER	px,	-1.0	-1.0	[]	11	
image	OTHER	rdwat,loyal,sr ec,.png,sengw,death,.jpg,dpi.p,aug,ndwat,_pa.j,-,	-1.0	-1.0	[]	144	
unitof	OTHER	-1	-1.0	-1.0	[]	151	
period	STRING	-1	-1.0	-1.0	[]	28	
prilithology	OTHER	-1	-1.0	-1.0	[]	307	
underlies	OTHER	[[sas,	-1.0	-1.0	[overlies]	596	
country	OTHER	-1	-1.0	-1.0	[]	442	
base_elevation	NUMBER	|m|ft,	-1.0	-1.0	[]	1	
coords	NUMBER	|,	-1.0	-1.0	[]	1	
otherlithology	OTHER	-1	-1.0	-1.0	[]	201	
map_width	NUMBER	-1	220.0	220.0	[]	1	
map_alt	OTHER	-1	-1.0	-1.0	[]	0	
external_link	OTHER	.cgkn,	-1.0	-1.0	[]	4	
y	NUMBER	-1	300.0	400.0	[x]	2	

