ru_amateuryears	NUMBER	,	-1.0	-1.0	[]	1	
clubnumber	NUMBER	–,or,/,,,-,and,	1.0	30.0	[]	223	
previousclubs	OTHER	-1	-1.0	-1.0	[]	1	
spouse	OTHER	-1	-1.0	-1.0	[source]	4	
nickname	STRING	, the,	-1.0	-1.0	[]	206	
image	OTHER	,may,june,.jpg,rwc (,_irb_,med.j,h,,,-,march,- mar,).jpg,recad,novem,	-1.0	-1.0	[]	124	
youthpoints	NUMBER	),	-1.0	-1.0	[]	1	
ru_currentposition	STRING	-1	-1.0	-1.0	[]	1	
years9	OTHER	–,–?,,,-,	-1.0	-1.0	[years2, years8]	252	
years7	NUMBER	,&#x,&ndas,-?,- pre,‐pres,}}{{,/,– pre,,,x&nda,–pres,-,–,–  __,‐,;,-pres,	-2008.0	2013.0	[years5, years6]	750	
ru_coachclubs	OTHER	]]}},	-1.0	-1.0	[coachclubs]	14	
ru_province	OTHER	-,	-1.0	-1.0	[province]	29	
super14years	NUMBER	(???),,–,&#x,(,,,-,	2007.0	2007.0	[super14caps]	51	
ru_appearances3	OTHER	-1	-1.0	-1.0	[ru_appearances2]	0	
ru_appearancesA	NUMBER	-1	4.0	87.0	[ru_appearances1]	2	
new	STRING	-1	-1.0	-1.0	[alt, name]	826	
cityofbirth	OTHER	-1	-1.0	-1.0	[]	0	
debut	NUMBER	),	-1.0	-1.0	[]	1	
ru_year3end	OTHER	-1	-1.0	-1.0	[]	0	
placeofdeath	OTHER	-1	-1.0	-1.0	[placeofbirth]	2	
refereecomps	OTHER	-1	-1.0	-1.0	[refereecaps]	0	
apps9	NUMBER	-1	0.0	128.0	[apps8, apps7, apps6, apps5, apps4, apps3, apps2, apps11, apps10, apps1]	397	
ru_clubpoints	NUMBER	),	-1.0	-1.0	[]	1	
death_place	OTHER	}}, [,	-1.0	-1.0	[birth_place]	790	
updated	OTHER	-1	-1.0	-1.0	[]	0	
death_date	NUMBER	may,april,june,decem,/,,,augus,march,septe,octob,july,|,rd ma,	1954.0	1991.0	[birth_date]	831	
points9	NUMBER	-1	0.0	422.0	[points8, points7, points6, points5, points4, points3, points1, points2, points10, points11]	392	
repcaps3	OTHER	-1	-1.0	-1.0	[]	4	
url	OTHER	-1	-1.0	-1.0	[]	34	
calves	STRING	-1	-1.0	-1.0	[]	1	
country	OTHER	-1	-1.0	-1.0	[]	0	
allblackno	NUMBER	-1	1.0	963.0	[allblackid]	2	
nicknames	OTHER	-1	-1.0	-1.0	[]	3	
weight	NUMBER	|lb|k,kg (,}},foot,&nbsp,|lb|s,lb (,kg),kgs,,|cm|f,kg,cm (,st (,ft,|st|,st,kgs,",',|lbs|,.,|in=,,,|ft|,|kg|s,cm,|kg|l,|inch,lb,|in=},lbs,	-1.0	-1.0	[height]	1503	
ru_nationalyears	OTHER	-1	-1.0	-1.0	[ru_nationalteam]	2	
children	OTHER	-1	-1.0	-1.0	[]	4	
otheryears	NUMBER	&ndas,	-1.0	-1.0	[]	1	
ru_fieldgoals3	OTHER	-1	-1.0	-1.0	[ru_fieldgoals2]	0	
ru_fieldgoalsA	NUMBER	-1	0.0	-1.0	[]	1	
tries	NUMBER	-1	6.0	6.0	[]	1	
ru_sevensupdate	OTHER	:,	-1.0	-1.0	[]	2	
ru_yearAend	NUMBER	-1	1964.0	1970.0	[ru_year1end, ru_year2end]	3	
ru_proclubs	OTHER	-1	-1.0	-1.0	[]	2	
imagesize	NUMBER	px,	-1.0	-1.0	[image_size]	15	
sponsor	STRING	-1	-1.0	-1.0	[]	9	
school	OTHER	}} [[,s_com,	-1.0	-1.0	[]	361	
ru_nationalcaps	NUMBER	-1	3.0	3.0	[]	1	
ru_currentteam	OTHER	-1	-1.0	-1.0	[]	1	
ru_coachyears	OTHER	–,&#x,&ndas,-,	-1.0	-1.0	[coachyears]	16	
ru_club3	OTHER	-1	-1.0	-1.0	[ru_club2]	2	
ru_sevensnationalpoints	NUMBER	),	-1.0	-1.0	[]	1	
super14points	NUMBER	) (,	-1.0	-1.0	[]	1	
ru_clubupdate	OTHER	-1	-1.0	-1.0	[]	0	
clubs9	OTHER	|lazi,|bolo,|raci,}}{{,]],px az,|lill,	-1.0	-1.0	[clubs8]	1086	
dateofbirth	NUMBER	|,	-1.0	-1.0	[]	1	
repyears6	NUMBER	,&ndas,&#x,- pre,– pre,,,–  [[,–pres,-,–,– &#x,‐,-pres,–?,	-2000.0	2012.0	[repyears, repcaps6, repyears2]	432	
repcoachteams	OTHER	rugby,	-1.0	-1.0	[]	9	
repyears4	OTHER	–,-,	-1.0	-1.0	[repyears1, repyears3]	98	
HeinikenCup	OTHER	-1	-1.0	-1.0	[]	1	
ru_amateurclubs	OTHER	-1	-1.0	-1.0	[]	2	
fullname	STRING	-1	-1.0	-1.0	[]	720	
ru_clubyears	NUMBER	–,),-,	20.0	20.0	[ru_clubcaps, clubyears]	5	
ru_position	OTHER	._pro,._fly,._hoo,}},. pro,. scr,._scr,]],]] or,._loo,or lo,._bum,and f,. hoo,. &,. out,hooke,._loc,. num,. no.,._bli,]]/[[,. .,. fly,. cen,._.,. ful,. loo,. bli,._fla,.,._out,}}pro,& bli,._num,. fla,/cent,._win,	-1.0	-1.0	[position]	722	
ru_goalsA	NUMBER	-1	0.0	-1.0	[]	1	
youthrepteam	NUMBER	[[eng,s,wales,natio,new z,engla,]],]] [[,rugby,	-1.0	-1.0	[]	60	
ru_goals3	OTHER	-1	-1.0	-1.0	[ru_goals2]	0	
ru_provincepoints	NUMBER	),	-1.0	-1.0	[]	1	
clubupdate	NUMBER	oct,septe,nov,octob,:,novem,	-1.0	-1.0	[]	135	
caption	OTHER	scotl,rugby,	-1.0	-1.0	[]	6	
ru_year3start	OTHER	-1	-1.0	-1.0	[]	0	
youthyears4	NUMBER	–,&ndas,&#x,s,-,	-1999.0	2001.0	[youthyears]	32	
youthyears3	OTHER	–,-,	-1.0	-1.0	[youthyears1, youthyears2]	175	
ru_nationalpoints	OTHER	-1	-1.0	-1.0	[]	0	
repcoachyears	NUMBER	,–,&ndas,&#x,-,	-1.0	-1.0	[]	8	
ru_sevensnationalcomp	OTHER	–,dubai,rugby,	-1.0	-1.0	[ru_sevensnationalcaps]	10	
ru_sevensnationalyears	OTHER	–,|fij},&#x,|usa},|fiji,|irel,-,	-1.0	-1.0	[ru_sevensnationalteam]	58	
refereeyears	OTHER	-1	-1.0	-1.0	[]	0	
youthclubs4	OTHER	& u,]],	-1.0	-1.0	[youthclubs, youthclubs3, youthclubs2, youthclubs1]	357	
ru_tries3	OTHER	-1	-1.0	-1.0	[ru_tries2, ru_tries1]	0	
occupation	OTHER	-1	-1.0	-1.0	[]	13	
ru_yearAstart	NUMBER	-1	1961.0	1963.0	[ru_year1start, ru_year2start]	3	
youthrepyears	OTHER	–,,&#x,-?,-,	-1.0	-1.0	[]	33	
pcupdate	NUMBER	janua,may,june,jan.,decem,jan.,,jun,,,march,feb,septe,nov,sep,:,mar,febru,novem,	-1.0	-1.0	[]	132	
ru_points3	OTHER	-1	-1.0	-1.0	[reppoints3, ru_points2, ru_points1]	4	
relatives	OTHER	)|llo,sibli,)|tom,	-1.0	-1.0	[]	69	
birthname	STRING	-1	-1.0	-1.0	[]	1	
ru_pointsA	NUMBER	-1	0.0	855.0	[reppoints6]	53	
otherclubs	OTHER	-1	-1.0	-1.0	[formerclubs]	2	
ru_triesA	NUMBER	-1	0.0	-1.0	[]	1	
countryofbirth	OTHER	-1	-1.0	-1.0	[]	2	
ru_teamA	OTHER	[[eng,barba,wales,|wale,a,/u,s  gr,s]],[[ita,]],rugby,crave,{{fla,'s,px|]],s,irela,natal,high,'s]],engla,]] [[,[[bar,	-1.0	-1.0	[repteam6]	561	
university	OTHER	-1	-1.0	-1.0	[]	147	
ru_coachupdate	NUMBER	feb,	-1.0	-1.0	[]	1	
ru_provinceyears	NUMBER	–,,&#x,;,(,),,,-,	29.0	38.0	[ru_provincecaps]	32	
website	OTHER	-1	-1.0	-1.0	[]	24	
repupdate	OTHER	janua,may,june,jan.,decem,jun,jan.,,,,march,oct,dec,feb,septe,nov,octob,:,sep,mar,july,febru,th oc,novem,	-1.0	-1.0	[]	761	
coachyears2	NUMBER	–,	-1.0	-1.0	[coachyears1]	2	
playername	STRING	-1	-1.0	-1.0	[]	1	
wife	STRING	-1	-1.0	-1.0	[]	1	
super14	OTHER	super,	-1.0	-1.0	[]	27	
currentclub	OTHER	|raci,]],|lill,	-1.0	-1.0	[]	688	
first	STRING	-1	-1.0	-1.0	[]	1	

