picture	NUMBER	.jpg|,px]],	-1.0	-1.0	[]	2	
region	OTHER	-1	-1.0	-1.0	[]	2	
style	OTHER	-1	-1.0	-1.0	[]	0	
text_english	OTHER	[[nor,	-1.0	-1.0	[]	2	
rundataid	OTHER	-1	-1.0	-1.0	[]	0	
name	STRING	-1	-1.0	-1.0	[]	2	
caption	STRING	-1	-1.0	-1.0	[]	1	
artist	STRING	-1	-1.0	-1.0	[]	1	
text_native	OTHER	-1	-1.0	-1.0	[]	2	
country	OTHER	-1	-1.0	-1.0	[]	2	
city	OTHER	-1	-1.0	-1.0	[]	2	
produced	STRING	-1	-1.0	-1.0	[]	1	

