title	STRING	-1	-1.0	-1.0	[city]	2	
website	OTHER	-1	-1.0	-1.0	[]	1	
name	STRING	-1	-1.0	-1.0	[]	1	
image	OTHER	-1	-1.0	-1.0	[]	1	
established	NUMBER	july,	-1.0	-1.0	[]	1	
proprietor	STRING	-1	-1.0	-1.0	[]	1	
country	OTHER	-1	-1.0	-1.0	[]	1	

