imagecaption	OTHER	-1	-1.0	-1.0	[]	0	
appearance	OTHER	-1	-1.0	-1.0	[]	0	
voiceactor	OTHER	-1	-1.0	-1.0	[]	1	
name	OTHER	-1	-1.0	-1.0	[image]	0	
gender	OTHER	-1	-1.0	-1.0	[]	0	
job	OTHER	-1	-1.0	-1.0	[]	0	
relatives	OTHER	-1	-1.0	-1.0	[]	0	
ullmanappearance	OTHER	-1	-1.0	-1.0	[]	0	

