Classification	STRING	-1	-1.0	-1.0	[]	1	
Orchestra	STRING	-1	-1.0	-1.0	[]	1	
RIAA	OTHER	.tiny,	-1.0	-1.0	[Img]	3	
video	STRING	-1	-1.0	-1.0	[BSide]	2	
Instruments	OTHER	-1	-1.0	-1.0	[]	0	
image	OTHER	ev,-albu,	-1.0	-1.0	[Image, Raga]	8	
prev	OTHER	),	-1.0	-1.0	[From]	50	
Choreographer	OTHER	-1	-1.0	-1.0	[]	1	
Photography	OTHER	-1	-1.0	-1.0	[]	1	
Sales	OTHER	,th ma,% rec,) the,)|fli,(orig,"),[[par,, [[w,, [[z,recor,~kscl,/[[la,[[dec,brain,[[fac,uk: [,lon,&,(aust,(ster,cg re,(,, [[n,),.,(euro,, [[p,/,[[epi,(swed,, [[s,,,, [[r,-,germa,([[u.,[[vee,artis,fat l,/epic,re-re,)|imp,:,(japa,)  si,, [[a,[[ver,/lava,x-,colum,x),)}},([[co,uk re,ea,& [[h,(cd),franc,-lon.,f,ashle,uk,tone,beat,b,c,a,)|dom,(cd o,n,m,(cd s,k,)}} [,parro,s,r,~,},/e,z,x,[[mca,, fre,uk la,&nbsp,stone,[[cap,(u.s.,[[car,cd ([,(duet,reiss,rd &,/ tvv,'',)|dia,oink,)  [[,cd (u,[[vir,uk [[,(cana,cd,/ n.e,[[ann,[[imp,-s, u,brick,a (us,]]),px]],[[bru,-as-r,-as (,[[tem,(uk),{{fla,; bs-,tot,(uk,,; us:,(us}},/[[ji,unite,music,s/,-d, [,manag,s-,), mo,antx-,/ w,l rec,s),)|apo,inter,th &,c-,-a),(reco,[[cor,!]],(cd-d,cd),welco,/[[un,produ,singl,th fl,(uk),,(cd+d,(dvd),]],us: e,/[[,(limi,so va,bones,-s),}}),) ,,-s/t/,) sma,& tmg,{{esp,s)|fl,liber,hwr,mgm,.stat,cds,and p,)/(to,and n,els,usa/c,degre,repri,/[[ep,)|tan,pc,us: [,(firs,-f.,beat|,}},rd st,repub,epbe-,]]) (,epic,, usa,) ori,st &,(t),tolli,-db,]] [[,[[atl,ad]](,ball,relea,ft.,,ad]]/,inc./,ad]],,fella,point,)|car,a]]),cdx),ad]],([[ja,)|sil,),,en re,th ce,)  j.,s)|ch,-a,-b,''[[r,ad re,, us),|k,st av,-k,]], [,inc,; [[j,tf (u,|m,[[isl,power,th av,nv re,secon,! rec,(pink,bros.,bros/,e_rec,[[kin,(us,,ks,: [[t,(us),enter,aphil,beat],/[[po,trap,[[war,tone],(uk,-a (u,([[gr,[[uni,inc.,) , [,media,west,coral,) [[c,]] ea,s|def,[[rep,), ci,state,big c,[[sir,([[un,as (u,) [[v,) [[u,) [[s,) [[r,) [[p,(usa),dn re,-lon,(uk)|,)  v-,is,s (uk,inch,)   s,l/asy,(holl,play,"]] (,) ind,/b ([,odeon,th pl,/ mer,[[mot,)   [,d (di,/b (j,)|reg,([[em,	-1.0	-1.0	[Labels]	37383	
coordination	OTHER	-1	-1.0	-1.0	[]	1	
filetype	OTHER	-1	-1.0	-1.0	[]	1	
Charts	STRING	-1	-1.0	-1.0	[]	1	
Place	STRING	,mph,% cha,"),party,am),story,(tunn,becom,luftb,(live,bonni,|今でもず,year,% (yū,/マーブル,",th ne,(don',seaso,to te,!,&,',%,perce,under,+,(,kisse,miles,),.,(love,/,,,s col,-,crime,:,lines,d (fi,?,st of,ways,go,|遥か}},face,whate,sum a,ocean,anoth,|創聖のア,hot w,–,guns,life,of am," sin,times,mix),],st re,da ba,d,nen s,out o,day w,back,hour,/shin,ones,a.m.,nce a,k,weeks,up,% pur,u,s,days,revis,r,til i,ep,arabi,st si,ft qu,day d,- her,:am,da re,x,to,body,st st,good,remix,goude,-sai,faced,galax,st ti,dark,me),th in,dromo,let t,ans,light,crash,th wo,versi,@ war,u),/ roc,and,bajki,overt,gute,mysel,|マイガー,bucks,sound,½,nd be,kyōda,gou,thing,bill,:am f,balla,crush,kudi,nite,diffe,fifa,(stra,-nen,,por h,: -a,ibiza,rocke,cephe,peyni,er ga,rd pr,makeu,o'clo,feet,you,colou,chann,mutya,no vi,mädch,/ sup,am,s roc,pm (t,rebbe,th fo,'s gi,luv u,my to,milli,"/cd,jacks,in th,splas,% &,of," / ",''',page,and c,mile,(oh,,meere,on it,rd fl,heart,xmas,hours,or,à lei,again,steps,candl,and l,nd st,degre,econd,stars,years,nd fl,da ho,dem g,littl,th di,cents,dam-n,er bo,probl,somet,proof,kings,(the,-way,words,jamai,(exor,(it a,me,th st,segun,st ce,blues,mm,star,mots,(powe,fuckr,円"  ",quest,-day,'s,rst l,th ce,the g,you (,the w,ten,-tage,foot,+ the,gethe,shou,love,! fig,more,(laïk,grand,shots,nichi,-five,th av,secon,lover,work,minut,th ap,dream,kai n,th an,kinds,th se,–',manka,(we c,libra,'s la,newpo,ever,be do,(we w,other,yard,(a li,one,-room," spl,月のlov,'s?,for h,år,heave,die,th of,kaibu,stitc,fonky,dage,(noga,ya,の言葉,my un,to a,detro,tears,½ wee,ϕ,am /,you",quite,(litt,is a,night,/ onc,proud,step,s &,	-1.0	-1.0	[Name]	38912	
next_track	OTHER	-1	-1.0	-1.0	[]	15	
prev_track	OTHER	",	-1.0	-1.0	[]	14	
dndnd	OTHER	-1	-1.0	-1.0	[]	0	
Languages	SET_OF_STRINGS	-1	-1.0	-1.0	[]	1	
v	NUMBER	:knft,is,q,:j,:,st oc,qga,&tbm=,|s=,- nik,	142.0	142.0	[m, q, p]	11	
Charted	NUMBER	px|us,	1977.0	1977.0	[Chart]	2	
Vocalist	STRING	-1	-1.0	-1.0	[Vocal]	3	
s	STRING	" bel,album,gethe,north,me" i," sin,recor," rec,vinyl,secon,",minut," cov,mens,r.p.m,/,go'.,-d st," vin," is,px,year-,?,small," in,	-1.0	-1.0	[Key, Bass, alt, Nsme, Use, list]	399	
Reviews	OTHER	count,hv ou,.html,/jele,:ohny,/revi,of,.abou,:e,,,,],|pure,:jb,my+he,of.pn,.htm,:xceb,.allm,out o,;-,hvof,(,),:smds,.,/,}} [h,:jvfo,link],:,/reub,|,	-1.0	-1.0	[Review]	282	
producer	OTHER	([[au,singl,produ,]] &,rd ey,"),n) (,th vi,]],da]],(band," jon,bit]],jacke,n]],,rd, b,/titl,rude,)  ju,film),, [[m,-off],),dub-l,/,,,eleme,-,; ale,tym|t,king|,um, e,aurel," she,, [[c,th di,}},mill",); [[,finge,}}, [,king]," ver,–,, cia,:#,) , s,(musi,th st,'s]],]] [[,boyz,g,-d" d,'s, [,n,or no,: die,hab,,da, e,n pro,'s,pac]]," sas,x,t]],]], a,(grou,july",: joh,mil"],|a,]], [,_text,(prod,. eli,aciou,) al,) dav,]], d,][htt,secon,live,: [[r,th wo,: phi,versi,kids,: [[j,much,and,)  [[,n),, jo,) [[e,cc]],state,pc. d,rd,real,-keys,) [[t,trix,real,,|asia,, dan,music,rd pr,, dj,xlc]],ya,)   j,da]],,th pl,djs,)   [,studi,--alb,	-1.0	-1.0	[Producers, Producer]	30746	
Genres	OTHER	}} [[,bar s,-step,}},° bel,.html,s|syn,|radi,rock,),]],]], [,}}, [,tone],'' ve,:,.com|,st ce,|p=,	-1.0	-1.0	[Genre2]	37902	
Language	OTHER	-1	-1.0	-1.0	[]	186	
writers	STRING	-1	-1.0	-1.0	[]	1	
Rscorded	OTHER	,st. c,– [[s,[[blo,[[dub,at do,at dr,[[tri,(live,- mid,right,video,at da,at el,at em,&,at g-,(,),.,at es,/,,,-,[[gol,- [[h,germa,[[nrg,artis,[[win,;,manha,:,at ee,- [[l,?,at ea,([[sy,glenw,at fl,at fo,[[wes,milwa,helia,at ey,, pye,corne,],at fa,at i.,—apri,; lin,–may,at go,,  an,at gu,at gr,; lig,([[re,- jul,- jun,; eff,s,)  av,−,|,sorce,, pwl,.   v,&nbsp,aav s,[[nor,("thi,; c&j,march,([[no,cielo,july-,) col,at ar,}} [[,[[ele,at am,at al,-marc,; nur,; los,[[bri,|df=y,; "ar,[[bro,bamf,t.w.,[[bre,([[ma,at br,marat,[[wis,at be,; sil,pulse,at bi,at bl,at d.,{{fla,: sta,at ba,([[lo,; sig,at at,at au,,   m,at ax,music,([[ne,at co,peerm,april,at cu,at cr,musik,at ci,at ch,; sho,at cl,at ca,majes,silen,at ce,at cb,; jeb,(reco,@ [[u,yg st,&ndas,(blig,—marc,jacks,— aug,([[jo,(limi,capri,by da,a & r,a & m,- may,(rere,pye s,- mar,("run,; chu,febru,; che,, car,kingl,broad,, cav,road,; cha,quiz,,  ju,compa,kingd,, gol,janua,stax,; lar,green,(as d,at a&,londo,,  im,offic,cts s,(a),cmk i,{{jpn,- ear,s, [[,, woo,[[pol,fireh,– ear,, sar,, pow,, ech,g.p.,[[new,–dece,; emi,paul,— apr,appla,-janu,, nov,; g-u,; hed,bassm,phili,;  se,; elf,(remi,[[nel,(demo,at [[,- oct,njs f,;  th,- sep,(mayb,, new,([[en,sugar,—janu,; nig,— jun,, see,& oct,, [[v,, [[w,, [[t,, [[u,; bop,; boo,[[nas,may,,, [[d,june,,, [[g,, [[f,, [[i,@ cor,, [[h,, [[k,at a,, [[j,, [[m,– spr,, [[l,, [[o,, [[n,, [[p,, [[s,|apri,[[lag,, [[r,june;,: axi,, uni,, min,nashv,, sep,; (ec,, mid,, [[a,, [[b,, [[c,, oct,: the,/earl,parad,(midd,meta,–earl,–,–apri,at q,oslo,—,"[[be,los a,, air,maste,; hit,, wes,mount,[[pan,, wer,octob,south,chart,, sco,, sig,; maa,rando,, alb,, a&r,; new,[[hen,|febr,; mar,, ima,(slam,, cbs,; mat,[[bar,. rob,& ',; pla,; hom,sound,cash,, d,, emb,legac,– imp,, and,–febr,(diec,henso,, win,-febr,; dre,nesma,{{cit,kay b,: rec,& dec,or ja,-  au,- nov,stard,, com,rumbo,]],and f,and a,and d,golde,avex,parkl,and [,at  [,[[bea,and m,and j,ines,at  k,; ear,[[d&d,start,krypt,, abb,(crim,eleva,-spri,; tre,cello,; psy,(lp v,, cri,, mot,, skr,; fre,; ([[,a&r r,air s,the e,earga,the b,the n,[[the,the l,vox r,the i,the g,the w,; [[w,, est,,  [[,the r,, a &,the t,at '',the s,; jon,the u,[[toe,le pi,[[top,; [[h,; [[g,; [[l,; [[k,[[tow,; [[n,; [[m,; [[p,july,; [[o,; [[r,; [[q,; [[t,, adv,; [[s,[[mus,emera,, aby,. sid,; [[c,; [[a,; [[b,, [[,; fox,''roa,h&l s,[[,pinew,june,[[rec,; fly,- apr,middl,chica,idful,—augu,; rok,[[de,châte,[[lon,, wat,, sou,; roc,, wal,[[los,at "h,, sph,(main,@ sea,, str,, ste,(orig,hitsv,barmi,; des,, sta,, jul,oven,– aug,, jun,– jan,–marc,black,; del,; dea,– sep,, cur,anarc,titan,; hyd,: eng,, aud,, aug,alber,[[sto,[[sta,("ant,in [[,, cuc,; at,[[stu,'s mu,, sur,may,, sum,tw st,, stu,; dar,, fra,; ban,(all,, fre,playg,stone,-june,kross,; dad,}}–{{,; mod,in ab,- feb,-july,[[cri,- dec,; mog,; fc,and,fly s,[[vir,[[son,''the,, at,[[sou,cd,, swe,]].,(solo,|}},}}-{{,, apr,'''[[,–sept,– nov,at,@ kil,'s re,]]],metre,augus,bangl,(song,[[con,; the,somd!,, syd,; kin,& col,- jan,(lond,(re-r,us re,; le,villa,- lat,in du,choco,or,(inst,batte,th, a,in ch,in co,novem,rd st,; dow,funct,• ''s,); [[,in by,; dop,• ''l,chato,[[a-s,: roc,: woo,silve,]] [[,; met,[[hit,, fou,, may,(albu,; rec,[[ath,, one,in at,, man,wally,, mai,– pla,[[oly,or ea,; rew,, mas,, mar,; wer,[[mar,(sing,[[mas,, tar,, in,[[man,[[mal,—spri,, fig,mayfa,elumb,) osa,; no,[[hol,may a,– apr,effig,; vir,, fly,[[van,-',[[val,; bla,; d.a,santa,|}} [,; gan,–octo,, la,—sept,; pat,(jetz,-[[lo,; par,– feb,-apri,rpm s,; kan,; kam,; war,in  [,in:,, mer,local,; mid,studi,, feb,at sm,([[au,at si,at st,at su,, pep,(both,at sp,at so,unive,recor,at sw,at ri,- bi,at re,flyte,[[san,[[mer,[[met,at ro,trafa,at ry,; gle,, tel,at se,)  sh,(japa,}} at,; wil,in me,at sa,subze,holly,– jun,; c.w,– jul,by [[,; wes,;  al,–janu,, dec,[[icc,, bel,, pgp,[[icp,, bea,& jan,to ea,, phi,; ame,, dep,franc,, det,hard,at rc,, pha,at ra,, roc,vocal,park,, the,; d,at pl,, rok,&mdas,? -,parc,at po,rca s,; inf,[[ibc,at pu,(jarm,at pw,at py,(enri,to,, hit,& sep,; coa,in pa,at wo,; con,)  me,in pi,in pl,}} (a,, jan,; ins,|july,, thr,-earl,— ju,gilma,(basi,, pho,[[mil,quadr,, vin,festi,[[mid,; cov,at wh,–june,at we,;  [[,at wa,, pie,[[mia,to fe,to ja,in mu,, die,]]-[[,at ut,at uk,; swa,decem,;   [,at un,emble,,  sh,at va,rockf,, pla,in ne,,  so,—febr,; cre,at to,at tr,; gig,at th,—may,-may,-oct,integ,; stu,at ku,, boo,forti,, rem,at ko,, dop,shelt,mirro,in th,; sub,carib,crite,at ki,c&j s,; kru,; sun,- ony,at ju,to ju,, red,nd fl,] jan,at in,}},to mi,a&m s,icp s,at ic,, ton,; mur,[[châ,th st,[[sma,[[ace,in sp,, joh,, lon,at ho,roc t,; woo,new y,, los,; sta,. voc,basel,to ma,at hi,[[abb,) ''d,at pa,; mxm,at ov,; gol,??,at on,; spu,, par,at of,at oc,), fi,[[cho,th,,th-,, pac,(virg,, tra,[[che,rca's,: cir,[[chi,at nr,, tri,at no,gothe,, tre,at ni,wave,& nov,[[wal,at ne,?-,?,,cbs s,doppl,, dra,−janu,at mu,, re-,[[cha,septe,—dece,at mo,) [[n,at me,woodc,th oc,, zac,– mar,; gre,; sof,– dec,[[she,uk da,ar st,(meta,at lo,– may,at lu,woods,;  ec,at li,; sou,[[mor,	-1.0	-1.0	[Recorded]	23271	
studio	STRING	-1	-1.0	-1.0	[Studio]	7	
album	OTHER	disc],: ele,]] &,rd-lo,(orig,(doug,memor,(buck,ive a,hroni,luftb,naugh,% (be,deep,u (al,video,kenny,seaso,film),&,(quee,%,höhep,+,nd la,(,|look,miles,(fore,),.,/,,,-,]] so,:,mile],(mira,(s cl,fille,alex_,)_re-,d#sou,(van,day t,nen m,hour,k,broke,seich,days,° fah,til i,dayz,#soun,x,(m. p,volts,(calo,: goo,o (ha,|d:re,(oak,xs]],?]] a,us ve,reiss,"dear,play],etern,-hour,a (al,th wo,: mee,speci,sale,fleet,play:,s & h,editi,mysel,: lat,fast,leap,(marc,(film,kilat,songs,nite,]]),s lun,: des,hardc,pm]],sides,(ronn,music,lw (a,die b,(ll c,(twin,at,u]] ',: eig,hot]],great,color,cd co,oh!,milla,(lenn,singl,th fl,pac#b,akoga,jacks,on,(omar,(amai,walk],k (al,buste,nd st,degre,: lea,wenty,(dr.,month,nd ti,% col,(o-zo,life],th di,km/h,)",proof,|brit,cute,mothe,: roy,oz. t,nd w],zukko,rpm (,myx]],(a-ha,(exor,: son,th da,: i'm,'s]],blues,boyz,u]],'s ba,(joss,rd ti,(albu,citie,barry,nd va,ne,'s an,vies],: ope,(twen,nd ve,force,th ce,(beyo,]]}},f.t.o,th bl,eight,love,po vs,|deep,(what,shots,: (th,lover,(ash,minut,th an,% gin,th al,th ai,(kumb,in he,beat],:_mon,ichig,: asi,quad],d - d,'s la,lives,: hom,big o,-',bigge,super,;&#,re-is,: oka,m]],: jud,(paul,reloa,fonky,° (th,polis,pac a,tram],damna,know,(j. h,tears,½ wee,años,love],(toby,ive (,t alb,(j.o.,'s (a,-d#so,saman,th]],]] '',my n.,'s (m,/ moo,)'',_the_,recor,'s (d,year,(bush,: unr,(trac,(die,cuban,bar b,]]''',borou,re-re,.. th,(ep)|,(snea,(adel,shade,rd: l,face,whate,(temp,gewin,: mot,(for,sinne,: the,finge,: mon,–,(moby,& [[n,)|the,d | s,st la,-pres,, vol,s lad,% pub,?]],|poin,-c]],-d]],]] an,be ho,revis,box s,(enri,pacal,world,to,fel!],: hus,th ik,album,remix,: tri,)]],... l,dromo,(bill,chamb,... h,one (,(base,(shak,watts,(eme,s… an,: sce,um ki,? rem,sound,, six,natsu,(rand,, lif,) & [,luv',st go,kan]],st]],siste,th ge,jahre,fifa,hull,(abba,éxito,girl|,a pha,.com],]] (b,: rel,cent,all s,all t,futur,_film,feet,(blur,... w,: sen,: a y,my me,: red,diagr,cd.,ers,: tel,giant,años],doors,sessi,(phil,]],: bac,st en,, sma,and b,and d,mile,golde,rd fl,nd en,st ga,plus,|boxe,zouk,hours,again,me]],° (ch,* stu,th wi,- son,: ibi,tanya,econd,stars,origi,summe,years,dance,winte,runne,cents,th sy,(wet,(brya,(the,cento,)|at&,bad m,kids|,words,(madn,st ch,: con,(geor,st ce,(cky,: ade,behin,air s,'til,'s a,th ti,a.d.],(ua a,the j,the g,''(in,(tinc,(five,- vog,: fur,s]],/saki,the s,nd ii,ringz,to pi,. okt,bel a,st al,remas,secon,shoes,(dami," alb,–',sense,) [[,: eve,y.o.],: an,st bo,other,) [[b,d (tl,th ot,ème r,]]'',lor e,sonny,numbe,upper,) [[m,unlim,cc (a,you]],openi,film,)]] ',d (so,(soun,/welc,da ga,(nets,inche,detro,gauge,(six,]]  (,first,	-1.0	-1.0	[Album, Albums]	34217	
img_size	NUMBER	px,×,	90.0	250.0	[image_size, Img_size]	9	
Featuring	STRING	-1	-1.0	-1.0	[]	1	
description	OTHER	-1	-1.0	-1.0	[]	2	
Premiered	NUMBER	, [[,,,	-1.0	-1.0	[Premier]	2	
Shown	NUMBER	,,	-1.0	-1.0	[]	1	
country	STRING	-1	-1.0	-1.0	[Country]	3	
size	NUMBER	,me]]",(wycl,]] (,party,story,hroni,becom,(live,bonni,|i ju,-one,p_u,) us,% (bi,rd ma,",!,to te,film),&,',+,(,film/,),miles,sfz,) (as,.,/,,,-,|the,gq|"v,love#,:,d (fi,|you',=,)(re-,k" (,ocean,(to f,guns,(mand,times,yello,f,g,|pers,e,/ wea,f son,n,o,day w,l,vxqap,hour,j,a.m.,nce a,i,(figh,t,days,s,til i,p,ei,'s?]],st si,},ft. c,|,nen z,x,body,st st,}}'',let u,song),goude,reiss,'s st,rd &,'s so,|fina,)  }},th wo,fthe,'',)|ano,mafia,|born,and,bajki,lzebv,mysel,rd re,me)]],, as,make,thing,side],balla,nite,]]),diffe,|engi,]]",m son,palms,ibiza,) ([[,waka,mr._t,cephe,more],) or,"  (,]   (,eljoc,th "[,u]]",nd re,o'clo,)-->",°" (,mutya,no vi,(song,_song,ombou,ratov,) #,th fo,lva,singl,luv u,)a,）,milli,bette,jacks,)\,) (wi,of," / ",) (,(k,step],th ep,use v,subar,xmas,or,år]]",)|tar,steps,_ogaj,|elar,)|tai,degre,'') -,t son,life],dem g,pisto,th di,)","winn,proof,-way,me" (,(it h,mk,blues,flavo,){{ex,robok,) / (,'s ba,th]]",(powe,tsubu,pm so,joy d,(mega,walls,-day,) - ",ne,: now,th ce,siczb,you (,cc so,you /,gethe,) ( a,love,(laïk,) --,lover,minut,th ap,l for,th an,) "[[,kinds,.a,(we c,no ko,% (so,)|a l,)   ",vkkij,gou]],die]],(we w,be do,)|who,) - u,pac s,) (us,re-is,for h,'|wil,heave,msee,%]]'',t-bir,go]]",good],] (,shou],expen,de en,s]]",to a,,_yea," vin,love],vbzl,bears,)  su,night,worry,|s=,-tay,recon,; uk,eyes,)'',k ver,year,th ne,]]"'',prove,(don',)  ri,kisse,(swed,_mkow,iayli,"|''b,|free,re-re,(snea,(good,st of,ways,) — ",)  "d,|gekr,face,)]]",wheel,vh,sum a,)}},)  "[,"[[co,(life,: the,qpntl,u (so,hot w,–,|∞,)|vol,life,of am,_xt,)|the,(gold,mix),yen]],"''',da ba,one]],yst,)(as,t ver,/shin,ozo|",% pur,: rad,mix)],ft qu,to,days",myx",/marb,lose],tp,album,}}" (,remix,good,work],)''',th,)]],-sai,galax,) dav,dark,my pe,, uk),crash,rsfut," (,|"fro,if_yo,sd,versi,am (s,james,syity,bucks,|"bay,am (c,ans]],in mu,crush,)/"[[,]]" (,siste,(engl,days],-nen,,) son,|made,)  &n,rocke,) (lo,)  &m,qz,bag s,peyni,]]" /,nmgdz,: cry,cent,girls,''''',ccxwn,me (p,track,feet,argum,) / ",'s]]",chann,px,mädch,dage],rd "[,x]]",rebbe,’s co,doors,]]"/",my to,anniv,fvftc,% &,in th,splas,cover,and g,''',page,and c,(oh,,rd fl,|ever,hours,à lei,again,'s &,, uk,"'' (,and l,) }},am an,econd,)  --,nov,stars,d]]",u]]'',) ---,years,dsuem,usa),da ho,nd fl,}},er bo,probl,somet,)-->,]]) ',"|cot,| giv,]]) (,s?''',words,jamai,th st,: con,st ce," roy,)"  (,) usa,up]]",) tsu,nite],the k,rst l,the g,the w,''[[w,(tinc,uk),(five,''[[s,ver.),bodie,"[[es,ya]]",|unea,''[[y,grand,st al,nichi,) &md,secon,fkukb,dream,solem,manka,}}  (,libra,s?]]',other,yard,north,|"shi,ride],-room,]]''," spl,unlim,th of,"|the,you]],)" (,stitc,)]] (,me''',my un,detro,k son,am /," ([[,|in t,]]  (,")|da,	45.0	500.0	[date, sinle, Price]	35391	
Tracks	OTHER	",revis,:,	-1.0	-1.0	[Track]	27	
Conductor	OTHER	-1	-1.0	-1.0	[]	2	
song	OTHER	,"/,th ma," ep],) "ra,am",",,"),", "j,(band,", "i,eyes,th mo,"] (u,(live,am in,",/u",seaso,&,pegas,',st pr," "sh,+," (ac,miles,),.,/,voyou,,,-,", "l,rokk,|the," (al,prese,re-re,love","   ",:,wheel,) "bo,: the," ver,guns,of am," sin,norr",times,mix),)  "k,)  "l," rel,x for,ft. s,frenc,nce a,a min,% pur,") "w,")/ p,days,revis,octob,nines,|,") "m,mile",x,") "i,to,lyndh," (us,ya",song),remix,acous,work],hillc,. sav," (ve,: "wh,dutch,card," "mi,light," "mo," (,)" (r,, ger,versi,"  "t,and,mix)",overt,u",whom,"  "b,)  ([,fast," "no,) fli,a],crush," pic,. "be,jahre,st ve,%" "b,]]",-inch,m.p.h,(maru," var,ballo," "br,+" "r,) "su,girls," "al,, end,d",u]]","]],djs m,'s ra,chill,cd:,":  ",metre,seven,no vi,(song,belie," max," "am,promi,singl,sessi,men",,th fl,ther,]],and f,only),in th,")  ",s ver,''',megam,and c,* out," "do,"), ",meere,o pro," "co,avec,lette,of a,nd si,hours,or,steps,nd st,r in,pimp,u|i w,''' ",x big,summe,origi,'s",years,dance,nd fl,life],eleve,th di,)",bad b,}},: bra," rpm,(the,legen,(it h,''':,th st," "fo,(drag,blues,th so," & c," lp',. str,man"," "ex,), "u,, lon,relea,)"  (,(my l,-trac," – "," onl,the b,a vel,ne,radio,[[the,": "t,th ce,, pt.,da fa," by,hrs.,chord,"  (n,") "[,"  (o,/arti,"invi,jp re,・,"  (u,") "c," "he,[[voy,") "h,th av,st an,secon,live,minut,minus,) "[[,s mel,here,'s lo,")  v,) (du," "go,"/"lo,(part,schne,answe,- ove,state," tv",]]'',dorim,re-is," mix,-oku,septe,medle,"[[st,"]] [,corps,= &mi,(demo,)" (," and,'s jo,inch,|radi,rpm s,bpm",,know," vin,you",ive (," (li,skinn,night,|s=,	-1.0	-1.0	[sidr]	15479	
Performers1	STRING	-1	-1.0	-1.0	[]	1	
landscape	STRING	-1	-1.0	-1.0	[Landscape]	5	
tehe	STRING	-1	-1.0	-1.0	[Nome]	2	
Signature	STRING	-1	-1.0	-1.0	[]	1	
Year	NUMBER	-1	1982.0	1998.0	[]	4	
Region	OTHER	-1	-1.0	-1.0	[Person]	1	
Vocals	OTHER	-1	-1.0	-1.0	[]	4	
Movie	NUMBER	]],	-1.0	-1.0	[]	1	
artist	OTHER	boyz],doors,ª est,glocc,broth,]] &,th fl,viole,'s|th,m (ba,torqu,]],(band,crew],plus,of a,',-hero,soul,+,d]],.,|s cl,,,-,of s.,degre,|the,clown,king|,aurel,cent],years,| hur,runne,|no n,pisto,th di,}},l]],rd st,c (gr,finge,bad m,–,(musi,'s]]," roy,(rapp,ball,ctz]],|hurr,]] an,nen k,k,thevz,pac]],chain,ne,south,the h,t]],volts,|pass,am]],s]],um]],|a,]], [,nd ii,lw]],(prod,youtu,& kno,secon,rd ba,live,shoes,minut,fruit,non b,speci,mafia,grave,ers (,k]],cc]],pac)],eyes],siste,-tay],state,eivis,-keys,crazy,dayso,k]] f,unlim,pm]],chica,]] fe,inche,s pop,|i dr,na]],real],deep],ne]],: sen,seven,squad,th pl,pac|t,t]] f,bears,featu,gauge,js]],|tomm,oh!,giant,	-1.0	-1.0	[Artist]	38813	
Composers	STRING	-1	-1.0	-1.0	[]	1	
sample	OTHER	kb)]],	-1.0	-1.0	[]	6	
Radioplay	NUMBER	,,	-1.0	-1.0	[]	1	
music	STRING	-1	-1.0	-1.0	[]	1	
this_track	OTHER	-1	-1.0	-1.0	[]	19	
Keyboards	STRING	-1	-1.0	-1.0	[]	2	
positions	NUMBER	[[bil,	-1.0	-1.0	[]	1	
Category	STRING	-1	-1.0	-1.0	[]	1	
Tempo	NUMBER	bpm,	-1.0	-1.0	[]	1	
Production	OTHER	-1	-1.0	-1.0	[]	5	
track_no	NUMBER	of di,	1.0	15.0	[]	200	
Remixed	OTHER	-1	-1.0	-1.0	[]	1	
Audiosample	OTHER	-1	-1.0	-1.0	[]	0	
Certifications	OTHER	&ndas,- [[u,june,}},xplat,&nbsp,milli,x mul,|reas,x mil,s son,july,qebes,x [[p,may,× gol,april,[[mus,× mul,a,%,x[[pl,× pla,(,),&time,/,,,-,x gol,hhx,augus,th pl,octob,t so,st si,|,x pla,×plat,}} go,novem,	-1.0	-1.0	[Certification]	2638	
Origin	SET_OF_STRINGS	-1	-1.0	-1.0	[]	1	
cover	OTHER	-1	-1.0	-1.0	[]	2	
border	STRING	,- pus,- pur,more.,lola',m cov,- wha,px-mg,party,knock,becom,luftb,s_cov,bonni,mylov,comin,',vampi,. ext,%,-thef,+,(,.,,,-,anybo,touch,feb,queen,namid,_part,getit,vqrhq,-big.,neu,_snea," sin,times,ever.,_,[,px-jt,-soyo,myste,f,_minu,d,thewe,b,x.png,c,azeal,-jcol,a,-the-,"_ext,day w,yen.j,l,hour,m,-i re,j,nen k,k,body.,h,aa.jp,you'r,- whe,groov,days,s,st si,cddvd,x,) cov,_ever,song.,lips.,song),goude,dues.,_libr,sngle,._nes,iwf.j,st ti,m - m,- giv,hbo,_or_,mafia,label,"sing,l bet,mysel,)_fly,%jess,rgb.j,swbl.,me) -,-scoo,-you-,incov,balla,-itsm,-safe,_spar,.jpg,ktf.j,)(lq),luvu.,cephe,ya ya,nd ro,music,april,-down,o'clo,_down,myspa,peach,itd.j,great,_brea,take,royal,_o'cl,-minu,weapo,px-mi,ksotm,ndski,ddwyy,) alb,broth,singl,freak,atm.j,promo,._pri,-give,rpm_o,jpn.j,elect,rdsin,b.jpg,nsns.,"_sin,lifej,-gyro,_year,- man,lc -,- mam,- i'm,daydr,dem g,pisto,you c,_am_a,kings,lordo,bu ge,- wal,amdig,-way,_don',-sept,lonel,whoia,you s,st.jp,r.jpg,ft ht,life.,px-am,_sbm.,picsl,aitak,-terr,px-ay,-zukk,see y,motiv,evert,-tage,cc so,rusla,sls.j,gethe,good.,suici,every,-jami,vam.j,_(mal,wakei,-a wi,marlo,-ddd.,minut,-gues,tumbl,skrsa,cc th,'.jpg,pac -,pac +,-~nog,k uh,-you,-drin,coral,-mexi,goodr,_mile,honky,s.gif,fire.,for h,cc -,ammat,fonky,ers-t,-swe.,- i w,- i m,-sing,spot.,seifu,_door,bears,sunda,(litt,is a,night,proud,-.gif,step,a wic,arms.,v.jpg,-tell,fdp_h,sio.j,unffi,bsomc,dage.,under,kisse,- eve,- aen,-take,signa,stree,_of_,much.,whate,nobod,colum,bnmd.,thefl,finge,-nept,whatw,- jed,_to_g,prete,- ada,baby,-darr,- sho,-ham.,dlgms,_afd.,celeb,- uza,_bina,back,- shu,t-sho,i can,_arab,n.jpg,nns.j,ft qu,hamme,t giv,remix,dutch,_heav,days.,crash,_to_a,_-_za,_viny,_-_yo,sweet,sound,bingo,thebe,t.jpg,-fire,cali.,crush,_-_tú,fatli,-inch,t_you,_(sin,luv.j,dayso,-wake,vinyl,.gif,kraft,er ga,_righ,adwm.,u-sin,chann,) nl.,_@_wa,- hal,respe,csn,chang,giant,doors,%bcsl,- not,-osak,d.jpg,am.jp,t-i n,cent,,cent-,- jos,cent.,frntc,cent),thela,- hot,-mile,- any,- sou,- how,-slee,t_wan,socie,- lov,on it,ep.jp,- wok,lette,- won,tanyt,hours,again,yearb,candl,t&her,and l,- som,- ame,dusty,centg,b_und,centf,t_sto,).jpg,centa,._naz,cent_,years,thsin,da ho,lemon,littl,- all,cents,sexsh,_-_to,ep fr,er bo,centi,& onc,_kudi,centm,_-_th,centn,_butt,pleas,words,bequi,bokun,- alw,rtcu,_rise,amson,(feat,pacig,(new,_-_so,_-_se,_mots,-waha,_-_sh,am co,chain,_-_ta,the n,snook,_-_re,itsov,a.jpg,numb-,- cry,chord,numb.,inch.,".jpg,".jpe,mamas,- sta,foola,- s.j,eah.j,dream,th_se,inch),comel,- gra,-and-,..jpg,uix,_-_pe,mejwy,go.jp,-mt-c,a_sma,gixwk,-mt-d,"_a_,inchs,unlim,inchv,th_of,- lif,inch,andah,fooli,inch_,- sup,inche,foolt,inchc,cdfro,polyd,detro,inchf,_days,(germ,river,- dar,-star,- pie,using,).png,_rpm_,_oneh,- day,lei.j,rd mi,disco,priso,black,seaso,- fir,u bra,sleev,aiwsi,perce,pmtim,_prob,miles,"_,rd.jp,_when,love.,w.jpg,- dam,oh wh," tel,rdjap,chuck,- flo,ocean,-m-,guns,m.jpg,on a,skirt,safe,-kate,mile.,won't,a.m.,nce a,dabac,til i,- up,_des_,cd.jp,mla.j,-colb,da re,'s si,s.jpg,_to_,g.jpg,- ast,ualfi,px.pn,%a,bh,bc-no,maedc,light,) d.j,desti,c.jpg,- fee,-kanf,thinn,speci,& cd,and,cbp.j,- dep,- we,k.jpg,one.j,_joy,,- def,one.p,roman,perfu,am) -,thing,-heav,ways.,nd_co,nite,- aut,- aus,_.jpg,-wont,eivis,ibiza,mer,st_st,_cd,_pink,_seco,_lady,still,metri,-dela,colou,step.,flyin,salti,mutya,glori,) big,cd co,am-,iride,oh!,fly.j,ve-do,_hey_,_fren,milli,- bad,reali,realf,od,_just,pagel,gbk,ot,digal,heart,-by-k,steps,-cove,degre,pm,- pat,"_pic,wall.,+move,- nat,- pay,cm.jp,th di,in.jp,sb uk,blued,aside,lz,xmast,a man,_on_m,conte,neon,-piec,.jpeg,aminu,blues,_à_le,_asyl,emoti,aiwiy,-trac,qzvrt,ynk,- my,-diff,ne,knigh,ts.jp,yug.j,th ce,- na,last,-dydc,love,_safe,paul.,- let,ooruq,fdp c,-five,th av,sence,loves,live,full.,en.jp,th ap,ku,ifile,kfire,- the,wlctt,thous,no ko,_sing,_&_lu,)_not,(we c,su.jp,re_in,_it's,newpo,-v,kai_n,_(ger,_&_,_rpm.,_siki,px.jp,thisi,_wlt_,japan,ig,fanni,am_fo,ones.,medle,mixed,f.jpg,-ghos,lw no,stcen,,_,hitpa,, ori,rpm v,dumb.,boa.j,featu,ibrui,) fro,_trak,xo,fight,wil.j,f**kr,desig,_-_be,- cd,u.jpg,_tram,clann,pmdon,a sil,_-_,-fast,-suns,sai.j,_in_t,jakat,_-_ai,- big,me.jp,do yo,_larg,cd si,peopl,shess,s_unf,stsig,-ill-,st of,five-,- as,ways,_albu,qqs,axg,b kyl,_cd_p,cm.pn,sum a,ocloc,hotis,chu i,mofo.,big.j,anoth,- kim,ai de,_work,_myho,belle,shewa,- do,dolly,-.jpg,monoc,t-tea,a sle,front,lald.,o.jpg,ynu.j,die.j,revis,k_gir,-muse,feat,_iwan,dos_r,"_eg_,to,-chai,gecd.,_tres,bd.jp,tp,natur,_a.jp,_-_ev,voke_,doll_,dark,)_los,white,_-_en,'s.jp,overt,nd be,.png,_-_di,- s,t-,-nvrb,_-_do,flowi,verti,_-_cu,_let_,keibe,_-_da,cent,say.p,wtw.j,-seco,track,_-_co,lamb,inter,mvf,all b,pt,_-_án,').jp,ps,out,- mr.,_myse,infin,_alli,splas,in th,cover,-trou,megam,j.jpg,; out,-gift,f ree,_-_jo,_ally,- tsu,rd fl," cov,wxmas,s dir,- mor,_stit,_-_hy,_-_i_,tempt,_u_(k,_-_it,yuhis,a.gif,_star,amhal,bsfqi,probl,somet,nite.,rpm.j,de re,th_wo,ihe.j,_body,th si,_-_ho,rpm.p,th st,_bfh.,l.jpg,st ce,ctz.j,relea,gangs,- ',- it',saint,new y,_-_gr,toe.j,k - f,t_rea,je ta,_-_go,k - b,retai,-cd,nites,_i'll,azy-e,foot,_-_na,_pict,t_lie,- rou,- ros,yolts,_-_no,_inch,mini.,grand,aesta,- bnl,secon,shoes,wct.j,-kjs-,_-_ma,_cove,!`.jp,_odio,-make,- rom,_-_mo,-u an,-suki,fvoh,even,arcad,- vol,_ans.,zg,- dow,yard,gente,_-_lo,die,_-_lu,th of,enemy,natio,- bow,congr,magni,ndhol,steel,camay,_-_ko,jet.j,yn,	-1.0	-1.0	[Cover]	29969	
Result	NUMBER	st,	-1.0	-1.0	[]	1	
Comment	STRING	-1	-1.0	-1.0	[]	1	
director	OTHER	-1	-1.0	-1.0	[Director]	83	
Songwriters	OTHER	-1	-1.0	-1.0	[]	2	
Remix	STRING	-1	-1.0	-1.0	[]	1	
Formant	NUMBER	" sin,	-1.0	-1.0	[]	1	
Internet	NUMBER	,,	-1.0	-1.0	[]	1	
position	OTHER	(uk),: #,([[uk,[[mai,r&b,,	-1.0	-1.0	[Position]	45	
Background	STRING	-1	-1.0	-1.0	[]	124	
Longtype	OTHER	"]]),	-1.0	-1.0	[]	4	
lyrics	NUMBER	by di,	-1.0	-1.0	[]	1	
publisher	OTHER	in mu,) ltd,	-1.0	-1.0	[Publisher]	41	
chronology	OTHER	pisto,pac)],singl,-tay],t]] s,am]],viole,finge,]],(band,lw]],-keys,(prod,ctz,'s]],pm]],secon,cent,pac,)|sli,minut,',mafia,),young,ne]],|the,]] si,pac]],chain,ne,south,cent],oh!,	-1.0	-1.0	[Chronolgy, Chronology]	4079	
Rhythm	OTHER	-1	-1.0	-1.0	[]	1	
Released	OTHER	,th ma,([[ar,([[as,px|au,([[au,jan,,([[se,([[ai,(orig,([[sc,nd ma,([[si,(uk &,, jun,may,,rd ma,|sept,",june,,(aust,(,),(euro,.,/,|apri,(uk a,(swed,,,th no,-,(did,([[u.,(reis,([[sp,feb,st oc,(japa,(uni,([[sw,(down,, oct,(braz,": ju,–,([[po,("ant,*[[ge,in [[,(unit,[[ire,nd no,in ja,(worl,([[ca,may,([[br,jul,(amer,([[bo,(cd s,(jarm,([[be,at pw,(cont,octob,|,(all,(finl,/  re,([[oc,(spai,(u.s.,(can),(barb,th,|augu,rd au,march,(icel,, jan,|febr,}} ([,july,,(nort,(span,jan,(digi,(norw,(belg,st ju,th ja,rd ap,(stan,and,(nige,|df=y,оctob,(cana,th ju,{{sma,in mu,([[ma,(ital,px]],decem,europ,july],rd,(solo,(uk),|}},{{fla,(soma,(uk o,rd,,|janu,,   j,(uk,,,sept,(nor),(us o,, apr,,   s,chris,}} (u,([[ne,: dec,april,(us),,(aus),nd,,([[mu,}} (j,{{cit,augus,[[ima,px]]a,(writ,sep,([[me,|octo,scand,/jan.,&ndas,- jan,(nl),,rd fe,promo,("eve,(uk),,(re-r,]],(radi,. sep,(limi,|oct|,px|ja,''',and a,(uk);,, {{s,th fe,(west,''(le,(db),(rere,||}},(''pu,febru,in co,th, [,—pres,novem,(firs,(as t,(isra,}},|¨,([[ho,dec,st,,(on b,nov,,th de,: wor,(on [,(spn),nd de,rerec,(see,(new,janua,apr,[http,([[#r,(prom,(albu,(elmo,(as a,([[it,(coun,. mar,([[ja,radio,(mexi,[[abb,, mar,[[mac,st au,(u.k.,([[fi,rd ja,, (ma,: eur,]], [,(sing,, in,rd ju,july,th au,([[fr,|}} (,uk /,(us,,th ap,(us),th,,th se,(see:,([[ge,(beth,(fran,, [[,}}  (,(itun,uk:,([[gr,(part,[[uni,( [[b,may [,(danc,[[,june,}}&nd,([[un,px|us,([[us,, re-,;  se,, son,septe,(usa),sept,(u. s,th oc,(sout,(arge,|dece,: dow,(pand,(neth,(asia,(rock,([[eu,([[uk,/dece,(rele,]]  (,(germ,(denm,	-1.0	-1.0	[Release]	38489	
Arrangers	OTHER	-1	-1.0	-1.0	[Arranger]	20	
Band_Members	OTHER	-1	-1.0	-1.0	[]	1	
caption	OTHER	,".,singl,promo,rollo,cd re,and e,cover,u.k.,rpm d,recor,and a,year,cm si,"," cov,' fro,(aust,&,and r,(,miles,),.," col,(love,cd si,u.s.,-,chrys,germa,, aus,, us,re-re,danis,origi,d gla,austr,(l-r),rpm.,"]] c," sle,. the,uk im,uk re,-song," ver," sin," rel,rerec,janua,[[boo,", cd,relea,regul,ameri,front,frenc,-trac,itali,'' di,uk si,offic,tour,, can,uk cd,playe,swedi,album,]]),,u.s," e.p," #,norwa,pictu,reiss,dutch,, pol," (,versi,s boo," cle,- che,[[rem," pic,issue,-inch,t) co,cm ve,re-is,japan," dj," fre,/ u.s,(uk i,vinyl," / c,-b,," a-s," and," lp,, wit,april," uk," lab,track,rpm v,rpm s," vin,'s '',quite," pro," max,) was,	-1.0	-1.0	[Caption]	1497	
Points	NUMBER	-1	225.0	225.0	[]	1	
Article	STRING	-1	-1.0	-1.0	[]	1	
Engineers	STRING	-1	-1.0	-1.0	[]	1	
Length	NUMBER	" &nd,min :,/viny,.'''," sin,":," rem," -," edi," (,",min," and,minut,|m=,',at," pt,[[min,m,.,]]:[[,/,,,"/alb,-,|s =,em; t,|ss=,;,:,min (,|,|s=,	1.0	18.23	[]	32525	
players	STRING	-1	-1.0	-1.0	[]	1	
Critics	OTHER	-1	-1.0	-1.0	[]	0	
Engineer	OTHER	-1	-1.0	-1.0	[]	26	
next_no	OTHER	nomre,fz,etye|,hfyus,sznqk,fv,ehdae,t - a,/i-wo,/i-wi,-s|"h,/cowb,mpqyc,poe|",to|"n,u|"no,wcw,aapyj,luftb,vmrxe,fi,yymoj,/the_,ecmi,xpeok,jpdcs,mtku,qr_rp,znuzi,khhds,-ja,ccm|",aupw|,xhntd,perce,oqzu|,juw|",ycidk,),/the-,/,iwxd,-,/outs,lamxm,/i-wa,lmdcg,by|"p,gh,/perf,tnmuy,:,rbwuf,wkuqr,du,dv,dx,yray,vqjff,/famo,) | d,ydo,-kq,nm|"k,di,aoaap,dk,rofxe,yurha,-xtpa,|"fee,/suds,aht,f,g,pna|",ftemn,d,e,b,c,sgwwm,n,o,l,m,j,/why-,k,wig_v,ga|ti,zrpfm,i,w,ggn,v,/ther,u,t,zk|"s,ee,s,ek,qlpe-,r,guzqn,q,p,ep,z,es,idorn,er,y,blvzn,eq,x,wybia,/shut,-g|vi,/if-i,cere|,ey|"t,ytjoy,by,/a-br,idps|,nqhvt,/cant,/amer,ddtks,/brin,/youl,zdeg,%b,bi,nvh-,zeq|",/star,yztet,/stay,/guys,dwbkk,rvuk|,rbp,ct,kfm,amy,ooedh,u|"su,ch,kvtdq,|"te,yrhv,=|{{y,mo|"l,fibje,k-bqb,biydo,a_,hii|",rb_,|"one,uxywn,/work,/leav,|"get,/boon,|"som,/fire,|"i'm,sec.o,_btgb,/kero,|"we,rbc,|"noc,/you-,|"gee,xzrzk,sgycu,jxdts,&feat,/peop,ncxq|,mquqt,fcm,).ogg,aq,|"uni,aw,ybvcy,qacdg,/pass,mc|"f,nbc,exsat,hbnue,nfe|",jxqb,eturu,ab,/that,vwo|",nt,g|"da,/chea,|"all,|"got,djhkq,/all-,nzfwe,/in-t,|"sup,thnu|,nv,of,-hy-h,c pee,c|"re,o_,jmp,orbvu,adog,oo,mjsew,oq,/sett,|"bon,kfasp,xcalf,|"sto,_wesk,zzbnk,/want,hkyde,pb,tltjq,yhfs|,_sec.,lvu,- pau,aax,iyef,pj,r-,/stan,hku|",lm,eh_we,aqblg,xyxio,dcdap,m_w|",brnaf,mhzps,jayjx,gibsn,/redn,/litt,pxtkh,rs|"t,/i-ma,gti|",g|"fl,dvz,plgkm,scpoc,qas|",|"clo,bjgum,ypgdd,xrkjv,jmkui,-ncrx,klbps,muhlu,rttfp,cpxpu,htvu,mlism,ne,ng,wuafp,y-ilu,nk,qlfg,hht,rpg|",gcjt,/im-m,-l,jl,xcn,/im-t,g|"dé,/im-a,plm,shots,ka,xqob,mjedk,/roll,wcu|",ks|"f,-zpz-,/red-,kyavn,uzdz_,/gidd,axo|",/drea,ks,/only,hfetq,pzwtp,/wait,bciky,ywmdf,bkosz,inf,k-yex,/are-,km,pkcfq,yxzj,/read,ecahd,pkm,jlfcb,fjkua,|"wha,dw|"c,/love,uwhvx,-ejyh,/dead,/wher,vwap,ergff,n_ede,|"cra,/gett,bbc t,txupq,hk,qnb,ce|"k,war,gvaqs,xbc,|"ain,gvtvq,rymzq,yij,ohtzt,|"m.o,a-tkx,cklb,ujw|",hoxdv,qlrhj,- i s,qyvil,-sxcc,wfpxi,ggrpi,cc.og,flc|",/didn,rih,pib,oxwd,kyg,.com/,awpmu,glnl,acc,ca|"w,ip,a|"ki,/must,qu|"b,jd,otsrl,/this,wmzdo,i|"i,/more,gpjhf,szxzo,zpfh,zjo,/walk,zuroo,xk,w&ob|,ncw|",|"if,eocq,=[htt,cilm,dgcy|,nxk,/here,izw|",_pyar,qrdci,wh,y-bds,isl,ti_mp,y-,/wild,maepf,wo,under,i-o&o,kspat,wgyci,/whit,/i-go,rw|"b,kxzfy,pers|,swucp,/trou,pvfbw,xkuiv,tyers,/look,y-rim,sboiu,ryd,iudzo,kstsg,zqkuc,q_aha,u|"ca,/no-p,f-cpe,ue|"p,)}},duxoo,zsy,pq|"w,/i-do,/a-li,y|"es,|"reb,yjshb,/long,bbbgs,udde,_ksrn,c|"je,tdtbq,wfi|",/alre,ul,fwn,)|for,ic-mg,xkthe,up,/not-,={{yo,qrn,mrb,/a-mi,m|"gi,/baby,/soak,uurtx,|"did,|"u a,/last,t fea,kqydl,/a-re,y|"he,uk|"o,nehck,mqtw,otj,ltx,/back,i|"cr,ffi|",annmq,/i-ju,sz,/do-y,/wron,stf,yrs l,fzyhl,/she-,rvatv,ost,wqqoq,versi,sc,hybyi,/achy,ayrmi,jjle,vrdrz,pte,kspek,kixm|,/noth,/a-wo,/sati,swoov,kdcdw,sound,cqh,|"wak,zn-on,xps,igfye,/alwa,nvxam,/geor,lrj,/best,uyxa|,rm,beukq,/we-w,nvzp,/my-g,wjq|",zpdwo,ukegd,fqk,vcqd,i|"al,q&ob|,tpg|",swisp,xow,bsxgc,znidw,/bles,zjcg,/bett,cve&o,hpaz,ivha,kdzey,/vide,iqq,|"tal,ql,ra&ob,qc,eloem,rvog|,/bye-,sxyk|,/gene,afrak,/shes,fkzpf,wufq|,foea|,/we-d,/one-,/ever,="[ht,slowk,/good,_ufg,/dont,moa|",xxlxs,vtcjf,gzkpf,saujz,cio&o,mfc|",/some,-lube,wqqrd,vim,zrbhg,uqlua,zpvsf,dbzo|,bra,ylim|,sgkg,hci|d,sckav,jjnar,ccg,|"i w,ehys&,quntu,tsij,/anyt,|"si,ydaww,oxinz,/anyw,sec..,_rpuv,cy|"s,/conc,mlees,th_ne,lcbxk,e|"sh,bissc,oqxvx,c|"al,qdefd,/addr,pmqva,/soon,pk|"',mjp,wa|"b,}},cpjdo,_cue_,/ride,u|"un,lfq,/maki,/dixi,tpxfo,e|"pe,qijrq,/girl,th_wo,vhsoc,/yee-,k_qdn,|"mam,|"man,t_xcm,.ogg|,cgc,app,iehlw,scoc|,rfunp,cga,dxihz,wfq-h,m|"on,|"tee,wla,/just,e-k|",dydwt,mamma,_pq,umvfo,hgvcn,rot-a,owdo,qfvq,yyy_a,omwqf,/hear,xo|"(,/dirt,nouwd,lblsk,/figh,tkses,fdskp,molzu,vnmqr,.ogg,/head,i|tit,secon,k|"ot,sqq|",oyhnj,hhk|",qtnto,/i-ca,feyz,.htm,hmnaw,non b,ujj,fmoa,ofnu|,ujs,cudo-,zku|",lc-mk,gswc,h-jlo,susk,awn,n-c,xi|"t,llgro,nkn,e|"of,ngzoj,/stra,howzh,ay|"i,- dow,atb,zxsvt,qymua,ltlbu,_hxmd,-vqmw,xyxtz,yy,e_tng,i-jg|,xrno|,gjnbi,vwwz,avhll,zntoc,xxpe|,_zube,xfdgx,fa_yt,tfs,_kt,we-rv,ec|"i,tty&o,voz,/inde,andah,hxedq,lpc|",pduxv,siljl,rjrnn,cxso,bjfy,kpcza,crouu,/sain,c|the,ys,q|"wa,sejuh,yp,glc|",bpls|,ggjs,sdpjx,	-1.0	-1.0	[next]	19015	
Lower_caption	STRING	-1	-1.0	-1.0	[]	1	
type	OTHER	)",''''',tori_,%b,:,),]],	-1.0	-1.0	[by, title]	107	
Composer	OTHER	]],	-1.0	-1.0	[Composed]	104	
SorA	STRING	-1	-1.0	-1.0	[Song]	4	
Music	OTHER	-1	-1.0	-1.0	[Lyric]	6	
Appeared	OTHER	-1	-1.0	-1.0	[]	1	
Named	STRING	-1	-1.0	-1.0	[]	1	
writer	OTHER	glocc,d|mic,&ndas,|earl,cent,,milli,|andr,ne|aa,]],th vi,(band," jon," can,|t. h,''),(guit,',, [[m,/,,,eleme,-,|the,tym|t,, gan,king|,t|tar,aurel,cent]," she,, [[b,d (go,}}, j,pisto,cents,}},|e. s,crew,([[co,|kurt,|aris,um|gr,d#sou,[[ste,}}, [,king],|jaso,)|lar,],(musi,lw]],,'s]],]] [[,cent|,) & r,(rapp,, the,|joel,relea,'s, [,ya]],n,|jaak,m,[[fra,w,u,|jerm,'s,chain,pac]],th ce,, mas,, yoo,july",]], [,, tat,/arti,aciou,um]],,shoes,|rené,}} [[,th wo,mafia,, fit,|dedr,, l.,evon,°c,, n.c,oooo,state,rd,]]'',-keys,da|ma,]], &,cent,ya,}} (r,da|m.,tears,pac|t,djs,gauge,oh!,	-1.0	-1.0	[Written, Editor]	31123	
Lyrics	OTHER	-1	-1.0	-1.0	[]	17	
Peaked	NUMBER	, sep,	-1.0	-1.0	[]	1	
Lyricist	STRING	-1	-1.0	-1.0	[]	5	
Artwork	STRING	-1	-1.0	-1.0	[]	1	
Versions	OTHER	-1	-1.0	-1.0	[]	0	
Number	OTHER	" vin,-trac,-,cd,	-1.0	-1.0	[]	14	
Othername	STRING	-1	-1.0	-1.0	[]	1	
format	OTHER	,"/,",," whi,")," or,", si,recor,cm si,","]] v,',(,× vin,'' vi,),/,cd si,,,"]] r,"]] s,"]] m,"]] l,"]] a,rpm),rpm,,"/dvd,rpm.,' sin,"; e-,"; cd,"   [,'' si,[[cd],]]",,"]];,"]])," sin," rec,"]]/,"]],," qua,", pr,", ca,", cd,x [[,&time,″,"&nbs,"|vin,”/,cocc-,″]] [,[[gra,part,'' &,x,x[[," /,&nbsp,") /,cm an,”/cd,'']],") &," +," -," ,," &," (,',,, vin,sh,and,)  [[," (ey," mon,t (#,") an," pic," cd],") cd,-inch,, cd,"]]),,']],vinyl,"|,", ma,", mc," sen,"-[[g," lp,"]],track,"viny," lim,") di,p]],,"#com,' vin,)  mc," max,cm cd,[[com,(reco,rpm]],cd),|in|m,singl,-cm c,"/cd,rpm [,")|vi,]],rpm ],rpm a,x [[c,xcd,,rpm d,x [[g,"]]/[,file,rpm," lp],rpm p,"  si," gra," col,x[[gr,″]],,″ sin,"cd]],}},x[[vi," fle,|mp,rpm (,")[[,"), a,"), [," & c,-rpm,: [[,r.p.m,mm [[,-trac,/www.," inc,” vin,", [[,"/dow,x cd,p,,&quot,"),,", vi,″]],")(," cd,]], [,")),_inch,cds,,inch,,"_vin,"]],[,", ep,"  (e,-disk,inch),"]],c,inch#,"cd s,xcd,(rpm)," cle," squ,[[," / [,", do,inch|,x cd,,"]] @,[[cd,″ vin,", dv," spl,'', [,cm &," / d," / c,") vi,"]] [,in vi,", en,"colo,downl,inch]," [[c," [[e," and,", co,inch,cm),in),cm [[," [[m,"]] ,," [[l,rpm v," [[g,rpm s,"]] &," ana,"]] (,rpm r,)   m,-sing," vin," [[s," ([[,"]] /," pro," [[p,") [[,", di," ep," [[v,	-1.0	-1.0	[Formst]	30671	
arrangement	OTHER	-1	-1.0	-1.0	[Arrangement]	4	
alt_artist	STRING	-1	-1.0	-1.0	[]	1	
release	NUMBER	),	-1.0	-1.0	[]	1	
Technology	OTHER	-1	-1.0	-1.0	[]	1	
prev_no	NUMBER	),	1.0	14.0	[]	65	
Credit	STRING	-1	-1.0	-1.0	[]	1	
Newcastle	NUMBER	st,	-1.0	-1.0	[]	1	
single2	OTHER	-1	-1.0	-1.0	[]	0	
Noreviews	STRING	-1	-1.0	-1.0	[NoReviews]	53	
Guitar	STRING	-1	-1.0	-1.0	[]	1	
Cover_size	NUMBER	px,	-1.0	-1.0	[]	85	
Programmer	OTHER	-1	-1.0	-1.0	[]	1	
Record	NUMBER	]]-[[,]],	-1.0	-1.0	[]	2	
Img_capt	OTHER	kb jp,	-1.0	-1.0	[Img_Capt]	5	
Certificaton	STRING	-1	-1.0	-1.0	[Certificaition]	3	
filename	STRING	-1	-1.0	-1.0	[]	1	
Cover_capt	OTHER	-1	-1.0	-1.0	[]	0	

