tournament	NUMBER	five,six n,asian,	-1.0	-1.0	[]	19	
count	NUMBER	-1	4.0	26.0	[]	14	
website	NUMBER	natio,	-1.0	-1.0	[]	5	
crown	OTHER	th ti,	-1.0	-1.0	[]	9	
attendance	NUMBER	+,	920618.0	1055268.0	[]	5	
image	OTHER	.jpg,-,	-1.0	-1.0	[]	6	
imagesize	OTHER	-1	-1.0	-1.0	[]	0	
caption	OTHER	march,six n,febru,/,	-1.0	-1.0	[]	6	
countries	OTHER	-1	-1.0	-1.0	[]	19	
champions	OTHER	th ti,	-1.0	-1.0	[]	17	
matches	NUMBER	-1	10.0	21.0	[]	18	
scorer	NUMBER	),tries,	-1.0	-1.0	[]	16	
name	NUMBER	janua,may,five,six n,april,febru,,,asian,	-1.0	-1.0	[date]	37	
year	NUMBER	-1	1996.0	2014.0	[]	19	
tries	NUMBER	-1	44.0	47.0	[]	2	
slam	OTHER	th ti,	-1.0	-1.0	[]	9	

