series	STRING	-1	-1.0	-1.0	[]	3	
halfbrothers	OTHER	-1	-1.0	-1.0	[]	1	
grandsons	STRING	-1	-1.0	-1.0	[]	1	
last	NUMBER	augus,janua,march,april,june,octob,decem,febru,	-1.0	-1.0	[first]	10	
grandmothers	OTHER	-1	-1.0	-1.0	[grandfathers]	4	
creator	OTHER	-1	-1.0	-1.0	[]	0	
image_size	OTHER	-1	-1.0	-1.0	[]	0	
gender	STRING	-1	-1.0	-1.0	[]	1	
granddaughters	STRING	-1	-1.0	-1.0	[]	1	
occupation	OTHER	–,,,	-1.0	-1.0	[]	5	
stepmother	OTHER	-1	-1.0	-1.0	[]	1	
halfsisters	STRING	-1	-1.0	-1.0	[]	1	
portrayer	STRING	-1	-1.0	-1.0	[]	5	
uncles	OTHER	-1	-1.0	-1.0	[]	3	
image	NUMBER	px]],	-1.0	-1.0	[]	2	
caption	OTHER	-1	-1.0	-1.0	[]	0	
footnotes	OTHER	-1	-1.0	-1.0	[]	1	
introducer	OTHER	) joh,	-1.0	-1.0	[]	3	
mother	OTHER	-1	-1.0	-1.0	[father, brothers]	8	
sons	OTHER	octob,	-1.0	-1.0	[home, aunts]	10	
wife	STRING	-1	-1.0	-1.0	[name]	7	
classification	OTHER	-1	-1.0	-1.0	[]	5	
daughters	OTHER	-1	-1.0	-1.0	[]	2	
cousins	OTHER	-1	-1.0	-1.0	[]	4	
years	NUMBER	–,-,	1988.0	2000.0	[death]	6	
relatives	OTHER	-1	-1.0	-1.0	[]	1	

