Caption	OTHER	.,tears,	-1.0	-1.0	[]	4	
Special	OTHER	-1	-1.0	-1.0	[]	2	
Option	NUMBER	-1	7.0	7.0	[]	1	
link	STRING	-1	-1.0	-1.0	[]	1	
songs	NUMBER	-1	1.0	93.0	[sides]	10	
Singles	OTHER	-1	-1.0	-1.0	[]	4	
Hidden	OTHER	-1	-1.0	-1.0	[]	2	
External	OTHER	-1	-1.0	-1.0	[]	3	
Notes	STRING	-1	-1.0	-1.0	[]	2	
color	STRING	-1	-1.0	-1.0	[]	1	
Unreleased	OTHER	-1	-1.0	-1.0	[]	4	
References	OTHER	-1	-1.0	-1.0	[]	5	
name	STRING	-1	-1.0	-1.0	[]	1	
Image	OTHER	.jpg,	-1.0	-1.0	[]	3	
Collabs	OTHER	-1	-1.0	-1.0	[]	2	
Artist	OTHER	-1	-1.0	-1.0	[]	5	
Remixes	OTHER	-1	-1.0	-1.0	[]	2	

