mascot	OTHER	-1	-1.0	-1.0	[]	5	
chapters	NUMBER	-1	7.0	142.0	[]	7	
state	STRING	-1	-1.0	-1.0	[scope, name]	21	
type	OTHER	-1	-1.0	-1.0	[stone, free]	16	
colonies	NUMBER	-1	5.0	5.0	[]	1	
city	STRING	-1	-1.0	-1.0	[]	2	
founded	NUMBER	|,,,	-1.0	-1.0	[]	10	
maxim	STRING	-1	-1.0	-1.0	[]	1	
jewel	OTHER	-1	-1.0	-1.0	[]	3	
emphasis	OTHER	-1	-1.0	-1.0	[]	0	
members	NUMBER	,,	-1.0	-1.0	[]	1	
flower	OTHER	-1	-1.0	-1.0	[]	10	
free_label	STRING	-1	-1.0	-1.0	[]	5	
lifetime	NUMBER	-1	600.0	600.0	[]	1	
symbol	OTHER	-1	-1.0	-1.0	[]	7	
vision	OTHER	-1	-1.0	-1.0	[mission]	0	
colors	OTHER	fff}},bfff|,c,}} {{,	-1.0	-1.0	[]	9	
establishments	NUMBER	-1	23.0	23.0	[]	1	
homepage	STRING	-1	-1.0	-1.0	[]	10	
country	STRING	-1	-1.0	-1.0	[]	3	
publication	OTHER	-1	-1.0	-1.0	[]	2	
philanthropy	OTHER	-1	-1.0	-1.0	[]	5	
Newsletter	OTHER	-1	-1.0	-1.0	[]	1	
birthplace	OTHER	-1	-1.0	-1.0	[]	10	
address	OTHER	ponce,	-1.0	-1.0	[]	2	
motto	OTHER	-1	-1.0	-1.0	[]	8	
crest	OTHER	-1	-1.0	-1.0	[]	7	
letters	OTHER	-1	-1.0	-1.0	[]	10	

