twin2	OTHER	-1	-1.0	-1.0	[twin1]	1	
government_footnotes	STRING	-1	-1.0	-1.0	[]	180	
elevation_min_ft	OTHER	-1	-1.0	-1.0	[elevation_max_ft]	0	
area_land_km2	OTHER	-1	-1.0	-1.0	[]	0	
parts	NUMBER	-1	0.0	59.0	[lats, latd, latm]	288	
elevation_footnotes	STRING	-1	-1.0	-1.0	[]	2	
demographics2_info9	NUMBER	% of,%,.,	-1.0	-1.0	[demographics2_info4, demographics2_info1, demographics2_info2, demographics2_info7, demographics2_info8, demographics2_info5, demographics2_info6, demographics1_info1, demographics1_info3, demographics1_info2, demographics2_info10, demographics2_info11, demographics2_info12]	528	
demographics2_info3	OTHER	%,.,	-1.0	-1.0	[demographics1_info4]	327	
seal_size	OTHER	-1	-1.0	-1.0	[flag_size, seal_link]	0	
seat	OTHER	-1	-1.0	-1.0	[]	189	
image_dot_map	OTHER	-1	-1.0	-1.0	[]	0	
named_for	OTHER	-1	-1.0	-1.0	[]	0	
utc_offset_DST	OTHER	-1	-1.0	-1.0	[]	0	
area_total_sq_mi	OTHER	-1	-1.0	-1.0	[]	0	
image_seal	STRING	).svg,	-1.0	-1.0	[image_map, image_flag]	211	
shield_alt	OTHER	-1	-1.0	-1.0	[]	0	
nickname	OTHER	-1	-1.0	-1.0	[]	0	
image_caption	OTHER	fifa,	-1.0	-1.0	[]	3	
elevation_min_footnotes	STRING	-1	-1.0	-1.0	[elevation_max_footnotes]	4	
elevation_min_m	NUMBER	-1	0.0	1590.4	[elevation_max_m]	2	
pop_est_as_of	OTHER	-1	-1.0	-1.0	[]	0	
image_alt	OTHER	-1	-1.0	-1.0	[flag_alt]	0	
population_total	NUMBER	,,	5154.0	3888180.0	[]	187	
timezone1	OTHER	-1	-1.0	-1.0	[timezone]	192	
area_land_sq_mi	OTHER	-1	-1.0	-1.0	[]	0	
mayor_as_of	NUMBER	-,	-1.0	-1.0	[]	4	
leader_title1	STRING	-1	-1.0	-1.0	[leader_title]	89	
blank_name_sec1	STRING	-1	-1.0	-1.0	[]	208	
map_caption1	STRING	-1	-1.0	-1.0	[map_caption]	197	
dot_mapsize	OTHER	-1	-1.0	-1.0	[]	0	
leader_title2	OTHER	-1	-1.0	-1.0	[]	2	
dot_map_caption	OTHER	-1	-1.0	-1.0	[]	0	
seal_alt	OTHER	-1	-1.0	-1.0	[]	0	
latNS	STRING	-1	-1.0	-1.0	[]	260	
iso_code	STRING	-1	-1.0	-1.0	[]	1	
population_density_urban_mi2	OTHER	-1	-1.0	-1.0	[population_density_urban_km2]	0	
shield_size	OTHER	-1	-1.0	-1.0	[shield_link]	0	
coordinates_footnotes	STRING	-1	-1.0	-1.0	[]	224	
established_date1	NUMBER	-1	1685.0	2000.0	[]	2	
blank_emblem_type	OTHER	-1	-1.0	-1.0	[blank_emblem_size]	0	
anthem	OTHER	-1	-1.0	-1.0	[]	0	
leader_name1	STRING	-1	-1.0	-1.0	[leader_name]	75	
leader_name2	OTHER	|,	-1.0	-1.0	[]	3	
leader_party	OTHER	-1	-1.0	-1.0	[]	41	
population_density_blank1_km2	OTHER	-1	-1.0	-1.0	[]	27	
population_density_sq_mi	NUMBER	-1	1475.0	1475.0	[]	1	
founder	OTHER	-1	-1.0	-1.0	[]	0	
population_density_blank1_sq_mi	OTHER	-1	-1.0	-1.0	[]	0	
muni_code	STRING	}},	-1.0	-1.0	[]	71	
population_as_of	NUMBER	censu,est.,[http,	1999.0	2007.0	[]	166	
footnotes	OTHER	-1	-1.0	-1.0	[]	259	
coordinates_type	NUMBER	nd_sc,nd,nd_di,st,rd_sc,rd,rd_di,	-1.0	-1.0	[]	262	
population_demonym	OTHER	-1	-1.0	-1.0	[]	0	
registration_plate	STRING	-1	-1.0	-1.0	[]	4	
area_urban_km2	OTHER	-1	-1.0	-1.0	[]	0	
postal_code	OTHER	-1	-1.0	-1.0	[postal2_code]	0	
other_name	STRING	-1	-1.0	-1.0	[]	1	
name	STRING	-1	-1.0	-1.0	[]	192	
map_alt1	STRING	-1	-1.0	-1.0	[map_alt]	177	
coordinates_display	SET_OF_STRINGS	-1	-1.0	-1.0	[]	262	
dot_map_alt	OTHER	-1	-1.0	-1.0	[]	0	
area_water_percent	OTHER	-1	-1.0	-1.0	[]	0	
population_blank1	NUMBER	,,	3739.0	1165014.0	[]	128	
area_code_type	OTHER	-1	-1.0	-1.0	[]	1	
image_skyline	OTHER	.jpg,-,	-1.0	-1.0	[]	3	
population_footnotes	NUMBER	),	-1.0	-1.0	[]	1	
pushpin_mapsize1	OTHER	-1	-1.0	-1.0	[pushpin_mapsize]	0	
established_title1	STRING	-1	-1.0	-1.0	[established_title]	5	
population_density_metro_km2	OTHER	-1	-1.0	-1.0	[]	0	
imagesize	OTHER	-1	-1.0	-1.0	[]	0	
parts_style	STRING	-1	-1.0	-1.0	[]	30	
native_name_lang	STRING	-1	-1.0	-1.0	[]	7	
native_name	STRING	-1	-1.0	-1.0	[]	8	
government_type	OTHER	-1	-1.0	-1.0	[]	7	
utc_offset1	NUMBER	-1	2.0	2.0	[utc_offset]	192	
pushpin_map1	OTHER	-1	-1.0	-1.0	[pushpin_map]	0	
twin2_country	OTHER	-1	-1.0	-1.0	[twin1_country]	1	
postal_code_type	OTHER	-1	-1.0	-1.0	[postal2_code_type]	0	
area_footnotes	STRING	-1	-1.0	-1.0	[]	158	
longs	NUMBER	-1	0.0	57.0	[longm]	285	
settlement_type	OTHER	-1	-1.0	-1.0	[]	161	
parts_type	OTHER	-1	-1.0	-1.0	[]	25	
official_name	OTHER	-1	-1.0	-1.0	[]	0	
image_blank_emblem	OTHER	-1	-1.0	-1.0	[]	0	
blank_info_sec1	STRING	-1	-1.0	-1.0	[]	208	
area_magnitude	NUMBER	e,	-1.0	-1.0	[]	1	
demographics2_title9	OTHER	-1	-1.0	-1.0	[demographics2_title4, demographics2_title5, demographics2_title6, demographics2_title7, demographics2_title8]	829	
coor_pinpoint	STRING	-1	-1.0	-1.0	[]	1	
geocode	OTHER	-1	-1.0	-1.0	[]	0	
motto	STRING	-1	-1.0	-1.0	[]	1	
population_urban	OTHER	-1	-1.0	-1.0	[population_rank]	0	
elevation_m	OTHER	-1	-1.0	-1.0	[elevation_ft]	0	
area_metro_sq_mi	OTHER	-1	-1.0	-1.0	[]	0	
subdivision_type3	OTHER	-1	-1.0	-1.0	[subdivision_type, subdivision_name3, subdivision_type2, subdivision_type1]	1117	
blank_emblem_link	OTHER	-1	-1.0	-1.0	[]	0	
blank_emblem_alt	OTHER	-1	-1.0	-1.0	[]	0	
population_density_metro_sq_mi	OTHER	-1	-1.0	-1.0	[]	0	
timezone_DST	OTHER	-1	-1.0	-1.0	[]	0	
area_note	OTHER	(sout,	-1.0	-1.0	[area_code]	2	
area_water_sq_mi	OTHER	-1	-1.0	-1.0	[]	0	
area_water_km2	OTHER	-1	-1.0	-1.0	[]	0	
pushpin_label_position1	OTHER	-1	-1.0	-1.0	[pushpin_label_position]	0	
unit_pref	STRING	-1	-1.0	-1.0	[]	30	
pushpin_map_caption1	OTHER	-1	-1.0	-1.0	[pushpin_map_caption]	0	
area_metro_km2	OTHER	-1	-1.0	-1.0	[]	0	
image_map1	STRING	-1	-1.0	-1.0	[]	5	
type	OTHER	-1	-1.0	-1.0	[p9]	147	
population_metro	OTHER	-1	-1.0	-1.0	[]	0	
area_urban_sq_mi	OTHER	-1	-1.0	-1.0	[]	0	
population_density_km2	STRING	-1	-1.0	-1.0	[]	191	
population_note	OTHER	-1	-1.0	-1.0	[population_est]	32	
established_date	OTHER	novem,	-1.0	-1.0	[]	3	
mapsize1	NUMBER	px,	-1.0	-1.0	[mapsize]	2	
image_shield	OTHER	-1	-1.0	-1.0	[]	0	
demographics2_footnotes	NUMBER	),	-1.0	-1.0	[demographics1_footnotes]	332	
longEW	STRING	-1	-1.0	-1.0	[]	260	
demographics_type2	STRING	),	-1.0	-1.0	[demographics_type1]	374	
website	OTHER	-1	-1.0	-1.0	[]	53	
seat_type	STRING	-1	-1.0	-1.0	[]	30	
pushpin_map_alt1	OTHER	-1	-1.0	-1.0	[pushpin_map_alt]	0	
dot_map_base_alt	OTHER	-1	-1.0	-1.0	[]	0	
area_total_km2	NUMBER	-1	3.764	319291.0	[]	185	
population_blank1_title	STRING	-1	-1.0	-1.0	[]	180	
dot_y	OTHER	-1	-1.0	-1.0	[dot_x]	0	

