crews	NUMBER	-1	0.0	252.0	[crew]	8	
dockings_mir	NUMBER	-1	1.0	13.0	[dockings_iss]	6	
last_flight	OTHER	to wa,-j]],-d]],to ne,-l]],to lo,k,]],	-1.0	-1.0	[first_flight]	24	
status	OTHER	hanga,febru,,,-,	-1.0	-1.0	[]	20	
contract	OTHER	janua,octob,july,,,	-1.0	-1.0	[]	11	
orbits	OTHER	,,	-1.0	-1.0	[]	7	
missions	NUMBER	missi,test,	0.0	39.0	[]	10	
deployed	NUMBER	(incl,	3.0	14.0	[]	6	
caption	OTHER	(hst-,durin,]] mi,#lc-,|slc-,/,]],	-1.0	-1.0	[]	13	
number	STRING	??,	-1.0	-1.0	[]	11	
named_after	OTHER	)  (r,}},}} ([,),ship),	-1.0	-1.0	[]	10	
country	OTHER	-1	-1.0	-1.0	[]	20	
time	OTHER	,to,days,hours,_atla,launc,dyna-,.,-,days,,	-1.0	-1.0	[image, name]	52	
distance	NUMBER	|mi|k,,,	-1.0	-1.0	[]	6	
next_flight	STRING	-1	-1.0	-1.0	[]	1	
next_date	OTHER	-1	-1.0	-1.0	[]	0	
last_date	NUMBER	–,janua,march,april,decem,|,,,novem,-,	-1.0	-1.0	[first_date]	19	

