failures	OTHER	-1	-1.0	-1.0	[]	0	
firstcrewed	DATE	-1	-1.0	-1.0	[]	1	
successes	OTHER	-1	-1.0	-1.0	[]	0	
status	STRING	-1	-1.0	-1.0	[]	1	
image	STRING	-1	-1.0	-1.0	[]	1	
caption	OTHER	-1	-1.0	-1.0	[]	0	
crewvehicle	OTHER	-1	-1.0	-1.0	[]	1	
vehicletype	OTHER	-1	-1.0	-1.0	[]	1	
country	OTHER	-1	-1.0	-1.0	[]	1	
partialfailures	OTHER	-1	-1.0	-1.0	[]	0	
launcher	OTHER	-1	-1.0	-1.0	[]	2	
launchsite	OTHER	-1	-1.0	-1.0	[]	0	
duration	NUMBER	–,	-1.0	-1.0	[]	1	
organization	STRING	-1	-1.0	-1.0	[]	1	
lastflight	OTHER	-1	-1.0	-1.0	[]	0	
capacity	STRING	-1	-1.0	-1.0	[]	1	
firstflight	DATE	-1	-1.0	-1.0	[]	1	
imsize	NUMBER	-1	218.0	218.0	[]	1	

