president	OTHER	-1	-1.0	-1.0	[]	1	
budget	NUMBER	–,billi,) mn,|b}},millo,milli,.,,,	-1.0	-1.0	[]	19	
location	OTHER	-1	-1.0	-1.0	[]	4	
company_type	STRING	-1	-1.0	-1.0	[]	1	
preceding	OTHER	-1	-1.0	-1.0	[]	1	
seal_cap	OTHER	-1	-1.0	-1.0	[]	6	
served	OTHER	-1	-1.0	-1.0	[]	1	
type	STRING	%;bac,	-1.0	-1.0	[name]	41	
image_size	NUMBER	px,	-1.0	-1.0	[]	1	
seal	OTHER	/cind,-cnes,	-1.0	-1.0	[ceo]	41	
spaceport	OTHER	-1	-1.0	-1.0	[]	14	
acronym	STRING	-1	-1.0	-1.0	[]	34	
website	OTHER	-1	-1.0	-1.0	[]	1	
width	NUMBER	px,	-1.0	-1.0	[]	11	
established	OTHER	may,janua,(as n,april,''{{s,octob,|,,,	-1.0	-1.0	[]	36	
image	STRING	.svg,.png,.jpg,	-1.0	-1.0	[]	32	
caption	STRING	-1	-1.0	-1.0	[]	11	
headquarters	OTHER	,  [[,rue o,-,	-1.0	-1.0	[]	33	
key_people	STRING	-1	-1.0	-1.0	[]	1	
country	STRING	-1	-1.0	-1.0	[]	1	
size	NUMBER	px,	-1.0	-1.0	[]	16	
title_style	STRING	-1	-1.0	-1.0	[]	2	
list_style	NUMBER	.,	-1.0	-1.0	[]	2	
administrator	OTHER	-mari,-,	-1.0	-1.0	[]	29	
owner	OTHER	europ,	-1.0	-1.0	[]	16	
native_name	OTHER	-1	-1.0	-1.0	[]	21	
language	OTHER	-1	-1.0	-1.0	[]	3	
motto	OTHER	-1	-1.0	-1.0	[]	6	
employees	NUMBER	-1	200.0	200.0	[]	1	

