region	OTHER	-1	-1.0	-1.0	[]	6	
drivers	STRING	-1	-1.0	-1.0	[]	1	
classes	OTHER	, gt,	-1.0	-1.0	[]	6	
logo	STRING	-1	-1.0	-1.0	[]	3	
current_season	NUMBER	inter,europ,ameri,asian,rolex,	-1.0	-1.0	[]	5	
website	OTHER	-1	-1.0	-1.0	[]	7	
tyres	OTHER	-1	-1.0	-1.0	[]	1	
caption	OTHER	-1	-1.0	-1.0	[]	0	
team	OTHER	: [[p,: thi,: [[m,	-1.0	-1.0	[]	5	
pixels	NUMBER	px,	-1.0	-1.0	[]	3	
inaugural	NUMBER	-1	1999.0	2010.0	[]	6	
teams	STRING	-1	-1.0	-1.0	[]	1	
category	OTHER	-1	-1.0	-1.0	[]	0	
title	OTHER	-1	-1.0	-1.0	[]	0	
manufacturer	OTHER	: [[p,: [[h,	-1.0	-1.0	[]	3	
races	NUMBER	(,	-1.0	-1.0	[]	2	
driver	OTHER	) gt:,: [[k,: [[m,	-1.0	-1.0	[]	4	
folded	NUMBER	-1	2007.0	2011.0	[]	3	
restarted	NUMBER	-1	2013.0	2013.0	[]	1	

