apprehended	NUMBER	,,	-1.0	-1.0	[]	1	
cause	OTHER	-1	-1.0	-1.0	[]	3	
beginyear	OTHER	-1	-1.0	-1.0	[]	0	
endyear	NUMBER	]],	-1.0	-1.0	[]	1	
states	OTHER	-1	-1.0	-1.0	[mater]	3	
children	OTHER	-1	-1.0	-1.0	[]	1	
date	NUMBER	-july,– jul,-apri,,,-,	1978.0	1978.0	[]	8	
religion	OTHER	-1	-1.0	-1.0	[]	0	
death_place	OTHER	-1	-1.0	-1.0	[birth_place]	4	
time	OTHER	-1	-1.0	-1.0	[motive]	3	
image_size	NUMBER	px,	-1.0	-1.0	[]	2	
locations	OTHER	-1	-1.0	-1.0	[]	5	
spouse	STRING	-1	-1.0	-1.0	[]	1	
name	STRING	-1	-1.0	-1.0	[]	8	
fatalities	NUMBER	&ndas,	2.0	9.0	[]	8	
weapons	OTHER	pisto,acp|.,	-1.0	-1.0	[]	6	
partner	NUMBER	–,	-1.0	-1.0	[]	1	
penalty	STRING	-1	-1.0	-1.0	[]	3	
targets	STRING	-1	-1.0	-1.0	[parents]	4	
death_date	NUMBER	|,	-1.0	-1.0	[]	5	
occupation	STRING	-1	-1.0	-1.0	[]	3	
birth_date	OTHER	|,,,	-1.0	-1.0	[]	8	
alias	OTHER	-1	-1.0	-1.0	[]	1	
caption	STRING	-1	-1.0	-1.0	[]	1	
country	OTHER	-1	-1.0	-1.0	[]	3	
nationality	OTHER	-1	-1.0	-1.0	[]	4	
injuries	NUMBER	-1	4.0	9.0	[]	3	
birthname	STRING	-1	-1.0	-1.0	[birth_name]	4	

