Logo_size	NUMBER	px,	-1.0	-1.0	[]	29	
Logo	OTHER	.png,men's,.gif,.jpg,wsa c,	-1.0	-1.0	[]	26	
prevseason	NUMBER	|supe,|worl,|,women,	-1.0	-1.0	[]	20	
PSA_Venue	OTHER	-1	-1.0	-1.0	[]	0	
Web_site	OTHER	/klop,/mala,/home,/clev,.com/,	-1.0	-1.0	[]	21	
WSA_Draw	OTHER	-1	-1.0	-1.0	[]	0	
Location	OTHER	-1	-1.0	-1.0	[]	28	
WSA_Tier	OTHER	|worl,]],	-1.0	-1.0	[]	28	
PSA_Surface	OTHER	-1	-1.0	-1.0	[]	0	
Event_name	STRING	''',	-1.0	-1.0	[]	32	
Name	STRING	-1	-1.0	-1.0	[]	32	
Champion	OTHER	-1	-1.0	-1.0	[]	2	
Notes	OTHER	-1	-1.0	-1.0	[]	0	
1	NUMBER	month,	-1.0	-1.0	[]	2	
Venue	OTHER	(lond,	-1.0	-1.0	[]	19	
PSA_Category	OTHER	-1	-1.0	-1.0	[]	0	
WSA_Prize_Money	NUMBER	,,	-1.0	-1.0	[]	28	
nextseason	NUMBER	px]],|,]],women,	-1.0	-1.0	[]	20	
Surface	OTHER	-1	-1.0	-1.0	[]	0	
PSA_Prize_Money	OTHER	-1	-1.0	-1.0	[]	0	
PSA_Location	OTHER	-1	-1.0	-1.0	[]	0	
Current	STRING	-1	-1.0	-1.0	[]	3	

