Caption	OTHER	-d)|u,on fe,),).,novel,	-1.0	-1.0	[]	38	
Death	NUMBER	),,,	-1.0	-1.0	[]	2	
Rank	OTHER	-,	-1.0	-1.0	[]	57	
Father	STRING	-1	-1.0	-1.0	[]	3	
Affiliation	OTHER	-1	-1.0	-1.0	[]	66	
Insignia	NUMBER	.png],	-1.0	-1.0	[]	1	
Actor	OTHER	-1	-1.0	-1.0	[]	1	
alt	STRING	-1	-1.0	-1.0	[]	1	
spouse	OTHER	-1	-1.0	-1.0	[Spouse]	2	
if	OTHER	-1	-1.0	-1.0	[Sex]	2	
Image	STRING	,.jpg,-,	-1.0	-1.0	[]	67	
Species	OTHER	-1	-1.0	-1.0	[]	75	
Partner	OTHER	-1	-1.0	-1.0	[]	3	
Size	NUMBER	px,	-1.0	-1.0	[]	16	
Powers	STRING	-1	-1.0	-1.0	[]	1	
Posting	OTHER	)|uss,)|u.s,)|''e,-d)|u,-d)|',-b)|u,|,as ju,)|ent,	-1.0	-1.0	[Position]	67	
Moon	OTHER	-1	-1.0	-1.0	[]	1	
portrayer	OTHER	)]],film),,,	-1.0	-1.0	[]	73	
Born	NUMBER	-1	2346.0	2346.0	[]	1	
Children	OTHER	-1	-1.0	-1.0	[]	3	
Title	STRING	-1	-1.0	-1.0	[]	74	
Planet	OTHER	-1	-1.0	-1.0	[]	69	
Birth	OTHER	,,	-1.0	-1.0	[]	8	
Gender	OTHER	-1	-1.0	-1.0	[]	69	
bgcolour	OTHER	ee,	-1.0	-1.0	[bgcolor]	40	
Mother	OTHER	-1	-1.0	-1.0	[]	2	

