cable_name	STRING	(atla,	-1.0	-1.0	[]	12	
logo	OTHER	-1	-1.0	-1.0	[]	1	
technology	STRING	laser,	-1.0	-1.0	[]	12	
landing_points	OTHER	.  {{,.   [,	-1.0	-1.0	[]	12	
design_capacity	NUMBER	gbit/,&nbsp,.,	-1.0	-1.0	[]	11	
map	OTHER	.svg,-rout,	-1.0	-1.0	[]	9	
length	NUMBER	|km|m,,,	-1.0	-1.0	[]	9	
topology	STRING	-1	-1.0	-1.0	[]	7	
first_use_date	NUMBER	,}},|,,,	1994.0	1994.0	[]	13	
owners	OTHER	.,commu,(incl,	-1.0	-1.0	[]	11	
decommissioning_date	OTHER	-1	-1.0	-1.0	[]	1	
current_capacity	OTHER	gbit/,&nbsp,.,	-1.0	-1.0	[]	8	

