township	OTHER	-1	-1.0	-1.0	[]	1	
territory	OTHER	-1	-1.0	-1.0	[]	0	
state	OTHER	-1	-1.0	-1.0	[]	22	
CDP	OTHER	-1	-1.0	-1.0	[]	1	
name	STRING	landf,nd st,	-1.0	-1.0	[]	22	
parish	OTHER	-1	-1.0	-1.0	[]	0	
map	NUMBER	px|al,px]],|lat_,.,nd st,	-1.0	-1.0	[image]	28	
contaminants	OTHER	,,	-1.0	-1.0	[]	19	
district	OTHER	-1	-1.0	-1.0	[]	0	
construction	NUMBER	april,/,,,	-1.0	-1.0	[]	9	
CERCLIS_ID	STRING	-1	-1.0	-1.0	[]	22	
listed	NUMBER	augus,march,/,,,	-1.0	-1.0	[]	22	
responsible	OTHER	compa,	-1.0	-1.0	[]	10	
map_caption	STRING	-1	-1.0	-1.0	[]	2	
census_area	OTHER	-1	-1.0	-1.0	[]	0	
caption	STRING	-1	-1.0	-1.0	[]	10	
borough	OTHER	-1	-1.0	-1.0	[]	0	
deleted	OTHER	decem,/,,,	-1.0	-1.0	[]	22	
county	OTHER	-1	-1.0	-1.0	[city]	38	
proposed	NUMBER	may,octob,/,,,	-1.0	-1.0	[]	22	
town	OTHER	-1	-1.0	-1.0	[]	3	
partial_del	NUMBER	/,	-1.0	-1.0	[]	1	
elevation_m	NUMBER	-1	2133.0	6999.0	[elevation_ft]	2	

