cmaN	OTHER	-1	-1.0	-1.0	[Year, Image, cmaF, cma]	0	
HostSF	OTHER	-1	-1.0	-1.0	[Host, HostF]	0	
RiderN	OTHER	-1	-1.0	-1.0	[RiderF]	0	
Venues	OTHER	-1	-1.0	-1.0	[]	0	
P3	OTHER	-1	-1.0	-1.0	[P1, P2]	1	
Cities	OTHER	-1	-1.0	-1.0	[]	0	
Teams	OTHER	-1	-1.0	-1.0	[Name]	0	

