snow_imagecaption	OTHER	-1	-1.0	-1.0	[]	12	
Area	STRING	-1	-1.0	-1.0	[]	1	
spoken	STRING	-1	-1.0	-1.0	[]	1	
neighbouring_municipalities	OTHER	), [[,),	-1.0	-1.0	[neighboring_municipalities]	2740	
mayor_title	STRING	-1	-1.0	-1.0	[Mayor_title]	63	
mayor_asof	NUMBER	-,	0.0	2012.0	[Mayor_asof]	80	
languages	STRING	%)fre,.,,,	-1.0	-1.0	[]	2564	
long_EW	STRING	-1	-1.0	-1.0	[]	2785	
municipality_type	STRING	-1	-1.0	-1.0	[municipality_name]	5547	
mayor_party	STRING	-1	-1.0	-1.0	[]	68	
demonym	STRING	-1	-1.0	-1.0	[]	139	
twintowns	OTHER	-1	-1.0	-1.0	[]	290	
list_of_mayors	STRING	-1	-1.0	-1.0	[]	17	
subject_name	STRING	-1	-1.0	-1.0	[]	2786	
lowest_m	NUMBER	m,	244.75	1230.0	[]	64	
populationof	OTHER	,}},',decem,,,	-1.0	-1.0	[population]	5552	
image_caption	STRING	),.,	-1.0	-1.0	[iamge_caption]	629	
places	OTHER	villa,le fu,	-1.0	-1.0	[]	277	
pixel_coa	NUMBER	px,	-1.0	-1.0	[]	18	
image_photo	OTHER	,-egli,ch wi,a.jpg,-sche,- bür,zerma,panor,- art,pictu,oberw,- nie,- sta,- bri,douân,- mei,hohen,. - g,buchs,-crop,-asio,menzi,lake,(,.,-,- ise,bex r,).jpg,- bön,malte,mit c,schrä,.png,doppl,laute,.jpg,.ch-,in ne,- rin,schaf,m.jpg,.jpeg,bridg,exter,«domi,may,m asl,giorn,- kir,(be,,biber,wenge,khz,svizz,s,wiki.,thm.j,thun,sprit,lignè,shift,x,	-1.0	-1.0	[]	1935	
postal_code	NUMBER	klost,(mühl,bulle,les r,[[alt,le mo,(haut,tiniz,cherm,villi,st. p,delle,mümli,monta,–,ursy,[[sch,marac,lenti,môtie,verni,saane,l'abb,belle,sugie,lussy,davos,avenc,le br,la ve,(bött,le li,/,vilte,,,-,paléz,posie,silen,(le c,riede,(hofs,wünne,brunn,(tave,	1008.0	9658.0	[]	2775	
long_s	NUMBER	-1	0.0	59.51	[lat_s, long_m]	11156	
motto	STRING	-1	-1.0	-1.0	[]	1	
vation_description	OTHER	-1	-1.0	-1.0	[elevation_description]	9	
snow_caption	STRING	-1	-1.0	-1.0	[]	3	
region	STRING	-1	-1.0	-1.0	[]	2786	
position	STRING	-1	-1.0	-1.0	[]	13	
imapge_photo	NUMBER	-,	-1.0	-1.0	[]	1	
highest	OTHER	-1	-1.0	-1.0	[]	56	
area_code	NUMBER	-(,	-1.0	-1.0	[]	1	
highest_m	NUMBER	-1	445.0	4357.0	[]	71	
area	NUMBER	-1	0.0	425.88	[]	2776	
map	OTHER	,.png,.png],	-1.0	-1.0	[]	423	
lat_NS	STRING	-1	-1.0	-1.0	[]	2784	
district	OTHER	-1	-1.0	-1.0	[]	2785	
snow_photo	OTHER	.jpg,	-1.0	-1.0	[]	2	
photo_image	NUMBER	.jpg,v.jpe,	-1.0	-1.0	[]	2	
website	STRING	.ch,	-1.0	-1.0	[]	2250	
mayor	STRING	-1	-1.0	-1.0	[Mayor]	703	
elevation	NUMBER	-1	196.0	1960.0	[]	2771	
caption	STRING	-1	-1.0	-1.0	[canton]	2787	
imagepath_coa	STRING	.svg,.png,.gif,.jpg,%a,%aane,.,-coat,x,	-1.0	-1.0	[]	2604	
within_municipality	OTHER	-1	-1.0	-1.0	[]	36	
Mayor_party	OTHER	-1	-1.0	-1.0	[]	1	
snow_image	OTHER	.jpg,-,	-1.0	-1.0	[]	29	
agglomeration	NUMBER	,,	-1.0	-1.0	[]	1	
municipality_code	NUMBER	([[vi,(vill,([[ce,	1.0	6810.0	[]	2747	
popofyear	OTHER	-1	-1.0	-1.0	[]	2198	
lowest	OTHER	-1	-1.0	-1.0	[]	45	

