death_date	DATE	-1	-1.0	-1.0	[]	1	
occupation	OTHER	patro,	-1.0	-1.0	[]	5	
Statistics	OTHER	-1	-1.0	-1.0	[]	1	
birth_date	NUMBER	|,	-1.0	-1.0	[]	9	
SinglesTitles	OTHER	(i)-,(r)-,(sö)-,(h)-,(v)-,	-1.0	-1.0	[]	8	
image	OTHER	-1	-1.0	-1.0	[]	3	
caption	OTHER	[[u.s,[[acu,	-1.0	-1.0	[]	3	
CoachingRecords	OTHER	) (iv,	-1.0	-1.0	[]	9	
statistics	NUMBER	–,with,	-1.0	-1.0	[]	2	
death_place	OTHER	-1	-1.0	-1.0	[birth_place]	10	
nationality	OTHER	&ndas,	-1.0	-1.0	[]	9	
image_size	NUMBER	px wi,	-1.0	-1.0	[]	1	
CoachYears	NUMBER	&ndas,	-1.0	-1.0	[]	10	
alt	OTHER	-1	-1.0	-1.0	[]	1	
awards	OTHER	big w,	-1.0	-1.0	[Awards]	3	
TournamentRecord	NUMBER	davis,fed c,wimbl,austr,rome,,/wta,	-1.0	-1.0	[]	8	
name	STRING	-1	-1.0	-1.0	[]	10	
coachee	OTHER	-1	-1.0	-1.0	[]	7	
CoachPlayers	NUMBER	&ndas,-pres,) [[m,	-1.0	-1.0	[]	9	
years	NUMBER	&ndas,	-1.0	-1.0	[]	8	
DoublesTitles	OTHER	(r)-,(sz)-,(mc)-,(b-m),(s-v),(se-s,	-1.0	-1.0	[]	8	

