logo	STRING	-1	-1.0	-1.0	[]	1	
status	OTHER	dec,	-1.0	-1.0	[]	2	
caption	STRING	-1	-1.0	-1.0	[]	1	
size	NUMBER	&nbsp,	-1.0	-1.0	[]	1	
financing	OTHER	-1	-1.0	-1.0	[]	1	
area	OTHER	-1	-1.0	-1.0	[]	2	
motives	OTHER	-1	-1.0	-1.0	[]	2	
dates	NUMBER	–,–pres,	-1.0	-1.0	[]	2	
leader	OTHER	, ,	-1.0	-1.0	[]	2	
name	STRING	-1	-1.0	-1.0	[]	2	
crimes	STRING	-1	-1.0	-1.0	[]	1	
ideology	OTHER	-1	-1.0	-1.0	[]	2	
attacks	NUMBER	mumba,,,	-1.0	-1.0	[]	2	
members	STRING	-1	-1.0	-1.0	[]	1	
revenue	OTHER	-1	-1.0	-1.0	[]	0	

