seriesname	OTHER	-1	-1.0	-1.0	[]	8	
series	STRING	-1	-1.0	-1.0	[]	8	
legendother	OTHER	-1	-1.0	-1.0	[]	2	
col2	STRING	-1	-1.0	-1.0	[col1]	142	
legendresigned	STRING	-1	-1.0	-1.0	[]	5	
legendrunner	STRING	-1	-1.0	-1.0	[]	7	
previous	STRING	-1	-1.0	-1.0	[]	7	
image	NUMBER	-cand,appre,candi,.jpg,	-1.0	-1.0	[]	8	
caption	STRING	-1	-1.0	-1.0	[]	9	
imagebg	STRING	-1	-1.0	-1.0	[]	8	
stat	STRING	-1	-1.0	-1.0	[next]	15	
legendhired	STRING	-1	-1.0	-1.0	[legendfired]	16	
canpage	STRING	-1	-1.0	-1.0	[]	8	
week	STRING	-1	-1.0	-1.0	[]	8	

