Simp	OTHER	|i|no,	-1.0	-1.0	[]	202	
death_place	OTHER	(aged,ad (a,s,june,, {{d,or,&nbsp,|,,,	-1.0	-1.0	[death_date, birth_place]	212	
Post	STRING	|,	-1.0	-1.0	[]	57	
image_size	NUMBER	px,	-1.0	-1.0	[]	50	
name	STRING	.jpg,	-1.0	-1.0	[image]	260	
Kingdom	OTHER	–,	-1.0	-1.0	[]	180	
Deity	STRING	-1	-1.0	-1.0	[]	1	
Predecessor	OTHER	-1	-1.0	-1.0	[]	11	
Buddhism	STRING	-1	-1.0	-1.0	[]	1	
Trad	OTHER	–,-,	-1.0	-1.0	[Era]	212	
birth_date	OTHER	or,ad,	-1.0	-1.0	[]	169	
reign	NUMBER	–,	-1.0	-1.0	[Reign]	3	
Other	OTHER	-1	-1.0	-1.0	[]	109	
caption	OTHER	.,th ce,	-1.0	-1.0	[]	75	
Zi	STRING	yu,-ko,ts'ao,fei,pei,ch'üa,suo,	-1.0	-1.0	[WG]	336	
Title	STRING	-1	-1.0	-1.0	[Temple]	211	
Notes	OTHER	|,|i|no,	-1.0	-1.0	[]	68	
Successor	OTHER	-1	-1.0	-1.0	[]	13	
Pinyin	STRING	-1	-1.0	-1.0	[]	196	

