affected	OTHER	-1	-1.0	-1.0	[]	5	
time	NUMBER	}},:,,,	-1.0	-1.0	[date]	7	
location	OTHER	.jpg,	-1.0	-1.0	[]	2	
name	STRING	-1	-1.0	-1.0	[]	3	
fatalities	OTHER	}},(,	-1.0	-1.0	[]	4	
fujitascale	STRING	-1	-1.0	-1.0	[]	4	
enhanced	STRING	-1	-1.0	-1.0	[]	3	

