yearfinish	NUMBER	-1	1909.0	1967.0	[]	5	
manager	OTHER	-1	-1.0	-1.0	[]	7	
draw5	NUMBER	-1	0.0	1.0	[draw4]	155	
captain	OTHER	-1	-1.0	-1.0	[]	19	
testwon	NUMBER	-1	0.0	5.0	[testlost]	178	
matchwon	NUMBER	-1	0.0	33.0	[matchlost]	172	
played5	NUMBER	-1	1.0	5.0	[played4]	155	
matchplayed	NUMBER	-1	2.0	39.0	[]	86	
icon5	OTHER	-1	-1.0	-1.0	[icon4, icon3]	0	
opponent5	OTHER	}} [[,}},px]],	-1.0	-1.0	[opponent2, opponent1, opponent4, opponent3]	156	
coach	OTHER	-1	-1.0	-1.0	[]	11	
icon2	STRING	-1	-1.0	-1.0	[icon1]	12	
testdraw	NUMBER	-1	0.0	1.0	[]	89	
testplayed	NUMBER	-1	0.0	5.0	[]	89	
team	STRING	-1	-1.0	-1.0	[]	90	
matchdraw	NUMBER	-1	0.0	4.0	[]	85	
destination	STRING	-1	-1.0	-1.0	[]	90	
yearstart	NUMBER	-,	1884.0	2009.0	[]	90	
won5	NUMBER	}},	0.0	3.0	[lost5, won4, won3, won2, won1]	310	

