caption_coa	STRING	-1	-1.0	-1.0	[]	1	
dogs	NUMBER	-1	112.0	427.0	[cats]	2	
Bildbeschreibung3	OTHER	-1	-1.0	-1.0	[Bildbeschreibung2]	1	
Bildbeschreibung1	STRING	-1	-1.0	-1.0	[]	6	
Vorwahl	NUMBER	,,,	316.0	7942.0	[]	62	
divisions	OTHER	-1	-1.0	-1.0	[]	0	
area_metro	OTHER	-1	-1.0	-1.0	[]	0	
party	OTHER	-1	-1.0	-1.0	[Karte, Partei]	51	
Ortschaft	OTHER	-1	-1.0	-1.0	[]	0	
Kennzeichnung	OTHER	-1	-1.0	-1.0	[]	1	
Lageplan	STRING	serfa,	-1.0	-1.0	[]	30	
year	OTHER	-1	-1.0	-1.0	[]	0	
list_of_mayors	STRING	-1	-1.0	-1.0	[]	1	
Bezirk	STRING	-1	-1.0	-1.0	[]	62	
image_map	STRING	.png,.jpg,px-wa,	-1.0	-1.0	[image_coa]	787	
image_caption	STRING	-1	-1.0	-1.0	[]	48	
plantext	OTHER	-1	-1.0	-1.0	[]	0	
Municipality	OTHER	-1	-1.0	-1.0	[]	1	
ngengrad	NUMBER	/,	-1.0	-1.0	[]	1	
image_photo	OTHER	,gegen,a.jpg,.jpg,golde,.,-,	-1.0	-1.0	[]	103	
map_pos	OTHER	-1	-1.0	-1.0	[]	0	
hlsprengel	STRING	-1	-1.0	-1.0	[]	2	
elevationmax	OTHER	-1	-1.0	-1.0	[]	0	
Bild3	OTHER	-1	-1.0	-1.0	[Bild2]	0	
Stand	NUMBER	.,-,	2001.0	2009.0	[]	58	
position	STRING	-1	-1.0	-1.0	[]	1	
Ortschaftskennziffer	NUMBER	-1	14328.0	14329.0	[]	2	
Lageplanbeschreibung	STRING	-1	-1.0	-1.0	[]	13	
LOCODE	STRING	-1	-1.0	-1.0	[]	2	
Gemeindekennziffer	NUMBER	,	41004.0	62009.0	[]	59	
image_plan	OTHER	-1	-1.0	-1.0	[]	0	
dogs_as_of	NUMBER	-,	-1.0	-1.0	[cats_as_of]	2	
Bundesland	STRING	-1	-1.0	-1.0	[]	63	
lon_hem	STRING	e,n,	-1.0	-1.0	[lat_hem]	1518	
Gemeinderat	NUMBER	[[soc,für s,allge,unabh,, [[s,gemei,[[spö,[[övp,vp,,[[soz,), [[,ortba,[[öst,	-1.0	-1.0	[]	48	
Gemeinde	OTHER	-1	-1.0	-1.0	[]	1	
district	OTHER	-1	-1.0	-1.0	[]	760	
license	STRING	-1	-1.0	-1.0	[licence]	50	
ssel	OTHER	-1	-1.0	-1.0	[]	0	
mayor	STRING	}},	-1.0	-1.0	[]	758	
Katastralgemeindenummer	NUMBER	-1	57006.0	57006.0	[]	1	
elevation	NUMBER	-,	1.428	1368.0	[]	704	
NUTS	STRING	-1	-1.0	-1.0	[]	53	
es	STRING	-1	-1.0	-1.0	[e]	170	
rgermeister	STRING	-1	-1.0	-1.0	[]	60	
Katastralgemeinde	STRING	-1	-1.0	-1.0	[]	2	
Kennziffer	NUMBER	-1	0.0	-1.0	[]	2	
Einwohner	NUMBER	-1	128.0	51073.0	[]	61	
pop_ref	OTHER	-1	-1.0	-1.0	[]	0	
Gemeindekennzahl	NUMBER	-1	50626.0	62011.0	[]	4	
Wappen	STRING	-1	-1.0	-1.0	[]	48	
Gemeinderatanzahl	NUMBER	-1	9.0	42.0	[]	52	
Anmerkungen	OTHER	-1	-1.0	-1.0	[]	2	
Wahljahr	NUMBER	.,	2003.0	2010.0	[]	58	
population_as_of	NUMBER	janua,april,.,|date,-,	2001.0	2011.0	[]	757	
population_ref	OTHER	_,	-1.0	-1.0	[]	2	
Breitengrad	NUMBER	/,	-1.0	-1.0	[]	1	
regbzk	OTHER	-1	-1.0	-1.0	[]	0	
postal_code	NUMBER	,, a-,(,x, a-,, but,.,,,-,	2002.0	9872.0	[]	758	
Town	STRING	-1	-1.0	-1.0	[]	1	
Lageplangroesse	NUMBER	x,	-1.0	-1.0	[]	2	
name_local	STRING	-1	-1.0	-1.0	[]	17	
area_code	NUMBER	,(,,,-,	1.0	61625.0	[]	583	
state	OTHER	-1	-1.0	-1.0	[]	759	
popkey	NUMBER	,,-,	0.0	88361.0	[people, key]	1038	
name	STRING	-1	-1.0	-1.0	[image]	824	
population	NUMBER	|,	68.0	39340.0	[]	760	
website	OTHER	.www.,.land,www.s,&laid,sy,de,.at w,	-1.0	-1.0	[Website]	704	
mapsize	NUMBER	px,	-1.0	-1.0	[imagesize]	31	
pop_dens	NUMBER	,,	8.0	2340.0	[]	325	
Adresse	NUMBER	,kapru,edels,wilds,st. r,	-1.0	-1.0	[]	19	
lon_sec	NUMBER	-1	0.0	59.0	[lon_min, lat_sec]	3494	
pop_metro	OTHER	-1	-1.0	-1.0	[]	0	
rgermeistertitel	STRING	-1	-1.0	-1.0	[]	2	

