Name	OTHER	-1	-1.0	-1.0	[Image]	9	
Caption	OTHER	-1	-1.0	-1.0	[]	1	
God_of	OTHER	-1	-1.0	-1.0	[]	8	
Symbol	OTHER	}},	-1.0	-1.0	[]	7	
Siblings	OTHER	-1	-1.0	-1.0	[]	7	
Children	OTHER	-1	-1.0	-1.0	[]	2	
Parents	OTHER	-1	-1.0	-1.0	[]	8	
Consort	OTHER	-1	-1.0	-1.0	[]	1	
Abode	OTHER	th fl,	-1.0	-1.0	[]	8	

