Website_TW	OTHER	.kcg.,	-1.0	-1.0	[]	2	
PopDate	DATE	-1	-1.0	-1.0	[]	2	
Village	NUMBER	-1	25.0	43.0	[]	2	
Leader_Names	OTHER	-1	-1.0	-1.0	[]	2	
Name	STRING	-1	-1.0	-1.0	[Map]	4	
TW_Nickname	OTHER	-1	-1.0	-1.0	[]	1	
Region	STRING	-1	-1.0	-1.0	[]	1	
Neighborhood	NUMBER	-1	628.0	729.0	[]	2	
Nickname	STRING	-1	-1.0	-1.0	[]	1	
TotalArea	OTHER	.,	-1.0	-1.0	[]	2	
Population	NUMBER	,,	-1.0	-1.0	[]	2	
Leader_Titles	STRING	-1	-1.0	-1.0	[]	2	
TW_Name	OTHER	-1	-1.0	-1.0	[]	2	

