icon	STRING	-1	-1.0	-1.0	[Dean]	8	
Order	STRING	-1	-1.0	-1.0	[]	4	
Students	NUMBER	,,	-1.0	-1.0	[]	4	
Academics	STRING	-1	-1.0	-1.0	[]	4	
Status	OTHER	-1	-1.0	-1.0	[]	4	
Percentage	NUMBER	%,.,	-1.0	-1.0	[]	4	
Year	NUMBER	-1	1964.0	2001.0	[]	4	
Course	OTHER	-1	-1.0	-1.0	[]	4	
Provost	STRING	-1	-1.0	-1.0	[]	4	
Festival	STRING	-1	-1.0	-1.0	[]	4	
Motto	OTHER	st ce,	-1.0	-1.0	[]	4	
Program	STRING	-1	-1.0	-1.0	[]	1	

