via	OTHER	, x,,,|lege,	-1.0	-1.0	[map]	22	
previousoperator	OTHER	z tra,	-1.0	-1.0	[]	4	
name	STRING	-1	-1.0	-1.0	[]	14	
service8	OTHER	e,b,/x,a,/,(a),	-1.0	-1.0	[service11, service6, service2, service3, service4]	42	
vehicles	NUMBER	]] fo,ud]],rle]],]] /,|alex,]] [[,	-1.0	-1.0	[vehicle]	9	
route11	OTHER	-1	-1.0	-1.0	[]	0	
service9	NUMBER	/,h,	5.0	957.0	[service7]	26	
image	NUMBER	r,.jpg,bx,	-1.0	-1.0	[]	5	
caption	OTHER	journ,	-1.0	-1.0	[]	2	
route9	STRING	– uni,	-1.0	-1.0	[route10, route4, route3, route2, route8, route7, route6, route5]	68	
operator	OTHER	,,	-1.0	-1.0	[]	14	

