budget	OTHER	-1	-1.0	-1.0	[]	0	
logo	STRING	-1	-1.0	-1.0	[]	2	
FA	STRING	-1	-1.0	-1.0	[DCFO, CFO, ACFO, BM]	142	
bm_label	STRING	-1	-1.0	-1.0	[]	1	
stations	NUMBER	full-,(incl,	6.0	126.0	[]	57	
image	OTHER	px|lf,px]],	-1.0	-1.0	[]	11	
web	OTHER	,cornw,.aspx,union,a,+,stati,gramp,	-1.0	-1.0	[HQ, area, CEO, CR]	218	
size	NUMBER	squar,|km,sq. k,|mi,/ km²,miles,.,km²,,,|sqmi,	-1.0	-1.0	[]	51	
start	OTHER	(comb,april,(all,}},(inc.,appro,+,(as m,(merg,in ir,,,(full,(whol,st ap,	-1.0	-1.0	[staff]	81	
name	STRING	.svg,.png,	-1.0	-1.0	[map]	114	
formed	NUMBER	-1	1948.0	1948.0	[]	1	
population	NUMBER	,milli,.,,,	-1.0	-1.0	[]	53	

