ARWU_W	OTHER	-1	-1.0	-1.0	[ARWU_N]	0	
The_Times	OTHER	-1	-1.0	-1.0	[]	1	
The_Guardian	OTHER	-1	-1.0	-1.0	[]	0	
LINE_1	NUMBER	-1	0.0	-1.0	[]	1	
Sunday_Times	OTHER	-1	-1.0	-1.0	[]	0	
THE_W	OTHER	-1	-1.0	-1.0	[QS_W, THE_N]	0	
Complete	OTHER	-1	-1.0	-1.0	[]	0	

