position	NUMBER	th,	-1.0	-1.0	[]	1	
tournament	STRING	-1	-1.0	-1.0	[]	1	
logo	STRING	-1	-1.0	-1.0	[]	1	
university	OTHER	-1	-1.0	-1.0	[]	1	
nickname	STRING	-1	-1.0	-1.0	[]	1	
location	OTHER	-1	-1.0	-1.0	[]	1	
league	NUMBER	b,	-1.0	-1.0	[]	1	
url	STRING	-1	-1.0	-1.0	[]	1	
yards	NUMBER	-1	69.0	6014.0	[par]	2	
course	NUMBER	}} na,],	-1.0	-1.0	[colours]	2	
founded	NUMBER	-1	2011.0	2011.0	[]	1	
season	NUMBER	-,	-1.0	-1.0	[]	1	
teamname	STRING	-1	-1.0	-1.0	[]	1	
logo_size	NUMBER	px,	-1.0	-1.0	[]	1	
countryflag	OTHER	-1	-1.0	-1.0	[]	2	
fullname	STRING	-1	-1.0	-1.0	[]	1	

