free_label	STRING	-1	-1.0	-1.0	[]	26	
university	OTHER	-1	-1.0	-1.0	[]	65	
website	OTHER	dorm,gym i,a,http:,.inds,.msu.,	-1.0	-1.0	[]	52	
location	OTHER	w. be,[[taf,|,.,berwy,west,	-1.0	-1.0	[]	63	
coor	NUMBER	|,.,	-1.0	-1.0	[]	15	
Profile	STRING	-1	-1.0	-1.0	[]	1	
use	OTHER	"   (,,,	-1.0	-1.0	[free]	90	
pic_caption	STRING	),	-1.0	-1.0	[]	41	
picture	STRING	.png,.jpg,	-1.0	-1.0	[]	59	
architect	OTHER	) [[e,) cal,	-1.0	-1.0	[]	46	
erected	OTHER	–,addit,march,augus,septe,(on-g,(orig,febru,(k,,,-,(cerv,	-1.0	-1.0	[]	65	
namesake	OTHER	hymna,	-1.0	-1.0	[]	30	
pic_size	NUMBER	px,x,	-1.0	-1.0	[]	6	
style	OTHER	-1	-1.0	-1.0	[]	28	
color	OTHER	f,e,b,a,	-1.0	-1.0	[]	47	
pet	STRING	-1	-1.0	-1.0	[]	1	
demolished	OTHER	([[fi,(coll,	-1.0	-1.0	[]	7	
name	STRING	-1	-1.0	-1.0	[]	65	
sculptor	OTHER	-1	-1.0	-1.0	[]	1	
campus	STRING	-1	-1.0	-1.0	[]	41	

