image	OTHER	-1	-1.0	-1.0	[]	3	
established	OTHER	s,'s,	-1.0	-1.0	[]	6	
city1	STRING	-1	-1.0	-1.0	[]	1	
city2	OTHER	-1	-1.0	-1.0	[]	0	
ferryterminals	OTHER	-1	-1.0	-1.0	[]	0	
hospitals	OTHER	-1	-1.0	-1.0	[]	0	
trainstations	OTHER	-1	-1.0	-1.0	[]	7	
caption2	OTHER	-1	-1.0	-1.0	[]	25	
airports	OTHER	-1	-1.0	-1.0	[]	0	
caption1	STRING	-1	-1.0	-1.0	[]	1	
name	STRING	-1	-1.0	-1.0	[]	25	
southwest	OTHER	-1	-1.0	-1.0	[northwest, southeast]	45	
south	OTHER	-1	-1.0	-1.0	[north]	28	
popdate	NUMBER	-1	2006.0	2006.0	[]	18	
west	OTHER	-1	-1.0	-1.0	[ward]	21	
population	NUMBER	,,	324.0	618.0	[]	18	

