profession	OTHER	-1	-1.0	-1.0	[]	136	
office3	OTHER	th [[,	-1.0	-1.0	[office1, office2]	18	
succeeded1	OTHER	-1	-1.0	-1.0	[succeeded]	1	
preceded1	OTHER	-1	-1.0	-1.0	[preceded]	2	
party	OTHER	-,	-1.0	-1.0	[parents]	50	
minister_from	STRING	-1	-1.0	-1.0	[]	1	
religion	OTHER	-1	-1.0	-1.0	[relations]	99	
rank	OTHER	px]],insig,	-1.0	-1.0	[branch]	30	
spouse	OTHER	, div,),,,; div,–pres,-,	-1.0	-1.0	[]	91	
partner	NUMBER	–pres,	-1.0	-1.0	[]	1	
signature	STRING	-1	-1.0	-1.0	[]	2	
birth_date	OTHER	march,may,septe,}},octob,|,,,novem,	-1.0	-1.0	[]	161	
data1	OTHER	-1	-1.0	-1.0	[]	2	
nickname	STRING	-1	-1.0	-1.0	[]	1	
restingplace	OTHER	-1	-1.0	-1.0	[resting_place]	2	
2namedata	OTHER	-1	-1.0	-1.0	[1namedata3, 1namedata]	7	
allegiance	OTHER	-1	-1.0	-1.0	[]	2	
date	NUMBER	-1	1988.0	1988.0	[]	1	
ambassador_from7	STRING	-1	-1.0	-1.0	[ambassador_from6]	310	
country7	STRING	-1	-1.0	-1.0	[country6, country1, country4, country5, country2, country3, country]	311	
alumnus	OTHER	-1	-1.0	-1.0	[]	1	
term_end7	NUMBER	-1	1950.0	1993.0	[term_end6]	4	
opponents	OTHER	-1	-1.0	-1.0	[]	0	
term_end5	OTHER	janua,april,june,decem,,,-,augus,march,septe,octob,?,febru,novem,	-1.0	-1.0	[term_end4]	308	
caption	STRING	.,,,	-1.0	-1.0	[]	10	
term_start5	OTHER	janua,april,june,th,,decem,,,-,augus,septe,octob,july,febru,novem,	-1.0	-1.0	[term_start3, term_start4, term_start1, term_start2, term_start]	339	
residence	OTHER	-1	-1.0	-1.0	[president7]	300	
ethnicity	OTHER	-1	-1.0	-1.0	[]	1	
term_start7	NUMBER	-1	1948.0	1990.0	[term_start6]	4	
serviceyears	NUMBER	–,&ndas,	-1.0	-1.0	[]	17	
callsign	OTHER	-1	-1.0	-1.0	[]	0	
lieutenant2	OTHER	-1	-1.0	-1.0	[]	1	
death_place	OTHER	-1	-1.0	-1.0	[birth_place]	201	
image_width	OTHER	-1	-1.0	-1.0	[]	0	
death_date	NUMBER	june,(,|,,,novem,	1978.0	2003.0	[]	52	
occupation	OTHER	-1	-1.0	-1.0	[]	5	
governor2	OTHER	-1	-1.0	-1.0	[]	1	
footnotes	OTHER	.,	-1.0	-1.0	[]	75	
alma_mater	OTHER	),	-1.0	-1.0	[]	30	
awards	OTHER	) [[n,	-1.0	-1.0	[]	6	
predecessor7	OTHER	–,	-1.0	-1.0	[predecessor6]	316	
birthname	STRING	-1	-1.0	-1.0	[birth_name]	10	
battles	OTHER	)]] [,	-1.0	-1.0	[]	8	
commands	OTHER	-1	-1.0	-1.0	[]	1	
employer	OTHER	-1	-1.0	-1.0	[]	1	
children	OTHER	&ndas,), br,(jake,; mic,-,, sar,	-1.0	-1.0	[]	29	
presented_credentials2	NUMBER	,,	-1.0	-1.0	[presented_credentials]	2	
citizenship	STRING	-1	-1.0	-1.0	[]	1	
education	OTHER	-,	-1.0	-1.0	[]	2	
blank1	STRING	-1	-1.0	-1.0	[]	2	
name	STRING	,.jose,-side,.jpg,-size,cropp,-crop,bd,-,x,	-1.0	-1.0	[image, alt]	303	
successor7	OTHER	.a,),	-1.0	-1.0	[successor, successor6, successor1, successor2, successor3, successor4, successor5]	292	
website	OTHER	-1	-1.0	-1.0	[]	3	
title3	OTHER	rd [[,th [[,	-1.0	-1.0	[title, title2]	10	
imagesize	NUMBER	px,	-1.0	-1.0	[image_size]	58	
suffix	OTHER	-1	-1.0	-1.0	[prefix]	4	
unit	OTHER	st ma,	-1.0	-1.0	[]	13	
nationality	OTHER	-1	-1.0	-1.0	[]	15	
order6	OTHER	-1	-1.0	-1.0	[]	0	
term	OTHER	-1	-1.0	-1.0	[]	0	
2blankname	OTHER	-1	-1.0	-1.0	[1blankname3]	7	
order5	NUMBER	nd,st [[,th]],st,th [[,rd,th,	-1.0	-1.0	[order1, order4, order3, order2]	145	

