jabber	OTHER	-1	-1.0	-1.0	[]	1	
reading	OTHER	-1	-1.0	-1.0	[]	1	
joined_date	OTHER	-1	-1.0	-1.0	[]	1	
location	OTHER	-1	-1.0	-1.0	[education]	2	
first_edit	OTHER	-1	-1.0	-1.0	[]	1	
college	OTHER	-1	-1.0	-1.0	[]	1	
blood_type	OTHER	-1	-1.0	-1.0	[]	1	
fontcolor	OTHER	-1	-1.0	-1.0	[]	0	
race	OTHER	wikiu,	-1.0	-1.0	[image, aim, mac, icq, name, hair, irc]	10	
religion	OTHER	-1	-1.0	-1.0	[]	1	
politics	OTHER	-1	-1.0	-1.0	[]	1	
twitter	OTHER	-1	-1.0	-1.0	[]	1	
timezone	OTHER	-1	-1.0	-1.0	[]	1	
spouse	OTHER	-1	-1.0	-1.0	[]	1	
image_width	NUMBER	px,	-1.0	-1.0	[]	1	
facebook	OTHER	-1	-1.0	-1.0	[]	1	
pets	OTHER	-1	-1.0	-1.0	[eyes]	2	
permissions	OTHER	-1	-1.0	-1.0	[]	1	
youtube	OTHER	-1	-1.0	-1.0	[]	1	
gender	OTHER	-1	-1.0	-1.0	[]	1	
signature	OTHER	-1	-1.0	-1.0	[]	1	
edit_count	OTHER	-1	-1.0	-1.0	[]	1	
pinterest	OTHER	-1	-1.0	-1.0	[interests]	2	
books	OTHER	-1	-1.0	-1.0	[blog]	2	
occupation	OTHER	-1	-1.0	-1.0	[]	1	
msn	OTHER	-1	-1.0	-1.0	[iq]	2	
status	OTHER	-1	-1.0	-1.0	[]	2	
userboxes	OTHER	-1	-1.0	-1.0	[]	1	
subpages	OTHER	-1	-1.0	-1.0	[]	1	
image_caption	OTHER	-1	-1.0	-1.0	[]	1	
country	OTHER	-1	-1.0	-1.0	[]	1	
flickr	OTHER	-1	-1.0	-1.0	[]	1	
email	OTHER	-1	-1.0	-1.0	[]	1	
birthplace	OTHER	-1	-1.0	-1.0	[birthname, birthdate]	3	
real_name	OTHER	-1	-1.0	-1.0	[]	1	
highschool	OTHER	-1	-1.0	-1.0	[]	1	
weight	OTHER	-1	-1.0	-1.0	[height]	2	
gtalk	OTHER	-1	-1.0	-1.0	[]	1	
movies	OTHER	.com/,	-1.0	-1.0	[hobbies]	3	
employer	OTHER	-1	-1.0	-1.0	[]	1	
children	OTHER	-1	-1.0	-1.0	[]	1	
pictures	NUMBER	-1	50.0	50.0	[]	1	
aliases	OTHER	-1	-1.0	-1.0	[]	1	
sexuality	OTHER	-1	-1.0	-1.0	[]	1	
yahoo	OTHER	-1	-1.0	-1.0	[]	1	
personality_type	OTHER	-1	-1.0	-1.0	[]	1	
university	OTHER	-1	-1.0	-1.0	[]	1	
website	OTHER	-1	-1.0	-1.0	[]	1	
girlfriend	OTHER	-1	-1.0	-1.0	[]	1	
pages	NUMBER	-1	800.0	800.0	[]	1	
current_time	OTHER	-1	-1.0	-1.0	[]	1	
caption	STRING	-1	-1.0	-1.0	[]	1	
siblings	OTHER	-1	-1.0	-1.0	[]	1	
nationality	OTHER	-1	-1.0	-1.0	[]	1	
boyfriend	OTHER	-1	-1.0	-1.0	[]	1	
color	STRING	-1	-1.0	-1.0	[]	1	
tablecolor	OTHER	-1	-1.0	-1.0	[]	0	
ethnicity	OTHER	-1	-1.0	-1.0	[]	1	
skype	OTHER	-1	-1.0	-1.0	[]	1	

