Wins	NUMBER	-1	0.0	-1.0	[]	1	
position	NUMBER	th (,	-1.0	-1.0	[]	1	
Caption	OTHER	-1	-1.0	-1.0	[]	0	
number	NUMBER	-1	99.0	99.0	[]	1	
Team	STRING	-1	-1.0	-1.0	[Name]	2	
Nationality	OTHER	-1	-1.0	-1.0	[]	1	
Podiums	NUMBER	-1	3.0	3.0	[]	1	
Image	NUMBER	.jpg|,	-1.0	-1.0	[]	1	
Championships	NUMBER	-1	0.0	-1.0	[]	1	
year	NUMBER	-1	2012.0	2012.0	[]	1	
Races	NUMBER	-1	1.0	19.0	[Poles]	2	

