title	OTHER	-1	-1.0	-1.0	[]	1	
kingdom	OTHER	-1	-1.0	-1.0	[]	1	
color	NUMBER	bf,	-1.0	-1.0	[]	1	
monarch	OTHER	-1	-1.0	-1.0	[]	1	
name	STRING	-1	-1.0	-1.0	[image]	2	
gender	STRING	-1	-1.0	-1.0	[]	1	
imagewidth	NUMBER	-1	197.0	197.0	[]	1	
caption	OTHER	-1	-1.0	-1.0	[]	0	

