winners	OTHER	-1	-1.0	-1.0	[]	16	
matches	NUMBER	-1	7.0	11.0	[]	16	
count	NUMBER	nd,st,rd,th,	-1.0	-1.0	[]	16	
attendance	NUMBER	-1	76200.0	187200.0	[]	16	
image	OTHER	-1	-1.0	-1.0	[]	0	
imagesize	NUMBER	px,	-1.0	-1.0	[]	16	
year	NUMBER	-1	8.0	1971.0	[teams]	32	
caption	OTHER	-1	-1.0	-1.0	[]	16	
up	OTHER	-1	-1.0	-1.0	[]	16	

