assistive_listening	OTHER	-1	-1.0	-1.0	[]	0	
acceleration	OTHER	-1	-1.0	-1.0	[]	0	
replacement3	OTHER	-1	-1.0	-1.0	[replacement2]	1	
cost3	OTHER	-1	-1.0	-1.0	[cost2, closed3]	4	
acceleration_from	OTHER	-1	-1.0	-1.0	[]	0	
type	STRING	-1	-1.0	-1.0	[name]	26	
course	STRING	-1	-1.0	-1.0	[]	3	
location3	STRING	-1	-1.0	-1.0	[location, location2]	25	
restriction_ft	OTHER	-1	-1.0	-1.0	[]	0	
acceleration_mph	OTHER	-1	-1.0	-1.0	[acceleration_in]	0	
image_width	NUMBER	px,	-1.0	-1.0	[]	2	
single_rider	STRING	-1	-1.0	-1.0	[]	4	
opened	OTHER	april,}},|,,,	-1.0	-1.0	[]	14	
logo_width	NUMBER	px,	-1.0	-1.0	[]	3	
drop_m	NUMBER	-1	20.0	115.0	[drop_ft]	9	
height_m	NUMBER	-1	20.0	121.0	[height_ft]	8	
rows_per_boat	NUMBER	-1	4.0	6.0	[]	6	
image	STRING	(busc,	-1.0	-1.0	[]	9	
section3	OTHER	_safa,	-1.0	-1.0	[section2, section]	15	
riders_per_row	NUMBER	-1	1.0	4.0	[]	5	
restraint_type	STRING	-1	-1.0	-1.0	[]	3	
cost	NUMBER	.,,,	-1.0	-1.0	[closed]	6	
footnotes	OTHER	-1	-1.0	-1.0	[]	2	
opened3	NUMBER	-1	1983.0	1995.0	[opened2]	4	
length_m	OTHER	,,	-1.0	-1.0	[length_ft]	10	
status3	STRING	-1	-1.0	-1.0	[status, status2]	18	
manufacturer	STRING	-1	-1.0	-1.0	[]	13	
gforce	OTHER	-1	-1.0	-1.0	[]	0	
lift	OTHER	[[con,uphil,	-1.0	-1.0	[]	6	
custom_value_4	OTHER	boats,	-1.0	-1.0	[custom_value_1, custom_value_3]	3	
model	OTHER	-1	-1.0	-1.0	[]	7	
soft_opened3	OTHER	-1	-1.0	-1.0	[soft_opened2]	0	
custom_value_2	NUMBER	boats,	-1.0	-1.0	[]	1	
transfer_accessible	STRING	-1	-1.0	-1.0	[]	3	
restriction_in	NUMBER	-1	42.0	120.0	[restriction_cm]	10	
accessible	OTHER	-1	-1.0	-1.0	[]	0	
capacity	NUMBER	,,	720.0	3000.0	[]	8	
previousattraction3	OTHER	-1	-1.0	-1.0	[previousattraction2, previousattraction]	0	
custom_label_4	OTHER	-1	-1.0	-1.0	[custom_label_3]	0	
coordinates	NUMBER	|,.,	-1.0	-1.0	[]	4	
custom_label_2	STRING	-1	-1.0	-1.0	[custom_label_1]	4	
virtual_queue_status	STRING	-1	-1.0	-1.0	[]	4	
logo	STRING	-1	-1.0	-1.0	[]	5	
designer	OTHER	-1	-1.0	-1.0	[]	3	
virtual_queue_name	OTHER	-1	-1.0	-1.0	[]	3	
locationarticle	STRING	-1	-1.0	-1.0	[]	3	
previous_names	OTHER	-1	-1.0	-1.0	[]	0	
angle	NUMBER	-1	45.0	77.8	[]	3	
h	OTHER	-1	-1.0	-1.0	[]	0	
virtual_queue_image	STRING	-1	-1.0	-1.0	[]	3	
duration	NUMBER	minut,:,	-1.0	-1.0	[]	12	
imagedimensions	NUMBER	px,	-1.0	-1.0	[]	2	
speed_mph	NUMBER	-1	24.5	53.0	[]	5	
locationarticle3	OTHER	-1	-1.0	-1.0	[locationarticle2]	0	

