ParalympicsDoublesresult	NUMBER	th (,px|al,px]],-,	-1.0	-1.0	[]	16	
OthertournamentsDoubles	STRING	-1	-1.0	-1.0	[]	14	
Paralympicsresult	NUMBER	r (,px|al,px]],(,,,-,	-1.0	-1.0	[]	16	
WheelchairTennisMastersDoublesresult	NUMBER	–,),,,	-1.0	-1.0	[]	14	
retired	NUMBER	-1	2004.0	2011.0	[]	2	
turnedpro	NUMBER	-1	1988.0	2005.0	[]	8	
careerprizemoney	OTHER	-1	-1.0	-1.0	[]	0	
plays	STRING	-1	-1.0	-1.0	[]	17	
Othertournaments	STRING	-1	-1.0	-1.0	[]	15	
currentsinglesranking	OTHER	(,	-1.0	-1.0	[]	12	
AustralianOpenresult	NUMBER	–,),,,-,	-1.0	-1.0	[]	11	
WheelchairTennisMastersresult	NUMBER	–,),,),,,	-1.0	-1.0	[]	13	
AustralianOpenDoublesresult	NUMBER	),austr,,,	-1.0	-1.0	[]	14	
grandslamsdoublesresults	NUMBER	-1	7.0	7.0	[]	1	
currentdoublesranking	OTHER	(,	-1.0	-1.0	[]	12	
death_place	STRING	-1	-1.0	-1.0	[]	1	
FrenchOpenresult	NUMBER	–,),,,	-1.0	-1.0	[]	9	
tennishofyear	NUMBER	-1	2012.0	2012.0	[]	1	
updated	OTHER	janua,octob,decem,augst,	-1.0	-1.0	[]	12	
name	STRING	-1	-1.0	-1.0	[Team]	21	
USOpenresult	NUMBER	–,),,,	-1.0	-1.0	[]	10	
tennishofid	STRING	-1	-1.0	-1.0	[]	1	
medaltemplates	OTHER	-1	-1.0	-1.0	[]	14	
singlesrecord	NUMBER	–,-,	-1.0	-1.0	[]	10	
fullname	STRING	-1	-1.0	-1.0	[]	6	
singlestitles	NUMBER	-1	23.0	50.0	[]	2	
highestsinglesranking	NUMBER	''' (,(,	-1.0	-1.0	[]	19	
death_date	NUMBER	|,	-1.0	-1.0	[birth_date]	21	
WimbledonDoublesresult	NUMBER	–,, [[,),,,	-1.0	-1.0	[]	12	
website	OTHER	-1	-1.0	-1.0	[]	9	
nickname	STRING	-1	-1.0	-1.0	[]	2	
image	OTHER	.jpg,us op,- dan,	-1.0	-1.0	[]	11	
doublestitles	NUMBER	-1	39.0	81.0	[]	4	
WheelchairWorldTeamCupresult	NUMBER	.svg|,,,	-1.0	-1.0	[]	6	
caption	NUMBER	us op,austr,	-1.0	-1.0	[]	9	
doublesrecord	NUMBER	–,-,	-1.0	-1.0	[]	11	
birth_place	OTHER	-1	-1.0	-1.0	[]	17	
country	OTHER	}},	-1.0	-1.0	[]	20	
residence	OTHER	-1	-1.0	-1.0	[]	13	
FrenchOpenDoublesresult	NUMBER	–,),,,	-1.0	-1.0	[]	12	
USOpenDoublesresult	NUMBER	–,us op,),,,	-1.0	-1.0	[]	14	
highestdoublesranking	NUMBER	''' (,(,	-1.0	-1.0	[]	19	

