map_image	OTHER	-1	-1.0	-1.0	[]	0	
pumped	OTHER	pumps,.,	-1.0	-1.0	[]	7	
locale	OTHER	-1	-1.0	-1.0	[]	9	
road_access	OTHER	road|,	-1.0	-1.0	[]	3	
surf_wave	STRING	-1	-1.0	-1.0	[]	6	
heated	OTHER	-1	-1.0	-1.0	[]	1	
practice_pool	STRING	-1	-1.0	-1.0	[]	6	
grandstands	OTHER	-1	-1.0	-1.0	[]	1	
adjustable	OTHER	-1	-1.0	-1.0	[]	3	
loops	OTHER	½,	-1.0	-1.0	[long]	11	
open	OTHER	march,decem,-,	-1.0	-1.0	[]	8	
image_size	NUMBER	-1	200.0	250.0	[]	9	
alt	STRING	-1	-1.0	-1.0	[]	2	
main_slope	NUMBER	ft/mi,.,|m|ft,	-1.0	-1.0	[main_drop]	16	
canoe_lift	STRING	-1	-1.0	-1.0	[]	7	
closed	OTHER	-,	-1.0	-1.0	[class]	3	
water_source	OTHER	-1	-1.0	-1.0	[]	7	
coordinates	OTHER	|,.,	-1.0	-1.0	[]	4	
facilities	OTHER	-1	-1.0	-1.0	[]	2	
official_name	OTHER	-1	-1.0	-1.0	[]	1	
linear	OTHER	-1	-1.0	-1.0	[]	1	
flowrate	NUMBER	|m,m,	-1.0	-1.0	[]	9	
main_shape	STRING	-1	-1.0	-1.0	[]	9	
website	OTHER	/lee-,	-1.0	-1.0	[]	9	
designer	OTHER	-1	-1.0	-1.0	[]	1	
flow_diversion	OTHER	-1	-1.0	-1.0	[]	4	
image	STRING	-1	-1.0	-1.0	[]	9	
caption	OTHER	),	-1.0	-1.0	[]	2	
whitewater_course_name	STRING	-1	-1.0	-1.0	[]	7	
main_length	NUMBER	|m|ft,	-1.0	-1.0	[]	9	
tidal	OTHER	-1	-1.0	-1.0	[]	1	
water_quality	OTHER	-1	-1.0	-1.0	[]	2	
construction_dates	OTHER	-,	-1.0	-1.0	[]	6	
native_name_lang	OTHER	-1	-1.0	-1.0	[]	2	
maint	OTHER	-1	-1.0	-1.0	[]	2	
white_water_course_name	OTHER	-1	-1.0	-1.0	[]	1	
managing_agent	OTHER	-1	-1.0	-1.0	[]	8	
lighting	STRING	-1	-1.0	-1.0	[]	5	
main_width	OTHER	|m|ft,	-1.0	-1.0	[]	2	
other_name	OTHER	-1	-1.0	-1.0	[]	2	
native_name	OTHER	-1	-1.0	-1.0	[]	3	
map_cue	OTHER	-1	-1.0	-1.0	[]	1	
upgraded	OTHER	-1	-1.0	-1.0	[]	2	

