parent_clan	STRING	-1	-1.0	-1.0	[]	5	
disciplines	SET_OF_STRINGS	|,	-1.0	-1.0	[]	5	
nickname	OTHER	-1	-1.0	-1.0	[]	5	
status	STRING	-1	-1.0	-1.0	[]	2	
name	STRING	-1	-1.0	-1.0	[]	5	
sect	STRING	-1	-1.0	-1.0	[]	5	
image	OTHER	.png,	-1.0	-1.0	[]	3	
imagesize	NUMBER	px,	-1.0	-1.0	[]	3	
weaknesses	STRING	-1	-1.0	-1.0	[]	5	
caption	STRING	-1	-1.0	-1.0	[]	2	
bloodlines	OTHER	-1	-1.0	-1.0	[]	3	
founder	STRING	-1	-1.0	-1.0	[]	5	

