Time	DATE	-1	-1.0	-1.0	[]	1	
status	STRING	-1	-1.0	-1.0	[]	1	
website	OTHER	-1	-1.0	-1.0	[]	1	
acronyms	STRING	-1	-1.0	-1.0	[]	1	
image	OTHER	-1	-1.0	-1.0	[]	1	
caption	STRING	-1	-1.0	-1.0	[]	1	
by	OTHER	-1	-1.0	-1.0	[]	1	
type	STRING	-1	-1.0	-1.0	[name]	2	
groups	NUMBER	-,	-1.0	-1.0	[]	1	
size	NUMBER	px,	-1.0	-1.0	[]	1	

