Caption	OTHER	-1	-1.0	-1.0	[]	0	
Third_Team_Race2	OTHER	-1	-1.0	-1.0	[Third_Team_Race1]	2	
FL2_Team	OTHER	-1	-1.0	-1.0	[FL1_Team]	3	
First_Race2	OTHER	-1	-1.0	-1.0	[First_Race1]	2	
Course_km	NUMBER	-1	3.695	3.695	[]	1	
Third_Race2	OTHER	-1	-1.0	-1.0	[Third_Race1]	2	
Pole_Driver	OTHER	-1	-1.0	-1.0	[]	1	
Year	NUMBER	-1	2011.0	2011.0	[]	1	
Season_No	NUMBER	-1	12.0	12.0	[]	1	
Course_name	OTHER	-1	-1.0	-1.0	[]	1	
Date	DATE	-1	-1.0	-1.0	[]	1	
Image	NUMBER	px]],	-1.0	-1.0	[]	1	
Second_Team_Race2	OTHER	-1	-1.0	-1.0	[Second_Team_Race1]	2	
First_Team_Race2	OTHER	-1	-1.0	-1.0	[First_Team_Race1]	2	
FL2_Driver	OTHER	-1	-1.0	-1.0	[FL1_Driver]	2	
Weather	OTHER	-1	-1.0	-1.0	[]	0	
DistanceR2_km	OTHER	-1	-1.0	-1.0	[DistanceR1_km]	0	
DistanceR2_laps	NUMBER	-1	14.0	14.0	[DistanceR1_laps]	2	
Pole_Team	OTHER	-1	-1.0	-1.0	[]	1	
FL2_Time	NUMBER	:,	-1.0	-1.0	[FL1_Time]	2	
Location	OTHER	-1	-1.0	-1.0	[]	1	
Country	STRING	-1	-1.0	-1.0	[]	1	
Pole_Time	NUMBER	:,	-1.0	-1.0	[]	1	
Race_name	STRING	-1	-1.0	-1.0	[]	1	
Second_Race2	OTHER	-1	-1.0	-1.0	[Second_Race1]	2	
Round_No	NUMBER	-1	1.0	1.0	[]	1	

