total	NUMBER	or,	3.0	133.0	[]	40	
last	NUMBER	janua,octob,decem,febru,novem,	-1.0	-1.0	[first]	87	
failed	NUMBER	or,	1.0	23.0	[]	27	
retired	NUMBER	u]],d cen,a age,agena,delta,a,d]],i]] [,]],|delt,m]],h]],b]] [,f atl,]] {{,)b]],e]] [,b]],]] [[,g+ [[,|aria,	-1.0	-1.0	[]	44	
firstlaunch	OTHER	}},	-1.0	-1.0	[]	9	
image	OTHER	,e,june,.jpg,roars,(apr.,launc,drago,fd,ec-,g lau,-laun,retur,-,after,lande,e cen,).jpg,landi,sovie,docki,on b,, xic,-land,	-1.0	-1.0	[]	50	
caption	NUMBER	]] be,|slc-,]],march,p|fli,]] fr,, bec,july,]] fl,]] ro,}} [[,}} wi,]] ab,g]],}} la,]], t,.,|x-,]] on,]] wa,]] mi,b]],,]] sp,}} on,]] ma,	-1.0	-1.0	[]	50	
partial	NUMBER	-1	0.0	7.0	[]	23	
retirements	OTHER	[[mol,	-1.0	-1.0	[]	2	
EVAs	OTHER	-1	-1.0	-1.0	[]	3	
catalogued	NUMBER	-1	2.0	128.0	[]	37	
maidens	NUMBER	u]],d cen,a age,}},c cen,f]] [,agena,[[pro,able-,a,delta,[[lon,s]],d]],]],,,[[del,d atl,]] --,]] [[,h]] [,atlas,|aria,	-1.0	-1.0	[]	48	
firstflight	OTHER	) {{f,}},	-1.0	-1.0	[]	8	
firsttrav	OTHER	}},}} {{,	-1.0	-1.0	[firstsat]	53	
imsize	NUMBER	-1	180.0	180.0	[]	1	
totalcrew	NUMBER	-1	3.0	63.0	[]	46	
success	NUMBER	-1	1.0	118.0	[]	27	
suborbital	NUMBER	-1	1.0	11.0	[orbital]	49	

